<?xml version="1.0"?>
<VTKFile type="PolyData" version="0.1" byte_order="LittleEndian">
  <PolyData>
    <Piece NumberOfPoints="     19" NumberOfVerts="  0" NumberOfLines="     18"
           NumberOfStrips="  0" NumberOfPolys="      0">
      <Points>
        <DataArray type="Float32" NumberOfComponents="3" format="ascii">
                      -4.70327                      -1.49322                      90.27796
                      -4.74292                      -2.84110                      90.50086
                      -4.84973                      -5.55145                      90.85404
                      -4.96605                      -8.26906                      91.16183
                      -5.11095                     -11.67108                      91.51704
                      -5.20180                     -15.73390                      92.07321
                      -5.23188                     -19.77849                      92.74764
                      -5.23139                     -23.82424                      93.41661
                      -5.18989                     -27.87057                      94.08115
                      -5.10029                     -31.91718                      94.73904
                      -4.95646                     -35.96385                      95.38648
                      -4.75046                     -40.00932                      96.02468
                      -4.47709                     -44.05240                      96.65359
                      -4.13282                     -48.09173                      97.27322
                      -3.71375                     -52.12560                      97.88333
                      -3.30611                     -55.48154                      98.38438
                      -2.94440                     -58.16070                      98.78850
                      -2.54879                     -60.82710                      99.24289
                      -2.34455                     -62.16462                      99.42759
        </DataArray>
      </Points>
      <PointData>
        <DataArray type="Float32" Name="TranslationalVelocity" NumberOfComponents="3" format="ascii">
                      -0.28487                      -0.22610                      -1.29968
                      -0.39515                      -0.41660                      -2.47104
                      -0.61641                      -0.71487                      -4.82645
                      -0.83780                      -0.97295                      -7.18808
                      -1.11425                      -1.27000                     -10.14419
                      -1.44363                      -1.74610                     -13.67372
                      -1.77018                      -2.32980                     -17.18652
                      -2.09447                      -2.91111                     -20.69943
                      -2.41585                      -3.49167                     -24.21182
                      -2.73362                      -4.07002                     -27.72338
                      -3.04709                      -4.64323                     -31.23389
                      -3.35557                      -5.21281                     -34.74229
                      -3.65843                      -5.77895                     -38.24761
                      -3.95513                      -6.34176                     -41.74882
                      -4.24525                      -6.90104                     -45.24460
                      -4.48166                      -7.36420                     -48.15253
                      -4.66736                      -7.73955                     -50.47394
                      -4.84975                      -8.16026                     -52.78430
                      -4.94004                      -8.33395                     -53.94330
        </DataArray>
        <DataArray type="Float32" Name="RotationalVelocity" NumberOfComponents="3" format="ascii">
                       0.86894                      -0.00308                      -0.08130
                       0.86893                      -0.00308                      -0.08128
                       0.86889                      -0.00307                      -0.08120
                       0.86884                      -0.00308                      -0.08107
                       0.86874                      -0.00309                      -0.08084
                       0.86859                      -0.00314                      -0.08047
                       0.86842                      -0.00322                      -0.07997
                       0.86822                      -0.00335                      -0.07933
                       0.86802                      -0.00353                      -0.07853
                       0.86782                      -0.00375                      -0.07756
                       0.86765                      -0.00401                      -0.07642
                       0.86750                      -0.00428                      -0.07510
                       0.86739                      -0.00454                      -0.07365
                       0.86732                      -0.00477                      -0.07211
                       0.86729                      -0.00492                      -0.07054
                       0.86729                      -0.00495                      -0.06929
                       0.86731                      -0.00489                      -0.06837
                       0.86735                      -0.00473                      -0.06758
                       0.86736                      -0.00460                      -0.06725
        </DataArray>
        <DataArray type="Float32" Name="TranslationalAcceleration" NumberOfComponents="3" format="ascii">
                      -0.29234                       1.14114                      -0.37990
                      -0.10988                       1.34537                      -0.41017
                      -0.27467                       3.86222                      -1.10342
                      -0.38304                       6.18670                      -1.69372
                      -0.46705                       8.90552                      -2.34890
                      -0.53567                      11.95760                      -3.17763
                      -0.59574                      14.89354                      -4.07177
                      -0.65641                      17.81868                      -4.96184
                      -0.72912                      20.77206                      -5.86176
                      -0.81904                      23.76582                      -6.77373
                      -0.92704                      26.79263                      -7.69223
                      -1.05207                      29.83222                      -8.61152
                      -1.19255                      32.86074                      -9.52331
                      -1.34832                      35.85830                     -10.42036
                      -1.52258                      38.81637                     -11.29886
                      -1.68835                      41.25781                     -12.01753
                      -1.84006                      43.20638                     -12.59434
                      -2.01961                      45.15937                     -13.21379
                      -2.11744                      46.15808                     -13.49644
        </DataArray>
        <DataArray type="Float32" Name="OrientationX" NumberOfComponents="3" format="ascii">
                       0.94747                      -0.07926                      -0.30986
                       0.94748                      -0.07879                      -0.30994
                       0.94752                      -0.07730                      -0.31021
                       0.94757                      -0.07511                      -0.31061
                       0.94762                      -0.07150                      -0.31130
                       0.95735                      -0.06115                      -0.28238
                       0.96375                      -0.05061                      -0.26196
                       0.96888                      -0.03888                      -0.24447
                       0.97380                      -0.02514                      -0.22602
                       0.97828                      -0.00936                      -0.20706
                       0.98189                       0.00822                      -0.18925
                       0.98479                       0.02763                      -0.17154
                       0.98665                       0.04824                      -0.15556
                       0.98721                       0.06904                      -0.14372
                       0.98721                       0.08973                      -0.13178
                       0.98691                       0.10603                      -0.12150
                       0.98653                       0.11763                      -0.11366
                       0.98587                       0.12676                      -0.10953
                       0.98542                       0.13008                      -0.10963
        </DataArray>
        <DataArray type="Float32" Name="OrientationY" NumberOfComponents="3" format="ascii">
                       0.31858                       0.14825                       0.93623
                       0.31859                       0.14816                       0.93624
                       0.31860                       0.14796                       0.93627
                       0.31863                       0.14778                       0.93629
                       0.31871                       0.14763                       0.93628
                       0.28851                       0.14969                       0.94570
                       0.26667                       0.15104                       0.95188
                       0.24754                       0.15218                       0.95685
                       0.22718                       0.15329                       0.96171
                       0.20600                       0.15423                       0.96632
                       0.18572                       0.15487                       0.97032
                       0.16531                       0.15511                       0.97397
                       0.14646                       0.15488                       0.97702
                       0.13176                       0.15436                       0.97919
                       0.11704                       0.15336                       0.98121
                       0.10464                       0.15215                       0.98280
                       0.09535                       0.15104                       0.98392
                       0.09005                       0.15031                       0.98453
                       0.08971                       0.15025                       0.98457
        </DataArray>
        <DataArray type="Float32" Name="OrientationZ" NumberOfComponents="3" format="ascii">
                      -0.02827                      -0.98577                       0.16572
                      -0.02785                      -0.98582                       0.16548
                      -0.02647                      -0.98597                       0.16482
                      -0.02442                      -0.98616                       0.16396
                      -0.02099                      -0.98645                       0.16269
                      -0.01556                      -0.98684                       0.16095
                      -0.00861                      -0.98723                       0.15906
                       0.00001                      -0.98759                       0.15706
                       0.01047                      -0.98786                       0.15498
                       0.02289                      -0.98799                       0.15281
                       0.03729                      -0.98790                       0.15054
                       0.05352                      -0.98751                       0.14818
                       0.07123                      -0.98675                       0.14574
                       0.08979                      -0.98560                       0.14329
                       0.10825                      -0.98409                       0.14090
                       0.12269                      -0.98265                       0.13907
                       0.13290                      -0.98150                       0.13779
                       0.14126                      -0.98048                       0.13677
                       0.14454                      -0.98005                       0.13639
        </DataArray>
        <DataArray type="Float32" Name="Force" NumberOfComponents="3" format="ascii">
                       0.59541                       1.05257                       6.36278
                     170.18841                       1.02818                      34.70443
                     201.96918                       7.65520                      77.79468
                     169.77866                      11.75654                      95.02726
                    1254.00724                    -116.11929                    -535.89757
                    1345.82409                    -110.99154                    -540.63319
                    1724.66400                    -131.99084                    -708.36464
                    1883.01572                    -124.12408                    -757.19624
                    2197.90360                    -119.55090                    -878.25289
                    2554.38045                     -95.36409                    -959.61863
                    2977.12085                     -63.23063                   -1101.98792
                    3383.45126                      -2.51786                   -1181.32056
                    4228.31321                      92.92124                   -1368.43272
                    4549.23604                     197.45251                   -1418.66226
                    4789.53055                     310.08440                   -1437.91807
                    4910.39396                     400.77671                   -1424.82069
                    4784.27916                     450.72018                   -1334.29236
                    3462.47780                     364.78402                    -914.91852
                    1216.52908                     162.50738                    -122.88333
        </DataArray>
        <DataArray type="Float32" Name="Moment" NumberOfComponents="3" format="ascii">
                       0.00000                       0.00000                       0.00000
                       0.00000                       0.00000                       0.00000
                       0.00000                       0.00000                       0.00000
                       0.00000                       0.00000                       0.00000
                      11.72751                     556.81991                     -93.21026
                      10.44162                     676.40380                    -112.87230
                       5.76621                     697.37183                    -115.90346
                      -0.45407                     780.74300                    -129.11320
                      -8.57739                     759.92979                    -124.90999
                     -19.19081                     800.59972                    -130.64471
                     -30.53432                     789.91372                    -127.81547
                     -47.78016                     865.42329                    -138.69296
                     -77.95549                    1063.59674                    -168.65242
                     -96.91277                    1050.00165                    -164.62947
                    -112.68152                    1012.59071                    -156.96512
                    -121.34026                     961.54908                    -147.71122
                    -117.24069                     857.17875                    -130.82921
                     -63.29705                     435.12532                     -66.05819
                     -57.34563                     385.16605                     -58.35051
        </DataArray>
      </PointData>
      <Lines>
        <DataArray type="Int32" Name="connectivity" format="ascii">
      0      1
      1      2
      2      3
      3      4
      4      5
      5      6
      6      7
      7      8
      8      9
      9     10
     10     11
     11     12
     12     13
     13     14
     14     15
     15     16
     16     17
     17     18
        </DataArray>
        <DataArray type="Int32" Name="offsets" format="ascii">
      2
      4
      6
      8
     10
     12
     14
     16
     18
     20
     22
     24
     26
     28
     30
     32
     34
     36
        </DataArray>
      </Lines>
    </Piece>
  </PolyData>
</VTKFile>
