<?xml version="1.0"?>
<VTKFile type="PolyData" version="0.1" byte_order="LittleEndian">
  <PolyData>
    <Piece NumberOfPoints="     19" NumberOfVerts="  0" NumberOfLines="     18"
           NumberOfStrips="  0" NumberOfPolys="      0">
      <Points>
        <DataArray type="Float32" NumberOfComponents="3" format="ascii">
                      -5.03853                       0.31940                      88.56214
                      -5.21819                       0.61604                      87.23983
                      -5.59663                       1.30139                      84.61793
                      -5.98222                       2.03011                      82.00610
                      -6.46495                       2.96644                      78.74631
                      -6.98539                       3.94969                      74.79512
                      -7.47309                       4.80495                      70.81100
                      -7.95206                       5.65651                      66.82460
                      -8.42166                       6.50276                      62.83545
                      -8.88578                       7.34565                      58.84442
                      -9.35037                       8.18869                      54.85299
                      -9.82084                       9.03021                      50.86155
                     -10.30547                       9.86963                      46.87121
                     -10.81426                      10.70600                      42.88341
                     -11.35644                      11.53824                      38.89967
                     -11.84386                      12.22720                      35.58454
                     -12.26099                      12.76695                      32.93469
                     -12.70081                      13.24940                      30.27667
                     -12.94020                      13.52874                      28.95929
        </DataArray>
      </Points>
      <PointData>
        <DataArray type="Float32" Name="TranslationalVelocity" NumberOfComponents="3" format="ascii">
                       0.08102                       4.08036                       0.89670
                       0.15473                       7.80049                       1.72124
                       0.32359                      15.17876                       3.62552
                       0.50039                      22.52555                       5.64902
                       0.72216                      31.68685                       8.24697
                       0.94299                      42.76212                      10.97247
                       1.11852                      53.90565                      13.34148
                       1.27751                      65.03861                      15.69905
                       1.41798                      76.16307                      18.04117
                       1.53946                      87.27893                      20.37370
                       1.64270                      98.38516                      22.70675
                       1.72813                     109.48376                      25.03607
                       1.79762                     120.57540                      27.36046
                       1.85423                     131.66006                      29.67757
                       1.90243                     142.73695                      31.98456
                       1.94039                     151.96046                      33.89541
                       1.97056                     159.33786                      35.39318
                       1.99134                     166.74132                      36.73374
                       2.01441                     170.41510                      37.50900
        </DataArray>
        <DataArray type="Float32" Name="RotationalVelocity" NumberOfComponents="3" format="ascii">
                       2.77987                       0.00038                      -0.25110
                       2.77926                       0.00061                      -0.25096
                       2.77766                       0.00136                      -0.25058
                       2.77565                       0.00245                      -0.25006
                       2.77283                       0.00426                      -0.24924
                       2.76924                       0.00701                      -0.24803
                       2.76572                       0.01031                      -0.24665
                       2.76244                       0.01405                      -0.24516
                       2.75948                       0.01811                      -0.24368
                       2.75686                       0.02235                      -0.24233
                       2.75458                       0.02660                      -0.24121
                       2.75257                       0.03066                      -0.24046
                       2.75080                       0.03426                      -0.24020
                       2.74924                       0.03710                      -0.24057
                       2.74788                       0.03881                      -0.24169
                       2.74694                       0.03910                      -0.24324
                       2.74637                       0.03833                      -0.24496
                       2.74603                       0.03649                      -0.24713
                       2.74597                       0.03512                      -0.24839
        </DataArray>
        <DataArray type="Float32" Name="TranslationalAcceleration" NumberOfComponents="3" format="ascii">
                       1.02698                      -2.50915                      11.37829
                       1.23188                      -3.05875                      13.73162
                       3.50980                      -9.46637                      39.10863
                       5.58734                     -15.74418                      62.32026
                       7.98301                     -23.33939                      89.30450
                      10.68671                     -30.94930                     120.12757
                      13.30619                     -37.36068                     150.27853
                      15.91086                     -43.70039                     180.26449
                      18.57171                     -50.04366                     210.47131
                      21.34536                     -56.43586                     241.01912
                      24.27841                     -62.89220                     271.83778
                      27.41259                     -69.36156                     302.75246
                      30.78794                     -75.79099                     333.54596
                      34.44722                     -82.12982                     364.03527
                      38.44037                     -88.34727                     394.14671
                      42.07476                     -93.43229                     419.01869
                      45.20390                     -97.39602                     438.90953
                      48.57991                    -100.94062                     459.05659
                      50.35100                    -103.02620                     469.19437
        </DataArray>
        <DataArray type="Float32" Name="OrientationX" NumberOfComponents="3" format="ascii">
                       0.96900                       0.23394                      -0.07951
                       0.96902                       0.23391                      -0.07927
                       0.96907                       0.23397                      -0.07849
                       0.96911                       0.23418                      -0.07733
                       0.96914                       0.23470                      -0.07540
                       0.97536                       0.20559                      -0.07999
                       0.97914                       0.18597                      -0.08190
                       0.98183                       0.17076                      -0.08282
                       0.98407                       0.15669                      -0.08396
                       0.98575                       0.14484                      -0.08551
                       0.98666                       0.13737                      -0.08740
                       0.98692                       0.13356                      -0.09026
                       0.98637                       0.13503                      -0.09407
                       0.98466                       0.14387                      -0.09868
                       0.98225                       0.15510                      -0.10547
                       0.97977                       0.16513                      -0.11309
                       0.97742                       0.17352                      -0.12059
                       0.97432                       0.18475                      -0.12869
                       0.97238                       0.19194                      -0.13281
        </DataArray>
        <DataArray type="Float32" Name="OrientationY" NumberOfComponents="3" format="ascii">
                       0.20935                      -0.94827                      -0.23864
                       0.20939                      -0.94829                      -0.23854
                       0.20966                      -0.94830                      -0.23825
                       0.21016                      -0.94829                      -0.23786
                       0.21117                      -0.94821                      -0.23728
                       0.18211                      -0.95501                      -0.23407
                       0.16279                      -0.95909                      -0.23161
                       0.14793                      -0.96198                      -0.22960
                       0.13412                      -0.96442                      -0.22781
                       0.12235                      -0.96633                      -0.22636
                       0.11473                      -0.96748                      -0.22544
                       0.11044                      -0.96809                      -0.22497
                       0.11105                      -0.96799                      -0.22508
                       0.11863                      -0.96689                      -0.22596
                       0.12805                      -0.96540                      -0.22715
                       0.13614                      -0.96404                      -0.22824
                       0.14266                      -0.96287                      -0.22920
                       0.15179                      -0.96114                      -0.23060
                       0.15785                      -0.95993                      -0.23157
        </DataArray>
        <DataArray type="Float32" Name="OrientationZ" NumberOfComponents="3" format="ascii">
                      -0.13122                       0.21460                      -0.96785
                      -0.13097                       0.21455                      -0.96789
                      -0.13018                       0.21443                      -0.96803
                      -0.12904                       0.21426                      -0.96822
                      -0.12719                       0.21403                      -0.96851
                      -0.12451                       0.21374                      -0.96892
                      -0.12163                       0.21345                      -0.96935
                      -0.11888                       0.21318                      -0.96975
                      -0.11667                       0.21292                      -0.97008
                      -0.11542                       0.21267                      -0.97028
                      -0.11553                       0.21241                      -0.97033
                      -0.11742                       0.21206                      -0.97018
                      -0.12145                       0.21156                      -0.96979
                      -0.12792                       0.21079                      -0.96913
                      -0.13705                       0.20961                      -0.96813
                      -0.14671                       0.20823                      -0.96701
                      -0.15588                       0.20682                      -0.96588
                      -0.16629                       0.20514                      -0.96450
                      -0.17194                       0.20421                      -0.96371
        </DataArray>
        <DataArray type="Float32" Name="Force" NumberOfComponents="3" format="ascii">
                      -0.31236                     -15.79116                      -3.45894
                     139.86133                     -99.28545                     -40.93823
                     220.52297                    -310.58319                     -98.51326
                     228.97096                    -482.72043                    -137.52522
                    1196.21743                     255.73240                    -100.41558
                     995.50301                     150.09066                     -94.67582
                     820.13536                      50.62364                     -91.69269
                    1358.31043                     116.00978                    -140.82561
                    1804.00726                     135.73504                    -186.91760
                    2004.36137                     113.69128                    -213.25086
                    3530.55079                     204.82723                    -375.01999
                    3726.16960                     181.42897                    -410.82343
                    2627.32687                      60.71277                    -315.60375
                    1134.87673                     -96.90901                    -171.29853
                     659.52267                    -146.43434                    -125.87196
                    -673.04774                    -269.82485                      42.24521
                   -2312.46495                    -419.27877                     280.26182
                   -3368.78854                    -472.50060                     476.20036
                  -18903.84445                    -594.82530                    3243.61483
        </DataArray>
        <DataArray type="Float32" Name="Moment" NumberOfComponents="3" format="ascii">
                       0.00000                       0.00000                       0.00000
                       0.00000                       0.00000                       0.00000
                       0.00000                       0.00000                       0.00000
                       0.00000                       0.00000                       0.00000
                     143.99748                    -243.02380                    1096.47562
                     265.63673                    -458.02212                    2067.02527
                     357.48220                    -631.12820                    2849.01430
                     593.88544                   -1072.88074                    4844.40382
                     874.96417                   -1610.81361                    7274.85205
                     989.77062                   -1842.19140                    8320.79614
                    1120.39945                   -2083.33739                    9409.90623
                    1214.19095                   -2221.39185                   10031.69796
                     950.82828                   -1681.76155                    7591.90055
                     978.46692                   -1642.88277                    7411.91092
                    1016.69784                   -1592.88998                    7180.22579
                    1022.46016                   -1495.75100                    6736.23567
                     956.40680                   -1316.17260                    5922.36929
                     509.10367                    -656.32098                    2950.33493
                     471.29741                    -587.38039                    2639.01379
        </DataArray>
      </PointData>
      <Lines>
        <DataArray type="Int32" Name="connectivity" format="ascii">
      0      1
      1      2
      2      3
      3      4
      4      5
      5      6
      6      7
      7      8
      8      9
      9     10
     10     11
     11     12
     12     13
     13     14
     14     15
     15     16
     16     17
     17     18
        </DataArray>
        <DataArray type="Int32" Name="offsets" format="ascii">
      2
      4
      6
      8
     10
     12
     14
     16
     18
     20
     22
     24
     26
     28
     30
     32
     34
     36
        </DataArray>
      </Lines>
    </Piece>
  </PolyData>
</VTKFile>
