<?xml version="1.0"?>
<VTKFile type="PolyData" version="0.1" byte_order="LittleEndian">
  <PolyData>
    <Piece NumberOfPoints="     19" NumberOfVerts="  0" NumberOfLines="     18"
           NumberOfStrips="  0" NumberOfPolys="      0">
      <Points>
        <DataArray type="Float32" NumberOfComponents="3" format="ascii">
                      -5.00422                      -0.42209                      88.58829
                      -5.18286                      -0.79580                      87.28552
                      -5.56297                      -1.45168                      84.65636
                      -5.95146                      -2.06405                      82.01534
                      -6.43769                      -2.80334                      78.70598
                      -6.95374                      -3.82794                      74.76501
                      -7.42813                      -4.97694                      70.85415
                      -7.88955                      -6.12761                      66.94175
                      -8.33621                      -7.28171                      63.02812
                      -8.77089                      -8.43752                      59.11308
                      -9.19836                      -9.59170                      55.19628
                      -9.62249                     -10.74598                      51.27872
                     -10.05005                     -11.90080                      47.36148
                     -10.48938                     -13.05677                      43.44598
                     -10.94805                     -14.21435                      39.53365
                     -11.35356                     -15.18091                      36.27734
                     -11.69647                     -15.96324                      33.67793
                     -12.05198                     -16.79968                      31.09650
                     -12.24748                     -17.17911                      29.79726
        </DataArray>
      </Points>
      <PointData>
        <DataArray type="Float32" Name="TranslationalVelocity" NumberOfComponents="3" format="ascii">
                      -0.10652                       3.98248                      -1.13670
                      -0.20001                       7.60523                      -2.16308
                      -0.36538                      14.91789                      -3.96349
                      -0.52186                      22.26012                      -5.64320
                      -0.71453                      31.45202                      -7.66910
                      -0.98654                      42.37018                     -10.47361
                      -1.29862                      53.18214                     -13.61402
                      -1.62274                      63.98217                     -16.75367
                      -1.96180                      74.77017                     -19.89755
                      -2.31785                      85.54873                     -23.04111
                      -2.69238                      96.32168                     -26.17556
                      -3.08785                     107.08879                     -29.30580
                      -3.50600                     117.85027                     -32.43312
                      -3.94804                     128.60539                     -35.55898
                      -4.41454                     139.35262                     -38.68431
                      -4.82234                     148.30036                     -41.28959
                      -5.16179                     155.44544                     -43.39538
                      -5.52341                     162.54207                     -45.64538
                      -5.69838                     166.11669                     -46.66316
        </DataArray>
        <DataArray type="Float32" Name="RotationalVelocity" NumberOfComponents="3" format="ascii">
                       2.74718                       0.00004                      -0.24980
                       2.74660                       0.00021                      -0.24977
                       2.74504                       0.00076                      -0.24974
                       2.74310                       0.00157                      -0.24975
                       2.74036                       0.00288                      -0.24982
                       2.73689                       0.00491                      -0.25002
                       2.73352                       0.00744                      -0.25033
                       2.73041                       0.01050                      -0.25071
                       2.72766                       0.01415                      -0.25113
                       2.72529                       0.01842                      -0.25154
                       2.72327                       0.02333                      -0.25188
                       2.72155                       0.02882                      -0.25212
                       2.72005                       0.03479                      -0.25222
                       2.71871                       0.04105                      -0.25218
                       2.71748                       0.04729                      -0.25200
                       2.71655                       0.05218                      -0.25176
                       2.71589                       0.05567                      -0.25155
                       2.71533                       0.05855                      -0.25135
                       2.71511                       0.05969                      -0.25127
        </DataArray>
        <DataArray type="Float32" Name="TranslationalAcceleration" NumberOfComponents="3" format="ascii">
                       1.01164                       3.17179                      10.94429
                       1.19840                       3.78796                      13.21366
                       3.44018                      10.12927                      37.98462
                       5.50206                      15.55431                      60.83719
                       7.90379                      21.57914                      87.54532
                      10.59678                      29.34029                     117.56928
                      13.19028                      37.78766                     146.47537
                      15.77962                      46.19860                     175.22045
                      18.40553                      54.69942                     204.17205
                      21.08366                      63.31746                     233.45665
                      23.80860                      72.01494                     263.02541
                      26.55731                      80.75846                     292.71198
                      29.29484                      89.49090                     322.31690
                      31.97868                      98.16200                     351.67626
                      34.56346                     106.74676                     380.73418
                      36.60692                     113.84885                     404.79830
                      38.15409                     119.58220                     424.06173
                      39.60847                     125.74992                     443.42401
                      40.30553                     128.57084                     453.33783
        </DataArray>
        <DataArray type="Float32" Name="OrientationX" NumberOfComponents="3" format="ascii">
                       0.95877                       0.20953                      -0.19196
                       0.95881                       0.20965                      -0.19166
                       0.95888                       0.21013                      -0.19076
                       0.95895                       0.21096                      -0.18949
                       0.95901                       0.21247                      -0.18750
                       0.96663                       0.18514                      -0.17704
                       0.97139                       0.16731                      -0.16853
                       0.97490                       0.15376                      -0.16103
                       0.97795                       0.14108                      -0.15400
                       0.98039                       0.13008                      -0.14804
                       0.98193                       0.12271                      -0.14408
                       0.98277                       0.11803                      -0.14226
                       0.98268                       0.11748                      -0.14334
                       0.98129                       0.12296                      -0.14817
                       0.97928                       0.12949                      -0.15571
                       0.97726                       0.13460                      -0.16387
                       0.97537                       0.13835                      -0.17176
                       0.97273                       0.14433                      -0.18157
                       0.97098                       0.14868                      -0.18733
        </DataArray>
        <DataArray type="Float32" Name="OrientationY" NumberOfComponents="3" format="ascii">
                       0.25249                      -0.93809                       0.23715
                       0.25252                      -0.93808                       0.23717
                       0.25275                      -0.93800                       0.23721
                       0.25321                      -0.93786                       0.23729
                       0.25414                      -0.93758                       0.23741
                       0.22526                      -0.94343                       0.24333
                       0.20596                      -0.94682                       0.24721
                       0.19103                      -0.94918                       0.25015
                       0.17702                      -0.95120                       0.25275
                       0.16491                      -0.95281                       0.25486
                       0.15679                      -0.95382                       0.25621
                       0.15182                      -0.95442                       0.25696
                       0.15158                      -0.95447                       0.25693
                       0.15813                      -0.95370                       0.25581
                       0.16641                      -0.95269                       0.25433
                       0.17351                      -0.95179                       0.25297
                       0.17924                      -0.95104                       0.25180
                       0.18762                      -0.94988                       0.25007
                       0.19333                      -0.94905                       0.24885
        </DataArray>
        <DataArray type="Float32" Name="OrientationZ" NumberOfComponents="3" format="ascii">
                      -0.13038                      -0.27584                      -0.95232
                      -0.13007                      -0.27579                      -0.95238
                      -0.12909                      -0.27567                      -0.95255
                      -0.12766                      -0.27553                      -0.95278
                      -0.12535                      -0.27533                      -0.95314
                      -0.12198                      -0.27509                      -0.95365
                      -0.11821                      -0.27485                      -0.95419
                      -0.11438                      -0.27463                      -0.95472
                      -0.11082                      -0.27444                      -0.95520
                      -0.10790                      -0.27428                      -0.95558
                      -0.10599                      -0.27417                      -0.95582
                      -0.10545                      -0.27413                      -0.95589
                      -0.10663                      -0.27420                      -0.95574
                      -0.10986                      -0.27446                      -0.95530
                      -0.11541                      -0.27497                      -0.95450
                      -0.12192                      -0.27565                      -0.95350
                      -0.12852                      -0.27639                      -0.95241
                      -0.13638                      -0.27732                      -0.95105
                      -0.14079                      -0.27785                      -0.95025
        </DataArray>
        <DataArray type="Float32" Name="Force" NumberOfComponents="3" format="ascii">
                       0.56143                     -21.57031                       6.17110
                     153.75021                    -122.64487                      14.52586
                     252.19373                    -362.69407                      70.86594
                     266.11971                    -540.60667                     120.89119
                    1425.05090                     269.17589                    -265.35232
                    1281.44455                     180.01729                    -216.01064
                    1147.49819                      86.47470                    -167.18555
                    1766.00178                     147.53564                    -254.25336
                    2193.20688                     148.83383                    -297.49728
                    2412.82329                     121.72760                    -307.64446
                    3950.93425                     185.56936                    -491.74370
                    4193.43149                     157.09669                    -507.98587
                    3356.11640                      74.24118                    -395.87474
                    1982.18489                     -57.92550                    -211.17799
                     335.46123                    -191.87912                      14.94423
                     266.07508                    -226.13058                      31.43076
                    -820.34505                    -265.41527                     187.53192
                   -2047.81599                    -281.83869                     375.22138
                  -17112.24781                      66.34791                    2514.87885
        </DataArray>
        <DataArray type="Float32" Name="Moment" NumberOfComponents="3" format="ascii">
                       0.00000                       0.00000                       0.00000
                       0.00000                       0.00000                       0.00000
                       0.00000                       0.00000                       0.00000
                       0.00000                       0.00000                       0.00000
                     154.77737                     340.71361                    1176.84112
                     276.49234                     625.61733                    2161.61357
                     361.90454                     845.12540                    2921.10631
                     584.83057                    1411.72990                    4881.32113
                     838.24023                    2088.72791                    7224.62948
                     926.39028                    2371.15272                    8203.79084
                    1021.86489                    2662.97745                    9215.14208
                    1080.33502                    2829.91920                    9793.34690
                     825.60048                    2138.65377                    7400.28908
                     835.78435                    2101.23758                    7268.57890
                     833.01719                    1993.02235                    6890.57772
                     842.87167                    1908.14766                    6593.01223
                     784.89076                    1684.97084                    5818.20018
                     415.20084                     839.49443                    2896.57523
                     387.75956                     759.20859                    2618.44256
        </DataArray>
      </PointData>
      <Lines>
        <DataArray type="Int32" Name="connectivity" format="ascii">
      0      1
      1      2
      2      3
      3      4
      4      5
      5      6
      6      7
      7      8
      8      9
      9     10
     10     11
     11     12
     12     13
     13     14
     14     15
     15     16
     16     17
     17     18
        </DataArray>
        <DataArray type="Int32" Name="offsets" format="ascii">
      2
      4
      6
      8
     10
     12
     14
     16
     18
     20
     22
     24
     26
     28
     30
     32
     34
     36
        </DataArray>
      </Lines>
    </Piece>
  </PolyData>
</VTKFile>
