<?xml version="1.0"?>
<VTKFile type="PolyData" version="0.1" byte_order="LittleEndian">
  <PolyData>
    <Piece NumberOfPoints="     19" NumberOfVerts="  0" NumberOfLines="     18"
           NumberOfStrips="  0" NumberOfPolys="      0">
      <Points>
        <DataArray type="Float32" NumberOfComponents="3" format="ascii">
                      -4.57148                       1.48685                      90.17359
                      -4.61992                       2.84731                      90.29718
                      -4.72492                       5.55961                      90.63866
                      -4.82815                       8.26867                      91.02310
                      -4.94627                      11.65444                      91.52662
                      -5.02213                      15.73333                      91.97710
                      -5.04895                      19.82512                      92.28786
                      -5.03093                      23.91801                      92.58689
                      -4.95634                      28.01130                      92.87166
                      -4.81623                      32.10364                      93.14378
                      -4.60257                      36.19328                      93.40680
                      -4.30667                      40.27850                      93.65911
                      -3.92250                      44.35719                      93.90088
                      -3.44589                      48.42696                      94.13240
                      -2.87253                      52.48478                      94.35398
                      -2.31901                      55.85461                      94.53119
                      -1.83108                      58.54224                      94.66073
                      -1.30780                      61.22480                      94.73176
                      -1.02980                      62.55942                      94.80743
        </DataArray>
      </Points>
      <PointData>
        <DataArray type="Float32" Name="TranslationalVelocity" NumberOfComponents="3" format="ascii">
                       0.23655                      -0.26262                       2.90783
                       0.49166                      -0.49441                       5.55950
                       1.00141                      -1.14035                      10.84623
                       1.51263                      -1.87035                      16.12684
                       2.15563                      -2.82956                      22.72688
                       2.93794                      -3.69323                      30.67850
                       3.73324                      -4.29378                      38.65574
                       4.54156                      -4.88030                      46.63547
                       5.36473                      -5.45056                      54.61622
                       6.20423                      -6.00999                      62.59519
                       7.06112                      -6.56778                      70.56882
                       7.93605                      -7.12328                      78.53362
                       8.82909                      -7.67879                      86.48532
                       9.73966                      -8.23664                      94.41919
                      10.66641                      -8.79924                     102.32923
                      11.44978                      -9.27317                     108.89774
                      12.08229                      -9.64064                     114.13626
                      12.71989                      -9.90419                     119.36469
                      13.03900                     -10.11884                     121.96587
        </DataArray>
        <DataArray type="Float32" Name="RotationalVelocity" NumberOfComponents="3" format="ascii">
                       1.94910                      -0.00055                      -0.18746
                       1.94913                      -0.00054                      -0.18763
                       1.94920                      -0.00050                      -0.18821
                       1.94928                      -0.00044                      -0.18909
                       1.94938                      -0.00038                      -0.19057
                       1.94950                      -0.00034                      -0.19286
                       1.94959                      -0.00036                      -0.19568
                       1.94965                      -0.00045                      -0.19898
                       1.94966                      -0.00063                      -0.20274
                       1.94962                      -0.00090                      -0.20690
                       1.94951                      -0.00124                      -0.21141
                       1.94936                      -0.00164                      -0.21618
                       1.94916                      -0.00205                      -0.22108
                       1.94893                      -0.00245                      -0.22592
                       1.94870                      -0.00276                      -0.23046
                       1.94852                      -0.00293                      -0.23381
                       1.94840                      -0.00297                      -0.23604
                       1.94831                      -0.00289                      -0.23772
                       1.94829                      -0.00281                      -0.23831
        </DataArray>
        <DataArray type="Float32" Name="TranslationalAcceleration" NumberOfComponents="3" format="ascii">
                       0.03300                      -5.73499                      -0.35129
                      -0.02770                      -6.93364                      -0.46613
                      -0.12101                     -19.81430                      -1.68767
                      -0.23597                     -31.64977                      -3.00667
                      -0.39681                     -45.46738                      -4.67894
                      -0.54950                     -61.21835                      -6.06244
                      -0.66510                     -76.59710                      -6.89625
                      -0.78697                     -91.93775                      -7.68956
                      -0.91042                    -107.43087                      -8.44947
                      -1.03053                    -123.13318                      -9.18983
                      -1.14129                    -139.00557                      -9.92592
                      -1.23243                    -154.95246                     -10.65045
                      -1.29179                    -170.85904                     -11.36095
                      -1.30450                    -186.62986                     -12.05632
                      -1.25285                    -202.22565                     -12.73924
                      -1.14411                    -215.12420                     -13.30451
                      -1.00163                    -225.44512                     -13.72880
                      -0.77195                    -235.87261                     -13.95214
                      -0.65908                    -241.15184                     -14.22802
        </DataArray>
        <DataArray type="Float32" Name="OrientationX" NumberOfComponents="3" format="ascii">
                       0.99006                       0.02289                       0.13879
                       0.99008                       0.02227                       0.13873
                       0.99015                       0.02023                       0.13857
                       0.99024                       0.01717                       0.13834
                       0.99036                       0.01209                       0.13797
                       0.99435                       0.00687                       0.10593
                       0.99658                      -0.00127                       0.08267
                       0.99798                      -0.01187                       0.06244
                       0.99884                      -0.02476                       0.04136
                       0.99900                      -0.04007                       0.02009
                       0.99832                      -0.05790                       0.00054
                       0.99679                      -0.07798                      -0.01821
                       0.99440                      -0.09998                      -0.03436
                       0.99133                      -0.12330                      -0.04540
                       0.98764                      -0.14651                      -0.05567
                       0.98426                      -0.16473                      -0.06399
                       0.98159                      -0.17776                      -0.06994
                       0.97936                      -0.18888                      -0.07199
                       0.97854                      -0.19354                      -0.07079
        </DataArray>
        <DataArray type="Float32" Name="OrientationY" NumberOfComponents="3" format="ascii">
                       0.13615                       0.09213                      -0.98640
                       0.13616                       0.09178                      -0.98643
                       0.13621                       0.09075                      -0.98652
                       0.13628                       0.08934                      -0.98663
                       0.13641                       0.08717                      -0.98681
                       0.10499                       0.08389                      -0.99093
                       0.08251                       0.08071                      -0.99332
                       0.06318                       0.07767                      -0.99498
                       0.04311                       0.07491                      -0.99626
                       0.02296                       0.07258                      -0.99710
                       0.00464                       0.07074                      -0.99748
                      -0.01278                       0.06952                      -0.99750
                      -0.02754                       0.06884                      -0.99725
                      -0.03716                       0.06833                      -0.99697
                      -0.04603                       0.06836                      -0.99660
                      -0.05325                       0.06884                      -0.99621
                      -0.05839                       0.06943                      -0.99588
                      -0.05979                       0.06952                      -0.99579
                      -0.05836                       0.06919                      -0.99589
        </DataArray>
        <DataArray type="Float32" Name="OrientationZ" NumberOfComponents="3" format="ascii">
                      -0.03536                       0.99548                       0.08810
                      -0.03470                       0.99553                       0.08783
                      -0.03253                       0.99567                       0.08710
                      -0.02930                       0.99585                       0.08613
                      -0.02396                       0.99612                       0.08468
                      -0.01570                       0.99645                       0.08270
                      -0.00541                       0.99674                       0.08054
                       0.00697                       0.99691                       0.07826
                       0.02157                       0.99688                       0.07589
                       0.03849                       0.99656                       0.07343
                       0.05772                       0.99581                       0.07089
                       0.07905                       0.99453                       0.06830
                       0.10207                       0.99261                       0.06570
                       0.12602                       0.99001                       0.06316
                       0.14982                       0.98684                       0.06077
                       0.16851                       0.98393                       0.05899
                       0.18188                       0.98162                       0.05777
                       0.19308                       0.97954                       0.05679
                       0.19764                       0.97865                       0.05641
        </DataArray>
        <DataArray type="Float32" Name="Force" NumberOfComponents="3" format="ascii">
                      -0.32919                       0.29117                      -3.42225
                     159.59313                      12.33786                     -76.65167
                     201.40596                      24.04527                    -198.14001
                     181.72680                      29.83410                    -278.85594
                    1820.49204                       2.73535                     465.33092
                    2080.02063                       1.64762                     351.48365
                    2347.22613                     -11.67802                     273.16388
                    3141.64682                     -45.17102                     254.55307
                    3482.64069                     -90.40691                     153.95952
                    4066.95181                    -166.29906                      76.18986
                    5286.80948                    -307.40113                     -41.83847
                    6029.49632                    -471.51369                    -168.07466
                    7085.56510                    -715.81721                    -255.79318
                    7633.40848                    -951.74722                    -371.49624
                    8120.30763                   -1206.27635                    -483.68189
                    8439.94900                   -1413.76983                    -574.54113
                    8354.88735                   -1513.83282                    -620.12100
                    6206.06889                   -1197.36035                    -475.22614
                    2429.16790                    -469.97175                    -346.05327
        </DataArray>
        <DataArray type="Float32" Name="Moment" NumberOfComponents="3" format="ascii">
                       0.00000                       0.00000                       0.00000
                       0.00000                       0.00000                       0.00000
                       0.00000                       0.00000                       0.00000
                       0.00000                       0.00000                       0.00000
                      18.79446                    -788.49715                     -68.89367
                      21.50306                   -1394.51404                    -120.71450
                       9.23453                   -1853.58624                    -158.59254
                     -21.44120                   -2842.44015                    -239.77415
                     -88.89317                   -3987.51434                    -330.70956
                    -178.43305                   -4532.50873                    -368.46517
                    -293.94997                   -5001.40403                    -397.24749
                    -428.34023                   -5330.44134                    -412.31518
                    -452.89576                   -4365.85143                    -327.88527
                    -558.97701                   -4359.44021                    -317.13584
                    -646.47518                   -4232.43153                    -297.91340
                    -694.62766                   -4034.45941                    -276.43802
                    -669.72878                   -3597.26946                    -241.63665
                    -359.64232                   -1816.46301                    -119.95178
                    -342.03811                   -1686.48270                    -110.58632
        </DataArray>
      </PointData>
      <Lines>
        <DataArray type="Int32" Name="connectivity" format="ascii">
      0      1
      1      2
      2      3
      3      4
      4      5
      5      6
      6      7
      7      8
      8      9
      9     10
     10     11
     11     12
     12     13
     13     14
     14     15
     15     16
     16     17
     17     18
        </DataArray>
        <DataArray type="Int32" Name="offsets" format="ascii">
      2
      4
      6
      8
     10
     12
     14
     16
     18
     20
     22
     24
     26
     28
     30
     32
     34
     36
        </DataArray>
      </Lines>
    </Piece>
  </PolyData>
</VTKFile>
