<?xml version="1.0"?>
<VTKFile type="PolyData" version="0.1" byte_order="LittleEndian">
  <PolyData>
    <Piece NumberOfPoints="      8" NumberOfVerts="  0" NumberOfLines="      0"
           NumberOfStrips="  0" NumberOfPolys="      6">
      <Points>
        <DataArray type="Float32" NumberOfComponents="3" format="ascii">
                      -3.34859                       2.39259                      87.61006
                       3.65139                       2.39259                      87.59035
                       3.65139                      -2.40741                      87.58959
                      -3.34859                      -2.40741                      87.60930
                      -3.33507                      -2.40818                      92.40929
                       3.66490                      -2.40818                      92.38958
                       3.66490                       2.39183                      92.39034
                      -3.33507                       2.39183                      92.41005
        </DataArray>
      </Points>
      <Polys>
        <DataArray type="Int32" Name="connectivity" format="ascii">
      0      1      2      3
      4      5      6      7
      7      6      1      0
      6      5      2      1
      5      4      3      2
      4      7      0      3
        </DataArray>
        <DataArray type="Int32" Name="offsets" format="ascii">
      4
      8
     12
     16
     20
     24
        </DataArray>
      </Polys>
    </Piece>
  </PolyData>
</VTKFile>
