<?xml version="1.0"?>
<VTKFile type="PolyData" version="0.1" byte_order="LittleEndian">
  <PolyData>
    <Piece NumberOfPoints="     19" NumberOfVerts="  0" NumberOfLines="     18"
           NumberOfStrips="  0" NumberOfPolys="      0">
      <Points>
        <DataArray type="Float32" NumberOfComponents="3" format="ascii">
                      -4.91439                       1.49380                      89.93770
                      -4.98057                       2.85759                      89.87135
                      -5.12548                       5.58976                      89.83346
                      -5.27435                       8.32461                      89.83886
                      -5.45913                      11.74545                      89.86893
                      -5.63160                      15.84542                      89.75187
                      -5.78002                      19.93924                      89.49659
                      -5.91954                      24.03317                      89.23237
                      -6.04979                      28.12716                      88.95785
                      -6.17480                      32.22124                      88.67583
                      -6.30060                      36.31550                      88.39100
                      -6.43317                      40.40962                      88.10274
                      -6.58138                      44.50310                      87.81187
                      -6.75596                      48.59516                      87.51894
                      -6.96696                      52.68482                      87.22424
                      -7.18148                      56.08999                      86.97707
                      -7.38322                      58.81098                      86.77024
                      -7.61386                      61.52568                      86.50715
                      -7.74696                      62.88405                      86.41634
        </DataArray>
      </Points>
      <PointData>
        <DataArray type="Float32" Name="TranslationalVelocity" NumberOfComponents="3" format="ascii">
                       0.37842                       0.23882                       4.16000
                       0.72087                       0.43982                       7.95082
                       1.40798                       0.58148                      15.54480
                       2.09724                       0.60387                      23.14570
                       2.96198                       0.56692                      32.65233
                       4.00317                       0.93607                      44.04483
                       5.04981                       1.68339                      55.41861
                       6.10597                       2.45347                      66.79090
                       7.17423                       3.25001                      78.16154
                       8.25735                       4.06626                      89.53072
                       9.35807                       4.89093                     100.89877
                      10.47881                       5.72747                     112.26501
                      11.62162                       6.57631                     123.62838
                      12.78797                       7.43926                     134.98714
                      13.97860                       8.31881                     146.33902
                      14.98969                       9.06865                     155.79125
                      15.80959                       9.70352                     163.34479
                      16.63771                      10.50410                     170.88156
                      17.05603                      10.79708                     174.65313
        </DataArray>
        <DataArray type="Float32" Name="RotationalVelocity" NumberOfComponents="3" format="ascii">
                       2.77964                       0.00018                      -0.25111
                       2.77957                       0.00018                      -0.25123
                       2.77941                       0.00018                      -0.25161
                       2.77923                       0.00019                      -0.25218
                       2.77895                       0.00026                      -0.25313
                       2.77856                       0.00042                      -0.25466
                       2.77813                       0.00069                      -0.25666
                       2.77768                       0.00105                      -0.25921
                       2.77722                       0.00150                      -0.26239
                       2.77678                       0.00201                      -0.26625
                       2.77638                       0.00255                      -0.27080
                       2.77606                       0.00309                      -0.27603
                       2.77582                       0.00360                      -0.28181
                       2.77568                       0.00405                      -0.28795
                       2.77565                       0.00443                      -0.29412
                       2.77571                       0.00468                      -0.29900
                       2.77582                       0.00483                      -0.30246
                       2.77596                       0.00496                      -0.30532
                       2.77605                       0.00501                      -0.30645
        </DataArray>
        <DataArray type="Float32" Name="TranslationalAcceleration" NumberOfComponents="3" format="ascii">
                       0.05407                     -11.67185                       0.63333
                       0.06751                     -14.10166                       0.75110
                       0.13187                     -40.38560                       1.43277
                       0.15952                     -64.57034                       1.68208
                       0.16888                     -92.81714                       1.72828
                       0.26975                    -124.86798                       2.87107
                       0.44864                    -156.01533                       5.05808
                       0.61589                    -187.05715                       7.34080
                       0.77717                    -218.38572                       9.74676
                       0.94293                    -250.12830                      12.25915
                       1.13278                    -282.22038                      14.83779
                       1.38296                    -314.47807                      17.47763
                       1.74464                    -346.67704                      20.16428
                       2.28772                    -378.62779                      22.89122
                       3.10338                    -410.25304                      25.66234
                       4.08244                    -436.42770                      28.02506
                       5.11462                    -457.37101                      30.02611
                       6.44945                    -478.48134                      32.51258
                       7.21016                    -489.20404                      33.47436
        </DataArray>
        <DataArray type="Float32" Name="OrientationX" NumberOfComponents="3" format="ascii">
                       0.98875                       0.05505                       0.13911
                       0.98875                       0.05484                       0.13914
                       0.98875                       0.05416                       0.13940
                       0.98874                       0.05315                       0.13990
                       0.98868                       0.05150                       0.14090
                       0.99266                       0.04752                       0.11125
                       0.99484                       0.04370                       0.09160
                       0.99626                       0.04019                       0.07653
                       0.99735                       0.03726                       0.06256
                       0.99809                       0.03541                       0.05068
                       0.99845                       0.03526                       0.04303
                       0.99856                       0.03720                       0.03874
                       0.99835                       0.04173                       0.03937
                       0.99768                       0.04931                       0.04697
                       0.99662                       0.05987                       0.05633
                       0.99541                       0.07088                       0.06425
                       0.99420                       0.08124                       0.07052
                       0.99250                       0.09306                       0.07933
                       0.99138                       0.09952                       0.08522
        </DataArray>
        <DataArray type="Float32" Name="OrientationY" NumberOfComponents="3" format="ascii">
                       0.14157                      -0.04352                      -0.98897
                       0.14160                      -0.04380                      -0.98895
                       0.14186                      -0.04455                      -0.98888
                       0.14236                      -0.04554                      -0.98877
                       0.14333                      -0.04697                      -0.98856
                       0.11362                      -0.05040                      -0.99224
                       0.09387                      -0.05321                      -0.99416
                       0.07870                      -0.05559                      -0.99535
                       0.06464                      -0.05763                      -0.99624
                       0.05272                      -0.05924                      -0.99685
                       0.04511                      -0.06038                      -0.99716
                       0.04096                      -0.06111                      -0.99729
                       0.04189                      -0.06143                      -0.99723
                       0.04996                      -0.06125                      -0.99687
                       0.05997                      -0.06075                      -0.99635
                       0.06856                      -0.06015                      -0.99583
                       0.07547                      -0.05953                      -0.99537
                       0.08499                      -0.05851                      -0.99466
                       0.09126                      -0.05776                      -0.99415
        </DataArray>
        <DataArray type="Float32" Name="OrientationZ" NumberOfComponents="3" format="ascii">
                      -0.04839                       0.99753                      -0.05082
                      -0.04814                       0.99753                      -0.05107
                      -0.04735                       0.99754                      -0.05174
                      -0.04618                       0.99755                      -0.05259
                      -0.04429                       0.99757                      -0.05382
                      -0.04154                       0.99760                      -0.05543
                      -0.03857                       0.99763                      -0.05704
                      -0.03575                       0.99764                      -0.05855
                      -0.03351                       0.99764                      -0.05988
                      -0.03230                       0.99762                      -0.06099
                      -0.03256                       0.99755                      -0.06187
                      -0.03473                       0.99744                      -0.06255
                      -0.03920                       0.99724                      -0.06308
                      -0.04628                       0.99690                      -0.06357
                      -0.05623                       0.99636                      -0.06413
                      -0.06672                       0.99567                      -0.06473
                      -0.07666                       0.99492                      -0.06532
                      -0.08792                       0.99394                      -0.06598
                      -0.09402                       0.99336                      -0.06634
        </DataArray>
        <DataArray type="Float32" Name="Force" NumberOfComponents="3" format="ascii">
                      -0.94016                      -0.57586                     -10.40772
                     168.26112                       2.03098                    -119.38326
                     234.78111                      -6.51286                    -345.52498
                     222.74185                     -16.34903                    -520.50874
                    1498.98923                      77.15529                     213.46818
                    1464.00927                      66.48563                     117.35720
                    1338.03528                      52.24759                      22.52656
                    1969.93666                      70.94125                      29.22001
                    2374.75917                      77.39420                     -13.79931
                    2565.88663                      77.59359                     -66.02553
                    4029.24223                     121.06443                    -132.77414
                    4132.89906                     130.36583                    -184.29278
                    2909.97830                     100.81234                    -203.52080
                    1232.08163                      44.48229                    -220.78823
                     568.41015                      20.51621                    -215.11455
                    -963.63028                     -73.29221                    -204.46522
                   -2765.61569                    -216.97088                    -170.57582
                   -3818.68471                    -335.52059                     -94.80528
                  -19559.39809                   -1740.25976                    1585.14790
        </DataArray>
        <DataArray type="Float32" Name="Moment" NumberOfComponents="3" format="ascii">
                       0.00000                       0.00000                       0.00000
                       0.00000                       0.00000                       0.00000
                       0.00000                       0.00000                       0.00000
                       0.00000                       0.00000                       0.00000
                      56.33104                   -1275.60742                      65.49098
                      94.73162                   -2295.02496                     118.42665
                     118.25162                   -3097.65703                     160.71175
                     181.31289                   -5145.31399                     268.31237
                     247.99042                   -7538.94425                     394.72906
                     271.66765                   -8599.58482                     451.27560
                     307.99684                   -9693.01278                     508.49339
                     349.80789                  -10326.66126                     539.77633
                     298.95869                   -7811.49928                     405.20546
                     345.98086                   -7640.00534                     391.46904
                     408.23346                   -7402.45951                     372.70216
                     456.06136                   -6954.77915                     343.61153
                     462.40358                   -6127.73023                     297.27790
                     265.47050                   -3062.52265                     145.46909
                     254.04090                   -2738.15967                     128.55451
        </DataArray>
      </PointData>
      <Lines>
        <DataArray type="Int32" Name="connectivity" format="ascii">
      0      1
      1      2
      2      3
      3      4
      4      5
      5      6
      6      7
      7      8
      8      9
      9     10
     10     11
     11     12
     12     13
     13     14
     14     15
     15     16
     16     17
     17     18
        </DataArray>
        <DataArray type="Int32" Name="offsets" format="ascii">
      2
      4
      6
      8
     10
     12
     14
     16
     18
     20
     22
     24
     26
     28
     30
     32
     34
     36
        </DataArray>
      </Lines>
    </Piece>
  </PolyData>
</VTKFile>
