<?xml version="1.0"?>
<VTKFile type="PolyData" version="0.1" byte_order="LittleEndian">
  <PolyData>
    <Piece NumberOfPoints="    550" NumberOfVerts="  0" NumberOfLines="     21"
           NumberOfStrips="  0" NumberOfPolys="    567">
      <Points>
        <DataArray type="Float32" NumberOfComponents="3" format="ascii">
                       2.97344                      -0.00000                       2.18981
                       2.88003                       0.73945                       2.18981
                       2.60566                       1.43243                       2.18983
                       2.16757                       2.03541                       2.18986
                       1.59328                       2.51050                       2.18990
                       0.91889                       2.82785                       2.18994
                       0.18677                       2.96751                       2.18999
                      -0.55709                       2.92071                       2.19004
                      -1.26593                       2.69039                       2.19009
                      -1.89523                       2.29102                       2.19013
                      -2.40544                       1.74770                       2.19016
                      -2.76451                       1.09457                       2.19018
                      -2.94986                       0.37266                       2.19019
                      -2.94986                      -0.37266                       2.19019
                      -2.76451                      -1.09457                       2.19018
                      -2.40544                      -1.74771                       2.19015
                      -1.89523                      -2.29103                       2.19012
                      -1.26593                      -2.69039                       2.19008
                      -0.55709                      -2.92071                       2.19003
                       0.18677                      -2.96751                       2.18998
                       0.91889                      -2.82785                       2.18994
                       1.59328                      -2.51051                       2.18989
                       2.16757                      -2.03542                       2.18986
                       2.60566                      -1.43244                       2.18983
                       2.88003                      -0.73945                       2.18981
                       2.92082                      -0.00001                       6.56934
                       2.82908                       0.72620                       6.56937
                       2.55962                       1.40677                       6.56943
                       2.12937                       1.99895                       6.56953
                       1.56537                       2.46553                       6.56966
                       0.90306                       2.77719                       6.56980
                       0.18405                       2.91435                       6.56997
                      -0.54648                       2.86839                       6.57013
                      -1.24264                       2.64220                       6.57029
                      -1.86066                       2.24999                       6.57043
                      -2.36174                       1.71640                       6.57054
                      -2.71437                       1.07496                       6.57061
                      -2.89641                       0.36598                       6.57065
                      -2.89641                      -0.36600                       6.57065
                      -2.71437                      -1.07498                       6.57061
                      -2.36174                      -1.71642                       6.57053
                      -1.86066                      -2.25000                       6.57041
                      -1.24264                      -2.64222                       6.57027
                      -0.54648                      -2.86841                       6.57011
                       0.18405                      -2.91437                       6.56995
                       0.90306                      -2.77721                       6.56979
                       1.56537                      -2.46555                       6.56964
                       2.12937                      -1.99897                       6.56952
                       2.55962                      -1.40679                       6.56942
                       2.82908                      -0.72622                       6.56936
                       2.86895                      -0.00003                      10.94883
                       2.77888                       0.71294                      10.94887
                       2.51433                       1.38110                      10.94898
                       2.09193                       1.96248                      10.94916
                       1.53822                       2.42056                      10.94939
                       0.88798                       2.72653                      10.94965
                       0.18208                       2.86119                      10.94994
                      -0.53513                       2.81607                      10.95023
                      -1.21858                       2.59400                      10.95051
                      -1.82534                       2.20894                      10.95075
                      -2.31728                       1.68508                      10.95095
                      -2.66348                       1.05534                      10.95109
                      -2.84220                       0.35929                      10.95116
                      -2.84220                      -0.35934                      10.95116
                      -2.66348                      -1.05539                      10.95108
                      -2.31728                      -1.68513                      10.95094
                      -1.82534                      -2.20899                      10.95073
                      -1.21858                      -2.59405                      10.95048
                      -0.53513                      -2.81612                      10.95021
                       0.18208                      -2.86124                      10.94991
                       0.88799                      -2.72659                      10.94963
                       1.53822                      -2.42061                      10.94936
                       2.09193                      -1.96254                      10.94914
                       2.51433                      -1.38115                      10.94897
                       2.77888                      -0.71299                      10.94887
                       2.81789                      -0.00005                      15.32832
                       2.72950                       0.69967                      15.32838
                       2.46987                       1.35542                      15.32854
                       2.05531                       1.92601                      15.32879
                       1.51188                       2.37557                      15.32911
                       0.87373                       2.67587                      15.32950
                       0.18094                       2.80802                      15.32991
                      -0.52295                       2.76374                      15.33033
                      -1.19371                       2.54579                      15.33073
                      -1.78920                       2.16789                      15.33108
                      -2.27200                       1.65376                      15.33137
                      -2.61177                       1.03571                      15.33157
                      -2.78717                       0.35259                      15.33167
                      -2.78717                      -0.35269                      15.33166
                      -2.61177                      -1.03581                      15.33155
                      -2.27200                      -1.65386                      15.33135
                      -1.78920                      -2.16799                      15.33106
                      -1.19371                      -2.54589                      15.33070
                      -0.52295                      -2.76384                      15.33030
                       0.18094                      -2.80812                      15.32988
                       0.87373                      -2.67597                      15.32946
                       1.51188                      -2.37567                      15.32908
                       2.05531                      -1.92611                      15.32876
                       2.46987                      -1.35552                      15.32852
                       2.72950                      -0.69977                      15.32837
                       2.76767                      -0.00008                      19.70783
                       2.68095                       0.68640                      19.70790
                       2.42623                       1.32974                      19.70811
                       2.01952                       1.88953                      19.70843
                       1.48638                       2.33058                      19.70886
                       0.86030                       2.62519                      19.70935
                       0.18062                       2.75485                      19.70988
                      -0.50994                       2.71140                      19.71043
                      -1.16801                       2.49758                      19.71094
                      -1.75223                       2.12682                      19.71140
                      -2.22589                       1.62243                      19.71176
                      -2.55923                       1.01608                      19.71202
                      -2.73131                       0.34589                      19.71215
                      -2.73131                      -0.34605                      19.71215
                      -2.55923                      -1.01624                      19.71200
                      -2.22589                      -1.62259                      19.71174
                      -1.75223                      -2.12699                      19.71136
                      -1.16801                      -2.49774                      19.71090
                      -0.50995                      -2.71156                      19.71038
                       0.18062                      -2.75501                      19.70984
                       0.86030                      -2.62535                      19.70931
                       1.48638                      -2.33074                      19.70882
                       2.01952                      -1.88969                      19.70840
                       2.42623                      -1.32990                      19.70809
                       2.68095                      -0.68656                      19.70789
                       2.71826                      -0.00012                      24.08738
                       2.63321                       0.67311                      24.08747
                       2.38341                       1.30405                      24.08772
                       1.98455                       1.85303                      24.08811
                       1.46169                       2.28558                      24.08862
                       0.84768                       2.57451                      24.08921
                       0.18112                       2.70166                      24.08986
                      -0.49613                       2.65905                      24.09051
                      -1.14150                       2.44936                      24.09114
                      -1.71445                       2.08575                      24.09169
                      -2.17897                       1.59109                      24.09213
                      -2.50588                       0.99644                      24.09244
                      -2.67464                       0.33917                      24.09260
                      -2.67464                      -0.33941                      24.09259
                      -2.50588                      -0.99668                      24.09242
                      -2.17897                      -1.59133                      24.09210
                      -1.71445                      -2.08600                      24.09164
                      -1.14150                      -2.44960                      24.09109
                      -0.49613                      -2.65930                      24.09046
                       0.18112                      -2.70190                      24.08980
                       0.84769                      -2.57475                      24.08916
                       1.46169                      -2.28582                      24.08857
                       1.98455                      -1.85328                      24.08807
                       2.38341                      -1.30429                      24.08769
                       2.63321                      -0.67336                      24.08745
                       2.66963                      -0.00017                      28.46696
                       2.58626                       0.65982                      28.46707
                       2.34137                       1.27834                      28.46735
                       1.95035                       1.81653                      28.46781
                       1.43778                       2.24057                      28.46840
                       0.83585                       2.52381                      28.46909
                       0.18240                       2.64847                      28.46984
                      -0.48153                       2.60670                      28.47059
                      -1.11420                       2.40113                      28.47131
                      -1.67588                       2.04468                      28.47195
                      -2.13127                       1.55974                      28.47247
                      -2.45175                       0.97679                      28.47282
                      -2.61719                       0.33245                      28.47301
                      -2.61719                      -0.33279                      28.47300
                      -2.45175                      -0.97713                      28.47280
                      -2.13127                      -1.56008                      28.47243
                      -1.67588                      -2.04502                      28.47190
                      -1.11420                      -2.40147                      28.47125
                      -0.48153                      -2.60704                      28.47053
                       0.18240                      -2.64881                      28.46977
                       0.83585                      -2.52416                      28.46903
                       1.43778                      -2.24091                      28.46834
                       1.95035                      -1.81687                      28.46776
                       2.34137                      -1.27868                      28.46732
                       2.58626                      -0.66016                      28.46705
                       2.62176                      -0.00023                      32.84658
                       2.54006                       0.64652                      32.84670
                       2.30008                       1.25263                      32.84702
                       1.91691                       1.78002                      32.84753
                       1.41462                       2.19555                      32.84820
                       0.82477                       2.47311                      32.84897
                       0.18443                       2.59526                      32.84982
                      -0.46617                       2.55433                      32.85067
                      -1.08616                       2.35289                      32.85148
                      -1.63656                       2.00359                      32.85220
                      -2.08281                       1.52838                      32.85277
                      -2.39686                       0.95712                      32.85318
                      -2.55898                       0.32571                      32.85338
                      -2.55898                      -0.32617                      32.85337
                      -2.39686                      -0.95758                      32.85315
                      -2.08281                      -1.52884                      32.85273
                      -1.63656                      -2.00405                      32.85214
                      -1.08616                      -2.35335                      32.85141
                      -0.46617                      -2.55479                      32.85059
                       0.18443                      -2.59572                      32.84974
                       0.82477                      -2.47357                      32.84890
                       1.41462                      -2.19601                      32.84813
                       1.91691                      -1.78048                      32.84748
                       2.30008                      -1.25309                      32.84698
                       2.54006                      -0.64698                      32.84668
                       2.57462                      -0.00030                      37.22622
                       2.49459                       0.63320                      37.22635
                       2.25953                       1.22690                      37.22670
                       1.88421                       1.74350                      37.22727
                       1.39220                       2.15052                      37.22800
                       0.81443                       2.42240                      37.22886
                       0.18720                       2.54205                      37.22980
                      -0.45008                       2.50195                      37.23074
                      -1.05737                       2.30463                      37.23163
                      -1.59651                       1.96248                      37.23242
                      -2.03362                       1.49701                      37.23306
                      -2.34124                       0.93745                      37.23351
                      -2.50003                       0.31897                      37.23373
                      -2.50003                      -0.31957                      37.23372
                      -2.34124                      -0.93805                      37.23347
                      -2.03362                      -1.49761                      37.23301
                      -1.59650                      -1.96309                      37.23235
                      -1.05737                      -2.30524                      37.23155
                      -0.45008                      -2.50256                      37.23065
                       0.18720                      -2.54265                      37.22970
                       0.81443                      -2.42300                      37.22878
                       1.39220                      -2.15112                      37.22793
                       1.88421                      -1.74410                      37.22721
                       2.25953                      -1.22751                      37.22666
                       2.49459                      -0.63381                      37.22632
                       2.52823                      -0.00039                      41.60587
                       2.44987                       0.61988                      41.60601
                       2.21972                       1.20117                      41.60640
                       1.85224                       1.70696                      41.60702
                       1.37052                       2.10547                      41.60782
                       0.80483                       2.37167                      41.60876
                       0.19071                       2.48882                      41.60978
                      -0.43325                       2.44956                      41.61080
                      -1.02784                       2.25636                      41.61178
                      -1.55571                       1.92137                      41.61265
                      -1.98368                       1.46562                      41.61334
                      -2.28487                       0.91776                      41.61383
                      -2.44035                       0.31221                      41.61407
                      -2.44035                      -0.31298                      41.61406
                      -2.28487                      -0.91854                      41.61379
                      -1.98368                      -1.46640                      41.61328
                      -1.55571                      -1.92214                      41.61256
                      -1.02784                      -2.25714                      41.61169
                      -0.43325                      -2.45034                      41.61070
                       0.19071                      -2.48959                      41.60967
                       0.80483                      -2.37244                      41.60866
                       1.37052                      -2.10625                      41.60773
                       1.85224                      -1.70773                      41.60694
                       2.21972                      -1.20194                      41.60635
                       2.44987                      -0.62065                      41.60598
                       2.48259                      -0.00049                      45.98552
                       2.40590                       0.60653                      45.98567
                       2.18067                       1.17541                      45.98610
                       1.82103                       1.67040                      45.98677
                       1.34960                       2.06041                      45.98764
                       0.79598                       2.32092                      45.98865
                       0.19498                       2.43557                      45.98976
                      -0.41566                       2.39715                      45.99087
                      -0.99756                       2.20808                      45.99193
                      -1.51416                       1.88024                      45.99286
                      -1.93299                       1.43422                      45.99362
                      -2.22775                       0.89806                      45.99414
                      -2.37991                       0.30543                      45.99440
                      -2.37991                      -0.30641                      45.99439
                      -2.22775                      -0.89904                      45.99410
                      -1.93299                      -1.43520                      45.99354
                      -1.51415                      -1.88122                      45.99277
                      -0.99756                      -2.20906                      45.99182
                      -0.41566                      -2.39813                      45.99075
                       0.19498                      -2.43655                      45.98963
                       0.79599                      -2.32190                      45.98854
                       1.34960                      -2.06139                      45.98753
                       1.82103                      -1.67138                      45.98668
                       2.18067                      -1.17639                      45.98604
                       2.40590                      -0.60751                      45.98564
                       2.43774                      -0.00061                      50.36516
                       2.36272                       0.59317                      50.36533
                       2.14240                       1.14964                      50.36579
                       1.79062                       1.63383                      50.36651
                       1.32947                       2.01533                      50.36745
                       0.78793                       2.27016                      50.36855
                       0.20004                       2.38231                      50.36973
                      -0.39728                       2.34473                      50.37093
                      -0.96648                       2.15978                      50.37207
                      -1.47181                       1.83909                      50.37308
                      -1.88151                       1.40280                      50.37389
                      -2.16984                       0.87834                      50.37446
                      -2.31868                       0.29864                      50.37474
                      -2.31868                      -0.29986                      50.37472
                      -2.16984                      -0.87955                      50.37441
                      -1.88151                      -1.40402                      50.37381
                      -1.47181                      -1.84030                      50.37297
                      -0.96648                      -2.16099                      50.37195
                      -0.39728                      -2.34594                      50.37080
                       0.20004                      -2.38352                      50.36960
                       0.78793                      -2.27137                      50.36842
                       1.32947                      -2.01655                      50.36733
                       1.79062                      -1.63505                      50.36642
                       2.14240                      -1.15085                      50.36572
                       2.36272                      -0.59438                      50.36530
                       2.39372                      -0.00074                      54.74481
                       2.32038                       0.57979                      54.74499
                       2.10497                       1.12385                      54.74548
                       1.76103                       1.59725                      54.74626
                       1.31016                       1.97024                      54.74726
                       0.78071                       2.21938                      54.74844
                       0.20592                       2.32903                      54.74971
                      -0.37807                       2.29228                      54.75100
                      -0.93458                       2.11146                      54.75222
                      -1.42864                       1.79792                      54.75330
                      -1.82920                       1.37137                      54.75417
                      -2.11109                       0.85860                      54.75477
                      -2.25662                       0.29183                      54.75507
                      -2.25662                      -0.29332                      54.75505
                      -2.11109                      -0.86008                      54.75471
                      -1.82920                      -1.37285                      54.75408
                      -1.42864                      -1.79941                      54.75318
                      -0.93458                      -2.11295                      54.75208
                      -0.37807                      -2.29377                      54.75085
                       0.20592                      -2.33051                      54.74956
                       0.78071                      -2.22086                      54.74829
                       1.31016                      -1.97172                      54.74713
                       1.76103                      -1.59873                      54.74615
                       2.10497                      -1.12534                      54.74541
                       2.32038                      -0.58128                      54.74495
                       2.35056                      -0.00090                      59.12446
                       2.27890                       0.56640                      59.12465
                       2.06840                       1.09804                      59.12518
                       1.73231                       1.56064                      59.12600
                       1.29173                       1.92512                      59.12708
                       0.77435                       2.16858                      59.12833
                       0.21268                       2.27573                      59.12969
                      -0.35799                       2.23982                      59.13106
                      -0.90181                       2.06313                      59.13236
                      -1.38459                       1.75674                      59.13351
                      -1.77602                       1.33991                      59.13444
                      -2.05148                       0.83884                      59.13508
                      -2.19369                       0.28500                      59.13540
                      -2.19369                      -0.28680                      59.13538
                      -2.05148                      -0.84064                      59.13502
                      -1.77602                      -1.34171                      59.13434
                      -1.38459                      -1.75853                      59.13338
                      -0.90181                      -2.06492                      59.13220
                      -0.35799                      -2.24162                      59.13089
                       0.21268                      -2.27752                      59.12951
                       0.77435                      -2.17038                      59.12817
                       1.29173                      -1.92691                      59.12693
                       1.73231                      -1.56243                      59.12588
                       2.06840                      -1.09984                      59.12509
                       2.27890                      -0.56819                      59.12461
                       2.30829                      -0.00107                      63.50412
                       2.23830                       0.55298                      63.50433
                       2.03272                       1.07222                      63.50489
                       1.70447                       1.52401                      63.50576
                       1.27418                       1.87999                      63.50690
                       0.76888                       2.11776                      63.50823
                       0.22032                       2.22241                      63.50966
                      -0.33703                       2.18734                      63.51111
                      -0.86815                       2.01477                      63.51249
                      -1.33967                       1.71554                      63.51371
                      -1.72196                       1.30844                      63.51468
                      -1.99099                       0.81906                      63.51537
                      -2.12987                       0.27816                      63.51570
                      -2.12987                      -0.28030                      63.51568
                      -1.99099                      -0.82121                      63.51530
                      -1.72196                      -1.31058                      63.51457
                      -1.33967                      -1.71768                      63.51356
                      -0.86815                      -2.01691                      63.51232
                      -0.33703                      -2.18948                      63.51093
                       0.22032                      -2.22455                      63.50947
                       0.76888                      -2.11991                      63.50805
                       1.27418                      -1.88213                      63.50674
                       1.70447                      -1.52616                      63.50563
                       2.03272                      -1.07436                      63.50480
                       2.23830                      -0.55512                      63.50428
                       2.26688                      -0.00126                      67.88384
                       2.19856                       0.53954                      67.88405
                       1.99790                       1.04637                      67.88464
                       1.67749                       1.48737                      67.88555
                       1.25748                       1.83483                      67.88674
                       0.76426                       2.06693                      67.88813
                       0.22881                       2.16907                      67.88963
                      -0.31522                       2.13484                      67.89115
                      -0.83364                       1.96639                      67.89259
                      -1.29389                       1.67431                      67.89387
                      -1.66704                       1.27695                      67.89489
                      -1.92964                       0.79927                      67.89560
                      -2.06520                       0.27129                      67.89596
                      -2.06520                      -0.27382                      67.89593
                      -1.92964                      -0.80180                      67.89553
                      -1.66704                      -1.27948                      67.89477
                      -1.29389                      -1.67684                      67.89371
                      -0.83364                      -1.96892                      67.89241
                      -0.31522                      -2.13737                      67.89096
                       0.22881                      -2.17160                      67.88943
                       0.76426                      -2.06946                      67.88794
                       1.25748                      -1.83736                      67.88657
                       1.67749                      -1.48990                      67.88541
                       1.99790                      -1.04890                      67.88454
                       2.19856                      -0.54207                      67.88400
                       2.22624                      -0.00148                      72.26363
                       2.15959                       0.52609                      72.26385
                       1.96384                       1.02050                      72.26446
                       1.65128                       1.45071                      72.26540
                       1.24156                       1.78966                      72.26663
                       0.76041                       2.01607                      72.26806
                       0.23807                       2.11571                      72.26961
                      -0.29263                       2.08232                      72.27118
                      -0.79836                       1.91800                      72.27266
                      -1.24734                       1.63307                      72.27397
                      -1.61135                       1.24544                      72.27503
                      -1.86752                       0.77945                      72.27576
                      -1.99977                       0.26440                      72.27613
                      -1.99977                      -0.26736                      72.27610
                      -1.86752                      -0.78241                      72.27568
                      -1.61135                      -1.24839                      72.27490
                      -1.24734                      -1.63602                      72.27381
                      -0.79836                      -1.92095                      72.27247
                      -0.29263                      -2.08528                      72.27097
                       0.23807                      -2.11867                      72.26940
                       0.76041                      -2.01902                      72.26786
                       1.24156                      -1.79261                      72.26645
                       1.65128                      -1.45366                      72.26526
                       1.96384                      -1.02346                      72.26435
                       2.15959                      -0.52904                      72.26380
                       2.18618                      -0.00171                      76.64355
                       2.12120                       0.51262                      76.64378
                       1.93037                       0.99462                      76.64439
                       1.62565                       1.41402                      76.64534
                       1.22621                       1.74447                      76.64658
                       0.75715                       1.96520                      76.64803
                       0.24792                       2.06234                      76.64959
                      -0.26946                       2.02979                      76.65117
                      -0.76250                       1.86959                      76.65267
                      -1.20020                       1.59181                      76.65399
                      -1.55508                       1.21391                      76.65506
                      -1.80482                       0.75962                      76.65580
                      -1.93375                       0.25750                      76.65616
                      -1.93375                      -0.26091                      76.65614
                      -1.80482                      -0.76303                      76.65571
                      -1.55508                      -1.21732                      76.65493
                      -1.20020                      -1.59522                      76.65382
                      -0.76250                      -1.87300                      76.65247
                      -0.26946                      -2.03320                      76.65095
                       0.24792                      -2.06575                      76.64937
                       0.75715                      -1.96861                      76.64782
                       1.22621                      -1.74788                      76.64639
                       1.62565                      -1.41743                      76.64519
                       1.93037                      -0.99803                      76.64428
                       2.12120                      -0.51603                      76.64372
                       2.14639                      -0.00195                      81.02367
                       2.08309                       0.49913                      81.02389
                       1.89717                       0.96872                      81.02449
                       1.60030                       1.37733                      81.02542
                       1.21115                       1.69927                      81.02664
                       0.75415                       1.91431                      81.02805
                       0.25804                       2.00895                      81.02958
                      -0.24602                       1.97724                      81.03113
                      -0.72636                       1.82116                      81.03260
                      -1.15280                       1.55054                      81.03389
                      -1.49853                       1.18236                      81.03493
                      -1.74185                       0.73978                      81.03566
                      -1.86745                       0.25058                      81.03601
                      -1.86745                      -0.25448                      81.03598
                      -1.74185                      -0.74367                      81.03557
                      -1.49853                      -1.18626                      81.03480
                      -1.15280                      -1.55444                      81.03371
                      -0.72636                      -1.82506                      81.03239
                      -0.24602                      -1.98114                      81.03090
                       0.25804                      -2.01285                      81.02935
                       0.75415                      -1.91821                      81.02783
                       1.21114                      -1.70316                      81.02644
                       1.60030                      -1.38123                      81.02526
                       1.89717                      -0.97262                      81.02438
                       2.08309                      -0.50303                      81.02383
                       2.10641                      -0.00221                      85.40403
                       2.04478                       0.48563                      85.40425
                       1.86377                       0.94281                      85.40481
                       1.57475                       1.34062                      85.40569
                       1.19588                       1.65405                      85.40683
                       0.75096                       1.86341                      85.40815
                       0.26796                       1.95555                      85.40959
                      -0.22278                       1.92467                      85.41104
                      -0.69043                       1.77273                      85.41241
                      -1.10559                       1.50925                      85.41362
                      -1.44219                       1.15081                      85.41460
                      -1.67908                       0.71992                      85.41527
                      -1.80136                       0.24365                      85.41561
                      -1.80136                      -0.24806                      85.41558
                      -1.67908                      -0.72433                      85.41519
                      -1.44219                      -1.15522                      85.41446
                      -1.10559                      -1.51366                      85.41345
                      -0.69043                      -1.77714                      85.41220
                      -0.22278                      -1.92908                      85.41081
                       0.26796                      -1.95996                      85.40936
                       0.75096                      -1.86782                      85.40793
                       1.19588                      -1.65846                      85.40663
                       1.57475                      -1.34503                      85.40553
                       1.86377                      -0.94723                      85.40470
                       2.04478                      -0.49004                      85.40419
                       2.08613                      -0.00234                      87.59434
                       2.02534                       0.47888                      87.59454
                       1.84679                       0.92986                      87.59507
                       1.56169                       1.32226                      87.59591
                       1.18796                       1.63144                      87.59698
                       0.74909                       1.83796                      87.59824
                       0.27264                       1.92885                      87.59960
                      -0.21144                       1.89839                      87.60097
                      -0.67274                       1.74850                      87.60227
                      -1.08227                       1.48861                      87.60341
                      -1.41430                       1.13503                      87.60433
                      -1.64797                       0.70998                      87.60497
                      -1.76859                       0.24018                      87.60529
                      -1.76859                      -0.24486                      87.60526
                      -1.64797                      -0.71466                      87.60489
                      -1.41430                      -1.13970                      87.60420
                      -1.08227                      -1.49328                      87.60324
                      -0.67274                      -1.75318                      87.60206
                      -0.21144                      -1.90306                      87.60074
                       0.27264                      -1.93352                      87.59937
                       0.74909                      -1.84263                      87.59802
                       1.18796                      -1.63611                      87.59679
                       1.56169                      -1.32694                      87.59575
                       1.84679                      -0.93453                      87.59496
                       2.02534                      -0.48355                      87.59448
                       3.00000                       0.00000                       0.00000
                       2.90575                       0.74607                       0.00000
                       2.62892                       1.44526                       0.00000
                       2.18691                       2.05364                       0.00000
                       1.60748                       2.53298                       0.00000
                       0.92705                       2.85317                       0.00000
                       0.18837                       2.99408                       0.00000
                      -0.56214                       2.94686                       0.00000
                      -1.27734                       2.71448                       0.00000
                      -1.91227                       2.31154                       0.00000
                      -2.42705                       1.76336                       0.00000
                      -2.78933                       1.10437                       0.00000
                      -2.97634                       0.37600                       0.00000
                      -2.97634                      -0.37600                       0.00000
                      -2.78933                      -1.10437                       0.00000
                      -2.42705                      -1.76336                       0.00000
                      -1.91227                      -2.31154                       0.00000
                      -1.27734                      -2.71448                       0.00000
                      -0.56214                      -2.94686                       0.00000
                       0.18837                      -2.99408                       0.00000
                       0.92705                      -2.85317                       0.00000
                       1.60748                      -2.53298                       0.00000
                       2.18691                      -2.05364                       0.00000
                       2.62892                      -1.44526                       0.00000
                       2.90575                      -0.74607                       0.00000
        </DataArray>
      </Points>
      <Polys>
        <DataArray type="Int32" Name="connectivity" format="ascii">
      0      1     26     25
      1      2     27     26
      2      3     28     27
      3      4     29     28
      4      5     30     29
      5      6     31     30
      6      7     32     31
      7      8     33     32
      8      9     34     33
      9     10     35     34
     10     11     36     35
     11     12     37     36
     12     13     38     37
     13     14     39     38
     14     15     40     39
     15     16     41     40
     16     17     42     41
     17     18     43     42
     18     19     44     43
     19     20     45     44
     20     21     46     45
     21     22     47     46
     22     23     48     47
     23     24     49     48
     24      0     25     49
     24     23     22     21     20     19     18     17     16     15     14     13     12     11     10      9      8      7      6      5      4      3      2      1      0
     25     26     27     28     29     30     31     32     33     34     35     36     37     38     39     40     41     42     43     44     45     46     47     48     49
     25     26     51     50
     26     27     52     51
     27     28     53     52
     28     29     54     53
     29     30     55     54
     30     31     56     55
     31     32     57     56
     32     33     58     57
     33     34     59     58
     34     35     60     59
     35     36     61     60
     36     37     62     61
     37     38     63     62
     38     39     64     63
     39     40     65     64
     40     41     66     65
     41     42     67     66
     42     43     68     67
     43     44     69     68
     44     45     70     69
     45     46     71     70
     46     47     72     71
     47     48     73     72
     48     49     74     73
     49     25     50     74
     49     48     47     46     45     44     43     42     41     40     39     38     37     36     35     34     33     32     31     30     29     28     27     26     25
     50     51     52     53     54     55     56     57     58     59     60     61     62     63     64     65     66     67     68     69     70     71     72     73     74
     50     51     76     75
     51     52     77     76
     52     53     78     77
     53     54     79     78
     54     55     80     79
     55     56     81     80
     56     57     82     81
     57     58     83     82
     58     59     84     83
     59     60     85     84
     60     61     86     85
     61     62     87     86
     62     63     88     87
     63     64     89     88
     64     65     90     89
     65     66     91     90
     66     67     92     91
     67     68     93     92
     68     69     94     93
     69     70     95     94
     70     71     96     95
     71     72     97     96
     72     73     98     97
     73     74     99     98
     74     50     75     99
     74     73     72     71     70     69     68     67     66     65     64     63     62     61     60     59     58     57     56     55     54     53     52     51     50
     75     76     77     78     79     80     81     82     83     84     85     86     87     88     89     90     91     92     93     94     95     96     97     98     99
     75     76    101    100
     76     77    102    101
     77     78    103    102
     78     79    104    103
     79     80    105    104
     80     81    106    105
     81     82    107    106
     82     83    108    107
     83     84    109    108
     84     85    110    109
     85     86    111    110
     86     87    112    111
     87     88    113    112
     88     89    114    113
     89     90    115    114
     90     91    116    115
     91     92    117    116
     92     93    118    117
     93     94    119    118
     94     95    120    119
     95     96    121    120
     96     97    122    121
     97     98    123    122
     98     99    124    123
     99     75    100    124
     99     98     97     96     95     94     93     92     91     90     89     88     87     86     85     84     83     82     81     80     79     78     77     76     75
    100    101    102    103    104    105    106    107    108    109    110    111    112    113    114    115    116    117    118    119    120    121    122    123    124
    100    101    126    125
    101    102    127    126
    102    103    128    127
    103    104    129    128
    104    105    130    129
    105    106    131    130
    106    107    132    131
    107    108    133    132
    108    109    134    133
    109    110    135    134
    110    111    136    135
    111    112    137    136
    112    113    138    137
    113    114    139    138
    114    115    140    139
    115    116    141    140
    116    117    142    141
    117    118    143    142
    118    119    144    143
    119    120    145    144
    120    121    146    145
    121    122    147    146
    122    123    148    147
    123    124    149    148
    124    100    125    149
    124    123    122    121    120    119    118    117    116    115    114    113    112    111    110    109    108    107    106    105    104    103    102    101    100
    125    126    127    128    129    130    131    132    133    134    135    136    137    138    139    140    141    142    143    144    145    146    147    148    149
    125    126    151    150
    126    127    152    151
    127    128    153    152
    128    129    154    153
    129    130    155    154
    130    131    156    155
    131    132    157    156
    132    133    158    157
    133    134    159    158
    134    135    160    159
    135    136    161    160
    136    137    162    161
    137    138    163    162
    138    139    164    163
    139    140    165    164
    140    141    166    165
    141    142    167    166
    142    143    168    167
    143    144    169    168
    144    145    170    169
    145    146    171    170
    146    147    172    171
    147    148    173    172
    148    149    174    173
    149    125    150    174
    149    148    147    146    145    144    143    142    141    140    139    138    137    136    135    134    133    132    131    130    129    128    127    126    125
    150    151    152    153    154    155    156    157    158    159    160    161    162    163    164    165    166    167    168    169    170    171    172    173    174
    150    151    176    175
    151    152    177    176
    152    153    178    177
    153    154    179    178
    154    155    180    179
    155    156    181    180
    156    157    182    181
    157    158    183    182
    158    159    184    183
    159    160    185    184
    160    161    186    185
    161    162    187    186
    162    163    188    187
    163    164    189    188
    164    165    190    189
    165    166    191    190
    166    167    192    191
    167    168    193    192
    168    169    194    193
    169    170    195    194
    170    171    196    195
    171    172    197    196
    172    173    198    197
    173    174    199    198
    174    150    175    199
    174    173    172    171    170    169    168    167    166    165    164    163    162    161    160    159    158    157    156    155    154    153    152    151    150
    175    176    177    178    179    180    181    182    183    184    185    186    187    188    189    190    191    192    193    194    195    196    197    198    199
    175    176    201    200
    176    177    202    201
    177    178    203    202
    178    179    204    203
    179    180    205    204
    180    181    206    205
    181    182    207    206
    182    183    208    207
    183    184    209    208
    184    185    210    209
    185    186    211    210
    186    187    212    211
    187    188    213    212
    188    189    214    213
    189    190    215    214
    190    191    216    215
    191    192    217    216
    192    193    218    217
    193    194    219    218
    194    195    220    219
    195    196    221    220
    196    197    222    221
    197    198    223    222
    198    199    224    223
    199    175    200    224
    199    198    197    196    195    194    193    192    191    190    189    188    187    186    185    184    183    182    181    180    179    178    177    176    175
    200    201    202    203    204    205    206    207    208    209    210    211    212    213    214    215    216    217    218    219    220    221    222    223    224
    200    201    226    225
    201    202    227    226
    202    203    228    227
    203    204    229    228
    204    205    230    229
    205    206    231    230
    206    207    232    231
    207    208    233    232
    208    209    234    233
    209    210    235    234
    210    211    236    235
    211    212    237    236
    212    213    238    237
    213    214    239    238
    214    215    240    239
    215    216    241    240
    216    217    242    241
    217    218    243    242
    218    219    244    243
    219    220    245    244
    220    221    246    245
    221    222    247    246
    222    223    248    247
    223    224    249    248
    224    200    225    249
    224    223    222    221    220    219    218    217    216    215    214    213    212    211    210    209    208    207    206    205    204    203    202    201    200
    225    226    227    228    229    230    231    232    233    234    235    236    237    238    239    240    241    242    243    244    245    246    247    248    249
    225    226    251    250
    226    227    252    251
    227    228    253    252
    228    229    254    253
    229    230    255    254
    230    231    256    255
    231    232    257    256
    232    233    258    257
    233    234    259    258
    234    235    260    259
    235    236    261    260
    236    237    262    261
    237    238    263    262
    238    239    264    263
    239    240    265    264
    240    241    266    265
    241    242    267    266
    242    243    268    267
    243    244    269    268
    244    245    270    269
    245    246    271    270
    246    247    272    271
    247    248    273    272
    248    249    274    273
    249    225    250    274
    249    248    247    246    245    244    243    242    241    240    239    238    237    236    235    234    233    232    231    230    229    228    227    226    225
    250    251    252    253    254    255    256    257    258    259    260    261    262    263    264    265    266    267    268    269    270    271    272    273    274
    250    251    276    275
    251    252    277    276
    252    253    278    277
    253    254    279    278
    254    255    280    279
    255    256    281    280
    256    257    282    281
    257    258    283    282
    258    259    284    283
    259    260    285    284
    260    261    286    285
    261    262    287    286
    262    263    288    287
    263    264    289    288
    264    265    290    289
    265    266    291    290
    266    267    292    291
    267    268    293    292
    268    269    294    293
    269    270    295    294
    270    271    296    295
    271    272    297    296
    272    273    298    297
    273    274    299    298
    274    250    275    299
    274    273    272    271    270    269    268    267    266    265    264    263    262    261    260    259    258    257    256    255    254    253    252    251    250
    275    276    277    278    279    280    281    282    283    284    285    286    287    288    289    290    291    292    293    294    295    296    297    298    299
    275    276    301    300
    276    277    302    301
    277    278    303    302
    278    279    304    303
    279    280    305    304
    280    281    306    305
    281    282    307    306
    282    283    308    307
    283    284    309    308
    284    285    310    309
    285    286    311    310
    286    287    312    311
    287    288    313    312
    288    289    314    313
    289    290    315    314
    290    291    316    315
    291    292    317    316
    292    293    318    317
    293    294    319    318
    294    295    320    319
    295    296    321    320
    296    297    322    321
    297    298    323    322
    298    299    324    323
    299    275    300    324
    299    298    297    296    295    294    293    292    291    290    289    288    287    286    285    284    283    282    281    280    279    278    277    276    275
    300    301    302    303    304    305    306    307    308    309    310    311    312    313    314    315    316    317    318    319    320    321    322    323    324
    300    301    326    325
    301    302    327    326
    302    303    328    327
    303    304    329    328
    304    305    330    329
    305    306    331    330
    306    307    332    331
    307    308    333    332
    308    309    334    333
    309    310    335    334
    310    311    336    335
    311    312    337    336
    312    313    338    337
    313    314    339    338
    314    315    340    339
    315    316    341    340
    316    317    342    341
    317    318    343    342
    318    319    344    343
    319    320    345    344
    320    321    346    345
    321    322    347    346
    322    323    348    347
    323    324    349    348
    324    300    325    349
    324    323    322    321    320    319    318    317    316    315    314    313    312    311    310    309    308    307    306    305    304    303    302    301    300
    325    326    327    328    329    330    331    332    333    334    335    336    337    338    339    340    341    342    343    344    345    346    347    348    349
    325    326    351    350
    326    327    352    351
    327    328    353    352
    328    329    354    353
    329    330    355    354
    330    331    356    355
    331    332    357    356
    332    333    358    357
    333    334    359    358
    334    335    360    359
    335    336    361    360
    336    337    362    361
    337    338    363    362
    338    339    364    363
    339    340    365    364
    340    341    366    365
    341    342    367    366
    342    343    368    367
    343    344    369    368
    344    345    370    369
    345    346    371    370
    346    347    372    371
    347    348    373    372
    348    349    374    373
    349    325    350    374
    349    348    347    346    345    344    343    342    341    340    339    338    337    336    335    334    333    332    331    330    329    328    327    326    325
    350    351    352    353    354    355    356    357    358    359    360    361    362    363    364    365    366    367    368    369    370    371    372    373    374
    350    351    376    375
    351    352    377    376
    352    353    378    377
    353    354    379    378
    354    355    380    379
    355    356    381    380
    356    357    382    381
    357    358    383    382
    358    359    384    383
    359    360    385    384
    360    361    386    385
    361    362    387    386
    362    363    388    387
    363    364    389    388
    364    365    390    389
    365    366    391    390
    366    367    392    391
    367    368    393    392
    368    369    394    393
    369    370    395    394
    370    371    396    395
    371    372    397    396
    372    373    398    397
    373    374    399    398
    374    350    375    399
    374    373    372    371    370    369    368    367    366    365    364    363    362    361    360    359    358    357    356    355    354    353    352    351    350
    375    376    377    378    379    380    381    382    383    384    385    386    387    388    389    390    391    392    393    394    395    396    397    398    399
    375    376    401    400
    376    377    402    401
    377    378    403    402
    378    379    404    403
    379    380    405    404
    380    381    406    405
    381    382    407    406
    382    383    408    407
    383    384    409    408
    384    385    410    409
    385    386    411    410
    386    387    412    411
    387    388    413    412
    388    389    414    413
    389    390    415    414
    390    391    416    415
    391    392    417    416
    392    393    418    417
    393    394    419    418
    394    395    420    419
    395    396    421    420
    396    397    422    421
    397    398    423    422
    398    399    424    423
    399    375    400    424
    399    398    397    396    395    394    393    392    391    390    389    388    387    386    385    384    383    382    381    380    379    378    377    376    375
    400    401    402    403    404    405    406    407    408    409    410    411    412    413    414    415    416    417    418    419    420    421    422    423    424
    400    401    426    425
    401    402    427    426
    402    403    428    427
    403    404    429    428
    404    405    430    429
    405    406    431    430
    406    407    432    431
    407    408    433    432
    408    409    434    433
    409    410    435    434
    410    411    436    435
    411    412    437    436
    412    413    438    437
    413    414    439    438
    414    415    440    439
    415    416    441    440
    416    417    442    441
    417    418    443    442
    418    419    444    443
    419    420    445    444
    420    421    446    445
    421    422    447    446
    422    423    448    447
    423    424    449    448
    424    400    425    449
    424    423    422    421    420    419    418    417    416    415    414    413    412    411    410    409    408    407    406    405    404    403    402    401    400
    425    426    427    428    429    430    431    432    433    434    435    436    437    438    439    440    441    442    443    444    445    446    447    448    449
    425    426    451    450
    426    427    452    451
    427    428    453    452
    428    429    454    453
    429    430    455    454
    430    431    456    455
    431    432    457    456
    432    433    458    457
    433    434    459    458
    434    435    460    459
    435    436    461    460
    436    437    462    461
    437    438    463    462
    438    439    464    463
    439    440    465    464
    440    441    466    465
    441    442    467    466
    442    443    468    467
    443    444    469    468
    444    445    470    469
    445    446    471    470
    446    447    472    471
    447    448    473    472
    448    449    474    473
    449    425    450    474
    449    448    447    446    445    444    443    442    441    440    439    438    437    436    435    434    433    432    431    430    429    428    427    426    425
    450    451    452    453    454    455    456    457    458    459    460    461    462    463    464    465    466    467    468    469    470    471    472    473    474
    450    451    476    475
    451    452    477    476
    452    453    478    477
    453    454    479    478
    454    455    480    479
    455    456    481    480
    456    457    482    481
    457    458    483    482
    458    459    484    483
    459    460    485    484
    460    461    486    485
    461    462    487    486
    462    463    488    487
    463    464    489    488
    464    465    490    489
    465    466    491    490
    466    467    492    491
    467    468    493    492
    468    469    494    493
    469    470    495    494
    470    471    496    495
    471    472    497    496
    472    473    498    497
    473    474    499    498
    474    450    475    499
    474    473    472    471    470    469    468    467    466    465    464    463    462    461    460    459    458    457    456    455    454    453    452    451    450
    475    476    477    478    479    480    481    482    483    484    485    486    487    488    489    490    491    492    493    494    495    496    497    498    499
    475    476    501    500
    476    477    502    501
    477    478    503    502
    478    479    504    503
    479    480    505    504
    480    481    506    505
    481    482    507    506
    482    483    508    507
    483    484    509    508
    484    485    510    509
    485    486    511    510
    486    487    512    511
    487    488    513    512
    488    489    514    513
    489    490    515    514
    490    491    516    515
    491    492    517    516
    492    493    518    517
    493    494    519    518
    494    495    520    519
    495    496    521    520
    496    497    522    521
    497    498    523    522
    498    499    524    523
    499    475    500    524
    499    498    497    496    495    494    493    492    491    490    489    488    487    486    485    484    483    482    481    480    479    478    477    476    475
    500    501    502    503    504    505    506    507    508    509    510    511    512    513    514    515    516    517    518    519    520    521    522    523    524
    525    526      1      0
    526    527      2      1
    527    528      3      2
    528    529      4      3
    529    530      5      4
    530    531      6      5
    531    532      7      6
    532    533      8      7
    533    534      9      8
    534    535     10      9
    535    536     11     10
    536    537     12     11
    537    538     13     12
    538    539     14     13
    539    540     15     14
    540    541     16     15
    541    542     17     16
    542    543     18     17
    543    544     19     18
    544    545     20     19
    545    546     21     20
    546    547     22     21
    547    548     23     22
    548    549     24     23
    549    525      0     24
    549    548    547    546    545    544    543    542    541    540    539    538    537    536    535    534    533    532    531    530    529    528    527    526    525
      0      1      2      3      4      5      6      7      8      9     10     11     12     13     14     15     16     17     18     19     20     21     22     23     24
        </DataArray>
        <DataArray type="Int32" Name="offsets" format="ascii">
      4
      8
     12
     16
     20
     24
     28
     32
     36
     40
     44
     48
     52
     56
     60
     64
     68
     72
     76
     80
     84
     88
     92
     96
    100
    125
    150
    154
    158
    162
    166
    170
    174
    178
    182
    186
    190
    194
    198
    202
    206
    210
    214
    218
    222
    226
    230
    234
    238
    242
    246
    250
    275
    300
    304
    308
    312
    316
    320
    324
    328
    332
    336
    340
    344
    348
    352
    356
    360
    364
    368
    372
    376
    380
    384
    388
    392
    396
    400
    425
    450
    454
    458
    462
    466
    470
    474
    478
    482
    486
    490
    494
    498
    502
    506
    510
    514
    518
    522
    526
    530
    534
    538
    542
    546
    550
    575
    600
    604
    608
    612
    616
    620
    624
    628
    632
    636
    640
    644
    648
    652
    656
    660
    664
    668
    672
    676
    680
    684
    688
    692
    696
    700
    725
    750
    754
    758
    762
    766
    770
    774
    778
    782
    786
    790
    794
    798
    802
    806
    810
    814
    818
    822
    826
    830
    834
    838
    842
    846
    850
    875
    900
    904
    908
    912
    916
    920
    924
    928
    932
    936
    940
    944
    948
    952
    956
    960
    964
    968
    972
    976
    980
    984
    988
    992
    996
   1000
   1025
   1050
   1054
   1058
   1062
   1066
   1070
   1074
   1078
   1082
   1086
   1090
   1094
   1098
   1102
   1106
   1110
   1114
   1118
   1122
   1126
   1130
   1134
   1138
   1142
   1146
   1150
   1175
   1200
   1204
   1208
   1212
   1216
   1220
   1224
   1228
   1232
   1236
   1240
   1244
   1248
   1252
   1256
   1260
   1264
   1268
   1272
   1276
   1280
   1284
   1288
   1292
   1296
   1300
   1325
   1350
   1354
   1358
   1362
   1366
   1370
   1374
   1378
   1382
   1386
   1390
   1394
   1398
   1402
   1406
   1410
   1414
   1418
   1422
   1426
   1430
   1434
   1438
   1442
   1446
   1450
   1475
   1500
   1504
   1508
   1512
   1516
   1520
   1524
   1528
   1532
   1536
   1540
   1544
   1548
   1552
   1556
   1560
   1564
   1568
   1572
   1576
   1580
   1584
   1588
   1592
   1596
   1600
   1625
   1650
   1654
   1658
   1662
   1666
   1670
   1674
   1678
   1682
   1686
   1690
   1694
   1698
   1702
   1706
   1710
   1714
   1718
   1722
   1726
   1730
   1734
   1738
   1742
   1746
   1750
   1775
   1800
   1804
   1808
   1812
   1816
   1820
   1824
   1828
   1832
   1836
   1840
   1844
   1848
   1852
   1856
   1860
   1864
   1868
   1872
   1876
   1880
   1884
   1888
   1892
   1896
   1900
   1925
   1950
   1954
   1958
   1962
   1966
   1970
   1974
   1978
   1982
   1986
   1990
   1994
   1998
   2002
   2006
   2010
   2014
   2018
   2022
   2026
   2030
   2034
   2038
   2042
   2046
   2050
   2075
   2100
   2104
   2108
   2112
   2116
   2120
   2124
   2128
   2132
   2136
   2140
   2144
   2148
   2152
   2156
   2160
   2164
   2168
   2172
   2176
   2180
   2184
   2188
   2192
   2196
   2200
   2225
   2250
   2254
   2258
   2262
   2266
   2270
   2274
   2278
   2282
   2286
   2290
   2294
   2298
   2302
   2306
   2310
   2314
   2318
   2322
   2326
   2330
   2334
   2338
   2342
   2346
   2350
   2375
   2400
   2404
   2408
   2412
   2416
   2420
   2424
   2428
   2432
   2436
   2440
   2444
   2448
   2452
   2456
   2460
   2464
   2468
   2472
   2476
   2480
   2484
   2488
   2492
   2496
   2500
   2525
   2550
   2554
   2558
   2562
   2566
   2570
   2574
   2578
   2582
   2586
   2590
   2594
   2598
   2602
   2606
   2610
   2614
   2618
   2622
   2626
   2630
   2634
   2638
   2642
   2646
   2650
   2675
   2700
   2704
   2708
   2712
   2716
   2720
   2724
   2728
   2732
   2736
   2740
   2744
   2748
   2752
   2756
   2760
   2764
   2768
   2772
   2776
   2780
   2784
   2788
   2792
   2796
   2800
   2825
   2850
   2854
   2858
   2862
   2866
   2870
   2874
   2878
   2882
   2886
   2890
   2894
   2898
   2902
   2906
   2910
   2914
   2918
   2922
   2926
   2930
   2934
   2938
   2942
   2946
   2950
   2975
   3000
   3004
   3008
   3012
   3016
   3020
   3024
   3028
   3032
   3036
   3040
   3044
   3048
   3052
   3056
   3060
   3064
   3068
   3072
   3076
   3080
   3084
   3088
   3092
   3096
   3100
   3125
   3150
        </DataArray>
      </Polys>
    </Piece>
  </PolyData>
</VTKFile>
