<?xml version="1.0"?>
<VTKFile type="PolyData" version="0.1" byte_order="LittleEndian">
  <PolyData>
    <Piece NumberOfPoints="     22" NumberOfVerts="  0" NumberOfLines="     21"
           NumberOfStrips="  0" NumberOfPolys="      0">
      <Points>
        <DataArray type="Float32" NumberOfComponents="3" format="ascii">
                       0.00007                       0.00000                       2.19000
                       0.00073                       0.00001                       6.57000
                       0.00217                       0.00003                      10.95000
                       0.00446                       0.00006                      15.33000
                       0.00762                       0.00009                      19.71000
                       0.01163                       0.00013                      24.09000
                       0.01643                       0.00017                      28.46999
                       0.02202                       0.00022                      32.84999
                       0.02836                       0.00027                      37.22999
                       0.03546                       0.00033                      41.60998
                       0.04332                       0.00038                      45.98997
                       0.05198                       0.00043                      50.36996
                       0.06149                       0.00049                      54.74995
                       0.07186                       0.00054                      59.12994
                       0.08312                       0.00059                      63.50993
                       0.09524                       0.00063                      67.88991
                       0.10813                       0.00067                      72.26989
                       0.12161                       0.00071                      76.64987
                       0.13534                       0.00074                      81.02985
                       0.14886                       0.00077                      85.40983
                       0.15532                       0.00078                      87.59982
                       0.00000                       0.00000                       0.00000
        </DataArray>
      </Points>
      <PointData>
        <DataArray type="Float32" Name="TranslationalVelocity" NumberOfComponents="3" format="ascii">
                      -0.00000                      -0.00001                       0.00000
                      -0.00001                      -0.00006                       0.00000
                      -0.00004                      -0.00016                       0.00000
                      -0.00008                      -0.00029                       0.00000
                      -0.00014                      -0.00047                       0.00000
                      -0.00021                      -0.00067                       0.00000
                      -0.00028                      -0.00090                       0.00000
                      -0.00036                      -0.00117                       0.00000
                      -0.00045                      -0.00146                       0.00000
                      -0.00054                      -0.00177                       0.00000
                      -0.00062                      -0.00211                       0.00000
                      -0.00070                      -0.00248                       0.00000
                      -0.00078                      -0.00286                       0.00000
                      -0.00085                      -0.00326                       0.00000
                      -0.00091                      -0.00367                       0.00000
                      -0.00097                      -0.00409                       0.00000
                      -0.00101                      -0.00451                       0.00000
                      -0.00105                      -0.00494                       0.00000
                      -0.00108                      -0.00537                       0.00000
                      -0.00109                      -0.00580                       0.00000
                      -0.00110                      -0.00601                       0.00000
                       0.00000                      -0.00000                       0.00000
        </DataArray>
        <DataArray type="Float32" Name="RotationalVelocity" NumberOfComponents="3" format="ascii">
                       0.00001                      -0.00000                       0.00000
                       0.00002                      -0.00000                       0.00000
                       0.00003                      -0.00001                       0.00000
                       0.00004                      -0.00001                       0.00000
                       0.00004                      -0.00001                       0.00000
                       0.00005                      -0.00002                       0.00000
                       0.00006                      -0.00002                       0.00000
                       0.00006                      -0.00002                       0.00000
                       0.00007                      -0.00002                       0.00000
                       0.00008                      -0.00002                       0.00000
                       0.00008                      -0.00002                       0.00000
                       0.00009                      -0.00002                       0.00000
                       0.00009                      -0.00002                       0.00000
                       0.00009                      -0.00002                       0.00000
                       0.00009                      -0.00001                       0.00000
                       0.00010                      -0.00001                       0.00000
                       0.00010                      -0.00001                       0.00000
                       0.00010                      -0.00001                       0.00000
                       0.00010                      -0.00000                       0.00000
                       0.00010                      -0.00000                       0.00000
                       0.00010                      -0.00000                       0.00000
                       0.00000                      -0.00000                       0.00000
        </DataArray>
        <DataArray type="Float32" Name="TranslationalAcceleration" NumberOfComponents="3" format="ascii">
                      -0.00028                      -0.00004                       0.00000
                      -0.00260                      -0.00036                       0.00000
                      -0.00728                      -0.00094                       0.00000
                      -0.01416                      -0.00173                       0.00001
                      -0.02293                      -0.00270                       0.00001
                      -0.03312                      -0.00382                       0.00002
                      -0.04416                      -0.00505                       0.00003
                      -0.05542                      -0.00636                       0.00005
                      -0.06623                      -0.00773                       0.00006
                      -0.07593                      -0.00910                       0.00008
                      -0.08386                      -0.01046                       0.00009
                      -0.08944                      -0.01175                       0.00010
                      -0.09214                      -0.01293                       0.00011
                      -0.09155                      -0.01396                       0.00011
                      -0.08736                      -0.01481                       0.00010
                      -0.07942                      -0.01544                       0.00007
                      -0.06774                      -0.01583                       0.00004
                      -0.05249                      -0.01599                      -0.00001
                      -0.03404                      -0.01592                      -0.00006
                      -0.01297                      -0.01568                      -0.00013
                      -0.00168                      -0.01552                      -0.00016
                       0.00000                      -0.00000                       0.00000
        </DataArray>
        <DataArray type="Float32" Name="RotationalAcceleration" NumberOfComponents="3" format="ascii">
                       0.00004                      -0.00026                       0.00000
                       0.00010                      -0.00080                       0.00000
                       0.00016                      -0.00133                       0.00000
                       0.00020                      -0.00180                       0.00000
                       0.00024                      -0.00218                       0.00000
                       0.00027                      -0.00245                       0.00000
                       0.00029                      -0.00257                       0.00000
                       0.00031                      -0.00255                       0.00000
                       0.00031                      -0.00237                       0.00000
                       0.00031                      -0.00204                       0.00000
                       0.00030                      -0.00156                       0.00000
                       0.00028                      -0.00096                       0.00000
                       0.00025                      -0.00025                       0.00000
                       0.00022                       0.00054                       0.00000
                       0.00017                       0.00138                       0.00000
                       0.00012                       0.00224                       0.00000
                       0.00006                       0.00309                       0.00000
                       0.00001                       0.00386                       0.00000
                      -0.00004                       0.00454                       0.00000
                      -0.00007                       0.00506                       0.00000
                      -0.00008                       0.00524                       0.00000
                       0.00000                      -0.00000                       0.00000
        </DataArray>
        <DataArray type="Float32" Name="OrientationX" NumberOfComponents="3" format="ascii">
                       1.00000                      -0.00000                      -0.00007
                       1.00000                      -0.00000                      -0.00024
                       1.00000                      -0.00000                      -0.00043
                       1.00000                      -0.00000                      -0.00062
                       1.00000                      -0.00000                      -0.00082
                       1.00000                      -0.00000                      -0.00101
                       1.00000                      -0.00000                      -0.00119
                       1.00000                      -0.00000                      -0.00136
                       1.00000                      -0.00000                      -0.00153
                       1.00000                      -0.00000                      -0.00171
                       1.00000                      -0.00000                      -0.00189
                       1.00000                      -0.00000                      -0.00207
                       1.00000                      -0.00000                      -0.00227
                       1.00000                      -0.00000                      -0.00247
                       1.00000                      -0.00000                      -0.00267
                       1.00000                      -0.00000                      -0.00286
                       1.00000                      -0.00000                      -0.00302
                       1.00000                      -0.00000                      -0.00312
                       1.00000                      -0.00000                      -0.00313
                       1.00000                      -0.00000                      -0.00301
                       1.00000                      -0.00000                      -0.00289
                       1.00000                      -0.00000                       0.00000
        </DataArray>
        <DataArray type="Float32" Name="OrientationY" NumberOfComponents="3" format="ascii">
                      -0.00000                       1.00000                      -0.00000
                      -0.00000                       1.00000                      -0.00000
                      -0.00000                       1.00000                      -0.00001
                      -0.00000                       1.00000                      -0.00001
                      -0.00000                       1.00000                      -0.00001
                      -0.00000                       1.00000                      -0.00001
                      -0.00000                       1.00000                      -0.00001
                      -0.00000                       1.00000                      -0.00001
                      -0.00000                       1.00000                      -0.00001
                      -0.00000                       1.00000                      -0.00001
                      -0.00000                       1.00000                      -0.00001
                      -0.00000                       1.00000                      -0.00001
                      -0.00000                       1.00000                      -0.00001
                      -0.00000                       1.00000                      -0.00001
                      -0.00000                       1.00000                      -0.00001
                      -0.00000                       1.00000                      -0.00001
                      -0.00000                       1.00000                      -0.00001
                      -0.00000                       1.00000                      -0.00001
                      -0.00000                       1.00000                      -0.00001
                      -0.00000                       1.00000                      -0.00001
                      -0.00000                       1.00000                      -0.00001
                      -0.00000                       1.00000                      -0.00000
        </DataArray>
        <DataArray type="Float32" Name="OrientationZ" NumberOfComponents="3" format="ascii">
                       0.00007                       0.00000                       1.00000
                       0.00024                       0.00000                       1.00000
                       0.00043                       0.00001                       1.00000
                       0.00062                       0.00001                       1.00000
                       0.00082                       0.00001                       1.00000
                       0.00101                       0.00001                       1.00000
                       0.00119                       0.00001                       1.00000
                       0.00136                       0.00001                       1.00000
                       0.00153                       0.00001                       1.00000
                       0.00171                       0.00001                       1.00000
                       0.00189                       0.00001                       1.00000
                       0.00207                       0.00001                       1.00000
                       0.00227                       0.00001                       1.00000
                       0.00247                       0.00001                       1.00000
                       0.00267                       0.00001                       1.00000
                       0.00286                       0.00001                       1.00000
                       0.00302                       0.00001                       1.00000
                       0.00312                       0.00001                       1.00000
                       0.00313                       0.00001                       1.00000
                       0.00301                       0.00001                       1.00000
                       0.00289                       0.00001                       1.00000
                       0.00000                      -0.00000                       1.00000
        </DataArray>
      </PointData>
      <Lines>
        <DataArray type="Int32" Name="connectivity" format="ascii">
      0      1
      1      2
      2      3
      3      4
      4      5
      5      6
      6      7
      7      8
      8      9
      9     10
     10     11
     11     12
     12     13
     13     14
     14     15
     15     16
     16     17
     17     18
     18     19
     19     20
     21      0
        </DataArray>
        <DataArray type="Int32" Name="offsets" format="ascii">
      2
      4
      6
      8
     10
     12
     14
     16
     18
     20
     22
     24
     26
     28
     30
     32
     34
     36
     38
     40
     42
        </DataArray>
      </Lines>
    </Piece>
  </PolyData>
</VTKFile>
