<?xml version="1.0"?>
<VTKFile type="PolyData" version="0.1" byte_order="LittleEndian">
  <PolyData>
    <Piece NumberOfPoints="    625" NumberOfVerts="  0" NumberOfLines="      0"
           NumberOfStrips="  0" NumberOfPolys="    600">
      <Points>
        <DataArray type="Float32" NumberOfComponents="3" format="ascii">
                      -4.73890                       0.96017                      91.15709
                      -4.73890                       0.96017                      91.15709
                      -4.73890                       0.96017                      91.15709
                      -4.73890                       0.96017                      91.15709
                      -4.73890                       0.96017                      91.15709
                      -4.73890                       0.96017                      91.15709
                      -4.73890                       0.96017                      91.15709
                      -4.73890                       0.96017                      91.15709
                      -4.73890                       0.96017                      91.15709
                      -4.73890                       0.96017                      91.15709
                      -4.73890                       0.96017                      91.15709
                      -4.73890                       0.96017                      91.15709
                      -4.73890                       0.96017                      91.15709
                      -4.73890                       0.96017                      91.15709
                      -4.73890                       0.96017                      91.15709
                      -4.73890                       0.96017                      91.15709
                      -4.73890                       0.96017                      91.15709
                      -4.73890                       0.96017                      91.15709
                      -4.73890                       0.96017                      91.15709
                      -4.73890                       0.96017                      91.15709
                      -4.73890                       0.96017                      91.15709
                      -4.73890                       0.96017                      91.15709
                      -4.73890                       0.96017                      91.15709
                      -4.73890                       0.96017                      91.15709
                      -4.73890                       0.96017                      91.15709
                      -4.15045                       0.87971                      91.00790
                      -4.16058                       0.76563                      91.10518
                      -4.20758                       0.65871                      91.19973
                      -4.28850                       0.56567                      91.28561
                      -4.39827                       0.49237                      91.35744
                      -4.52998                       0.44341                      91.41069
                      -4.67536                       0.42186                      91.44202
                      -4.82527                       0.42908                      91.44946
                      -4.97030                       0.46461                      91.43255
                      -5.10132                       0.52623                      91.39234
                      -5.21012                       0.61005                      91.33136
                      -5.28984                       0.71082                      91.25345
                      -5.33549                       0.82220                      91.16350
                      -5.34419                       0.93720                      91.06716
                      -5.31540                       1.04858                      90.97048
                      -5.25093                       1.14935                      90.87954
                      -5.15483                       1.23318                      90.80006
                      -5.03313                       1.29479                      90.73703
                      -4.89348                       1.33033                      90.69440
                      -4.74466                       1.33755                      90.67486
                      -4.59602                       1.31601                      90.67963
                      -4.45690                       1.26705                      90.70842
                      -4.33604                       1.19375                      90.75942
                      -4.24103                       1.10072                      90.82941
                      -4.17784                       0.99380                      90.91401
                      -3.93031                       0.79925                      90.89197
                      -3.94431                       0.64145                      91.02652
                      -4.00932                       0.49357                      91.15729
                      -4.12125                       0.36489                      91.27609
                      -4.27308                       0.26351                      91.37543
                      -4.45525                       0.19579                      91.44908
                      -4.65633                       0.16598                      91.49242
                      -4.86367                       0.17597                      91.50271
                      -5.06426                       0.22511                      91.47931
                      -5.24549                       0.31033                      91.42370
                      -5.39596                       0.42628                      91.33936
                      -5.50623                       0.56565                      91.23160
                      -5.56937                       0.71971                      91.10718
                      -5.58141                       0.87876                      90.97393
                      -5.54159                       1.03281                      90.84021
                      -5.45241                       1.17219                      90.71444
                      -5.31949                       1.28813                      90.60450
                      -5.15116                       1.37336                      90.51732
                      -4.95801                       1.42251                      90.45836
                      -4.75218                       1.43250                      90.43133
                      -4.54659                       1.40270                      90.43794
                      -4.35417                       1.33498                      90.47775
                      -4.18700                       1.23360                      90.54829
                      -4.05559                       1.10492                      90.64510
                      -3.96820                       0.95704                      90.76211
                      -3.77657                       0.71878                      90.78204
                      -3.79333                       0.52997                      90.94303
                      -3.87112                       0.35301                      91.09952
                      -4.00506                       0.19904                      91.24167
                      -4.18672                       0.07772                      91.36054
                      -4.40471                      -0.00331                      91.44867
                      -4.64532                      -0.03898                      91.50052
                      -4.89342                      -0.02703                      91.51284
                      -5.13344                       0.03178                      91.48485
                      -5.35030                       0.13376                      91.41830
                      -5.53035                       0.27249                      91.31738
                      -5.66230                       0.43927                      91.18843
                      -5.73785                       0.62360                      91.03956
                      -5.75225                       0.81392                      90.88011
                      -5.70461                       0.99826                      90.72011
                      -5.59790                       1.16504                      90.56961
                      -5.43884                       1.30378                      90.43806
                      -5.23743                       1.40576                      90.33373
                      -5.00631                       1.46457                      90.26318
                      -4.76001                       1.47652                      90.23085
                      -4.51401                       1.44086                      90.23875
                      -4.28376                       1.35983                      90.28639
                      -4.08372                       1.23852                      90.37079
                      -3.92648                       1.08455                      90.48664
                      -3.82191                       0.90760                      90.62665
                      -3.65981                       0.63832                      90.67545
                      -3.67869                       0.42554                      90.85687
                      -3.76635                       0.22614                      91.03321
                      -3.91728                       0.05263                      91.19339
                      -4.12200                      -0.08407                      91.32734
                      -4.36764                      -0.17539                      91.42666
                      -4.63877                      -0.21558                      91.48509
                      -4.91836                      -0.20212                      91.49897
                      -5.18883                      -0.13585                      91.46742
                      -5.43319                      -0.02093                      91.39243
                      -5.63609                       0.13540                      91.27871
                      -5.78478                       0.32334                      91.13340
                      -5.86992                       0.53106                      90.96564
                      -5.88615                       0.74553                      90.78596
                      -5.83246                       0.95325                      90.60566
                      -5.71221                       1.14119                      90.43606
                      -5.53298                       1.29753                      90.28783
                      -5.30601                       1.41245                      90.17026
                      -5.04557                       1.47872                      90.09076
                      -4.76802                       1.49219                      90.05432
                      -4.49080                       1.45201                      90.06323
                      -4.23134                       1.36070                      90.11692
                      -4.00593                       1.22400                      90.21202
                      -3.82874                       1.05049                      90.34257
                      -3.71090                       0.85109                      90.50035
                      -3.56851                       0.55785                      90.57116
                      -3.58908                       0.32599                      90.76885
                      -3.68460                       0.10869                      90.96102
                      -3.84908                      -0.08038                      91.13557
                      -4.07216                      -0.22936                      91.28154
                      -4.33985                      -0.32887                      91.38977
                      -4.63531                      -0.37266                      91.45344
                      -4.93998                      -0.35799                      91.46856
                      -5.23472                      -0.28577                      91.43419
                      -5.50101                      -0.16055                      91.35247
                      -5.72211                       0.00981                      91.22854
                      -5.88414                       0.21461                      91.07020
                      -5.97691                       0.44097                      90.88738
                      -5.99460                       0.67468                      90.69159
                      -5.93609                       0.90105                      90.49511
                      -5.80506                       1.10585                      90.31029
                      -5.60974                       1.27621                      90.14875
                      -5.36241                       1.40144                      90.02064
                      -5.07860                       1.47366                      89.93401
                      -4.77615                       1.48834                      89.89430
                      -4.47406                       1.44455                      89.90400
                      -4.19132                       1.34505                      89.96251
                      -3.94568                       1.19608                      90.06615
                      -3.75259                       1.00701                      90.20841
                      -3.62418                       0.78971                      90.38034
                      -3.49675                       0.47739                      90.46863
                      -3.51869                       0.23017                      90.67942
                      -3.62054                      -0.00152                      90.88431
                      -3.79590                      -0.20312                      91.07042
                      -4.03376                      -0.36196                      91.22606
                      -4.31917                      -0.46806                      91.34145
                      -4.63420                      -0.51475                      91.40935
                      -4.95905                      -0.49911                      91.42547
                      -5.27331                      -0.42211                      91.38882
                      -5.55723                      -0.28859                      91.30169
                      -5.79298                      -0.10695                      91.16955
                      -5.96574                       0.11141                      91.00072
                      -6.06466                       0.35277                      90.80580
                      -6.08352                       0.60195                      90.59703
                      -6.02113                       0.84331                      90.38754
                      -5.88143                       1.06167                      90.19049
                      -5.67317                       1.24332                      90.01825
                      -5.40946                       1.37684                      89.88166
                      -5.10685                       1.45385                      89.78929
                      -4.78437                       1.46950                      89.74695
                      -4.46227                       1.42281                      89.75729
                      -4.16081                       1.31672                      89.81968
                      -3.89890                       1.15788                      89.93018
                      -3.69302                       0.95629                      90.08186
                      -3.55611                       0.72460                      90.26518
                      -3.44106                       0.39692                      90.36755
                      -3.46409                       0.13741                      90.58882
                      -3.57100                      -0.10579                      90.80389
                      -3.75508                      -0.31740                      90.99925
                      -4.00476                      -0.48413                      91.16263
                      -4.30435                      -0.59550                      91.28375
                      -4.63504                      -0.64452                      91.35502
                      -4.97603                      -0.62810                      91.37194
                      -5.30590                      -0.54727                      91.33347
                      -5.60394                      -0.40712                      91.24201
                      -5.85140                      -0.21645                      91.10331
                      -6.03275                       0.01276                      90.92609
                      -6.13658                       0.26611                      90.72148
                      -6.15637                       0.52768                      90.50234
                      -6.09089                       0.78103                      90.28244
                      -5.94424                       1.01024                      90.07559
                      -5.72563                       1.20092                      89.89480
                      -5.44881                       1.34107                      89.75142
                      -5.13117                       1.42191                      89.65446
                      -4.79267                       1.43833                      89.61001
                      -4.45457                       1.38932                      89.62087
                      -4.13812                       1.27796                      89.68635
                      -3.86320                       1.11123                      89.80235
                      -3.64709                       0.89962                      89.96156
                      -3.50337                       0.65642                      90.15400
                      -3.39925                       0.31645                      90.26773
                      -3.42313                       0.04731                      90.49721
                      -3.53401                      -0.20492                      90.72027
                      -3.72492                      -0.42439                      90.92288
                      -3.98387                      -0.59731                      91.09232
                      -4.29459                      -0.71281                      91.21794
                      -4.63755                      -0.76365                      91.29186
                      -4.99120                      -0.74662                      91.30941
                      -5.33332                      -0.66279                      91.26951
                      -5.64242                      -0.51744                      91.17465
                      -5.89907                      -0.31969                      91.03080
                      -6.08715                      -0.08197                      90.84700
                      -6.19484                       0.18079                      90.63480
                      -6.21537                       0.45206                      90.40752
                      -6.14745                       0.71482                      90.17946
                      -5.99535                       0.95254                      89.96493
                      -5.76864                       1.15030                      89.77742
                      -5.48154                       1.29566                      89.62872
                      -5.15210                       1.37949                      89.52816
                      -4.80103                       1.39653                      89.48206
                      -4.45038                       1.34570                      89.49333
                      -4.12218                       1.23020                      89.56124
                      -3.83706                       1.05728                      89.68154
                      -3.61293                       0.83782                      89.84667
                      -3.46387                       0.58559                      90.04624
                      -3.36985                       0.23599                      90.16903
                      -3.39438                      -0.04041                      90.40470
                      -3.50825                      -0.29945                      90.63377
                      -3.70431                      -0.52484                      90.84185
                      -3.97025                      -0.70243                      91.01587
                      -4.28935                      -0.82105                      91.14488
                      -4.64156                      -0.87326                      91.22078
                      -5.00475                      -0.85577                      91.23881
                      -5.35611                      -0.76968                      91.19783
                      -5.67354                      -0.62040                      91.10042
                      -5.93712                      -0.41732                      90.95269
                      -6.13027                      -0.17318                      90.76393
                      -6.24087                       0.09666                      90.54600
                      -6.26195                       0.37526                      90.31259
                      -6.19220                       0.64510                      90.07837
                      -6.03600                       0.88924                      89.85806
                      -5.80316                       1.09233                      89.66549
                      -5.50832                       1.24161                      89.51278
                      -5.17000                       1.32771                      89.40950
                      -4.80945                       1.34520                      89.36216
                      -4.44934                       1.29300                      89.37373
                      -4.11229                       1.17439                      89.44348
                      -3.81947                       0.99681                      89.56703
                      -3.58929                       0.77142                      89.73661
                      -3.43621                       0.51239                      89.94157
                      -3.35191                       0.15552                      90.07136
                      -3.37689                      -0.12595                      90.31136
                      -3.49285                      -0.38974                      90.54464
                      -3.69251                      -0.61927                      90.75654
                      -3.96333                      -0.80011                      90.93374
                      -4.28828                      -0.92091                      91.06512
                      -4.64696                      -0.97408                      91.14242
                      -5.01681                      -0.95627                      91.16078
                      -5.37461                      -0.86860                      91.11905
                      -5.69788                      -0.71659                      91.01984
                      -5.96629                      -0.50977                      90.86940
                      -6.16299                      -0.26116                      90.67718
                      -6.27561                       0.01364                      90.45525
                      -6.29708                       0.29734                      90.21756
                      -6.22605                       0.57214                      89.97904
                      -6.06699                       0.82076                      89.75469
                      -5.82988                       1.02758                      89.55859
                      -5.52962                       1.17960                      89.40307
                      -5.18509                       1.26727                      89.29790
                      -4.81793                       1.28509                      89.24969
                      -4.45121                       1.23193                      89.26147
                      -4.10797                       1.11114                      89.33250
                      -3.80978                       0.93030                      89.45831
                      -3.57538                       0.70078                      89.63101
                      -3.41949                       0.43699                      89.83973
                      -3.34482                       0.07505                      89.97468
                      -3.37006                      -0.20942                      90.21723
                      -3.48726                      -0.47602                      90.45299
                      -3.68905                      -0.70799                      90.66715
                      -3.96275                      -0.89076                      90.84625
                      -4.29117                      -1.01285                      90.97903
                      -4.65366                      -1.06658                      91.05715
                      -5.02746                      -1.04858                      91.07570
                      -5.38908                      -0.95998                      91.03353
                      -5.71578                      -0.80635                      90.93327
                      -5.98706                      -0.59733                      90.78122
                      -6.18585                      -0.34607                      90.58695
                      -6.29967                      -0.06834                      90.36266
                      -6.32137                       0.21839                      90.12243
                      -6.24959                       0.49612                      89.88137
                      -6.08883                       0.74738                      89.65463
                      -5.84919                       0.95640                      89.45644
                      -5.54574                       1.11005                      89.29926
                      -5.19754                       1.19866                      89.19297
                      -4.82646                       1.21666                      89.14425
                      -4.45583                       1.16294                      89.15615
                      -4.10894                       1.04086                      89.22794
                      -3.80757                       0.85809                      89.35509
                      -3.57067                       0.62612                      89.52963
                      -3.41312                       0.35952                      89.74057
                      -3.34823                      -0.00541                      89.87894
                      -3.37356                      -0.29088                      90.12234
                      -3.49116                      -0.55841                      90.35893
                      -3.69366                      -0.79119                      90.57383
                      -3.96831                      -0.97460                      90.75355
                      -4.29788                      -1.09712                      90.88679
                      -4.66164                      -1.15104                      90.96519
                      -5.03674                      -1.13297                      90.98381
                      -5.39962                      -1.04406                      90.94148
                      -5.72747                      -0.88989                      90.84087
                      -5.99969                      -0.68014                      90.68830
                      -6.19918                      -0.42800                      90.49335
                      -6.31340                      -0.14931                      90.26827
                      -6.33517                       0.13842                      90.02721
                      -6.26313                       0.41712                      89.78531
                      -6.10181                       0.66926                      89.55777
                      -5.86134                       0.87901                      89.35889
                      -5.55683                       1.03319                      89.20117
                      -5.20741                       1.12211                      89.09451
                      -4.83504                       1.14018                      89.04561
                      -4.46312                       1.08627                      89.05756
                      -4.11501                       0.96376                      89.12959
                      -3.81259                       0.78036                      89.25719
                      -3.57486                       0.54758                      89.43234
                      -3.41676                       0.28005                      89.64402
                      -3.36203                      -0.08588                      89.78414
                      -3.38727                      -0.37035                      90.02670
                      -3.50447                      -0.63695                      90.26246
                      -3.70626                      -0.86892                      90.47661
                      -3.97996                      -1.05170                      90.65571
                      -4.30837                      -1.17379                      90.78849
                      -4.67087                      -1.22752                      90.86661
                      -5.04467                      -1.20952                      90.88517
                      -5.40628                      -1.12092                      90.84299
                      -5.73299                      -0.96728                      90.74273
                      -6.00427                      -0.75826                      90.59069
                      -6.20306                      -0.50700                      90.39641
                      -6.31688                      -0.22928                      90.17212
                      -6.33858                       0.05746                      89.93190
                      -6.26680                       0.33518                      89.69084
                      -6.10603                       0.58645                      89.46409
                      -5.86640                       0.79547                      89.26590
                      -5.56295                       0.94911                      89.10872
                      -5.21474                       1.03772                      89.00243
                      -4.84367                       1.05573                      88.95371
                      -4.47304                       1.00201                      88.96562
                      -4.12614                       0.87992                      89.03740
                      -3.82478                       0.69716                      89.16456
                      -3.58788                       0.46519                      89.33909
                      -3.43033                       0.19859                      89.55004
                      -3.38633                      -0.16635                      89.69029
                      -3.41130                      -0.44782                      89.93029
                      -3.52727                      -0.71161                      90.16356
                      -3.72693                      -0.94113                      90.37546
                      -3.99774                      -1.12198                      90.55267
                      -4.32270                      -1.24278                      90.68405
                      -4.68137                      -1.29595                      90.76135
                      -5.05123                      -1.27814                      90.77970
                      -5.40903                      -1.19047                      90.73797
                      -5.73229                      -1.03845                      90.63877
                      -6.00071                      -0.83164                      90.48833
                      -6.19740                      -0.58303                      90.29611
                      -6.31003                      -0.30823                      90.07418
                      -6.33150                      -0.02452                      89.83649
                      -6.26047                       0.25027                      89.59797
                      -6.10140                       0.49889                      89.37361
                      -5.86429                       0.70571                      89.17751
                      -5.56404                       0.85773                      89.02200
                      -5.21951                       0.94541                      88.91683
                      -4.85235                       0.96322                      88.86862
                      -4.48563                       0.91007                      88.88040
                      -4.14239                       0.78927                      88.95143
                      -3.84420                       0.60843                      89.07724
                      -3.60980                       0.37891                      89.24993
                      -3.45391                       0.11512                      89.45865
                      -3.42148                      -0.24681                      89.59742
                      -3.44600                      -0.52321                      89.83309
                      -3.55987                      -0.78225                      90.06216
                      -3.75594                      -1.00764                      90.27024
                      -4.02187                      -1.18523                      90.44426
                      -4.34097                      -1.30385                      90.57327
                      -4.69318                      -1.35606                      90.64917
                      -5.05638                      -1.33857                      90.66720
                      -5.40773                      -1.25248                      90.62622
                      -5.72517                      -1.10320                      90.52881
                      -5.98874                      -0.90012                      90.38108
                      -6.18190                      -0.65598                      90.19232
                      -6.29249                      -0.38614                      89.97439
                      -6.31357                      -0.10754                      89.74098
                      -6.24382                       0.16230                      89.50676
                      -6.08762                       0.40644                      89.28645
                      -5.85479                       0.60953                      89.09388
                      -5.55995                       0.75881                      88.94117
                      -5.22162                       0.84491                      88.83789
                      -4.86108                       0.86240                      88.79055
                      -4.50097                       0.81020                      88.80212
                      -4.16391                       0.69159                      88.87187
                      -3.87110                       0.51400                      88.99541
                      -3.64092                       0.28862                      89.16500
                      -3.48784                       0.02959                      89.36996
                      -3.46808                      -0.32728                      89.50558
                      -3.49196                      -0.59642                      89.73506
                      -3.60284                      -0.84865                      89.95812
                      -3.79376                      -1.06812                      90.16073
                      -4.05271                      -1.24104                      90.33017
                      -4.36342                      -1.35655                      90.45580
                      -4.70638                      -1.40738                      90.52971
                      -5.06003                      -1.39035                      90.54726
                      -5.40215                      -1.30653                      90.50736
                      -5.71125                      -1.16117                      90.41250
                      -5.96790                      -0.96342                      90.26865
                      -6.15598                      -0.72570                      90.08485
                      -6.26367                      -0.46295                      89.87265
                      -6.28420                      -0.19167                      89.64537
                      -6.21628                       0.07109                      89.41731
                      -6.06419                       0.30881                      89.20278
                      -5.83747                       0.50657                      89.01528
                      -5.55037                       0.65193                      88.86657
                      -5.22094                       0.73576                      88.76601
                      -4.86986                       0.75280                      88.71991
                      -4.51921                       0.70197                      88.73118
                      -4.19101                       0.58647                      88.79909
                      -3.90589                       0.41355                      88.91939
                      -3.68176                       0.19408                      89.08452
                      -3.53270                      -0.05814                      89.28410
                      -3.52710                      -0.40775                      89.41487
                      -3.55013                      -0.66725                      89.63613
                      -3.65704                      -0.91045                      89.85120
                      -3.84112                      -1.12207                      90.04657
                      -4.09080                      -1.28880                      90.20994
                      -4.39039                      -1.40017                      90.33107
                      -4.72107                      -1.44919                      90.40233
                      -5.06207                      -1.43277                      90.41926
                      -5.39194                      -1.35194                      90.38078
                      -5.68998                      -1.21179                      90.28932
                      -5.93744                      -1.02112                      90.15062
                      -6.11879                      -0.79191                      89.97340
                      -6.22262                      -0.53856                      89.76879
                      -6.24241                      -0.27699                      89.54966
                      -6.17693                      -0.02364                      89.32975
                      -6.03028                       0.20557                      89.12291
                      -5.81167                       0.39625                      88.94211
                      -5.53485                       0.53641                      88.79873
                      -5.21721                       0.61724                      88.70177
                      -4.87871                       0.63367                      88.65732
                      -4.54061                       0.58466                      88.66819
                      -4.22416                       0.47329                      88.73367
                      -3.94924                       0.30656                      88.84966
                      -3.73313                       0.09495                      89.00888
                      -3.58941                      -0.14824                      89.20131
                      -3.60000                      -0.48822                      89.32541
                      -3.62193                      -0.73544                      89.53620
                      -3.72378                      -0.96712                      89.74109
                      -3.89915                      -1.16872                      89.92720
                      -4.13701                      -1.32756                      90.08284
                      -4.42242                      -1.43366                      90.19823
                      -4.73745                      -1.48035                      90.26613
                      -5.06230                      -1.46471                      90.28225
                      -5.37656                      -1.38771                      90.24560
                      -5.66048                      -1.25419                      90.15847
                      -5.89623                      -1.07255                      90.02633
                      -6.06899                      -0.85419                      89.85750
                      -6.16791                      -0.61283                      89.66258
                      -6.18677                      -0.36365                      89.45381
                      -6.12438                      -0.12229                      89.24432
                      -5.98467                       0.09607                      89.04727
                      -5.77642                       0.27772                      88.87503
                      -5.51270                       0.41124                      88.73844
                      -5.21010                       0.48825                      88.64607
                      -4.88762                       0.50390                      88.60372
                      -4.56552                       0.45721                      88.61407
                      -4.26405                       0.35111                      88.67645
                      -4.00215                       0.19228                      88.78696
                      -3.79627                      -0.00931                      88.93864
                      -3.65935                      -0.24100                      89.12196
                      -3.68896                      -0.56868                      89.23740
                      -3.70954                      -0.80055                      89.43510
                      -3.80506                      -1.01784                      89.62726
                      -3.96953                      -1.20692                      89.80181
                      -4.19262                      -1.35589                      89.94778
                      -4.46030                      -1.45540                      90.05601
                      -4.75576                      -1.49920                      90.11968
                      -5.06043                      -1.48452                      90.13481
                      -5.35517                      -1.41231                      90.10043
                      -5.62146                      -1.28708                      90.01871
                      -5.84257                      -1.11672                      89.89479
                      -6.00460                      -0.91192                      89.73644
                      -6.09737                      -0.68556                      89.55363
                      -6.11506                      -0.45185                      89.35783
                      -6.05655                      -0.22549                      89.16135
                      -5.92552                      -0.02069                      88.97653
                      -5.73020                       0.14968                      88.81500
                      -5.48286                       0.27491                      88.68689
                      -5.19905                       0.34713                      88.60025
                      -4.89660                       0.36181                      88.56054
                      -4.59451                       0.31802                      88.57024
                      -4.31177                       0.21851                      88.62875
                      -4.06614                       0.06954                      88.73239
                      -3.87305                      -0.11953                      88.87465
                      -3.74463                      -0.33682                      89.04659
                      -3.79747                      -0.64915                      89.15115
                      -3.81635                      -0.86192                      89.33257
                      -3.90401                      -1.06133                      89.50891
                      -4.05494                      -1.23484                      89.66909
                      -4.25966                      -1.37154                      89.80305
                      -4.50530                      -1.46286                      89.90236
                      -4.77644                      -1.50305                      89.96079
                      -5.05602                      -1.48958                      89.97467
                      -5.32649                      -1.42331                      89.94313
                      -5.57086                      -1.30840                      89.86814
                      -5.77376                      -1.15207                      89.75441
                      -5.92245                      -0.96413                      89.60911
                      -6.00758                      -0.75641                      89.44134
                      -6.02381                      -0.54194                      89.26167
                      -5.97012                      -0.33421                      89.08136
                      -5.84988                      -0.14628                      88.91177
                      -5.67064                       0.01006                      88.76353
                      -5.44367                       0.12498                      88.64597
                      -5.18323                       0.19126                      88.56647
                      -4.90568                       0.20473                      88.53003
                      -4.62847                       0.16454                      88.53893
                      -4.36900                       0.07323                      88.59262
                      -4.14359                      -0.06347                      88.68773
                      -3.96640                      -0.23698                      88.81827
                      -3.84856                      -0.43638                      88.97605
                      -3.93145                      -0.72962                      89.06721
                      -3.94820                      -0.91844                      89.22820
                      -4.02599                      -1.09539                      89.38469
                      -4.15993                      -1.24936                      89.52683
                      -4.34160                      -1.37068                      89.64571
                      -4.55958                      -1.45171                      89.73384
                      -4.80019                      -1.48738                      89.78569
                      -5.04830                      -1.47543                      89.79801
                      -5.28832                      -1.41662                      89.77001
                      -5.50517                      -1.31465                      89.70347
                      -5.68522                      -1.17591                      89.60255
                      -5.81717                      -1.00914                      89.47360
                      -5.89272                      -0.82480                      89.32473
                      -5.90712                      -0.63448                      89.16528
                      -5.85948                      -0.45014                      89.00528
                      -5.75277                      -0.28336                      88.85477
                      -5.59371                      -0.14463                      88.72323
                      -5.39230                      -0.04265                      88.61890
                      -5.16118                       0.01617                      88.54835
                      -4.91488                       0.02812                      88.51601
                      -4.66888                      -0.00754                      88.52392
                      -4.43863                      -0.08857                      88.57156
                      -4.23860                      -0.20988                      88.65596
                      -4.08135                      -0.36385                      88.77181
                      -3.97678                      -0.54080                      88.91182
                      -4.10239                      -0.81009                      88.98660
                      -4.11639                      -0.96788                      89.12115
                      -4.18140                      -1.11577                      89.25192
                      -4.29333                      -1.24444                      89.37072
                      -4.44516                      -1.34583                      89.47006
                      -4.62733                      -1.41355                      89.54371
                      -4.82841                      -1.44335                      89.58705
                      -5.03575                      -1.43337                      89.59734
                      -5.23634                      -1.38422                      89.57394
                      -5.41756                      -1.29900                      89.51833
                      -5.56804                      -1.18306                      89.43399
                      -5.67831                      -1.04368                      89.32623
                      -5.74145                      -0.88963                      89.20181
                      -5.75349                      -0.73058                      89.06856
                      -5.71367                      -0.57652                      88.93485
                      -5.62449                      -0.43715                      88.80907
                      -5.49157                      -0.32120                      88.69913
                      -5.32324                      -0.23598                      88.61195
                      -5.13009                      -0.18682                      88.55299
                      -4.92426                      -0.17684                      88.52596
                      -4.71867                      -0.20664                      88.53257
                      -4.52625                      -0.27436                      88.57239
                      -4.35908                      -0.37574                      88.64292
                      -4.22767                      -0.50441                      88.73973
                      -4.14028                      -0.65229                      88.85674
                      -4.33974                      -0.89056                      88.91199
                      -4.34986                      -1.00464                      89.00927
                      -4.39686                      -1.11156                      89.10382
                      -4.47779                      -1.20459                      89.18971
                      -4.58756                      -1.27790                      89.26153
                      -4.71927                      -1.32686                      89.31479
                      -4.86465                      -1.34841                      89.34612
                      -5.01456                      -1.34119                      89.35356
                      -5.15958                      -1.30566                      89.33664
                      -5.29061                      -1.24404                      89.29643
                      -5.39940                      -1.16021                      89.23546
                      -5.47913                      -1.05945                      89.15754
                      -5.52478                      -0.94807                      89.06759
                      -5.53348                      -0.83307                      88.97125
                      -5.50469                      -0.72169                      88.87457
                      -5.44022                      -0.62092                      88.78364
                      -5.34411                      -0.53709                      88.70415
                      -5.22241                      -0.47547                      88.64112
                      -5.08277                      -0.43994                      88.59849
                      -4.93395                      -0.43272                      88.57895
                      -4.78531                      -0.45426                      88.58373
                      -4.64619                      -0.50322                      88.61252
                      -4.52532                      -0.57652                      88.66351
                      -4.43032                      -0.66955                      88.73351
                      -4.36713                      -0.77647                      88.81811
                      -4.94539                      -0.97103                      88.87065
                      -4.94539                      -0.97103                      88.87065
                      -4.94539                      -0.97103                      88.87065
                      -4.94539                      -0.97103                      88.87065
                      -4.94539                      -0.97103                      88.87065
                      -4.94539                      -0.97103                      88.87065
                      -4.94539                      -0.97103                      88.87065
                      -4.94539                      -0.97103                      88.87065
                      -4.94539                      -0.97103                      88.87065
                      -4.94539                      -0.97103                      88.87065
                      -4.94539                      -0.97103                      88.87065
                      -4.94539                      -0.97103                      88.87065
                      -4.94539                      -0.97103                      88.87065
                      -4.94539                      -0.97103                      88.87065
                      -4.94539                      -0.97103                      88.87065
                      -4.94539                      -0.97103                      88.87065
                      -4.94539                      -0.97103                      88.87065
                      -4.94539                      -0.97103                      88.87065
                      -4.94539                      -0.97103                      88.87065
                      -4.94539                      -0.97103                      88.87065
                      -4.94539                      -0.97103                      88.87065
                      -4.94539                      -0.97103                      88.87065
                      -4.94539                      -0.97103                      88.87065
                      -4.94539                      -0.97103                      88.87065
                      -4.94539                      -0.97103                      88.87065
        </DataArray>
      </Points>
      <Polys>
        <DataArray type="Int32" Name="connectivity" format="ascii">
      0      1     26     25
      1      2     27     26
      2      3     28     27
      3      4     29     28
      4      5     30     29
      5      6     31     30
      6      7     32     31
      7      8     33     32
      8      9     34     33
      9     10     35     34
     10     11     36     35
     11     12     37     36
     12     13     38     37
     13     14     39     38
     14     15     40     39
     15     16     41     40
     16     17     42     41
     17     18     43     42
     18     19     44     43
     19     20     45     44
     20     21     46     45
     21     22     47     46
     22     23     48     47
     23     24     49     48
     24      0     25     49
     25     26     51     50
     26     27     52     51
     27     28     53     52
     28     29     54     53
     29     30     55     54
     30     31     56     55
     31     32     57     56
     32     33     58     57
     33     34     59     58
     34     35     60     59
     35     36     61     60
     36     37     62     61
     37     38     63     62
     38     39     64     63
     39     40     65     64
     40     41     66     65
     41     42     67     66
     42     43     68     67
     43     44     69     68
     44     45     70     69
     45     46     71     70
     46     47     72     71
     47     48     73     72
     48     49     74     73
     49     25     50     74
     50     51     76     75
     51     52     77     76
     52     53     78     77
     53     54     79     78
     54     55     80     79
     55     56     81     80
     56     57     82     81
     57     58     83     82
     58     59     84     83
     59     60     85     84
     60     61     86     85
     61     62     87     86
     62     63     88     87
     63     64     89     88
     64     65     90     89
     65     66     91     90
     66     67     92     91
     67     68     93     92
     68     69     94     93
     69     70     95     94
     70     71     96     95
     71     72     97     96
     72     73     98     97
     73     74     99     98
     74     50     75     99
     75     76    101    100
     76     77    102    101
     77     78    103    102
     78     79    104    103
     79     80    105    104
     80     81    106    105
     81     82    107    106
     82     83    108    107
     83     84    109    108
     84     85    110    109
     85     86    111    110
     86     87    112    111
     87     88    113    112
     88     89    114    113
     89     90    115    114
     90     91    116    115
     91     92    117    116
     92     93    118    117
     93     94    119    118
     94     95    120    119
     95     96    121    120
     96     97    122    121
     97     98    123    122
     98     99    124    123
     99     75    100    124
    100    101    126    125
    101    102    127    126
    102    103    128    127
    103    104    129    128
    104    105    130    129
    105    106    131    130
    106    107    132    131
    107    108    133    132
    108    109    134    133
    109    110    135    134
    110    111    136    135
    111    112    137    136
    112    113    138    137
    113    114    139    138
    114    115    140    139
    115    116    141    140
    116    117    142    141
    117    118    143    142
    118    119    144    143
    119    120    145    144
    120    121    146    145
    121    122    147    146
    122    123    148    147
    123    124    149    148
    124    100    125    149
    125    126    151    150
    126    127    152    151
    127    128    153    152
    128    129    154    153
    129    130    155    154
    130    131    156    155
    131    132    157    156
    132    133    158    157
    133    134    159    158
    134    135    160    159
    135    136    161    160
    136    137    162    161
    137    138    163    162
    138    139    164    163
    139    140    165    164
    140    141    166    165
    141    142    167    166
    142    143    168    167
    143    144    169    168
    144    145    170    169
    145    146    171    170
    146    147    172    171
    147    148    173    172
    148    149    174    173
    149    125    150    174
    150    151    176    175
    151    152    177    176
    152    153    178    177
    153    154    179    178
    154    155    180    179
    155    156    181    180
    156    157    182    181
    157    158    183    182
    158    159    184    183
    159    160    185    184
    160    161    186    185
    161    162    187    186
    162    163    188    187
    163    164    189    188
    164    165    190    189
    165    166    191    190
    166    167    192    191
    167    168    193    192
    168    169    194    193
    169    170    195    194
    170    171    196    195
    171    172    197    196
    172    173    198    197
    173    174    199    198
    174    150    175    199
    175    176    201    200
    176    177    202    201
    177    178    203    202
    178    179    204    203
    179    180    205    204
    180    181    206    205
    181    182    207    206
    182    183    208    207
    183    184    209    208
    184    185    210    209
    185    186    211    210
    186    187    212    211
    187    188    213    212
    188    189    214    213
    189    190    215    214
    190    191    216    215
    191    192    217    216
    192    193    218    217
    193    194    219    218
    194    195    220    219
    195    196    221    220
    196    197    222    221
    197    198    223    222
    198    199    224    223
    199    175    200    224
    200    201    226    225
    201    202    227    226
    202    203    228    227
    203    204    229    228
    204    205    230    229
    205    206    231    230
    206    207    232    231
    207    208    233    232
    208    209    234    233
    209    210    235    234
    210    211    236    235
    211    212    237    236
    212    213    238    237
    213    214    239    238
    214    215    240    239
    215    216    241    240
    216    217    242    241
    217    218    243    242
    218    219    244    243
    219    220    245    244
    220    221    246    245
    221    222    247    246
    222    223    248    247
    223    224    249    248
    224    200    225    249
    225    226    251    250
    226    227    252    251
    227    228    253    252
    228    229    254    253
    229    230    255    254
    230    231    256    255
    231    232    257    256
    232    233    258    257
    233    234    259    258
    234    235    260    259
    235    236    261    260
    236    237    262    261
    237    238    263    262
    238    239    264    263
    239    240    265    264
    240    241    266    265
    241    242    267    266
    242    243    268    267
    243    244    269    268
    244    245    270    269
    245    246    271    270
    246    247    272    271
    247    248    273    272
    248    249    274    273
    249    225    250    274
    250    251    276    275
    251    252    277    276
    252    253    278    277
    253    254    279    278
    254    255    280    279
    255    256    281    280
    256    257    282    281
    257    258    283    282
    258    259    284    283
    259    260    285    284
    260    261    286    285
    261    262    287    286
    262    263    288    287
    263    264    289    288
    264    265    290    289
    265    266    291    290
    266    267    292    291
    267    268    293    292
    268    269    294    293
    269    270    295    294
    270    271    296    295
    271    272    297    296
    272    273    298    297
    273    274    299    298
    274    250    275    299
    275    276    301    300
    276    277    302    301
    277    278    303    302
    278    279    304    303
    279    280    305    304
    280    281    306    305
    281    282    307    306
    282    283    308    307
    283    284    309    308
    284    285    310    309
    285    286    311    310
    286    287    312    311
    287    288    313    312
    288    289    314    313
    289    290    315    314
    290    291    316    315
    291    292    317    316
    292    293    318    317
    293    294    319    318
    294    295    320    319
    295    296    321    320
    296    297    322    321
    297    298    323    322
    298    299    324    323
    299    275    300    324
    300    301    326    325
    301    302    327    326
    302    303    328    327
    303    304    329    328
    304    305    330    329
    305    306    331    330
    306    307    332    331
    307    308    333    332
    308    309    334    333
    309    310    335    334
    310    311    336    335
    311    312    337    336
    312    313    338    337
    313    314    339    338
    314    315    340    339
    315    316    341    340
    316    317    342    341
    317    318    343    342
    318    319    344    343
    319    320    345    344
    320    321    346    345
    321    322    347    346
    322    323    348    347
    323    324    349    348
    324    300    325    349
    325    326    351    350
    326    327    352    351
    327    328    353    352
    328    329    354    353
    329    330    355    354
    330    331    356    355
    331    332    357    356
    332    333    358    357
    333    334    359    358
    334    335    360    359
    335    336    361    360
    336    337    362    361
    337    338    363    362
    338    339    364    363
    339    340    365    364
    340    341    366    365
    341    342    367    366
    342    343    368    367
    343    344    369    368
    344    345    370    369
    345    346    371    370
    346    347    372    371
    347    348    373    372
    348    349    374    373
    349    325    350    374
    350    351    376    375
    351    352    377    376
    352    353    378    377
    353    354    379    378
    354    355    380    379
    355    356    381    380
    356    357    382    381
    357    358    383    382
    358    359    384    383
    359    360    385    384
    360    361    386    385
    361    362    387    386
    362    363    388    387
    363    364    389    388
    364    365    390    389
    365    366    391    390
    366    367    392    391
    367    368    393    392
    368    369    394    393
    369    370    395    394
    370    371    396    395
    371    372    397    396
    372    373    398    397
    373    374    399    398
    374    350    375    399
    375    376    401    400
    376    377    402    401
    377    378    403    402
    378    379    404    403
    379    380    405    404
    380    381    406    405
    381    382    407    406
    382    383    408    407
    383    384    409    408
    384    385    410    409
    385    386    411    410
    386    387    412    411
    387    388    413    412
    388    389    414    413
    389    390    415    414
    390    391    416    415
    391    392    417    416
    392    393    418    417
    393    394    419    418
    394    395    420    419
    395    396    421    420
    396    397    422    421
    397    398    423    422
    398    399    424    423
    399    375    400    424
    400    401    426    425
    401    402    427    426
    402    403    428    427
    403    404    429    428
    404    405    430    429
    405    406    431    430
    406    407    432    431
    407    408    433    432
    408    409    434    433
    409    410    435    434
    410    411    436    435
    411    412    437    436
    412    413    438    437
    413    414    439    438
    414    415    440    439
    415    416    441    440
    416    417    442    441
    417    418    443    442
    418    419    444    443
    419    420    445    444
    420    421    446    445
    421    422    447    446
    422    423    448    447
    423    424    449    448
    424    400    425    449
    425    426    451    450
    426    427    452    451
    427    428    453    452
    428    429    454    453
    429    430    455    454
    430    431    456    455
    431    432    457    456
    432    433    458    457
    433    434    459    458
    434    435    460    459
    435    436    461    460
    436    437    462    461
    437    438    463    462
    438    439    464    463
    439    440    465    464
    440    441    466    465
    441    442    467    466
    442    443    468    467
    443    444    469    468
    444    445    470    469
    445    446    471    470
    446    447    472    471
    447    448    473    472
    448    449    474    473
    449    425    450    474
    450    451    476    475
    451    452    477    476
    452    453    478    477
    453    454    479    478
    454    455    480    479
    455    456    481    480
    456    457    482    481
    457    458    483    482
    458    459    484    483
    459    460    485    484
    460    461    486    485
    461    462    487    486
    462    463    488    487
    463    464    489    488
    464    465    490    489
    465    466    491    490
    466    467    492    491
    467    468    493    492
    468    469    494    493
    469    470    495    494
    470    471    496    495
    471    472    497    496
    472    473    498    497
    473    474    499    498
    474    450    475    499
    475    476    501    500
    476    477    502    501
    477    478    503    502
    478    479    504    503
    479    480    505    504
    480    481    506    505
    481    482    507    506
    482    483    508    507
    483    484    509    508
    484    485    510    509
    485    486    511    510
    486    487    512    511
    487    488    513    512
    488    489    514    513
    489    490    515    514
    490    491    516    515
    491    492    517    516
    492    493    518    517
    493    494    519    518
    494    495    520    519
    495    496    521    520
    496    497    522    521
    497    498    523    522
    498    499    524    523
    499    475    500    524
    500    501    526    525
    501    502    527    526
    502    503    528    527
    503    504    529    528
    504    505    530    529
    505    506    531    530
    506    507    532    531
    507    508    533    532
    508    509    534    533
    509    510    535    534
    510    511    536    535
    511    512    537    536
    512    513    538    537
    513    514    539    538
    514    515    540    539
    515    516    541    540
    516    517    542    541
    517    518    543    542
    518    519    544    543
    519    520    545    544
    520    521    546    545
    521    522    547    546
    522    523    548    547
    523    524    549    548
    524    500    525    549
    525    526    551    550
    526    527    552    551
    527    528    553    552
    528    529    554    553
    529    530    555    554
    530    531    556    555
    531    532    557    556
    532    533    558    557
    533    534    559    558
    534    535    560    559
    535    536    561    560
    536    537    562    561
    537    538    563    562
    538    539    564    563
    539    540    565    564
    540    541    566    565
    541    542    567    566
    542    543    568    567
    543    544    569    568
    544    545    570    569
    545    546    571    570
    546    547    572    571
    547    548    573    572
    548    549    574    573
    549    525    550    574
    550    551    576    575
    551    552    577    576
    552    553    578    577
    553    554    579    578
    554    555    580    579
    555    556    581    580
    556    557    582    581
    557    558    583    582
    558    559    584    583
    559    560    585    584
    560    561    586    585
    561    562    587    586
    562    563    588    587
    563    564    589    588
    564    565    590    589
    565    566    591    590
    566    567    592    591
    567    568    593    592
    568    569    594    593
    569    570    595    594
    570    571    596    595
    571    572    597    596
    572    573    598    597
    573    574    599    598
    574    550    575    599
    575    576    601    600
    576    577    602    601
    577    578    603    602
    578    579    604    603
    579    580    605    604
    580    581    606    605
    581    582    607    606
    582    583    608    607
    583    584    609    608
    584    585    610    609
    585    586    611    610
    586    587    612    611
    587    588    613    612
    588    589    614    613
    589    590    615    614
    590    591    616    615
    591    592    617    616
    592    593    618    617
    593    594    619    618
    594    595    620    619
    595    596    621    620
    596    597    622    621
    597    598    623    622
    598    599    624    623
    599    575    600    624
        </DataArray>
        <DataArray type="Int32" Name="offsets" format="ascii">
      4
      8
     12
     16
     20
     24
     28
     32
     36
     40
     44
     48
     52
     56
     60
     64
     68
     72
     76
     80
     84
     88
     92
     96
    100
    104
    108
    112
    116
    120
    124
    128
    132
    136
    140
    144
    148
    152
    156
    160
    164
    168
    172
    176
    180
    184
    188
    192
    196
    200
    204
    208
    212
    216
    220
    224
    228
    232
    236
    240
    244
    248
    252
    256
    260
    264
    268
    272
    276
    280
    284
    288
    292
    296
    300
    304
    308
    312
    316
    320
    324
    328
    332
    336
    340
    344
    348
    352
    356
    360
    364
    368
    372
    376
    380
    384
    388
    392
    396
    400
    404
    408
    412
    416
    420
    424
    428
    432
    436
    440
    444
    448
    452
    456
    460
    464
    468
    472
    476
    480
    484
    488
    492
    496
    500
    504
    508
    512
    516
    520
    524
    528
    532
    536
    540
    544
    548
    552
    556
    560
    564
    568
    572
    576
    580
    584
    588
    592
    596
    600
    604
    608
    612
    616
    620
    624
    628
    632
    636
    640
    644
    648
    652
    656
    660
    664
    668
    672
    676
    680
    684
    688
    692
    696
    700
    704
    708
    712
    716
    720
    724
    728
    732
    736
    740
    744
    748
    752
    756
    760
    764
    768
    772
    776
    780
    784
    788
    792
    796
    800
    804
    808
    812
    816
    820
    824
    828
    832
    836
    840
    844
    848
    852
    856
    860
    864
    868
    872
    876
    880
    884
    888
    892
    896
    900
    904
    908
    912
    916
    920
    924
    928
    932
    936
    940
    944
    948
    952
    956
    960
    964
    968
    972
    976
    980
    984
    988
    992
    996
   1000
   1004
   1008
   1012
   1016
   1020
   1024
   1028
   1032
   1036
   1040
   1044
   1048
   1052
   1056
   1060
   1064
   1068
   1072
   1076
   1080
   1084
   1088
   1092
   1096
   1100
   1104
   1108
   1112
   1116
   1120
   1124
   1128
   1132
   1136
   1140
   1144
   1148
   1152
   1156
   1160
   1164
   1168
   1172
   1176
   1180
   1184
   1188
   1192
   1196
   1200
   1204
   1208
   1212
   1216
   1220
   1224
   1228
   1232
   1236
   1240
   1244
   1248
   1252
   1256
   1260
   1264
   1268
   1272
   1276
   1280
   1284
   1288
   1292
   1296
   1300
   1304
   1308
   1312
   1316
   1320
   1324
   1328
   1332
   1336
   1340
   1344
   1348
   1352
   1356
   1360
   1364
   1368
   1372
   1376
   1380
   1384
   1388
   1392
   1396
   1400
   1404
   1408
   1412
   1416
   1420
   1424
   1428
   1432
   1436
   1440
   1444
   1448
   1452
   1456
   1460
   1464
   1468
   1472
   1476
   1480
   1484
   1488
   1492
   1496
   1500
   1504
   1508
   1512
   1516
   1520
   1524
   1528
   1532
   1536
   1540
   1544
   1548
   1552
   1556
   1560
   1564
   1568
   1572
   1576
   1580
   1584
   1588
   1592
   1596
   1600
   1604
   1608
   1612
   1616
   1620
   1624
   1628
   1632
   1636
   1640
   1644
   1648
   1652
   1656
   1660
   1664
   1668
   1672
   1676
   1680
   1684
   1688
   1692
   1696
   1700
   1704
   1708
   1712
   1716
   1720
   1724
   1728
   1732
   1736
   1740
   1744
   1748
   1752
   1756
   1760
   1764
   1768
   1772
   1776
   1780
   1784
   1788
   1792
   1796
   1800
   1804
   1808
   1812
   1816
   1820
   1824
   1828
   1832
   1836
   1840
   1844
   1848
   1852
   1856
   1860
   1864
   1868
   1872
   1876
   1880
   1884
   1888
   1892
   1896
   1900
   1904
   1908
   1912
   1916
   1920
   1924
   1928
   1932
   1936
   1940
   1944
   1948
   1952
   1956
   1960
   1964
   1968
   1972
   1976
   1980
   1984
   1988
   1992
   1996
   2000
   2004
   2008
   2012
   2016
   2020
   2024
   2028
   2032
   2036
   2040
   2044
   2048
   2052
   2056
   2060
   2064
   2068
   2072
   2076
   2080
   2084
   2088
   2092
   2096
   2100
   2104
   2108
   2112
   2116
   2120
   2124
   2128
   2132
   2136
   2140
   2144
   2148
   2152
   2156
   2160
   2164
   2168
   2172
   2176
   2180
   2184
   2188
   2192
   2196
   2200
   2204
   2208
   2212
   2216
   2220
   2224
   2228
   2232
   2236
   2240
   2244
   2248
   2252
   2256
   2260
   2264
   2268
   2272
   2276
   2280
   2284
   2288
   2292
   2296
   2300
   2304
   2308
   2312
   2316
   2320
   2324
   2328
   2332
   2336
   2340
   2344
   2348
   2352
   2356
   2360
   2364
   2368
   2372
   2376
   2380
   2384
   2388
   2392
   2396
   2400
        </DataArray>
      </Polys>
    </Piece>
  </PolyData>
</VTKFile>
