<?xml version="1.0"?>
<VTKFile type="PolyData" version="0.1" byte_order="LittleEndian">
  <PolyData>
    <Piece NumberOfPoints="     19" NumberOfVerts="  0" NumberOfLines="     18"
           NumberOfStrips="  0" NumberOfPolys="      0">
      <Points>
        <DataArray type="Float32" NumberOfComponents="3" format="ascii">
                      -5.02881                      -0.62064                      88.65903
                      -5.20071                      -1.17813                      87.42273
                      -5.56866                      -2.20597                      84.91367
                      -5.94582                      -3.19227                      82.38662
                      -6.41873                      -4.39993                      79.21602
                      -6.91799                      -5.97929                      75.46062
                      -7.37531                      -7.67624                      71.75244
                      -7.82127                      -9.37412                      68.04280
                      -8.25451                     -11.07470                      64.33227
                      -8.67835                     -12.77638                      60.62055
                      -9.09820                     -14.47611                      56.90691
                      -9.51865                     -16.17564                      53.19278
                      -9.94727                     -17.87552                      49.47952
                     -10.39336                     -19.57644                      45.76891
                     -10.86554                     -21.27895                      42.06280
                     -11.28847                     -22.69967                      38.97979
                     -11.64959                     -23.84499                      36.52119
                     -12.02675                     -25.04184                      34.08893
                     -12.23557                     -25.60344                      32.85947
        </DataArray>
      </Points>
      <PointData>
        <DataArray type="Float32" Name="TranslationalVelocity" NumberOfComponents="3" format="ascii">
                      -0.15232                       3.82279                      -1.70926
                      -0.29250                       7.30066                      -3.25805
                      -0.55198                      14.36067                      -6.11224
                      -0.80260                      21.46832                      -8.84923
                      -1.11242                      30.37843                     -12.19765
                      -1.52191                      40.90540                     -16.57207
                      -1.96787                      51.27879                     -21.26601
                      -2.42307                      61.64157                     -25.95590
                      -2.88990                      71.99268                     -30.64682
                      -3.36999                      82.33508                     -35.33474
                      -3.86456                      92.67346                     -40.01161
                      -4.37592                     103.00643                     -44.68264
                      -4.90590                     113.33340                     -49.34947
                      -5.45610                     123.65276                     -54.01389
                      -6.02783                     133.96212                     -58.67705
                      -6.52191                     142.54247                     -62.56337
                      -6.92998                     149.38873                     -65.69279
                      -7.35924                     156.16418                     -68.96060
                      -7.56943                     159.59246                     -70.49112
        </DataArray>
        <DataArray type="Float32" Name="RotationalVelocity" NumberOfComponents="3" format="ascii">
                       2.77879                       0.00012                      -0.25109
                       2.77824                       0.00025                      -0.25109
                       2.77677                       0.00070                      -0.25108
                       2.77493                       0.00135                      -0.25112
                       2.77232                       0.00239                      -0.25125
                       2.76899                       0.00396                      -0.25155
                       2.76572                       0.00591                      -0.25196
                       2.76268                       0.00830                      -0.25237
                       2.75998                       0.01124                      -0.25266
                       2.75764                       0.01484                      -0.25270
                       2.75567                       0.01917                      -0.25238
                       2.75402                       0.02426                      -0.25163
                       2.75262                       0.03006                      -0.25044
                       2.75143                       0.03643                      -0.24887
                       2.75039                       0.04309                      -0.24711
                       2.74961                       0.04859                      -0.24571
                       2.74905                       0.05271                      -0.24480
                       2.74857                       0.05636                      -0.24427
                       2.74836                       0.05792                      -0.24421
        </DataArray>
        <DataArray type="Float32" Name="TranslationalAcceleration" NumberOfComponents="3" format="ascii">
                       0.94435                       4.78991                      10.57570
                       1.15824                       5.76750                      12.81368
                       3.33514                      15.81260                      36.95362
                       5.34805                      24.65056                      59.29530
                       7.71139                      34.65806                      85.46223
                      10.37192                      46.90034                     114.74763
                      12.94243                      59.65921                     142.81468
                      15.52062                      72.33695                     170.73559
                      18.13306                      85.11106                     198.86475
                      20.78181                      98.02495                     227.32730
                      23.45041                     111.03209                     256.08003
                      26.10913                     124.07501                     284.95949
                      28.72363                     137.06931                     313.77046
                      31.26155                     149.94475                     342.35037
                      33.69930                     162.67527                     370.63922
                      35.64610                     173.20595                     394.06125
                      37.15628                     181.68869                     412.79275
                      38.65508                     190.63931                     431.54293
                      39.38240                     194.88239                     441.18523
        </DataArray>
        <DataArray type="Float32" Name="OrientationX" NumberOfComponents="3" format="ascii">
                       0.95629                       0.19247                      -0.22016
                       0.95632                       0.19262                      -0.21989
                       0.95637                       0.19322                      -0.21912
                       0.95642                       0.19420                      -0.21807
                       0.95643                       0.19595                      -0.21644
                       0.96435                       0.17045                      -0.20245
                       0.96927                       0.15403                      -0.19181
                       0.97287                       0.14171                      -0.18288
                       0.97599                       0.13016                      -0.17467
                       0.97845                       0.12013                      -0.16793
                       0.97994                       0.11338                      -0.16387
                       0.98067                       0.10899                      -0.16253
                       0.98035                       0.10825                      -0.16488
                       0.97859                       0.11295                      -0.17205
                       0.97610                       0.11828                      -0.18230
                       0.97360                       0.12213                      -0.19283
                       0.97128                       0.12470                      -0.20266
                       0.96808                       0.12920                      -0.21475
                       0.96601                       0.13268                      -0.22185
        </DataArray>
        <DataArray type="Float32" Name="OrientationY" NumberOfComponents="3" format="ascii">
                       0.26417                      -0.89146                       0.36811
                       0.26420                      -0.89146                       0.36809
                       0.26442                      -0.89142                       0.36803
                       0.26488                      -0.89132                       0.36796
                       0.26581                      -0.89108                       0.36786
                       0.23704                      -0.89649                       0.37433
                       0.21786                      -0.89963                       0.37842
                       0.20306                      -0.90182                       0.38143
                       0.18926                      -0.90371                       0.38405
                       0.17741                      -0.90522                       0.38614
                       0.16963                      -0.90618                       0.38738
                       0.16507                      -0.90677                       0.38797
                       0.16534                      -0.90684                       0.38769
                       0.17248                      -0.90615                       0.38618
                       0.18145                      -0.90523                       0.38423
                       0.18920                      -0.90439                       0.38246
                       0.19551                      -0.90369                       0.38095
                       0.20449                      -0.90262                       0.37877
                       0.21051                      -0.90187                       0.37726
        </DataArray>
        <DataArray type="Float32" Name="OrientationZ" NumberOfComponents="3" format="ascii">
                      -0.12541                      -0.41018                      -0.90334
                      -0.12512                      -0.41011                      -0.90341
                      -0.12422                      -0.40992                      -0.90363
                      -0.12291                      -0.40969                      -0.90391
                      -0.12078                      -0.40937                      -0.90434
                      -0.11769                      -0.40897                      -0.90493
                      -0.11427                      -0.40858                      -0.90554
                      -0.11087                      -0.40822                      -0.90613
                      -0.10786                      -0.40789                      -0.90664
                      -0.10562                      -0.40761                      -0.90703
                      -0.10457                      -0.40740                      -0.90724
                      -0.10509                      -0.40730                      -0.90723
                      -0.10755                      -0.40733                      -0.90692
                      -0.11229                      -0.40759                      -0.90624
                      -0.11957                      -0.40813                      -0.90506
                      -0.12768                      -0.40885                      -0.90363
                      -0.13563                      -0.40963                      -0.90211
                      -0.14490                      -0.41059                      -0.90023
                      -0.15002                      -0.41114                      -0.89914
        </DataArray>
        <DataArray type="Float32" Name="Force" NumberOfComponents="3" format="ascii">
                       0.90881                     -22.42346                      10.05577
                     160.83749                    -125.16476                      34.55666
                     269.98987                    -364.92455                     128.56699
                     287.46471                    -536.82203                     204.60536
                    1460.95644                     257.91693                    -312.21143
                    1306.21407                     169.21457                    -246.68438
                    1153.50665                      76.47537                    -180.28189
                    1758.59449                     130.56504                    -274.42923
                    2177.09448                     129.52653                    -317.77216
                    2366.80968                      99.84151                    -320.92843
                    3895.65446                     153.39728                    -518.63175
                    4076.26465                     119.66655                    -526.51284
                    3105.48059                      31.42465                    -382.61047
                    1610.53665                     -97.35839                    -155.45318
                     716.37226                    -113.11228                     -43.33154
                    -127.02853                    -217.71389                     116.83056
                   -1744.94232                    -294.69871                     396.28180
                   -2914.84073                    -285.91119                     599.08851
                  -18680.14756                     312.20063                    2973.08968
        </DataArray>
        <DataArray type="Float32" Name="Moment" NumberOfComponents="3" format="ascii">
                       0.00000                       0.00000                       0.00000
                       0.00000                       0.00000                       0.00000
                       0.00000                       0.00000                       0.00000
                       0.00000                       0.00000                       0.00000
                     156.38318                     531.34622                    1170.72011
                     276.65980                     965.01651                    2126.89500
                     360.26057                    1294.57817                    2854.23183
                     580.68182                    2151.25420                    4744.62012
                     833.70576                    3175.74638                    7006.27657
                     925.78014                    3601.81678                    7948.05324
                    1028.99578                    4044.28935                    8925.39835
                    1098.34641                    4295.69085                    9479.73302
                     847.77647                    3239.46537                    7147.09244
                     867.44248                    3173.91833                    6999.15118
                     891.89414                    3062.97402                    6749.54566
                     898.01195                    2886.28827                    6354.99968
                     840.05641                    2539.90432                    5587.83297
                     448.35415                    1267.76633                    2786.48227
                     416.19207                    1136.04889                    2495.67112
        </DataArray>
      </PointData>
      <Lines>
        <DataArray type="Int32" Name="connectivity" format="ascii">
      0      1
      1      2
      2      3
      3      4
      4      5
      5      6
      6      7
      7      8
      8      9
      9     10
     10     11
     11     12
     12     13
     13     14
     14     15
     15     16
     16     17
     17     18
        </DataArray>
        <DataArray type="Int32" Name="offsets" format="ascii">
      2
      4
      6
      8
     10
     12
     14
     16
     18
     20
     22
     24
     26
     28
     30
     32
     34
     36
        </DataArray>
      </Lines>
    </Piece>
  </PolyData>
</VTKFile>
