<?xml version="1.0"?>
<VTKFile type="PolyData" version="0.1" byte_order="LittleEndian">
  <PolyData>
    <Piece NumberOfPoints="      8" NumberOfVerts="  0" NumberOfLines="      0"
           NumberOfStrips="  0" NumberOfPolys="      6">
      <Points>
        <DataArray type="Float32" NumberOfComponents="3" format="ascii">
                      -3.31289                       2.39443                      87.61228
                       3.68707                       2.39444                      87.58782
                       3.68707                      -2.40557                      87.58719
                      -3.31289                      -2.40557                      87.61165
                      -3.29611                      -2.40620                      92.41163
                       3.70385                      -2.40620                      92.38716
                       3.70385                       2.39380                      92.38779
                      -3.29611                       2.39380                      92.41226
        </DataArray>
      </Points>
      <Polys>
        <DataArray type="Int32" Name="connectivity" format="ascii">
      0      1      2      3
      4      5      6      7
      7      6      1      0
      6      5      2      1
      5      4      3      2
      4      7      0      3
        </DataArray>
        <DataArray type="Int32" Name="offsets" format="ascii">
      4
      8
     12
     16
     20
     24
        </DataArray>
      </Polys>
    </Piece>
  </PolyData>
</VTKFile>
