<?xml version="1.0"?>
<VTKFile type="PolyData" version="0.1" byte_order="LittleEndian">
  <PolyData>
    <Piece NumberOfPoints="      8" NumberOfVerts="  0" NumberOfLines="      0"
           NumberOfStrips="  0" NumberOfPolys="      6">
      <Points>
        <DataArray type="Float32" NumberOfComponents="3" format="ascii">
                      -3.32613                       2.39152                      87.61149
                       3.67384                       2.39152                      87.58891
                       3.67384                      -2.40849                      87.58805
                      -3.32613                      -2.40849                      87.61063
                      -3.31064                      -2.40935                      92.41062
                       3.68932                      -2.40935                      92.38803
                       3.68932                       2.39066                      92.38889
                      -3.31064                       2.39066                      92.41147
        </DataArray>
      </Points>
      <Polys>
        <DataArray type="Int32" Name="connectivity" format="ascii">
      0      1      2      3
      4      5      6      7
      7      6      1      0
      6      5      2      1
      5      4      3      2
      4      7      0      3
        </DataArray>
        <DataArray type="Int32" Name="offsets" format="ascii">
      4
      8
     12
     16
     20
     24
        </DataArray>
      </Polys>
    </Piece>
  </PolyData>
</VTKFile>
