<?xml version="1.0"?>
<VTKFile type="PolyData" version="0.1" byte_order="LittleEndian">
  <PolyData>
    <Piece NumberOfPoints="     19" NumberOfVerts="  0" NumberOfLines="     18"
           NumberOfStrips="  0" NumberOfPolys="      0">
      <Points>
        <DataArray type="Float32" NumberOfComponents="3" format="ascii">
                      -5.03078                       0.47979                      88.60615
                      -5.20693                       0.91987                      87.32394
                      -5.57749                       1.88916                      84.79205
                      -5.95482                       2.90033                      82.27481
                      -6.42712                       4.18873                      79.13585
                      -6.93668                       5.59852                      75.31448
                      -7.41505                       6.88377                      71.44636
                      -7.88508                       8.16494                      67.57543
                      -8.34611                       9.44053                      63.70107
                      -8.80195                      10.71247                      59.82436
                      -9.25838                      11.98423                      55.94718
                      -9.72062                      13.25422                      52.06973
                     -10.19670                      14.52195                      48.19306
                     -10.69629                      15.78650                      44.31846
                     -11.22821                      17.04682                      40.44734
                     -11.70588                      18.09245                      37.22539
                     -12.11429                      18.91770                      34.64872
                     -12.54487                      19.68718                      32.05767
                     -12.77874                      20.10880                      30.77773
        </DataArray>
      </Points>
      <PointData>
        <DataArray type="Float32" Name="TranslationalVelocity" NumberOfComponents="3" format="ascii">
                       0.11962                       3.95122                       1.33318
                       0.22934                       7.55499                       2.55502
                       0.46973                      14.67347                       5.24502
                       0.71800                      21.74818                       8.04953
                       1.02928                      30.56295                      11.62012
                       1.35930                      41.26583                      15.52319
                       1.64599                      52.07667                      19.07817
                       1.91774                      62.87955                      22.61915
                       2.17324                      73.67691                      26.14241
                       2.41272                      84.46791                      29.65379
                       2.63759                      95.25035                      33.16333
                       2.84892                     106.02661                      36.66718
                       3.04899                     116.79745                      40.16434
                       3.24106                     127.56312                      43.65267
                       3.42948                     138.32319                      47.12941
                       3.58765                     147.28492                      50.01396
                       3.71572                     154.45692                      52.29059
                       3.83611                     161.67252                      54.41370
                       3.90888                     165.24150                      55.57654
        </DataArray>
        <DataArray type="Float32" Name="RotationalVelocity" NumberOfComponents="3" format="ascii">
                       2.77671                       0.00037                      -0.25103
                       2.77613                       0.00057                      -0.25090
                       2.77461                       0.00121                      -0.25050
                       2.77271                       0.00218                      -0.24996
                       2.77003                       0.00381                      -0.24916
                       2.76661                       0.00631                      -0.24809
                       2.76323                       0.00930                      -0.24701
                       2.76005                       0.01265                      -0.24598
                       2.75717                       0.01619                      -0.24505
                       2.75462                       0.01975                      -0.24426
                       2.75241                       0.02312                      -0.24363
                       2.75051                       0.02610                      -0.24316
                       2.74890                       0.02844                      -0.24287
                       2.74757                       0.02988                      -0.24275
                       2.74654                       0.03013                      -0.24281
                       2.74596                       0.02926                      -0.24299
                       2.74574                       0.02768                      -0.24323
                       2.74581                       0.02521                      -0.24355
                       2.74597                       0.02361                      -0.24375
        </DataArray>
        <DataArray type="Float32" Name="TranslationalAcceleration" NumberOfComponents="3" format="ascii">
                       0.99899                      -3.74010                      11.01653
                       1.19578                      -4.53214                      13.29031
                       3.39454                     -13.65108                      37.77219
                       5.39638                     -22.39901                      60.12273
                       7.71926                     -32.85474                      86.07681
                      10.40005                     -43.72990                     115.83927
                      13.08191                     -53.33333                     145.06264
                      15.84170                     -62.83808                     174.12640
                      18.75100                     -72.36114                     203.40422
                      21.84989                     -81.96133                     233.01117
                      25.14693                     -91.64785                     262.87953
                      28.61925                    -101.35508                     292.84848
                      32.21131                    -111.01362                     322.71990
                      35.83462                    -120.56375                     352.33481
                      39.36741                    -129.98257                     381.64650
                      42.12463                    -137.75208                     405.93250
                      44.13383                    -143.89905                     425.42395
                      45.89907                    -149.70272                     445.28026
                      46.67198                    -152.93872                     455.26844
        </DataArray>
        <DataArray type="Float32" Name="OrientationX" NumberOfComponents="3" format="ascii">
                       0.97128                       0.23167                      -0.05425
                       0.97131                       0.23162                      -0.05402
                       0.97135                       0.23160                      -0.05328
                       0.97139                       0.23169                      -0.05214
                       0.97141                       0.23202                      -0.05023
                       0.97734                       0.20354                      -0.05803
                       0.98092                       0.18423                      -0.06216
                       0.98345                       0.16920                      -0.06482
                       0.98555                       0.15531                      -0.06757
                       0.98712                       0.14366                      -0.07045
                       0.98795                       0.13638                      -0.07318
                       0.98819                       0.13280                      -0.07642
                       0.98767                       0.13455                      -0.07997
                       0.98610                       0.14366                      -0.08345
                       0.98387                       0.15534                      -0.08876
                       0.98155                       0.16593                      -0.09498
                       0.97937                       0.17489                      -0.10126
                       0.97648                       0.18672                      -0.10778
                       0.97467                       0.19422                      -0.11092
        </DataArray>
        <DataArray type="Float32" Name="OrientationY" NumberOfComponents="3" format="ascii">
                       0.20014                      -0.91879                      -0.34025
                       0.20018                      -0.91882                      -0.34013
                       0.20045                      -0.91889                      -0.33980
                       0.20097                      -0.91894                      -0.33934
                       0.20198                      -0.91897                      -0.33866
                       0.17286                      -0.92584                      -0.33607
                       0.15351                      -0.93001                      -0.33394
                       0.13862                      -0.93299                      -0.33213
                       0.12477                      -0.93552                      -0.33049
                       0.11294                      -0.93750                      -0.32915
                       0.10526                      -0.93870                      -0.32828
                       0.10089                      -0.93935                      -0.32779
                       0.10141                      -0.93928                      -0.32782
                       0.10888                      -0.93820                      -0.32852
                       0.11818                      -0.93673                      -0.32949
                       0.12615                      -0.93538                      -0.33039
                       0.13258                      -0.93421                      -0.33118
                       0.14162                      -0.93246                      -0.33235
                       0.14765                      -0.93124                      -0.33317
        </DataArray>
        <DataArray type="Float32" Name="OrientationZ" NumberOfComponents="3" format="ascii">
                      -0.12867                       0.31962                      -0.93877
                      -0.12842                       0.31956                      -0.93882
                      -0.12765                       0.31938                      -0.93899
                      -0.12654                       0.31916                      -0.93922
                      -0.12474                       0.31883                      -0.93957
                      -0.12214                       0.31843                      -0.94005
                      -0.11933                       0.31802                      -0.94054
                      -0.11668                       0.31764                      -0.94101
                      -0.11454                       0.31729                      -0.94139
                      -0.11334                       0.31696                      -0.94164
                      -0.11346                       0.31662                      -0.94174
                      -0.11531                       0.31621                      -0.94165
                      -0.11922                       0.31567                      -0.94135
                      -0.12549                       0.31487                      -0.94080
                      -0.13432                       0.31368                      -0.93998
                      -0.14366                       0.31231                      -0.93905
                      -0.15252                       0.31092                      -0.93812
                      -0.16256                       0.30927                      -0.93698
                      -0.16800                       0.30835                      -0.93632
        </DataArray>
        <DataArray type="Float32" Name="Force" NumberOfComponents="3" format="ascii">
                      -0.43046                     -14.15725                      -4.76116
                     139.07478                     -91.72373                     -50.25260
                     220.30210                    -292.70834                    -129.59948
                     229.35844                    -460.45845                    -187.64332
                    1226.04662                     268.35837                     -71.45069
                    1064.05432                     167.02548                     -81.43240
                     924.67331                      73.64594                     -92.28484
                    1505.86655                     144.07047                    -137.74553
                    1980.25897                     164.86495                    -184.92833
                    2203.97797                     143.11268                    -216.66273
                    3740.76419                     233.84733                    -371.28227
                    3933.91870                     208.40299                    -410.97579
                    2782.25123                      81.79981                    -324.65973
                    1276.80227                     -79.65387                    -197.49617
                     678.91965                    -108.54189                    -134.05728
                    -518.64362                    -257.53688                      -8.38935
                   -2167.98719                    -414.40613                     211.48102
                   -3263.40737                    -476.51479                     404.29332
                  -18664.08183                    -731.79340                    3104.70884
        </DataArray>
        <DataArray type="Float32" Name="Moment" NumberOfComponents="3" format="ascii">
                       0.00000                       0.00000                       0.00000
                       0.00000                       0.00000                       0.00000
                       0.00000                       0.00000                       0.00000
                       0.00000                       0.00000                       0.00000
                     145.38403                    -372.67214                    1094.99175
                     267.56273                    -700.62706                    2059.11539
                     360.55485                    -966.52810                    2841.36135
                     595.05795                   -1631.86164                    4798.52081
                     864.92858                   -2416.58045                    7107.47327
                     976.11742                   -2756.64415                    8108.59581
                    1102.23039                   -3109.60254                    9146.71126
                    1191.65041                   -3308.17930                    9729.09230
                     930.62462                   -2498.68128                    7345.65951
                     956.35564                   -2439.23761                    7166.57816
                     991.90610                   -2362.99162                    6936.64758
                     996.29574                   -2218.34108                    6506.13415
                     931.07752                   -1951.95919                    5719.94735
                     495.85207                    -974.75145                    2853.58119
                     459.69777                    -874.06832                    2557.46987
        </DataArray>
      </PointData>
      <Lines>
        <DataArray type="Int32" Name="connectivity" format="ascii">
      0      1
      1      2
      2      3
      3      4
      4      5
      5      6
      6      7
      7      8
      8      9
      9     10
     10     11
     11     12
     12     13
     13     14
     14     15
     15     16
     16     17
     17     18
        </DataArray>
        <DataArray type="Int32" Name="offsets" format="ascii">
      2
      4
      6
      8
     10
     12
     14
     16
     18
     20
     22
     24
     26
     28
     30
     32
     34
     36
        </DataArray>
      </Lines>
    </Piece>
  </PolyData>
</VTKFile>
