<?xml version="1.0"?>
<VTKFile type="PolyData" version="0.1" byte_order="LittleEndian">
  <PolyData>
    <Piece NumberOfPoints="     22" NumberOfVerts="  0" NumberOfLines="     21"
           NumberOfStrips="  0" NumberOfPolys="      0">
      <Points>
        <DataArray type="Float32" NumberOfComponents="3" format="ascii">
                       0.00010                      -0.00001                       2.19000
                       0.00100                      -0.00006                       6.57000
                       0.00298                      -0.00016                      10.95000
                       0.00615                      -0.00031                      15.33000
                       0.01051                      -0.00049                      19.71000
                       0.01606                      -0.00071                      24.08999
                       0.02273                      -0.00097                      28.46999
                       0.03051                      -0.00127                      32.84998
                       0.03936                      -0.00162                      37.22997
                       0.04930                      -0.00201                      41.60996
                       0.06035                      -0.00245                      45.98995
                       0.07256                      -0.00294                      50.36993
                       0.08600                      -0.00348                      54.74991
                       0.10071                      -0.00406                      59.12988
                       0.11674                      -0.00470                      63.50985
                       0.13403                      -0.00537                      67.88982
                       0.15246                      -0.00609                      72.26978
                       0.17176                      -0.00684                      76.64974
                       0.19147                      -0.00763                      81.02969
                       0.21091                      -0.00843                      85.40965
                       0.22022                      -0.00884                      87.59963
                       0.00000                       0.00000                       0.00000
        </DataArray>
      </Points>
      <PointData>
        <DataArray type="Float32" Name="TranslationalVelocity" NumberOfComponents="3" format="ascii">
                      -0.00001                       0.00001                       0.00000
                      -0.00010                       0.00007                       0.00000
                      -0.00028                       0.00018                       0.00000
                      -0.00055                       0.00033                       0.00000
                      -0.00091                       0.00053                       0.00000
                      -0.00135                       0.00077                       0.00000
                      -0.00184                       0.00105                       0.00000
                      -0.00238                       0.00138                       0.00000
                      -0.00294                       0.00174                       0.00000
                      -0.00351                       0.00216                       0.00001
                      -0.00408                       0.00261                       0.00001
                      -0.00463                       0.00312                       0.00001
                      -0.00515                       0.00367                       0.00001
                      -0.00563                       0.00426                       0.00001
                      -0.00607                       0.00490                       0.00001
                      -0.00646                       0.00557                       0.00002
                      -0.00680                       0.00628                       0.00002
                      -0.00709                       0.00702                       0.00002
                      -0.00730                       0.00779                       0.00002
                      -0.00745                       0.00857                       0.00002
                      -0.00749                       0.00897                       0.00002
                       0.00000                      -0.00000                       0.00000
        </DataArray>
        <DataArray type="Float32" Name="RotationalVelocity" NumberOfComponents="3" format="ascii">
                      -0.00001                      -0.00001                       0.00000
                      -0.00002                      -0.00003                       0.00000
                      -0.00003                      -0.00005                       0.00000
                      -0.00004                      -0.00007                       0.00000
                      -0.00005                      -0.00009                       0.00000
                      -0.00006                      -0.00011                       0.00000
                      -0.00007                      -0.00012                       0.00000
                      -0.00008                      -0.00013                       0.00000
                      -0.00009                      -0.00013                       0.00000
                      -0.00010                      -0.00013                       0.00000
                      -0.00011                      -0.00013                       0.00000
                      -0.00012                      -0.00012                       0.00000
                      -0.00013                      -0.00011                       0.00000
                      -0.00014                      -0.00011                       0.00000
                      -0.00015                      -0.00010                       0.00000
                      -0.00016                      -0.00008                       0.00000
                      -0.00017                      -0.00007                       0.00000
                      -0.00017                      -0.00006                       0.00000
                      -0.00018                      -0.00004                       0.00000
                      -0.00018                      -0.00002                       0.00000
                      -0.00018                      -0.00001                       0.00000
                       0.00000                      -0.00000                       0.00000
        </DataArray>
        <DataArray type="Float32" Name="TranslationalAcceleration" NumberOfComponents="3" format="ascii">
                       0.00061                       0.00012                      -0.00000
                       0.00567                       0.00102                      -0.00000
                       0.01586                       0.00265                      -0.00001
                       0.03084                       0.00488                      -0.00002
                       0.04989                       0.00756                      -0.00004
                       0.07198                       0.01060                      -0.00006
                       0.09586                       0.01388                      -0.00010
                       0.12014                       0.01729                      -0.00014
                       0.14335                       0.02070                      -0.00019
                       0.16400                       0.02398                      -0.00024
                       0.18066                       0.02698                      -0.00028
                       0.19201                       0.02957                      -0.00031
                       0.19689                       0.03158                      -0.00032
                       0.19437                       0.03288                      -0.00031
                       0.18380                       0.03334                      -0.00027
                       0.16482                       0.03286                      -0.00020
                       0.13746                       0.03139                      -0.00008
                       0.10214                       0.02894                       0.00007
                       0.05971                       0.02560                       0.00026
                       0.01149                       0.02155                       0.00047
                      -0.01423                       0.01935                       0.00058
                       0.00000                      -0.00000                       0.00000
        </DataArray>
        <DataArray type="Float32" Name="RotationalAcceleration" NumberOfComponents="3" format="ascii">
                      -0.00011                       0.00057                       0.00000
                      -0.00030                       0.00175                       0.00000
                      -0.00044                       0.00289                       0.00000
                      -0.00056                       0.00392                       0.00000
                      -0.00066                       0.00474                       0.00000
                      -0.00073                       0.00530                       0.00000
                      -0.00077                       0.00555                       0.00000
                      -0.00078                       0.00548                       0.00000
                      -0.00077                       0.00506                       0.00000
                      -0.00072                       0.00431                       0.00000
                      -0.00064                       0.00324                       0.00000
                      -0.00053                       0.00189                       0.00000
                      -0.00038                       0.00030                       0.00000
                      -0.00021                      -0.00147                       0.00000
                      -0.00000                      -0.00337                       0.00000
                       0.00022                      -0.00530                       0.00000
                       0.00045                      -0.00718                       0.00000
                       0.00067                      -0.00892                       0.00000
                       0.00085                      -0.01041                       0.00000
                       0.00098                      -0.01154                       0.00000
                       0.00102                      -0.01194                       0.00000
                       0.00000                      -0.00000                       0.00000
        </DataArray>
        <DataArray type="Float32" Name="OrientationX" NumberOfComponents="3" format="ascii">
                       1.00000                       0.00000                      -0.00009
                       1.00000                       0.00000                      -0.00032
                       1.00000                       0.00000                      -0.00059
                       1.00000                       0.00000                      -0.00086
                       1.00000                       0.00000                      -0.00113
                       1.00000                       0.00000                      -0.00140
                       1.00000                       0.00000                      -0.00165
                       1.00000                       0.00000                      -0.00190
                       1.00000                       0.00000                      -0.00214
                       1.00000                       0.00000                      -0.00239
                       1.00000                       0.00000                      -0.00265
                       1.00000                       0.00000                      -0.00293
                       0.99999                       0.00000                      -0.00321
                       0.99999                       0.00000                      -0.00351
                       0.99999                       0.00000                      -0.00381
                       0.99999                       0.00000                      -0.00408
                       0.99999                       0.00000                      -0.00432
                       0.99999                       0.00000                      -0.00447
                       0.99999                       0.00000                      -0.00450
                       0.99999                       0.00000                      -0.00434
                       0.99999                       0.00000                      -0.00416
                       1.00000                      -0.00000                       0.00000
        </DataArray>
        <DataArray type="Float32" Name="OrientationY" NumberOfComponents="3" format="ascii">
                       0.00000                       1.00000                       0.00001
                       0.00000                       1.00000                       0.00002
                       0.00000                       1.00000                       0.00003
                       0.00000                       1.00000                       0.00004
                       0.00000                       1.00000                       0.00005
                       0.00000                       1.00000                       0.00006
                       0.00000                       1.00000                       0.00006
                       0.00000                       1.00000                       0.00007
                       0.00000                       1.00000                       0.00008
                       0.00000                       1.00000                       0.00009
                       0.00000                       1.00000                       0.00011
                       0.00000                       1.00000                       0.00012
                       0.00000                       1.00000                       0.00013
                       0.00000                       1.00000                       0.00014
                       0.00000                       1.00000                       0.00015
                       0.00000                       1.00000                       0.00016
                       0.00000                       1.00000                       0.00017
                       0.00000                       1.00000                       0.00018
                       0.00000                       1.00000                       0.00018
                       0.00000                       1.00000                       0.00019
                       0.00000                       1.00000                       0.00019
                      -0.00000                       1.00000                      -0.00000
        </DataArray>
        <DataArray type="Float32" Name="OrientationZ" NumberOfComponents="3" format="ascii">
                       0.00009                      -0.00001                       1.00000
                       0.00032                      -0.00002                       1.00000
                       0.00059                      -0.00003                       1.00000
                       0.00086                      -0.00004                       1.00000
                       0.00113                      -0.00005                       1.00000
                       0.00140                      -0.00006                       1.00000
                       0.00165                      -0.00006                       1.00000
                       0.00190                      -0.00007                       1.00000
                       0.00214                      -0.00008                       1.00000
                       0.00239                      -0.00009                       1.00000
                       0.00265                      -0.00011                       1.00000
                       0.00293                      -0.00012                       1.00000
                       0.00321                      -0.00013                       0.99999
                       0.00351                      -0.00014                       0.99999
                       0.00381                      -0.00015                       0.99999
                       0.00408                      -0.00016                       0.99999
                       0.00432                      -0.00017                       0.99999
                       0.00447                      -0.00018                       0.99999
                       0.00450                      -0.00018                       0.99999
                       0.00434                      -0.00019                       0.99999
                       0.00416                      -0.00019                       0.99999
                       0.00000                      -0.00000                       1.00000
        </DataArray>
      </PointData>
      <Lines>
        <DataArray type="Int32" Name="connectivity" format="ascii">
      0      1
      1      2
      2      3
      3      4
      4      5
      5      6
      6      7
      7      8
      8      9
      9     10
     10     11
     11     12
     12     13
     13     14
     14     15
     15     16
     16     17
     17     18
     18     19
     19     20
     21      0
        </DataArray>
        <DataArray type="Int32" Name="offsets" format="ascii">
      2
      4
      6
      8
     10
     12
     14
     16
     18
     20
     22
     24
     26
     28
     30
     32
     34
     36
     38
     40
     42
        </DataArray>
      </Lines>
    </Piece>
  </PolyData>
</VTKFile>
