<?xml version="1.0"?>
<VTKFile type="PolyData" version="0.1" byte_order="LittleEndian">
  <PolyData>
    <Piece NumberOfPoints="     22" NumberOfVerts="  0" NumberOfLines="     21"
           NumberOfStrips="  0" NumberOfPolys="      0">
      <Points>
        <DataArray type="Float32" NumberOfComponents="3" format="ascii">
                       0.00007                      -0.00001                       2.19000
                       0.00069                      -0.00005                       6.57000
                       0.00206                      -0.00013                      10.95000
                       0.00425                      -0.00024                      15.33000
                       0.00727                      -0.00039                      19.71000
                       0.01110                      -0.00057                      24.09000
                       0.01571                      -0.00078                      28.46999
                       0.02108                      -0.00103                      32.84999
                       0.02719                      -0.00131                      37.22999
                       0.03404                      -0.00163                      41.60998
                       0.04165                      -0.00199                      45.98997
                       0.05006                      -0.00239                      50.36997
                       0.05930                      -0.00283                      54.74996
                       0.06942                      -0.00332                      59.12994
                       0.08042                      -0.00384                      63.50993
                       0.09230                      -0.00440                      67.88991
                       0.10495                      -0.00500                      72.26990
                       0.11818                      -0.00563                      76.64988
                       0.13170                      -0.00629                      81.02986
                       0.14502                      -0.00697                      85.40984
                       0.15141                      -0.00731                      87.59983
                       0.00000                       0.00000                       0.00000
        </DataArray>
      </Points>
      <PointData>
        <DataArray type="Float32" Name="TranslationalVelocity" NumberOfComponents="3" format="ascii">
                      -0.00003                      -0.00001                       0.00000
                      -0.00026                      -0.00004                       0.00000
                      -0.00073                      -0.00012                       0.00000
                      -0.00142                      -0.00022                       0.00000
                      -0.00230                      -0.00034                       0.00000
                      -0.00332                      -0.00048                       0.00000
                      -0.00443                      -0.00064                       0.00000
                      -0.00557                      -0.00081                       0.00000
                      -0.00666                      -0.00099                       0.00001
                      -0.00765                      -0.00118                       0.00001
                      -0.00846                      -0.00136                       0.00001
                      -0.00903                      -0.00155                       0.00001
                      -0.00933                      -0.00173                       0.00001
                      -0.00930                      -0.00190                       0.00001
                      -0.00891                      -0.00205                       0.00001
                      -0.00816                      -0.00219                       0.00001
                      -0.00703                      -0.00230                       0.00000
                      -0.00555                      -0.00239                      -0.00000
                      -0.00376                      -0.00246                      -0.00001
                      -0.00170                      -0.00251                      -0.00001
                      -0.00060                      -0.00254                      -0.00002
                       0.00000                      -0.00000                       0.00000
        </DataArray>
        <DataArray type="Float32" Name="RotationalVelocity" NumberOfComponents="3" format="ascii">
                       0.00000                      -0.00003                       0.00000
                       0.00001                      -0.00008                       0.00000
                       0.00002                      -0.00013                       0.00000
                       0.00003                      -0.00018                       0.00000
                       0.00003                      -0.00022                       0.00000
                       0.00003                      -0.00025                       0.00000
                       0.00004                      -0.00026                       0.00000
                       0.00004                      -0.00026                       0.00000
                       0.00004                      -0.00024                       0.00000
                       0.00004                      -0.00021                       0.00000
                       0.00004                      -0.00016                       0.00000
                       0.00004                      -0.00010                       0.00000
                       0.00004                      -0.00003                       0.00000
                       0.00004                       0.00005                       0.00000
                       0.00003                       0.00013                       0.00000
                       0.00003                       0.00022                       0.00000
                       0.00002                       0.00030                       0.00000
                       0.00002                       0.00038                       0.00000
                       0.00001                       0.00044                       0.00000
                       0.00001                       0.00049                       0.00000
                       0.00001                       0.00051                       0.00000
                       0.00000                      -0.00000                       0.00000
        </DataArray>
        <DataArray type="Float32" Name="TranslationalAcceleration" NumberOfComponents="3" format="ascii">
                       0.00004                       0.00004                      -0.00000
                       0.00038                       0.00035                      -0.00000
                       0.00105                       0.00092                      -0.00000
                       0.00202                       0.00170                      -0.00000
                       0.00323                       0.00265                      -0.00000
                       0.00462                       0.00376                      -0.00000
                       0.00609                       0.00499                      -0.00001
                       0.00753                       0.00632                      -0.00001
                       0.00884                       0.00772                      -0.00001
                       0.00990                       0.00917                      -0.00001
                       0.01061                       0.01062                      -0.00001
                       0.01086                       0.01204                      -0.00001
                       0.01056                       0.01340                      -0.00001
                       0.00964                       0.01467                      -0.00001
                       0.00805                       0.01580                      -0.00001
                       0.00577                       0.01677                       0.00000
                       0.00280                       0.01756                       0.00001
                      -0.00082                       0.01817                       0.00002
                      -0.00499                       0.01861                       0.00003
                      -0.00958                       0.01891                       0.00004
                      -0.01198                       0.01902                       0.00005
                       0.00000                      -0.00000                       0.00000
        </DataArray>
        <DataArray type="Float32" Name="RotationalAcceleration" NumberOfComponents="3" format="ascii">
                      -0.00004                       0.00004                       0.00000
                      -0.00010                       0.00012                       0.00000
                      -0.00015                       0.00019                       0.00000
                      -0.00020                       0.00025                       0.00000
                      -0.00024                       0.00030                       0.00000
                      -0.00027                       0.00033                       0.00000
                      -0.00029                       0.00034                       0.00000
                      -0.00031                       0.00032                       0.00000
                      -0.00033                       0.00027                       0.00000
                      -0.00033                       0.00021                       0.00000
                      -0.00033                       0.00011                       0.00000
                      -0.00032                      -0.00000                       0.00000
                      -0.00030                      -0.00014                       0.00000
                      -0.00027                      -0.00028                       0.00000
                      -0.00024                      -0.00044                       0.00000
                      -0.00020                      -0.00060                       0.00000
                      -0.00016                      -0.00075                       0.00000
                      -0.00012                      -0.00089                       0.00000
                      -0.00008                      -0.00101                       0.00000
                      -0.00006                      -0.00108                       0.00000
                      -0.00005                      -0.00110                       0.00000
                       0.00000                      -0.00000                       0.00000
        </DataArray>
        <DataArray type="Float32" Name="OrientationX" NumberOfComponents="3" format="ascii">
                       1.00000                       0.00000                      -0.00006
                       1.00000                       0.00000                      -0.00022
                       1.00000                       0.00000                      -0.00041
                       1.00000                       0.00000                      -0.00059
                       1.00000                       0.00000                      -0.00078
                       1.00000                       0.00000                      -0.00096
                       1.00000                       0.00000                      -0.00114
                       1.00000                       0.00000                      -0.00131
                       1.00000                       0.00000                      -0.00148
                       1.00000                       0.00000                      -0.00165
                       1.00000                       0.00000                      -0.00183
                       1.00000                       0.00000                      -0.00201
                       1.00000                       0.00000                      -0.00221
                       1.00000                       0.00000                      -0.00241
                       1.00000                       0.00000                      -0.00261
                       1.00000                       0.00000                      -0.00280
                       1.00000                       0.00000                      -0.00296
                       1.00000                       0.00000                      -0.00307
                       1.00000                       0.00000                      -0.00309
                       1.00000                       0.00000                      -0.00297
                       1.00000                       0.00000                      -0.00285
                       1.00000                      -0.00000                       0.00000
        </DataArray>
        <DataArray type="Float32" Name="OrientationY" NumberOfComponents="3" format="ascii">
                       0.00000                       1.00000                       0.00001
                       0.00000                       1.00000                       0.00001
                       0.00000                       1.00000                       0.00002
                       0.00000                       1.00000                       0.00003
                       0.00000                       1.00000                       0.00004
                       0.00000                       1.00000                       0.00004
                       0.00000                       1.00000                       0.00005
                       0.00000                       1.00000                       0.00006
                       0.00000                       1.00000                       0.00007
                       0.00000                       1.00000                       0.00008
                       0.00000                       1.00000                       0.00009
                       0.00000                       1.00000                       0.00010
                       0.00000                       1.00000                       0.00011
                       0.00000                       1.00000                       0.00012
                       0.00000                       1.00000                       0.00012
                       0.00000                       1.00000                       0.00013
                       0.00000                       1.00000                       0.00014
                       0.00000                       1.00000                       0.00015
                       0.00000                       1.00000                       0.00015
                       0.00000                       1.00000                       0.00016
                       0.00000                       1.00000                       0.00016
                      -0.00000                       1.00000                      -0.00000
        </DataArray>
        <DataArray type="Float32" Name="OrientationZ" NumberOfComponents="3" format="ascii">
                       0.00006                      -0.00001                       1.00000
                       0.00022                      -0.00001                       1.00000
                       0.00041                      -0.00002                       1.00000
                       0.00059                      -0.00003                       1.00000
                       0.00078                      -0.00004                       1.00000
                       0.00096                      -0.00004                       1.00000
                       0.00114                      -0.00005                       1.00000
                       0.00131                      -0.00006                       1.00000
                       0.00148                      -0.00007                       1.00000
                       0.00165                      -0.00008                       1.00000
                       0.00183                      -0.00009                       1.00000
                       0.00201                      -0.00010                       1.00000
                       0.00221                      -0.00011                       1.00000
                       0.00241                      -0.00012                       1.00000
                       0.00261                      -0.00012                       1.00000
                       0.00280                      -0.00013                       1.00000
                       0.00296                      -0.00014                       1.00000
                       0.00307                      -0.00015                       1.00000
                       0.00309                      -0.00015                       1.00000
                       0.00297                      -0.00016                       1.00000
                       0.00285                      -0.00016                       1.00000
                       0.00000                      -0.00000                       1.00000
        </DataArray>
      </PointData>
      <Lines>
        <DataArray type="Int32" Name="connectivity" format="ascii">
      0      1
      1      2
      2      3
      3      4
      4      5
      5      6
      6      7
      7      8
      8      9
      9     10
     10     11
     11     12
     12     13
     13     14
     14     15
     15     16
     16     17
     17     18
     18     19
     19     20
     21      0
        </DataArray>
        <DataArray type="Int32" Name="offsets" format="ascii">
      2
      4
      6
      8
     10
     12
     14
     16
     18
     20
     22
     24
     26
     28
     30
     32
     34
     36
     38
     40
     42
        </DataArray>
      </Lines>
    </Piece>
  </PolyData>
</VTKFile>
