<?xml version="1.0"?>
<VTKFile type="PolyData" version="0.1" byte_order="LittleEndian">
  <PolyData>
    <Piece NumberOfPoints="     19" NumberOfVerts="  0" NumberOfLines="     18"
           NumberOfStrips="  0" NumberOfPolys="      0">
      <Points>
        <DataArray type="Float32" NumberOfComponents="3" format="ascii">
                      -4.96098                      -1.37718                      89.42413
                      -5.07003                      -2.62785                      88.88313
                      -5.31642                      -5.09025                      87.71566
                      -5.57371                      -7.53399                      86.50630
                      -5.89729                     -10.57717                      84.96750
                      -6.20942                     -14.28726                      83.24067
                      -6.47177                     -18.04936                      81.62381
                      -6.72029                     -21.81144                      80.00345
                      -6.95303                     -25.57441                      78.38132
                      -7.17293                     -29.33761                      76.75641
                      -7.38509                     -33.09971                      75.12652
                      -7.59357                     -36.86148                      73.49421
                      -7.80554                     -40.62303                      71.86124
                      -8.02996                     -44.38440                      70.22971
                      -8.27517                     -48.14544                      68.60158
                      -8.50467                     -51.27931                      67.24944
                      -8.70799                     -53.78915                      66.17890
                      -8.92241                     -56.32083                      65.16166
                      -9.05082                     -57.56944                      64.61859
        </DataArray>
      </Points>
      <PointData>
        <DataArray type="Float32" Name="TranslationalVelocity" NumberOfComponents="3" format="ascii">
                      -0.34847                       1.66507                      -3.82271
                      -0.66244                       3.19638                      -7.29955
                      -1.28150                       6.50301                     -14.14343
                      -1.89741                       9.92771                     -20.93319
                      -2.66738                      14.28259                     -29.38468
                      -3.61157                      19.15404                     -39.68232
                      -4.57662                      23.70504                     -50.11726
                      -5.55135                      28.25974                     -60.54479
                      -6.53769                      32.81294                     -70.96757
                      -7.53706                      37.36837                     -81.38412
                      -8.55040                      41.93364                     -91.79119
                      -9.57879                      46.50297                    -102.19141
                     -10.62262                      51.07372                    -112.58560
                     -11.68168                      55.64275                    -122.97428
                     -12.75501                      60.20720                    -133.35731
                     -13.65930                      64.00447                    -142.00529
                     -14.38853                      67.01658                    -148.92893
                     -15.12695                      69.88435                    -155.91083
                     -15.49276                      71.41921                    -159.35317
        </DataArray>
        <DataArray type="Float32" Name="RotationalVelocity" NumberOfComponents="3" format="ascii">
                       2.78018                      -0.00053                      -0.25121
                       2.77991                      -0.00047                      -0.25132
                       2.77916                      -0.00027                      -0.25169
                       2.77820                       0.00000                      -0.25227
                       2.77681                       0.00044                      -0.25326
                       2.77499                       0.00107                      -0.25483
                       2.77313                       0.00183                      -0.25680
                       2.77132                       0.00272                      -0.25915
                       2.76960                       0.00375                      -0.26186
                       2.76799                       0.00494                      -0.26489
                       2.76647                       0.00629                      -0.26817
                       2.76505                       0.00778                      -0.27163
                       2.76370                       0.00934                      -0.27513
                       2.76245                       0.01090                      -0.27853
                       2.76130                       0.01230                      -0.28163
                       2.76048                       0.01323                      -0.28380
                       2.75995                       0.01370                      -0.28514
                       2.75958                       0.01382                      -0.28600
                       2.75947                       0.01373                      -0.28622
        </DataArray>
        <DataArray type="Float32" Name="TranslationalAcceleration" NumberOfComponents="3" format="ascii">
                       0.43440                      10.70032                       4.63917
                       0.51896                      12.93168                       5.64421
                       1.54540                      36.68734                      16.84098
                       2.52171                      58.33611                      27.53293
                       3.68356                      83.44313                      40.32301
                       4.91560                     112.33278                      53.99551
                       6.02549                     140.80604                      66.47063
                       7.11767                     169.14039                      78.94278
                       8.20091                     197.70485                      91.54994
                       9.27633                     226.61328                     104.34831
                      10.33909                     255.79886                     117.32831
                      11.37717                     285.10605                     130.39766
                      12.37849                     314.33896                     143.45858
                      13.33308                     343.33595                     156.42858
                      14.23617                     372.03883                     169.27348
                      14.95050                     395.80864                     179.90826
                      15.49824                     414.87410                     188.36641
                      16.00474                     434.31584                     196.52501
                      16.28076                     444.04776                     200.95229
        </DataArray>
        <DataArray type="Float32" Name="OrientationX" NumberOfComponents="3" format="ascii">
                       0.94776                       0.05298                      -0.31456
                       0.94778                       0.05334                      -0.31444
                       0.94779                       0.05448                      -0.31420
                       0.94777                       0.05617                      -0.31398
                       0.94766                       0.05895                      -0.31380
                       0.95680                       0.05045                      -0.28633
                       0.96249                       0.04634                      -0.26734
                       0.96665                       0.04411                      -0.25228
                       0.97030                       0.04202                      -0.23824
                       0.97325                       0.04011                      -0.22623
                       0.97510                       0.03889                      -0.21835
                       0.97611                       0.03763                      -0.21398
                       0.97599                       0.03665                      -0.21473
                       0.97422                       0.03646                      -0.22262
                       0.97181                       0.03469                      -0.23320
                       0.96949                       0.03140                      -0.24312
                       0.96740                       0.02739                      -0.25178
                       0.96439                       0.02320                      -0.26346
                       0.96237                       0.02126                      -0.27092
        </DataArray>
        <DataArray type="Float32" Name="OrientationY" NumberOfComponents="3" format="ascii">
                       0.30897                      -0.39770                       0.86393
                       0.30899                      -0.39781                       0.86387
                       0.30920                      -0.39805                       0.86369
                       0.30964                      -0.39828                       0.86342
                       0.31055                      -0.39852                       0.86298
                       0.28201                      -0.40049                       0.87182
                       0.26298                      -0.40177                       0.87717
                       0.24830                      -0.40276                       0.88098
                       0.23461                      -0.40366                       0.88432
                       0.22285                      -0.40446                       0.88699
                       0.21513                      -0.40511                       0.88860
                       0.21061                      -0.40565                       0.88943
                       0.21088                      -0.40603                       0.88920
                       0.21798                      -0.40616                       0.88742
                       0.22690                      -0.40625                       0.88514
                       0.23461                      -0.40633                       0.88309
                       0.24090                      -0.40641                       0.88136
                       0.24987                      -0.40645                       0.87884
                       0.25590                      -0.40647                       0.87710
        </DataArray>
        <DataArray type="Float32" Name="OrientationZ" NumberOfComponents="3" format="ascii">
                      -0.07933                      -0.91598                      -0.39329
                      -0.07901                      -0.91592                      -0.39352
                      -0.07802                      -0.91574                      -0.39411
                      -0.07656                      -0.91554                      -0.39487
                      -0.07418                      -0.91526                      -0.39597
                      -0.07069                      -0.91491                      -0.39741
                      -0.06676                      -0.91457                      -0.39888
                      -0.06275                      -0.91424                      -0.40027
                      -0.05901                      -0.91394                      -0.40153
                      -0.05593                      -0.91367                      -0.40258
                      -0.05390                      -0.91344                      -0.40339
                      -0.05333                      -0.91325                      -0.40389
                      -0.05460                      -0.91313                      -0.40400
                      -0.05806                      -0.91307                      -0.40364
                      -0.06403                      -0.91310                      -0.40267
                      -0.07106                      -0.91319                      -0.40130
                      -0.07818                      -0.91328                      -0.39976
                      -0.08669                      -0.91338                      -0.39778
                      -0.09147                      -0.91342                      -0.39661
        </DataArray>
        <DataArray type="Float32" Name="Force" NumberOfComponents="3" format="ascii">
                       2.39716                     -11.59768                      26.52773
                     198.78708                     -65.67525                     113.02343
                     321.01717                    -175.77923                     345.65811
                     339.22477                    -247.91603                     511.13669
                    1530.55108                      83.36542                    -481.44692
                    1393.65154                      47.71882                    -359.76322
                    1277.29309                      14.18535                    -247.77214
                    1953.04489                      32.07520                    -382.27215
                    2401.65118                      29.43021                    -423.21544
                    2668.08573                      20.83472                    -421.08726
                    4289.09503                      32.44768                    -651.61914
                    4577.68729                      20.03377                    -654.50396
                    3733.13324                      -7.42501                    -490.62668
                    2268.38794                     -53.32779                    -205.10920
                     395.79195                     -91.88841                     149.77164
                     342.90698                    -105.22734                     183.34030
                    -814.13222                     -86.87485                     362.80451
                   -2151.07757                     -38.19419                     561.46065
                  -19184.17298                     880.34657                    2399.30562
        </DataArray>
        <DataArray type="Float32" Name="Moment" NumberOfComponents="3" format="ascii">
                       0.00000                       0.00000                       0.00000
                       0.00000                       0.00000                       0.00000
                       0.00000                       0.00000                       0.00000
                       0.00000                       0.00000                       0.00000
                      99.90094                    1237.03005                     531.79073
                     169.87926                    2211.21890                     951.37363
                     213.80489                    2951.80982                    1271.18389
                     332.50336                    4893.56929                    2109.37725
                     459.75811                    7209.46262                    3110.36531
                     493.69155                    8183.20850                    3533.01171
                     533.38250                    9187.08755                    3968.31179
                     560.50325                    9766.50660                    4219.17775
                     434.06098                    7388.39757                    3190.91613
                     454.29874                    7265.37407                    3135.30261
                     475.08796                    6876.51534                    2963.41854
                     506.12961                    6587.66374                    2834.33022
                     492.64447                    5815.85030                    2498.11903
                     272.64578                    2896.27789                    1241.58873
                     256.09408                    2575.27326                    1102.74414
        </DataArray>
      </PointData>
      <Lines>
        <DataArray type="Int32" Name="connectivity" format="ascii">
      0      1
      1      2
      2      3
      3      4
      4      5
      5      6
      6      7
      7      8
      8      9
      9     10
     10     11
     11     12
     12     13
     13     14
     14     15
     15     16
     16     17
     17     18
        </DataArray>
        <DataArray type="Int32" Name="offsets" format="ascii">
      2
      4
      6
      8
     10
     12
     14
     16
     18
     20
     22
     24
     26
     28
     30
     32
     34
     36
        </DataArray>
      </Lines>
    </Piece>
  </PolyData>
</VTKFile>
