<?xml version="1.0"?>
<VTKFile type="PolyData" version="0.1" byte_order="LittleEndian">
  <PolyData>
    <Piece NumberOfPoints="     19" NumberOfVerts="  0" NumberOfLines="     18"
           NumberOfStrips="  0" NumberOfPolys="      0">
      <Points>
        <DataArray type="Float32" NumberOfComponents="3" format="ascii">
                      -4.65340                      -1.22797                      89.19075
                      -4.78886                      -2.34284                      88.41152
                      -5.08429                      -4.51681                      86.77726
                      -5.38576                      -6.66414                      85.10550
                      -5.75653                      -9.33213                      82.99080
                      -6.11116                     -12.61669                      80.55702
                      -6.39440                     -15.97543                      78.21847
                      -6.63252                     -19.33378                      75.87379
                      -6.81327                     -22.69222                      73.52382
                      -6.92789                     -26.04881                      71.16696
                      -6.96880                     -29.40037                      68.80045
                      -6.92691                     -32.74637                      66.42583
                      -6.79605                     -36.08516                      64.04378
                      -6.57205                     -39.41476                      61.65520
                      -6.25065                     -42.73248                      59.26108
                      -5.90670                     -45.48585                      57.26271
                      -5.58480                     -47.68463                      55.66914
                      -5.21718                     -49.90661                      54.11939
                      -5.02488                     -50.98987                      53.31095
        </DataArray>
      </Points>
      <PointData>
        <DataArray type="Float32" Name="TranslationalVelocity" NumberOfComponents="3" format="ascii">
                      -0.27657                       1.65921                      -2.37210
                      -0.48395                       3.19060                      -4.52708
                      -0.88893                       6.40355                      -8.72812
                      -1.28990                       9.68876                     -12.87599
                      -1.78993                      13.84026                     -18.02685
                      -2.40916                      18.60141                     -24.36352
                      -3.04799                      23.16201                     -30.83780
                      -3.69465                      27.72242                     -37.30553
                      -4.35151                      32.27860                     -43.76783
                      -5.02059                      36.83183                     -50.22133
                      -5.70358                      41.38577                     -56.66050
                      -6.40245                      45.93549                     -63.08507
                      -7.11861                      50.47817                     -69.49271
                      -7.85293                      55.01081                     -75.88057
                      -8.60555                      59.53002                     -82.24450
                      -9.24657                      63.28292                     -87.52579
                      -9.76822                      66.26307                     -91.74367
                     -10.30225                      69.14697                     -96.00671
                     -10.56702                      70.65031                     -98.08530
        </DataArray>
        <DataArray type="Float32" Name="RotationalVelocity" NumberOfComponents="3" format="ascii">
                       1.93309                      -0.00056                      -0.18641
                       1.93286                      -0.00051                      -0.18647
                       1.93222                      -0.00034                      -0.18667
                       1.93139                      -0.00011                      -0.18700
                       1.93019                       0.00024                      -0.18765
                       1.92861                       0.00073                      -0.18879
                       1.92699                       0.00135                      -0.19036
                       1.92540                       0.00217                      -0.19239
                       1.92387                       0.00327                      -0.19487
                       1.92243                       0.00477                      -0.19777
                       1.92108                       0.00675                      -0.20103
                       1.91980                       0.00924                      -0.20457
                       1.91858                       0.01225                      -0.20827
                       1.91743                       0.01571                      -0.21198
                       1.91633                       0.01943                      -0.21553
                       1.91548                       0.02254                      -0.21821
                       1.91487                       0.02489                      -0.22005
                       1.91434                       0.02694                      -0.22154
                       1.91412                       0.02781                      -0.22212
        </DataArray>
        <DataArray type="Float32" Name="TranslationalAcceleration" NumberOfComponents="3" format="ascii">
                       0.29279                       4.65731                       3.14251
                       0.37134                       5.64184                       3.82585
                       1.09212                      15.93767                      11.23940
                       1.77343                      25.28601                      18.22348
                       2.58475                      36.10669                      26.49791
                       3.47437                      48.65898                      35.50425
                       4.30774                      61.12186                      43.88589
                       5.13988                      73.51788                      52.24273
                       5.97608                      86.00311                      60.67907
                       6.81418                      98.61802                      69.23773
                       7.64618                     111.32207                      77.91369
                       8.45812                     124.03903                      86.65321
                       9.23437                     136.67412                      95.39463
                       9.95931                     149.14799                     104.08418
                      10.61950                     161.42616                     112.69555
                      11.11208                     171.53434                     119.82494
                      11.46552                     179.61000                     125.50329
                      11.76659                     187.85570                     131.06163
                      11.92033                     191.93799                     134.00142
        </DataArray>
        <DataArray type="Float32" Name="OrientationX" NumberOfComponents="3" format="ascii">
                       0.94731                       0.09771                      -0.30505
                       0.94737                       0.09830                      -0.30467
                       0.94756                       0.10021                      -0.30345
                       0.94782                       0.10304                      -0.30170
                       0.94817                       0.10775                      -0.29892
                       0.95789                       0.09699                      -0.27027
                       0.96438                       0.09319                      -0.24754
                       0.96961                       0.09308                      -0.22624
                       0.97456                       0.09452                      -0.20320
                       0.97900                       0.09791                      -0.17879
                       0.98249                       0.10427                      -0.15443
                       0.98515                       0.11282                      -0.12940
                       0.98667                       0.12414                      -0.10525
                       0.98670                       0.13898                      -0.08434
                       0.98605                       0.15380                      -0.06371
                       0.98517                       0.16503                      -0.04699
                       0.98433                       0.17287                      -0.03482
                       0.98313                       0.18094                      -0.02683
                       0.98236                       0.18530                      -0.02515
        </DataArray>
        <DataArray type="Float32" Name="OrientationY" NumberOfComponents="3" format="ascii">
                       0.30477                      -0.56806                       0.76447
                       0.30479                      -0.56807                       0.76446
                       0.30489                      -0.56800                       0.76447
                       0.30509                      -0.56781                       0.76453
                       0.30555                      -0.56737                       0.76467
                       0.27608                      -0.56989                       0.77396
                       0.25543                      -0.57115                       0.78009
                       0.23807                      -0.57188                       0.78503
                       0.22020                      -0.57253                       0.78976
                       0.20234                      -0.57314                       0.79408
                       0.18626                      -0.57365                       0.79764
                       0.17093                      -0.57427                       0.80063
                       0.15798                      -0.57492                       0.80282
                       0.14977                      -0.57530                       0.80411
                       0.14186                      -0.57599                       0.80505
                       0.13506                      -0.57688                       0.80559
                       0.12997                      -0.57771                       0.80583
                       0.12837                      -0.57801                       0.80587
                       0.12962                      -0.57780                       0.80582
        </DataArray>
        <DataArray type="Float32" Name="OrientationZ" NumberOfComponents="3" format="ascii">
                      -0.09859                      -0.81716                      -0.56791
                      -0.09792                      -0.81709                      -0.56814
                      -0.09575                      -0.81690                      -0.56877
                      -0.09253                      -0.81669                      -0.56962
                      -0.08721                      -0.81638                      -0.57089
                      -0.07896                      -0.81598                      -0.57266
                      -0.06869                      -0.81554                      -0.57461
                      -0.05631                      -0.81504                      -0.57667
                      -0.04169                      -0.81441                      -0.57879
                      -0.02472                      -0.81358                      -0.58092
                      -0.00542                      -0.81244                      -0.58302
                       0.01602                      -0.81086                      -0.58502
                       0.03915                      -0.80874                      -0.58686
                       0.06323                      -0.80605                      -0.58846
                       0.08712                      -0.80286                      -0.58977
                       0.10584                      -0.79998                      -0.59061
                       0.11919                      -0.79773                      -0.59112
                       0.13030                      -0.79571                      -0.59149
                       0.13478                      -0.79487                      -0.59163
        </DataArray>
        <DataArray type="Float32" Name="Force" NumberOfComponents="3" format="ascii">
                       1.28105                      -9.38538                      13.28216
                     169.30087                     -62.19482                      60.29730
                     252.47830                    -149.32266                     172.23229
                     249.30385                    -195.94946                     241.12849
                    1763.36182                     297.22339                    -696.47728
                    1972.76413                     257.23986                    -641.25720
                    2205.93709                     240.88632                    -608.83030
                    2970.05123                     299.93367                    -718.51622
                    3305.19156                     307.91654                    -676.14320
                    3857.67634                     364.00259                    -679.32626
                    5123.90103                     499.51989                    -750.20574
                    5932.38132                     632.17819                    -720.80540
                    6976.14313                     857.69499                    -725.10558
                    7614.53071                    1054.68291                    -635.71853
                    8211.73126                    1271.23984                    -527.47495
                    8610.75921                    1441.93584                    -420.25452
                    8503.61117                    1495.92004                    -314.01220
                    6210.95004                    1141.69927                    -174.75164
                    1063.36110                     119.07138                      84.23275
        </DataArray>
        <DataArray type="Float32" Name="Moment" NumberOfComponents="3" format="ascii">
                       0.00000                       0.00000                       0.00000
                       0.00000                       0.00000                       0.00000
                       0.00000                       0.00000                       0.00000
                       0.00000                       0.00000                       0.00000
                      71.79533                     674.25208                     469.51227
                     116.17265                    1206.67529                     841.45053
                     132.16743                    1580.97439                    1104.39334
                     165.27593                    2417.60232                    1692.37421
                     170.99244                    3392.94264                    2381.01331
                     113.15095                    3826.18765                    2692.72965
                      24.74985                    4204.61356                    2968.65743
                     -91.33798                    4462.51055                    3162.08799
                    -177.46468                    3621.03200                    2575.79318
                    -285.15642                    3615.04381                    2581.94862
                    -381.85413                    3511.46037                    2518.08139
                    -443.06692                    3347.75255                    2408.30686
                    -444.72123                    2978.88811                    2147.82113
                    -244.66986                    1496.49432                    1081.04410
                    -227.61422                    1344.89539                     972.27696
        </DataArray>
      </PointData>
      <Lines>
        <DataArray type="Int32" Name="connectivity" format="ascii">
      0      1
      1      2
      2      3
      3      4
      4      5
      5      6
      6      7
      7      8
      8      9
      9     10
     10     11
     11     12
     12     13
     13     14
     14     15
     15     16
     16     17
     17     18
        </DataArray>
        <DataArray type="Int32" Name="offsets" format="ascii">
      2
      4
      6
      8
     10
     12
     14
     16
     18
     20
     22
     24
     26
     28
     30
     32
     34
     36
        </DataArray>
      </Lines>
    </Piece>
  </PolyData>
</VTKFile>
