<?xml version="1.0"?>
<VTKFile type="PolyData" version="0.1" byte_order="LittleEndian">
  <PolyData>
    <Piece NumberOfPoints="    550" NumberOfVerts="  0" NumberOfLines="     21"
           NumberOfStrips="  0" NumberOfPolys="    567">
      <Points>
        <DataArray type="Float32" NumberOfComponents="3" format="ascii">
                       2.97344                      -0.00001                       2.18980
                       2.88003                       0.73944                       2.18982
                       2.60566                       1.43243                       2.18984
                       2.16757                       2.03541                       2.18987
                       1.59328                       2.51050                       2.18991
                       0.91889                       2.82784                       2.18996
                       0.18677                       2.96750                       2.19001
                      -0.55709                       2.92070                       2.19006
                      -1.26593                       2.69038                       2.19010
                      -1.89523                       2.29102                       2.19014
                      -2.40544                       1.74770                       2.19017
                      -2.76450                       1.09457                       2.19019
                      -2.94986                       0.37266                       2.19020
                      -2.94986                      -0.37267                       2.19019
                      -2.76450                      -1.09458                       2.19017
                      -2.40544                      -1.74771                       2.19015
                      -1.89523                      -2.29103                       2.19011
                      -1.26593                      -2.69040                       2.19007
                      -0.55709                      -2.92072                       2.19002
                       0.18677                      -2.96751                       2.18997
                       0.91889                      -2.82785                       2.18992
                       1.59328                      -2.51051                       2.18988
                       2.16757                      -2.03542                       2.18984
                       2.60566                      -1.43244                       2.18982
                       2.88003                      -0.73946                       2.18981
                       2.92082                      -0.00006                       6.56934
                       2.82908                       0.72615                       6.56937
                       2.55962                       1.40672                       6.56944
                       2.12938                       1.99890                       6.56955
                       1.56538                       2.46548                       6.56969
                       0.90307                       2.77714                       6.56984
                       0.18406                       2.91430                       6.57001
                      -0.54648                       2.86834                       6.57017
                      -1.24263                       2.64215                       6.57033
                      -1.86066                       2.24994                       6.57046
                      -2.36173                       1.71635                       6.57057
                      -2.71436                       1.07491                       6.57063
                      -2.89640                       0.36593                       6.57066
                      -2.89640                      -0.36605                       6.57065
                      -2.71436                      -1.07503                       6.57060
                      -2.36173                      -1.71647                       6.57051
                      -1.86066                      -2.25006                       6.57038
                      -1.24263                      -2.64227                       6.57024
                      -0.54648                      -2.86846                       6.57007
                       0.18406                      -2.91442                       6.56991
                       0.90307                      -2.77726                       6.56975
                       1.56538                      -2.46560                       6.56960
                       2.12938                      -1.99902                       6.56948
                       2.55962                      -1.40684                       6.56939
                       2.82908                      -0.72627                       6.56935
                       2.86896                      -0.00016                      10.94882
                       2.77890                       0.71280                      10.94888
                       2.51435                       1.38097                      10.94901
                       2.09195                       1.96235                      10.94920
                       1.53824                       2.42042                      10.94944
                       0.88800                       2.72640                      10.94971
                       0.18210                       2.86106                      10.95000
                      -0.53511                       2.81594                      10.95030
                      -1.21857                       2.59387                      10.95057
                      -1.82532                       2.20881                      10.95081
                      -2.31726                       1.68495                      10.95100
                      -2.66346                       1.05521                      10.95112
                      -2.84218                       0.35916                      10.95118
                      -2.84218                      -0.35947                      10.95116
                      -2.66346                      -1.05553                      10.95106
                      -2.31726                      -1.68527                      10.95091
                      -1.82532                      -2.20912                      10.95069
                      -1.21857                      -2.59418                      10.95043
                      -0.53511                      -2.81625                      10.95014
                       0.18210                      -2.86138                      10.94985
                       0.88800                      -2.72672                      10.94956
                       1.53824                      -2.42074                      10.94930
                       2.09195                      -1.96267                      10.94909
                       2.51435                      -1.38129                      10.94893
                       2.77890                      -0.71312                      10.94884
                       2.81793                      -0.00030                      15.32831
                       2.72954                       0.69942                      15.32839
                       2.46990                       1.35518                      15.32857
                       2.05535                       1.92576                      15.32884
                       1.51192                       2.37532                      15.32918
                       0.87376                       2.67562                      15.32957
                       0.18097                       2.80777                      15.33000
                      -0.52291                       2.76349                      15.33042
                      -1.19368                       2.54555                      15.33081
                      -1.78917                       2.16764                      15.33116
                      -2.27196                       1.65351                      15.33143
                      -2.61174                       1.03547                      15.33161
                      -2.78713                       0.35234                      15.33169
                      -2.78713                      -0.35294                      15.33167
                      -2.61174                      -1.03606                      15.33154
                      -2.27196                      -1.65411                      15.33131
                      -1.78917                      -2.16823                      15.33100
                      -1.19368                      -2.54614                      15.33063
                      -0.52292                      -2.76409                      15.33022
                       0.18097                      -2.80837                      15.32979
                       0.87376                      -2.67621                      15.32938
                       1.51192                      -2.37592                      15.32901
                       2.05535                      -1.92636                      15.32869
                       2.46990                      -1.35577                      15.32847
                       2.72954                      -0.70002                      15.32833
                       2.76773                      -0.00048                      19.70781
                       2.68101                       0.68600                      19.70791
                       2.42629                       1.32934                      19.70814
                       2.01958                       1.88913                      19.70849
                       1.48644                       2.33018                      19.70893
                       0.86036                       2.62480                      19.70944
                       0.18068                       2.75445                      19.70999
                      -0.50988                       2.71100                      19.71053
                      -1.16795                       2.49718                      19.71104
                      -1.75217                       2.12643                      19.71149
                      -2.22583                       1.62203                      19.71184
                      -2.55917                       1.01568                      19.71207
                      -2.73125                       0.34549                      19.71218
                      -2.73125                      -0.34644                      19.71215
                      -2.55917                      -1.01664                      19.71198
                      -2.22583                      -1.62299                      19.71169
                      -1.75217                      -2.12738                      19.71129
                      -1.16795                      -2.49814                      19.71081
                      -0.50989                      -2.71196                      19.71028
                       0.18068                      -2.75541                      19.70974
                       0.86036                      -2.62575                      19.70920
                       1.48644                      -2.33114                      19.70872
                       2.01958                      -1.89008                      19.70832
                       2.42629                      -1.33030                      19.70802
                       2.68101                      -0.68695                      19.70785
                       2.71835                      -0.00070                      24.08736
                       2.63330                       0.67254                      24.08748
                       2.38350                       1.30347                      24.08776
                       1.98463                       1.85246                      24.08817
                       1.46178                       2.28501                      24.08871
                       0.84777                       2.57393                      24.08932
                       0.18121                       2.70109                      24.08998
                      -0.49604                       2.65848                      24.09063
                      -1.14141                       2.44878                      24.09125
                      -1.71436                       2.08518                      24.09179
                      -2.17888                       1.59051                      24.09222
                      -2.50579                       0.99586                      24.09250
                      -2.67455                       0.33860                      24.09263
                      -2.67455                      -0.33999                      24.09259
                      -2.50579                      -0.99725                      24.09239
                      -2.17888                      -1.59190                      24.09204
                      -1.71436                      -2.08657                      24.09156
                      -1.14141                      -2.45018                      24.09099
                      -0.49604                      -2.65987                      24.09035
                       0.18121                      -2.70248                      24.08968
                       0.84777                      -2.57532                      24.08904
                       1.46178                      -2.28640                      24.08846
                       1.98463                      -1.85385                      24.08797
                       2.38350                      -1.30486                      24.08761
                       2.63330                      -0.67393                      24.08741
                       2.66975                      -0.00095                      28.46694
                       2.58638                       0.65904                      28.46708
                       2.34149                       1.27756                      28.46740
                       1.95047                       1.81575                      28.46788
                       1.43790                       2.23979                      28.46850
                       0.83597                       2.52303                      28.46921
                       0.18252                       2.64768                      28.46997
                      -0.48141                       2.60591                      28.47073
                      -1.11408                       2.40034                      28.47145
                      -1.67576                       2.04389                      28.47207
                      -2.13115                       1.55896                      28.47256
                      -2.45163                       0.97600                      28.47289
                      -2.61707                       0.33167                      28.47304
                      -2.61707                      -0.33357                      28.47300
                      -2.45163                      -0.97791                      28.47277
                      -2.13115                      -1.56086                      28.47236
                      -1.67576                      -2.04580                      28.47181
                      -1.11408                      -2.40225                      28.47114
                      -0.48141                      -2.60782                      28.47040
                       0.18252                      -2.64959                      28.46963
                       0.83597                      -2.52494                      28.46889
                       1.43790                      -2.24169                      28.46822
                       1.95047                      -1.81766                      28.46765
                       2.34149                      -1.27947                      28.46724
                       2.58638                      -0.66094                      28.46700
                       2.62192                      -0.00125                      32.84656
                       2.54021                       0.64550                      32.84671
                       2.30024                       1.25161                      32.84707
                       1.91707                       1.77900                      32.84762
                       1.41478                       2.19453                      32.84831
                       0.82493                       2.47209                      32.84911
                       0.18459                       2.59424                      32.84996
                      -0.46602                       2.55331                      32.85082
                      -1.08600                       2.35186                      32.85162
                      -1.63641                       2.00256                      32.85233
                      -2.08266                       1.52736                      32.85288
                      -2.39670                       0.95610                      32.85325
                      -2.55882                       0.32469                      32.85342
                      -2.55882                      -0.32720                      32.85337
                      -2.39671                      -0.95861                      32.85311
                      -2.08266                      -1.52986                      32.85266
                      -1.63641                      -2.00507                      32.85203
                      -1.08600                      -2.35437                      32.85128
                      -0.46602                      -2.55581                      32.85045
                       0.18459                      -2.59675                      32.84958
                       0.82493                      -2.47459                      32.84875
                       1.41478                      -2.19703                      32.84799
                       1.91707                      -1.78150                      32.84736
                       2.30024                      -1.25411                      32.84689
                       2.54021                      -0.64800                      32.84662
                       2.57482                      -0.00160                      37.22619
                       2.49479                       0.63191                      37.22637
                       2.25972                       1.22561                      37.22677
                       1.88440                       1.74220                      37.22737
                       1.39239                       2.14922                      37.22813
                       0.81463                       2.42110                      37.22902
                       0.18740                       2.54075                      37.22996
                      -0.44989                       2.50066                      37.23091
                      -1.05717                       2.30334                      37.23179
                      -1.59631                       1.96119                      37.23257
                      -2.03342                       1.49571                      37.23318
                      -2.34104                       0.93616                      37.23359
                      -2.49984                       0.31768                      37.23377
                      -2.49984                      -0.32087                      37.23372
                      -2.34104                      -0.93935                      37.23343
                      -2.03342                      -1.49891                      37.23293
                      -1.59631                      -1.96438                      37.23224
                      -1.05717                      -2.30653                      37.23141
                      -0.44989                      -2.50385                      37.23049
                       0.18740                      -2.54394                      37.22954
                       0.81463                      -2.42429                      37.22861
                       1.39239                      -2.15242                      37.22777
                       1.88440                      -1.74539                      37.22708
                       2.25972                      -1.22880                      37.22656
                       2.49479                      -0.63510                      37.22626
                       2.52846                      -0.00198                      41.60584
                       2.45010                       0.61828                      41.60603
                       2.21995                       1.19957                      41.60647
                       1.85247                       1.70536                      41.60713
                       1.37075                       2.10387                      41.60796
                       0.80506                       2.37007                      41.60893
                       0.19094                       2.48722                      41.60996
                      -0.43302                       2.44796                      41.61099
                      -1.02761                       2.25477                      41.61195
                      -1.55548                       1.91977                      41.61280
                      -1.98345                       1.46402                      41.61347
                      -2.28464                       0.91616                      41.61391
                      -2.44012                       0.31061                      41.61411
                      -2.44012                      -0.31458                      41.61406
                      -2.28464                      -0.92013                      41.61374
                      -1.98345                      -1.46799                      41.61319
                      -1.55548                      -1.92374                      41.61244
                      -1.02761                      -2.25874                      41.61153
                      -0.43302                      -2.45193                      41.61052
                       0.19094                      -2.49119                      41.60949
                       0.80506                      -2.37404                      41.60848
                       1.37075                      -2.10784                      41.60757
                       1.85247                      -1.70933                      41.60680
                       2.21995                      -1.20354                      41.60624
                       2.45010                      -0.62225                      41.60592
                       2.48285                      -0.00242                      45.98550
                       2.40617                       0.60460                      45.98570
                       2.18094                       1.17348                      45.98617
                       1.82130                       1.66847                      45.98689
                       1.34987                       2.05848                      45.98779
                       0.79625                       2.31899                      45.98883
                       0.19525                       2.43364                      45.98995
                      -0.41539                       2.39522                      45.99107
                      -0.99729                       2.20615                      45.99211
                      -1.51389                       1.87830                      45.99303
                      -1.93272                       1.43229                      45.99375
                      -2.22748                       0.89612                      45.99423
                      -2.37964                       0.30350                      45.99445
                      -2.37964                      -0.30834                      45.99438
                      -2.22748                      -0.90097                      45.99404
                      -1.93272                      -1.43713                      45.99345
                      -1.51389                      -1.88315                      45.99263
                      -0.99729                      -2.21099                      45.99165
                      -0.41539                      -2.40006                      45.99056
                       0.19525                      -2.43848                      45.98944
                       0.79625                      -2.32383                      45.98835
                       1.34987                      -2.06332                      45.98736
                       1.82130                      -1.67332                      45.98653
                       2.18093                      -1.17832                      45.98593
                       2.40617                      -0.60944                      45.98557
                       2.43804                      -0.00291                      50.36514
                       2.36303                       0.59087                      50.36536
                       2.14271                       1.14734                      50.36588
                       1.79092                       1.63153                      50.36664
                       1.32977                       2.01303                      50.36762
                       0.78824                       2.26786                      50.36874
                       0.20034                       2.38000                      50.36994
                      -0.39697                       2.34242                      50.37114
                      -0.96618                       2.15748                      50.37227
                      -1.47151                       1.83679                      50.37325
                      -1.88120                       1.40050                      50.37403
                      -2.16953                       0.87603                      50.37455
                      -2.31837                       0.29634                      50.37478
                      -2.31837                      -0.30216                      50.37471
                      -2.16953                      -0.88185                      50.37435
                      -1.88120                      -1.40632                      50.37370
                      -1.47151                      -1.84261                      50.37282
                      -0.96618                      -2.16330                      50.37177
                      -0.39697                      -2.34824                      50.37059
                       0.20034                      -2.38582                      50.36938
                       0.78824                      -2.27368                      50.36821
                       1.32977                      -2.01885                      50.36715
                       1.79092                      -1.63735                      50.36626
                       2.14271                      -1.15316                      50.36561
                       2.36303                      -0.59669                      50.36523
                       2.39406                      -0.00345                      54.74479
                       2.32072                       0.57709                      54.74503
                       2.10531                       1.12115                      54.74557
                       1.76137                       1.59454                      54.74640
                       1.31051                       1.96753                      54.74744
                       0.78105                       2.21668                      54.74864
                       0.20626                       2.32632                      54.74993
                      -0.37773                       2.28958                      54.75122
                      -0.93424                       2.10876                      54.75243
                      -1.42830                       1.79522                      54.75348
                      -1.82886                       1.36866                      54.75431
                      -2.11075                       0.85589                      54.75487
                      -2.25627                       0.28913                      54.75512
                      -2.25627                      -0.29602                      54.75504
                      -2.11075                      -0.86279                      54.75465
                      -1.82886                      -1.37556                      54.75396
                      -1.42830                      -1.80211                      54.75302
                      -0.93424                      -2.11565                      54.75188
                      -0.37773                      -2.29647                      54.75063
                       0.20626                      -2.33322                      54.74933
                       0.78105                      -2.22357                      54.74807
                       1.31050                      -1.97442                      54.74693
                       1.76137                      -1.60144                      54.74598
                       2.10531                      -1.12804                      54.74528
                       2.32072                      -0.58398                      54.74488
                       2.35094                      -0.00403                      59.12444
                       2.27927                       0.56326                      59.12469
                       2.06878                       1.09491                      59.12527
                       1.73268                       1.55750                      59.12615
                       1.29210                       1.92198                      59.12726
                       0.77472                       2.16544                      59.12855
                       0.21305                       2.27259                      59.12992
                      -0.35762                       2.23668                      59.13129
                      -0.90143                       2.05999                      59.13258
                      -1.38422                       1.75360                      59.13370
                      -1.77564                       1.33678                      59.13459
                      -2.05111                       0.83570                      59.13518
                      -2.19331                       0.28187                      59.13545
                      -2.19331                      -0.28994                      59.13537
                      -2.05111                      -0.84377                      59.13495
                      -1.77565                      -1.34485                      59.13421
                      -1.38422                      -1.76167                      59.13321
                      -0.90143                      -2.06806                      59.13200
                      -0.35762                      -2.24476                      59.13066
                       0.21305                      -2.28066                      59.12928
                       0.77472                      -2.17351                      59.12794
                       1.29210                      -1.93005                      59.12672
                       1.73268                      -1.56557                      59.12571
                       2.06878                      -1.10298                      59.12497
                       2.27927                      -0.57133                      59.12453
                       2.30870                      -0.00467                      63.50411
                       2.23870                       0.54938                      63.50437
                       2.03313                       1.06861                      63.50499
                       1.70488                       1.52041                      63.50592
                       1.27458                       1.87638                      63.50709
                       0.76928                       2.11416                      63.50845
                       0.22072                       2.21881                      63.50990
                      -0.33663                       2.18374                      63.51135
                      -0.86775                       2.01117                      63.51271
                      -1.33927                       1.71193                      63.51390
                      -1.72155                       1.30484                      63.51484
                      -1.99059                       0.81546                      63.51547
                      -2.12947                       0.27455                      63.51575
                      -2.12947                      -0.28390                      63.51566
                      -1.99059                      -0.82481                      63.51522
                      -1.72155                      -1.31419                      63.51444
                      -1.33927                      -1.72128                      63.51338
                      -0.86775                      -2.02051                      63.51211
                      -0.33663                      -2.19309                      63.51069
                       0.22072                      -2.22815                      63.50923
                       0.76928                      -2.12351                      63.50781
                       1.27458                      -1.88573                      63.50653
                       1.70487                      -1.52976                      63.50546
                       2.03312                      -1.07796                      63.50467
                       2.23870                      -0.55872                      63.50421
                       2.26731                      -0.00536                      67.88382
                       2.19899                       0.53545                      67.88410
                       1.99833                       1.04228                      67.88474
                       1.67792                       1.48328                      67.88571
                       1.25791                       1.83074                      67.88695
                       0.76469                       2.06283                      67.88837
                       0.22924                       2.16498                      67.88988
                      -0.31479                       2.13075                      67.89140
                      -0.83321                       1.96230                      67.89283
                      -1.29346                       1.67022                      67.89407
                      -1.66661                       1.27286                      67.89505
                      -1.92921                       0.79518                      67.89571
                      -2.06477                       0.26720                      67.89600
                      -2.06477                      -0.27791                      67.89591
                      -1.92921                      -0.80589                      67.89545
                      -1.66661                      -1.28357                      67.89464
                      -1.29346                      -1.68093                      67.89353
                      -0.83321                      -1.97302                      67.89219
                      -0.31479                      -2.14146                      67.89071
                       0.22924                      -2.17569                      67.88918
                       0.76469                      -2.07355                      67.88770
                       1.25791                      -1.84145                      67.88635
                       1.67792                      -1.49399                      67.88523
                       1.99833                      -1.05299                      67.88441
                       2.19899                      -0.54616                      67.88393
                       2.22669                      -0.00608                      72.26362
                       2.16005                       0.52148                      72.26391
                       1.96429                       1.01590                      72.26457
                       1.65174                       1.44610                      72.26557
                       1.24201                       1.78505                      72.26684
                       0.76086                       2.01146                      72.26830
                       0.23853                       2.11111                      72.26986
                      -0.29218                       2.07772                      72.27143
                      -0.79791                       1.91339                      72.27290
                      -1.24688                       1.62846                      72.27418
                      -1.61089                       1.24083                      72.27519
                      -1.86707                       0.77485                      72.27587
                      -1.99931                       0.25979                      72.27617
                      -1.99931                      -0.27196                      72.27608
                      -1.86707                      -0.78701                      72.27560
                      -1.61090                      -1.25300                      72.27476
                      -1.24688                      -1.64063                      72.27362
                      -0.79791                      -1.92556                      72.27224
                      -0.29218                      -2.08988                      72.27072
                       0.23853                      -2.12327                      72.26914
                       0.76086                      -2.02363                      72.26761
                       1.24201                      -1.79722                      72.26623
                       1.65173                      -1.45826                      72.26507
                       1.96429                      -1.02806                      72.26422
                       2.16005                      -0.53365                      72.26373
                       2.18665                      -0.00685                      76.64354
                       2.12168                       0.50747                      76.64384
                       1.93084                       0.98948                      76.64451
                       1.62613                       1.40888                      76.64551
                       1.22669                       1.73933                      76.64680
                       0.75762                       1.96006                      76.64827
                       0.24840                       2.05720                      76.64985
                      -0.26899                       2.02464                      76.65143
                      -0.76202                       1.86445                      76.65291
                      -1.19973                       1.58667                      76.65420
                      -1.55460                       1.20876                      76.65522
                      -1.80435                       0.75448                      76.65590
                      -1.93327                       0.25236                      76.65620
                      -1.93327                      -0.26605                      76.65611
                      -1.80435                      -0.76818                      76.65563
                      -1.55460                      -1.22246                      76.65478
                      -1.19973                      -1.60037                      76.65363
                      -0.76202                      -1.87814                      76.65224
                      -0.26899                      -2.03834                      76.65070
                       0.24839                      -2.07089                      76.64911
                       0.75762                      -1.97375                      76.64757
                       1.22669                      -1.75302                      76.64617
                       1.62613                      -1.42258                      76.64501
                       1.93084                      -1.00317                      76.64415
                       2.12168                      -0.52117                      76.64365
                       2.14688                      -0.00764                      81.02366
                       2.08358                       0.49343                      81.02395
                       1.89766                       0.96303                      81.02460
                       1.60079                       1.37163                      81.02559
                       1.21164                       1.69357                      81.02685
                       0.75464                       1.90861                      81.02829
                       0.25853                       2.00325                      81.02984
                      -0.24553                       1.97154                      81.03138
                      -0.72587                       1.81547                      81.03283
                      -1.15231                       1.54484                      81.03409
                      -1.49804                       1.17667                      81.03509
                      -1.74136                       0.73408                      81.03575
                      -1.86696                       0.24488                      81.03605
                      -1.86696                      -0.26018                      81.03596
                      -1.74136                      -0.74937                      81.03548
                      -1.49804                      -1.19196                      81.03465
                      -1.15231                      -1.56013                      81.03352
                      -0.72587                      -1.83076                      81.03216
                      -0.24553                      -1.98683                      81.03065
                       0.25853                      -2.01854                      81.02909
                       0.75464                      -1.92390                      81.02759
                       1.21163                      -1.70886                      81.02622
                       1.60079                      -1.38692                      81.02508
                       1.89766                      -0.97832                      81.02424
                       2.08358                      -0.50872                      81.02376
                       2.10691                      -0.00847                      85.40403
                       2.04528                       0.47937                      85.40430
                       1.86427                       0.93655                      85.40493
                       1.57525                       1.33436                      85.40586
                       1.19638                       1.64779                      85.40704
                       0.75146                       1.85715                      85.40839
                       0.26846                       1.94929                      85.40984
                      -0.22228                       1.91841                      85.41129
                      -0.68992                       1.76646                      85.41264
                      -1.10509                       1.50299                      85.41382
                      -1.44169                       1.14455                      85.41475
                      -1.67857                       0.71366                      85.41537
                      -1.80086                       0.23739                      85.41564
                      -1.80086                      -0.25432                      85.41555
                      -1.67857                      -0.73059                      85.41510
                      -1.44169                      -1.16148                      85.41431
                      -1.10509                      -1.51992                      85.41325
                      -0.68993                      -1.78340                      85.41197
                      -0.22228                      -1.93535                      85.41056
                       0.26846                      -1.96622                      85.40910
                       0.75146                      -1.87408                      85.40769
                       1.19638                      -1.66472                      85.40641
                       1.57525                      -1.35129                      85.40535
                       1.86427                      -0.95349                      85.40457
                       2.04528                      -0.49630                      85.40412
                       2.08664                      -0.00888                      87.59434
                       2.02585                       0.47233                      87.59460
                       1.84729                       0.92331                      87.59519
                       1.56220                       1.31571                      87.59608
                       1.18847                       1.62489                      87.59720
                       0.74959                       1.83141                      87.59848
                       0.27315                       1.92230                      87.59985
                      -0.21093                       1.89184                      87.60122
                      -0.67223                       1.74196                      87.60250
                      -1.08176                       1.48206                      87.60361
                      -1.41379                       1.12848                      87.60448
                      -1.64746                       0.70344                      87.60507
                      -1.76809                       0.23363                      87.60532
                      -1.76809                      -0.25140                      87.60523
                      -1.64746                      -0.72121                      87.60479
                      -1.41379                      -1.14625                      87.60405
                      -1.08176                      -1.49983                      87.60304
                      -0.67223                      -1.75972                      87.60183
                      -0.21093                      -1.90961                      87.60049
                       0.27315                      -1.94007                      87.59911
                       0.74959                      -1.84918                      87.59778
                       1.18847                      -1.64266                      87.59657
                       1.56220                      -1.33348                      87.59557
                       1.84729                      -0.94108                      87.59484
                       2.02585                      -0.49010                      87.59442
                       3.00000                       0.00000                       0.00000
                       2.90575                       0.74607                       0.00000
                       2.62892                       1.44526                       0.00000
                       2.18691                       2.05364                       0.00000
                       1.60748                       2.53298                       0.00000
                       0.92705                       2.85317                       0.00000
                       0.18837                       2.99408                       0.00000
                      -0.56214                       2.94686                       0.00000
                      -1.27734                       2.71448                       0.00000
                      -1.91227                       2.31154                       0.00000
                      -2.42705                       1.76336                       0.00000
                      -2.78933                       1.10437                       0.00000
                      -2.97634                       0.37600                       0.00000
                      -2.97634                      -0.37600                       0.00000
                      -2.78933                      -1.10437                       0.00000
                      -2.42705                      -1.76336                       0.00000
                      -1.91227                      -2.31154                       0.00000
                      -1.27734                      -2.71448                       0.00000
                      -0.56214                      -2.94686                       0.00000
                       0.18837                      -2.99408                       0.00000
                       0.92705                      -2.85317                       0.00000
                       1.60748                      -2.53298                       0.00000
                       2.18691                      -2.05364                       0.00000
                       2.62892                      -1.44526                       0.00000
                       2.90575                      -0.74607                       0.00000
        </DataArray>
      </Points>
      <Polys>
        <DataArray type="Int32" Name="connectivity" format="ascii">
      0      1     26     25
      1      2     27     26
      2      3     28     27
      3      4     29     28
      4      5     30     29
      5      6     31     30
      6      7     32     31
      7      8     33     32
      8      9     34     33
      9     10     35     34
     10     11     36     35
     11     12     37     36
     12     13     38     37
     13     14     39     38
     14     15     40     39
     15     16     41     40
     16     17     42     41
     17     18     43     42
     18     19     44     43
     19     20     45     44
     20     21     46     45
     21     22     47     46
     22     23     48     47
     23     24     49     48
     24      0     25     49
     24     23     22     21     20     19     18     17     16     15     14     13     12     11     10      9      8      7      6      5      4      3      2      1      0
     25     26     27     28     29     30     31     32     33     34     35     36     37     38     39     40     41     42     43     44     45     46     47     48     49
     25     26     51     50
     26     27     52     51
     27     28     53     52
     28     29     54     53
     29     30     55     54
     30     31     56     55
     31     32     57     56
     32     33     58     57
     33     34     59     58
     34     35     60     59
     35     36     61     60
     36     37     62     61
     37     38     63     62
     38     39     64     63
     39     40     65     64
     40     41     66     65
     41     42     67     66
     42     43     68     67
     43     44     69     68
     44     45     70     69
     45     46     71     70
     46     47     72     71
     47     48     73     72
     48     49     74     73
     49     25     50     74
     49     48     47     46     45     44     43     42     41     40     39     38     37     36     35     34     33     32     31     30     29     28     27     26     25
     50     51     52     53     54     55     56     57     58     59     60     61     62     63     64     65     66     67     68     69     70     71     72     73     74
     50     51     76     75
     51     52     77     76
     52     53     78     77
     53     54     79     78
     54     55     80     79
     55     56     81     80
     56     57     82     81
     57     58     83     82
     58     59     84     83
     59     60     85     84
     60     61     86     85
     61     62     87     86
     62     63     88     87
     63     64     89     88
     64     65     90     89
     65     66     91     90
     66     67     92     91
     67     68     93     92
     68     69     94     93
     69     70     95     94
     70     71     96     95
     71     72     97     96
     72     73     98     97
     73     74     99     98
     74     50     75     99
     74     73     72     71     70     69     68     67     66     65     64     63     62     61     60     59     58     57     56     55     54     53     52     51     50
     75     76     77     78     79     80     81     82     83     84     85     86     87     88     89     90     91     92     93     94     95     96     97     98     99
     75     76    101    100
     76     77    102    101
     77     78    103    102
     78     79    104    103
     79     80    105    104
     80     81    106    105
     81     82    107    106
     82     83    108    107
     83     84    109    108
     84     85    110    109
     85     86    111    110
     86     87    112    111
     87     88    113    112
     88     89    114    113
     89     90    115    114
     90     91    116    115
     91     92    117    116
     92     93    118    117
     93     94    119    118
     94     95    120    119
     95     96    121    120
     96     97    122    121
     97     98    123    122
     98     99    124    123
     99     75    100    124
     99     98     97     96     95     94     93     92     91     90     89     88     87     86     85     84     83     82     81     80     79     78     77     76     75
    100    101    102    103    104    105    106    107    108    109    110    111    112    113    114    115    116    117    118    119    120    121    122    123    124
    100    101    126    125
    101    102    127    126
    102    103    128    127
    103    104    129    128
    104    105    130    129
    105    106    131    130
    106    107    132    131
    107    108    133    132
    108    109    134    133
    109    110    135    134
    110    111    136    135
    111    112    137    136
    112    113    138    137
    113    114    139    138
    114    115    140    139
    115    116    141    140
    116    117    142    141
    117    118    143    142
    118    119    144    143
    119    120    145    144
    120    121    146    145
    121    122    147    146
    122    123    148    147
    123    124    149    148
    124    100    125    149
    124    123    122    121    120    119    118    117    116    115    114    113    112    111    110    109    108    107    106    105    104    103    102    101    100
    125    126    127    128    129    130    131    132    133    134    135    136    137    138    139    140    141    142    143    144    145    146    147    148    149
    125    126    151    150
    126    127    152    151
    127    128    153    152
    128    129    154    153
    129    130    155    154
    130    131    156    155
    131    132    157    156
    132    133    158    157
    133    134    159    158
    134    135    160    159
    135    136    161    160
    136    137    162    161
    137    138    163    162
    138    139    164    163
    139    140    165    164
    140    141    166    165
    141    142    167    166
    142    143    168    167
    143    144    169    168
    144    145    170    169
    145    146    171    170
    146    147    172    171
    147    148    173    172
    148    149    174    173
    149    125    150    174
    149    148    147    146    145    144    143    142    141    140    139    138    137    136    135    134    133    132    131    130    129    128    127    126    125
    150    151    152    153    154    155    156    157    158    159    160    161    162    163    164    165    166    167    168    169    170    171    172    173    174
    150    151    176    175
    151    152    177    176
    152    153    178    177
    153    154    179    178
    154    155    180    179
    155    156    181    180
    156    157    182    181
    157    158    183    182
    158    159    184    183
    159    160    185    184
    160    161    186    185
    161    162    187    186
    162    163    188    187
    163    164    189    188
    164    165    190    189
    165    166    191    190
    166    167    192    191
    167    168    193    192
    168    169    194    193
    169    170    195    194
    170    171    196    195
    171    172    197    196
    172    173    198    197
    173    174    199    198
    174    150    175    199
    174    173    172    171    170    169    168    167    166    165    164    163    162    161    160    159    158    157    156    155    154    153    152    151    150
    175    176    177    178    179    180    181    182    183    184    185    186    187    188    189    190    191    192    193    194    195    196    197    198    199
    175    176    201    200
    176    177    202    201
    177    178    203    202
    178    179    204    203
    179    180    205    204
    180    181    206    205
    181    182    207    206
    182    183    208    207
    183    184    209    208
    184    185    210    209
    185    186    211    210
    186    187    212    211
    187    188    213    212
    188    189    214    213
    189    190    215    214
    190    191    216    215
    191    192    217    216
    192    193    218    217
    193    194    219    218
    194    195    220    219
    195    196    221    220
    196    197    222    221
    197    198    223    222
    198    199    224    223
    199    175    200    224
    199    198    197    196    195    194    193    192    191    190    189    188    187    186    185    184    183    182    181    180    179    178    177    176    175
    200    201    202    203    204    205    206    207    208    209    210    211    212    213    214    215    216    217    218    219    220    221    222    223    224
    200    201    226    225
    201    202    227    226
    202    203    228    227
    203    204    229    228
    204    205    230    229
    205    206    231    230
    206    207    232    231
    207    208    233    232
    208    209    234    233
    209    210    235    234
    210    211    236    235
    211    212    237    236
    212    213    238    237
    213    214    239    238
    214    215    240    239
    215    216    241    240
    216    217    242    241
    217    218    243    242
    218    219    244    243
    219    220    245    244
    220    221    246    245
    221    222    247    246
    222    223    248    247
    223    224    249    248
    224    200    225    249
    224    223    222    221    220    219    218    217    216    215    214    213    212    211    210    209    208    207    206    205    204    203    202    201    200
    225    226    227    228    229    230    231    232    233    234    235    236    237    238    239    240    241    242    243    244    245    246    247    248    249
    225    226    251    250
    226    227    252    251
    227    228    253    252
    228    229    254    253
    229    230    255    254
    230    231    256    255
    231    232    257    256
    232    233    258    257
    233    234    259    258
    234    235    260    259
    235    236    261    260
    236    237    262    261
    237    238    263    262
    238    239    264    263
    239    240    265    264
    240    241    266    265
    241    242    267    266
    242    243    268    267
    243    244    269    268
    244    245    270    269
    245    246    271    270
    246    247    272    271
    247    248    273    272
    248    249    274    273
    249    225    250    274
    249    248    247    246    245    244    243    242    241    240    239    238    237    236    235    234    233    232    231    230    229    228    227    226    225
    250    251    252    253    254    255    256    257    258    259    260    261    262    263    264    265    266    267    268    269    270    271    272    273    274
    250    251    276    275
    251    252    277    276
    252    253    278    277
    253    254    279    278
    254    255    280    279
    255    256    281    280
    256    257    282    281
    257    258    283    282
    258    259    284    283
    259    260    285    284
    260    261    286    285
    261    262    287    286
    262    263    288    287
    263    264    289    288
    264    265    290    289
    265    266    291    290
    266    267    292    291
    267    268    293    292
    268    269    294    293
    269    270    295    294
    270    271    296    295
    271    272    297    296
    272    273    298    297
    273    274    299    298
    274    250    275    299
    274    273    272    271    270    269    268    267    266    265    264    263    262    261    260    259    258    257    256    255    254    253    252    251    250
    275    276    277    278    279    280    281    282    283    284    285    286    287    288    289    290    291    292    293    294    295    296    297    298    299
    275    276    301    300
    276    277    302    301
    277    278    303    302
    278    279    304    303
    279    280    305    304
    280    281    306    305
    281    282    307    306
    282    283    308    307
    283    284    309    308
    284    285    310    309
    285    286    311    310
    286    287    312    311
    287    288    313    312
    288    289    314    313
    289    290    315    314
    290    291    316    315
    291    292    317    316
    292    293    318    317
    293    294    319    318
    294    295    320    319
    295    296    321    320
    296    297    322    321
    297    298    323    322
    298    299    324    323
    299    275    300    324
    299    298    297    296    295    294    293    292    291    290    289    288    287    286    285    284    283    282    281    280    279    278    277    276    275
    300    301    302    303    304    305    306    307    308    309    310    311    312    313    314    315    316    317    318    319    320    321    322    323    324
    300    301    326    325
    301    302    327    326
    302    303    328    327
    303    304    329    328
    304    305    330    329
    305    306    331    330
    306    307    332    331
    307    308    333    332
    308    309    334    333
    309    310    335    334
    310    311    336    335
    311    312    337    336
    312    313    338    337
    313    314    339    338
    314    315    340    339
    315    316    341    340
    316    317    342    341
    317    318    343    342
    318    319    344    343
    319    320    345    344
    320    321    346    345
    321    322    347    346
    322    323    348    347
    323    324    349    348
    324    300    325    349
    324    323    322    321    320    319    318    317    316    315    314    313    312    311    310    309    308    307    306    305    304    303    302    301    300
    325    326    327    328    329    330    331    332    333    334    335    336    337    338    339    340    341    342    343    344    345    346    347    348    349
    325    326    351    350
    326    327    352    351
    327    328    353    352
    328    329    354    353
    329    330    355    354
    330    331    356    355
    331    332    357    356
    332    333    358    357
    333    334    359    358
    334    335    360    359
    335    336    361    360
    336    337    362    361
    337    338    363    362
    338    339    364    363
    339    340    365    364
    340    341    366    365
    341    342    367    366
    342    343    368    367
    343    344    369    368
    344    345    370    369
    345    346    371    370
    346    347    372    371
    347    348    373    372
    348    349    374    373
    349    325    350    374
    349    348    347    346    345    344    343    342    341    340    339    338    337    336    335    334    333    332    331    330    329    328    327    326    325
    350    351    352    353    354    355    356    357    358    359    360    361    362    363    364    365    366    367    368    369    370    371    372    373    374
    350    351    376    375
    351    352    377    376
    352    353    378    377
    353    354    379    378
    354    355    380    379
    355    356    381    380
    356    357    382    381
    357    358    383    382
    358    359    384    383
    359    360    385    384
    360    361    386    385
    361    362    387    386
    362    363    388    387
    363    364    389    388
    364    365    390    389
    365    366    391    390
    366    367    392    391
    367    368    393    392
    368    369    394    393
    369    370    395    394
    370    371    396    395
    371    372    397    396
    372    373    398    397
    373    374    399    398
    374    350    375    399
    374    373    372    371    370    369    368    367    366    365    364    363    362    361    360    359    358    357    356    355    354    353    352    351    350
    375    376    377    378    379    380    381    382    383    384    385    386    387    388    389    390    391    392    393    394    395    396    397    398    399
    375    376    401    400
    376    377    402    401
    377    378    403    402
    378    379    404    403
    379    380    405    404
    380    381    406    405
    381    382    407    406
    382    383    408    407
    383    384    409    408
    384    385    410    409
    385    386    411    410
    386    387    412    411
    387    388    413    412
    388    389    414    413
    389    390    415    414
    390    391    416    415
    391    392    417    416
    392    393    418    417
    393    394    419    418
    394    395    420    419
    395    396    421    420
    396    397    422    421
    397    398    423    422
    398    399    424    423
    399    375    400    424
    399    398    397    396    395    394    393    392    391    390    389    388    387    386    385    384    383    382    381    380    379    378    377    376    375
    400    401    402    403    404    405    406    407    408    409    410    411    412    413    414    415    416    417    418    419    420    421    422    423    424
    400    401    426    425
    401    402    427    426
    402    403    428    427
    403    404    429    428
    404    405    430    429
    405    406    431    430
    406    407    432    431
    407    408    433    432
    408    409    434    433
    409    410    435    434
    410    411    436    435
    411    412    437    436
    412    413    438    437
    413    414    439    438
    414    415    440    439
    415    416    441    440
    416    417    442    441
    417    418    443    442
    418    419    444    443
    419    420    445    444
    420    421    446    445
    421    422    447    446
    422    423    448    447
    423    424    449    448
    424    400    425    449
    424    423    422    421    420    419    418    417    416    415    414    413    412    411    410    409    408    407    406    405    404    403    402    401    400
    425    426    427    428    429    430    431    432    433    434    435    436    437    438    439    440    441    442    443    444    445    446    447    448    449
    425    426    451    450
    426    427    452    451
    427    428    453    452
    428    429    454    453
    429    430    455    454
    430    431    456    455
    431    432    457    456
    432    433    458    457
    433    434    459    458
    434    435    460    459
    435    436    461    460
    436    437    462    461
    437    438    463    462
    438    439    464    463
    439    440    465    464
    440    441    466    465
    441    442    467    466
    442    443    468    467
    443    444    469    468
    444    445    470    469
    445    446    471    470
    446    447    472    471
    447    448    473    472
    448    449    474    473
    449    425    450    474
    449    448    447    446    445    444    443    442    441    440    439    438    437    436    435    434    433    432    431    430    429    428    427    426    425
    450    451    452    453    454    455    456    457    458    459    460    461    462    463    464    465    466    467    468    469    470    471    472    473    474
    450    451    476    475
    451    452    477    476
    452    453    478    477
    453    454    479    478
    454    455    480    479
    455    456    481    480
    456    457    482    481
    457    458    483    482
    458    459    484    483
    459    460    485    484
    460    461    486    485
    461    462    487    486
    462    463    488    487
    463    464    489    488
    464    465    490    489
    465    466    491    490
    466    467    492    491
    467    468    493    492
    468    469    494    493
    469    470    495    494
    470    471    496    495
    471    472    497    496
    472    473    498    497
    473    474    499    498
    474    450    475    499
    474    473    472    471    470    469    468    467    466    465    464    463    462    461    460    459    458    457    456    455    454    453    452    451    450
    475    476    477    478    479    480    481    482    483    484    485    486    487    488    489    490    491    492    493    494    495    496    497    498    499
    475    476    501    500
    476    477    502    501
    477    478    503    502
    478    479    504    503
    479    480    505    504
    480    481    506    505
    481    482    507    506
    482    483    508    507
    483    484    509    508
    484    485    510    509
    485    486    511    510
    486    487    512    511
    487    488    513    512
    488    489    514    513
    489    490    515    514
    490    491    516    515
    491    492    517    516
    492    493    518    517
    493    494    519    518
    494    495    520    519
    495    496    521    520
    496    497    522    521
    497    498    523    522
    498    499    524    523
    499    475    500    524
    499    498    497    496    495    494    493    492    491    490    489    488    487    486    485    484    483    482    481    480    479    478    477    476    475
    500    501    502    503    504    505    506    507    508    509    510    511    512    513    514    515    516    517    518    519    520    521    522    523    524
    525    526      1      0
    526    527      2      1
    527    528      3      2
    528    529      4      3
    529    530      5      4
    530    531      6      5
    531    532      7      6
    532    533      8      7
    533    534      9      8
    534    535     10      9
    535    536     11     10
    536    537     12     11
    537    538     13     12
    538    539     14     13
    539    540     15     14
    540    541     16     15
    541    542     17     16
    542    543     18     17
    543    544     19     18
    544    545     20     19
    545    546     21     20
    546    547     22     21
    547    548     23     22
    548    549     24     23
    549    525      0     24
    549    548    547    546    545    544    543    542    541    540    539    538    537    536    535    534    533    532    531    530    529    528    527    526    525
      0      1      2      3      4      5      6      7      8      9     10     11     12     13     14     15     16     17     18     19     20     21     22     23     24
        </DataArray>
        <DataArray type="Int32" Name="offsets" format="ascii">
      4
      8
     12
     16
     20
     24
     28
     32
     36
     40
     44
     48
     52
     56
     60
     64
     68
     72
     76
     80
     84
     88
     92
     96
    100
    125
    150
    154
    158
    162
    166
    170
    174
    178
    182
    186
    190
    194
    198
    202
    206
    210
    214
    218
    222
    226
    230
    234
    238
    242
    246
    250
    275
    300
    304
    308
    312
    316
    320
    324
    328
    332
    336
    340
    344
    348
    352
    356
    360
    364
    368
    372
    376
    380
    384
    388
    392
    396
    400
    425
    450
    454
    458
    462
    466
    470
    474
    478
    482
    486
    490
    494
    498
    502
    506
    510
    514
    518
    522
    526
    530
    534
    538
    542
    546
    550
    575
    600
    604
    608
    612
    616
    620
    624
    628
    632
    636
    640
    644
    648
    652
    656
    660
    664
    668
    672
    676
    680
    684
    688
    692
    696
    700
    725
    750
    754
    758
    762
    766
    770
    774
    778
    782
    786
    790
    794
    798
    802
    806
    810
    814
    818
    822
    826
    830
    834
    838
    842
    846
    850
    875
    900
    904
    908
    912
    916
    920
    924
    928
    932
    936
    940
    944
    948
    952
    956
    960
    964
    968
    972
    976
    980
    984
    988
    992
    996
   1000
   1025
   1050
   1054
   1058
   1062
   1066
   1070
   1074
   1078
   1082
   1086
   1090
   1094
   1098
   1102
   1106
   1110
   1114
   1118
   1122
   1126
   1130
   1134
   1138
   1142
   1146
   1150
   1175
   1200
   1204
   1208
   1212
   1216
   1220
   1224
   1228
   1232
   1236
   1240
   1244
   1248
   1252
   1256
   1260
   1264
   1268
   1272
   1276
   1280
   1284
   1288
   1292
   1296
   1300
   1325
   1350
   1354
   1358
   1362
   1366
   1370
   1374
   1378
   1382
   1386
   1390
   1394
   1398
   1402
   1406
   1410
   1414
   1418
   1422
   1426
   1430
   1434
   1438
   1442
   1446
   1450
   1475
   1500
   1504
   1508
   1512
   1516
   1520
   1524
   1528
   1532
   1536
   1540
   1544
   1548
   1552
   1556
   1560
   1564
   1568
   1572
   1576
   1580
   1584
   1588
   1592
   1596
   1600
   1625
   1650
   1654
   1658
   1662
   1666
   1670
   1674
   1678
   1682
   1686
   1690
   1694
   1698
   1702
   1706
   1710
   1714
   1718
   1722
   1726
   1730
   1734
   1738
   1742
   1746
   1750
   1775
   1800
   1804
   1808
   1812
   1816
   1820
   1824
   1828
   1832
   1836
   1840
   1844
   1848
   1852
   1856
   1860
   1864
   1868
   1872
   1876
   1880
   1884
   1888
   1892
   1896
   1900
   1925
   1950
   1954
   1958
   1962
   1966
   1970
   1974
   1978
   1982
   1986
   1990
   1994
   1998
   2002
   2006
   2010
   2014
   2018
   2022
   2026
   2030
   2034
   2038
   2042
   2046
   2050
   2075
   2100
   2104
   2108
   2112
   2116
   2120
   2124
   2128
   2132
   2136
   2140
   2144
   2148
   2152
   2156
   2160
   2164
   2168
   2172
   2176
   2180
   2184
   2188
   2192
   2196
   2200
   2225
   2250
   2254
   2258
   2262
   2266
   2270
   2274
   2278
   2282
   2286
   2290
   2294
   2298
   2302
   2306
   2310
   2314
   2318
   2322
   2326
   2330
   2334
   2338
   2342
   2346
   2350
   2375
   2400
   2404
   2408
   2412
   2416
   2420
   2424
   2428
   2432
   2436
   2440
   2444
   2448
   2452
   2456
   2460
   2464
   2468
   2472
   2476
   2480
   2484
   2488
   2492
   2496
   2500
   2525
   2550
   2554
   2558
   2562
   2566
   2570
   2574
   2578
   2582
   2586
   2590
   2594
   2598
   2602
   2606
   2610
   2614
   2618
   2622
   2626
   2630
   2634
   2638
   2642
   2646
   2650
   2675
   2700
   2704
   2708
   2712
   2716
   2720
   2724
   2728
   2732
   2736
   2740
   2744
   2748
   2752
   2756
   2760
   2764
   2768
   2772
   2776
   2780
   2784
   2788
   2792
   2796
   2800
   2825
   2850
   2854
   2858
   2862
   2866
   2870
   2874
   2878
   2882
   2886
   2890
   2894
   2898
   2902
   2906
   2910
   2914
   2918
   2922
   2926
   2930
   2934
   2938
   2942
   2946
   2950
   2975
   3000
   3004
   3008
   3012
   3016
   3020
   3024
   3028
   3032
   3036
   3040
   3044
   3048
   3052
   3056
   3060
   3064
   3068
   3072
   3076
   3080
   3084
   3088
   3092
   3096
   3100
   3125
   3150
        </DataArray>
      </Polys>
    </Piece>
  </PolyData>
</VTKFile>
