<?xml version="1.0"?>
<VTKFile type="PolyData" version="0.1" byte_order="LittleEndian">
  <PolyData>
    <Piece NumberOfPoints="     19" NumberOfVerts="  0" NumberOfLines="     18"
           NumberOfStrips="  0" NumberOfPolys="      0">
      <Points>
        <DataArray type="Float32" NumberOfComponents="3" format="ascii">
                      -4.56487                       0.02545                      91.52936
                      -4.49669                       0.04242                      92.89454
                      -4.37828                      -0.01842                      95.62731
                      -4.26335                      -0.12417                      98.36132
                      -4.11297                      -0.28321                     101.77966
                      -3.85638                      -0.33111                     105.87585
                      -3.54413                      -0.24926                     109.96686
                      -3.19605                      -0.16524                     114.05530
                      -2.80449                      -0.07745                     118.14003
                      -2.36577                       0.01193                     122.22020
                      -1.87798                       0.09894                     126.29510
                      -1.33855                       0.18474                     130.36383
                      -0.74810                       0.26899                     134.42581
                      -0.10941                       0.35134                     138.48067
                       0.57473                       0.43120                     142.52794
                       1.17508                       0.49549                     145.89481
                       1.67057                       0.55322                     148.58450
                       2.18065                       0.66416                     151.26964
                       2.43294                       0.67766                     152.61247
        </DataArray>
      </Points>
      <PointData>
        <DataArray type="Float32" Name="TranslationalVelocity" NumberOfComponents="3" format="ascii">
                      -0.02463                      -3.79978                       0.05289
                      -0.02170                      -7.26279                       0.09580
                      -0.03813                     -14.19393                      -0.05780
                      -0.06508                     -21.13225                      -0.32527
                      -0.10505                     -29.81674                      -0.72829
                      -0.11869                     -40.25358                      -0.85102
                      -0.10036                     -50.70409                      -0.64507
                      -0.07969                     -61.16994                      -0.43324
                      -0.05538                     -71.64913                      -0.21164
                      -0.02694                     -82.13908                       0.01402
                       0.00564                     -92.63693                       0.23344
                       0.04353                    -103.13942                       0.44924
                       0.08738                    -113.64341                       0.66029
                       0.13760                    -124.14607                       0.86544
                       0.19422                    -134.64462                       1.06290
                       0.24620                    -143.38894                       1.22055
                       0.29249                    -150.38045                       1.36195
                       0.35494                    -157.36611                       1.63834
                       0.37623                    -160.85984                       1.66920
        </DataArray>
        <DataArray type="Float32" Name="RotationalVelocity" NumberOfComponents="3" format="ascii">
                       2.52423                      -0.00078                      -0.23731
                       2.52479                      -0.00076                      -0.23736
                       2.52624                      -0.00071                      -0.23753
                       2.52806                      -0.00064                      -0.23783
                       2.53062                      -0.00051                      -0.23840
                       2.53385                      -0.00028                      -0.23945
                       2.53699                       0.00008                      -0.24086
                       2.53987                       0.00060                      -0.24259
                       2.54239                       0.00131                      -0.24455
                       2.54452                       0.00226                      -0.24663
                       2.54627                       0.00344                      -0.24871
                       2.54770                       0.00484                      -0.25067
                       2.54886                       0.00643                      -0.25242
                       2.54981                       0.00813                      -0.25390
                       2.55060                       0.00983                      -0.25509
                       2.55115                       0.01114                      -0.25589
                       2.55151                       0.01202                      -0.25642
                       2.55177                       0.01268                      -0.25693
                       2.55185                       0.01290                      -0.25719
        </DataArray>
        <DataArray type="Float32" Name="TranslationalAcceleration" NumberOfComponents="3" format="ascii">
                      -0.86151                      -0.22882                      -9.56771
                      -1.07297                      -0.22325                     -11.59509
                      -3.07870                      -0.02310                     -33.20652
                      -4.93519                       0.51157                     -53.11413
                      -7.12179                       1.39833                     -76.40977
                      -9.63916                       1.58439                    -102.95256
                     -12.13150                       0.95348                    -128.86403
                     -14.66555                       0.31593                    -154.76344
                     -17.27994                      -0.34586                    -180.96221
                     -19.99208                      -1.01986                    -207.55055
                     -22.80248                      -1.67881                    -234.46001
                     -25.69933                      -2.32667                    -261.52665
                     -28.66324                      -2.95737                    -288.55679
                     -31.67187                      -3.56589                    -315.39124
                     -34.70450                      -4.14818                    -341.96834
                     -37.23944                      -4.61368                    -363.98518
                     -39.26824                      -5.02836                    -381.62334
                     -41.29870                      -5.79826                    -399.44092
                     -42.31834                      -5.91120                    -408.49036
        </DataArray>
        <DataArray type="Float32" Name="OrientationX" NumberOfComponents="3" format="ascii">
                       0.97225                      -0.22953                      -0.04532
                       0.97221                      -0.22956                      -0.04591
                       0.97208                      -0.22974                      -0.04781
                       0.97185                      -0.23009                      -0.05060
                       0.97144                      -0.23081                      -0.05516
                       0.97755                      -0.20108                      -0.06299
                       0.98088                      -0.18081                      -0.07200
                       0.98295                      -0.16451                      -0.08218
                       0.98447                      -0.14855                      -0.09352
                       0.98536                      -0.13371                      -0.10582
                       0.98540                      -0.12198                      -0.11877
                       0.98484                      -0.11243                      -0.13206
                       0.98364                      -0.10669                      -0.14517
                       0.98173                      -0.10699                      -0.15738
                       0.97980                      -0.10850                      -0.16797
                       0.97844                      -0.10986                      -0.17490
                       0.97762                      -0.11121                      -0.17858
                       0.97683                      -0.11571                      -0.18003
                       0.97640                      -0.11977                      -0.17974
        </DataArray>
        <DataArray type="Float32" Name="OrientationY" NumberOfComponents="3" format="ascii">
                       0.22854                       0.97319                      -0.02601
                       0.22855                       0.97318                      -0.02614
                       0.22868                       0.97314                      -0.02657
                       0.22896                       0.97306                      -0.02721
                       0.22954                       0.97289                      -0.02829
                       0.19967                       0.97946                      -0.02795
                       0.17921                       0.98341                      -0.02809
                       0.16270                       0.98627                      -0.02838
                       0.14649                       0.98880                      -0.02851
                       0.13141                       0.99092                      -0.02847
                       0.11942                       0.99244                      -0.02845
                       0.10963                       0.99357                      -0.02835
                       0.10364                       0.99421                      -0.02843
                       0.10368                       0.99418                      -0.02913
                       0.10496                       0.99403                      -0.02981
                       0.10619                       0.99389                      -0.03023
                       0.10747                       0.99374                      -0.03052
                       0.11188                       0.99323                      -0.03130
                       0.11589                       0.99275                      -0.03199
        </DataArray>
        <DataArray type="Float32" Name="OrientationZ" NumberOfComponents="3" format="ascii">
                       0.05007                       0.01493                       0.99863
                       0.05068                       0.01492                       0.99860
                       0.05263                       0.01489                       0.99850
                       0.05550                       0.01486                       0.99835
                       0.06019                       0.01482                       0.99808
                       0.06732                       0.01474                       0.99762
                       0.07588                       0.01465                       0.99701
                       0.08572                       0.01452                       0.99621
                       0.09671                       0.01436                       0.99521
                       0.10866                       0.01415                       0.99398
                       0.12134                       0.01385                       0.99251
                       0.13440                       0.01345                       0.99084
                       0.14736                       0.01292                       0.98900
                       0.15958                       0.01228                       0.98711
                       0.17020                       0.01158                       0.98534
                       0.17715                       0.01101                       0.98412
                       0.18086                       0.01064                       0.98345
                       0.18243                       0.01043                       0.98316
                       0.18226                       0.01041                       0.98319
        </DataArray>
        <DataArray type="Float32" Name="Force" NumberOfComponents="3" format="ascii">
                      -0.02167                      15.52422                      -0.23104
                     184.50024                     110.91263                     -11.02223
                     267.62805                     312.71712                     -18.78345
                     266.12923                     460.33882                     -21.68085
                    1754.79630                    -477.80591                     -98.68033
                    1833.74005                    -372.56116                    -118.15526
                    1948.15629                    -299.07642                    -143.78688
                    2837.57080                    -390.90187                    -238.30444
                    3283.36793                    -358.99449                    -313.66469
                    3833.49816                    -349.71587                    -413.81542
                    5482.86398                    -412.88944                    -664.08396
                    6249.03817                    -405.55724                    -841.50979
                    6717.38493                    -436.34631                    -994.29083
                    6694.98211                    -399.73861                   -1076.26434
                    6371.49000                    -346.28438                   -1095.33158
                    5869.69661                    -283.98238                   -1052.31592
                    5121.17621                    -212.92510                    -938.57577
                    3035.43014                     -92.99346                    -561.82744
                   -6345.25788                     161.44395                    1173.82742
        </DataArray>
        <DataArray type="Float32" Name="Moment" NumberOfComponents="3" format="ascii">
                       0.00000                       0.00000                       0.00000
                       0.00000                       0.00000                       0.00000
                       0.00000                       0.00000                       0.00000
                       0.00000                       0.00000                       0.00000
                     -69.38829                     -17.21992                   -1150.52857
                    -140.86824                     -31.26669                   -2087.65126
                    -214.32558                     -42.21029                   -2816.08178
                    -390.53976                     -68.09201                   -4538.59322
                    -640.30631                     -98.96103                   -6589.31271
                    -819.77088                    -112.74868                   -7498.89928
                   -1023.63613                    -126.04318                   -8373.06140
                   -1210.98911                    -134.56271                   -8927.93442
                   -1026.93271                    -104.00942                   -6892.26732
                   -1111.06052                    -103.83810                   -6872.86746
                   -1147.99485                    -100.51401                   -6646.05263
                   -1134.84613                     -95.40932                   -6304.29299
                   -1028.50588                     -84.66976                   -5592.65617
                    -519.77287                     -42.41506                   -2801.19804
                    -485.50052                     -39.65523                   -2618.97436
        </DataArray>
      </PointData>
      <Lines>
        <DataArray type="Int32" Name="connectivity" format="ascii">
      0      1
      1      2
      2      3
      3      4
      4      5
      5      6
      6      7
      7      8
      8      9
      9     10
     10     11
     11     12
     12     13
     13     14
     14     15
     15     16
     16     17
     17     18
        </DataArray>
        <DataArray type="Int32" Name="offsets" format="ascii">
      2
      4
      6
      8
     10
     12
     14
     16
     18
     20
     22
     24
     26
     28
     30
     32
     34
     36
        </DataArray>
      </Lines>
    </Piece>
  </PolyData>
</VTKFile>
