<?xml version="1.0"?>
<VTKFile type="PolyData" version="0.1" byte_order="LittleEndian">
  <PolyData>
    <Piece NumberOfPoints="    625" NumberOfVerts="  0" NumberOfLines="      0"
           NumberOfStrips="  0" NumberOfPolys="    600">
      <Points>
        <DataArray type="Float32" NumberOfComponents="3" format="ascii">
                      -4.52054                       1.41289                      90.54170
                      -4.52054                       1.41289                      90.54170
                      -4.52054                       1.41289                      90.54170
                      -4.52054                       1.41289                      90.54170
                      -4.52054                       1.41289                      90.54170
                      -4.52054                       1.41289                      90.54170
                      -4.52054                       1.41289                      90.54170
                      -4.52054                       1.41289                      90.54170
                      -4.52054                       1.41289                      90.54170
                      -4.52054                       1.41289                      90.54170
                      -4.52054                       1.41289                      90.54170
                      -4.52054                       1.41289                      90.54170
                      -4.52054                       1.41289                      90.54170
                      -4.52054                       1.41289                      90.54170
                      -4.52054                       1.41289                      90.54170
                      -4.52054                       1.41289                      90.54170
                      -4.52054                       1.41289                      90.54170
                      -4.52054                       1.41289                      90.54170
                      -4.52054                       1.41289                      90.54170
                      -4.52054                       1.41289                      90.54170
                      -4.52054                       1.41289                      90.54170
                      -4.52054                       1.41289                      90.54170
                      -4.52054                       1.41289                      90.54170
                      -4.52054                       1.41289                      90.54170
                      -4.52054                       1.41289                      90.54170
                      -3.92777                       1.29524                      90.44279
                      -3.93320                       1.24490                      90.58428
                      -3.97579                       1.19772                      90.72044
                      -4.05286                       1.15667                      90.84274
                      -4.15957                       1.12433                      90.94348
                      -4.28920                       1.10272                      91.01633
                      -4.43363                       1.09322                      91.05673
                      -4.58377                       1.09640                      91.06212
                      -4.73019                       1.11208                      91.03217
                      -4.86368                       1.13927                      90.96876
                      -4.97587                       1.17626                      90.87588
                      -5.05970                       1.22072                      90.75936
                      -5.10990                       1.26987                      90.62652
                      -5.12332                       1.32061                      90.48572
                      -5.09912                       1.36975                      90.34579
                      -5.03882                       1.41421                      90.21553
                      -4.94620                       1.45120                      90.10313
                      -4.82709                       1.47839                      90.01564
                      -4.68897                       1.49407                      89.95857
                      -4.54051                       1.49726                      89.93549
                      -4.39106                       1.48775                      89.94787
                      -4.24999                       1.46614                      89.99492
                      -4.12617                       1.43380                      90.07369
                      -4.02738                       1.39275                      90.17922
                      -3.95984                       1.34558                      90.30489
                      -3.70313                       1.17758                      90.37898
                      -3.71065                       1.10795                      90.57467
                      -3.76955                       1.04270                      90.76301
                      -3.87615                       0.98592                      90.93216
                      -4.02374                       0.94119                      91.07149
                      -4.20304                       0.91131                      91.17226
                      -4.40281                       0.89816                      91.22813
                      -4.61047                       0.90256                      91.23558
                      -4.81298                       0.92425                      91.19416
                      -4.99762                       0.96186                      91.10646
                      -5.15279                       1.01301                      90.97799
                      -5.26874                       1.07451                      90.81683
                      -5.33817                       1.14249                      90.63310
                      -5.35674                       1.21267                      90.43835
                      -5.32326                       1.28064                      90.24481
                      -5.23986                       1.34214                      90.06465
                      -5.11175                       1.39330                      89.90918
                      -4.94701                       1.43090                      89.78817
                      -4.75597                       1.45259                      89.70923
                      -4.55064                       1.45700                      89.67732
                      -4.34392                       1.44385                      89.69444
                      -4.14880                       1.41397                      89.75952
                      -3.97755                       1.36923                      89.86846
                      -3.84091                       1.31245                      90.01442
                      -3.74748                       1.24720                      90.18824
                      -3.54487                       1.05992                      90.32150
                      -3.55387                       0.97661                      90.55566
                      -3.62435                       0.89853                      90.78102
                      -3.75190                       0.83059                      90.98342
                      -3.92850                       0.77706                      91.15015
                      -4.14306                       0.74130                      91.27072
                      -4.38209                       0.72557                      91.33757
                      -4.63058                       0.73084                      91.34650
                      -4.87290                       0.75679                      91.29693
                      -5.09384                       0.80179                      91.19199
                      -5.27951                       0.86300                      91.03827
                      -5.41825                       0.93659                      90.84542
                      -5.50134                       1.01793                      90.62558
                      -5.52355                       1.10191                      90.39254
                      -5.48350                       1.18324                      90.16095
                      -5.38369                       1.25683                      89.94537
                      -5.23041                       1.31805                      89.75934
                      -5.03327                       1.36305                      89.61454
                      -4.80468                       1.38900                      89.52009
                      -4.55898                       1.39427                      89.48190
                      -4.31163                       1.37853                      89.50238
                      -4.07815                       1.34278                      89.58025
                      -3.87323                       1.28925                      89.71061
                      -3.70974                       1.22131                      89.88527
                      -3.59794                       1.14323                      90.09326
                      -3.42357                       0.94226                      90.26754
                      -3.43370                       0.84838                      90.53140
                      -3.51313                       0.76039                      90.78535
                      -3.65686                       0.68383                      91.01344
                      -3.85587                       0.62351                      91.20132
                      -4.09765                       0.58322                      91.33719
                      -4.36701                       0.56549                      91.41252
                      -4.64702                       0.57143                      91.42258
                      -4.92009                       0.60068                      91.36672
                      -5.16906                       0.65138                      91.24847
                      -5.37829                       0.72036                      91.07524
                      -5.53463                       0.80329                      90.85793
                      -5.62826                       0.89494                      90.61019
                      -5.65329                       0.98957                      90.34759
                      -5.60815                       1.08123                      90.08662
                      -5.49569                       1.16416                      89.84369
                      -5.32295                       1.23314                      89.63405
                      -5.10081                       1.28384                      89.47089
                      -4.84321                       1.31309                      89.36445
                      -4.56634                       1.31903                      89.32142
                      -4.28760                       1.30130                      89.34450
                      -4.02451                       1.26101                      89.43225
                      -3.79359                       1.20069                      89.57915
                      -3.60935                       1.12413                      89.77596
                      -3.48337                       1.03614                      90.01034
                      -3.32771                       0.82460                      90.21600
                      -3.33875                       0.72229                      90.50354
                      -3.42531                       0.62641                      90.78028
                      -3.58194                       0.54299                      91.02883
                      -3.79880                       0.47726                      91.23357
                      -4.06227                       0.43335                      91.38163
                      -4.35580                       0.41403                      91.46372
                      -4.66093                       0.42050                      91.47468
                      -4.95850                       0.45237                      91.41381
                      -5.22981                       0.50762                      91.28494
                      -5.45782                       0.58279                      91.09618
                      -5.62818                       0.67316                      90.85937
                      -5.73021                       0.77304                      90.58940
                      -5.75749                       0.87616                      90.30324
                      -5.70831                       0.97604                      90.01885
                      -5.58575                       1.06641                      89.75412
                      -5.39752                       1.14158                      89.52568
                      -5.15544                       1.19684                      89.34787
                      -4.87473                       1.22870                      89.23188
                      -4.57302                       1.23518                      89.18499
                      -4.26927                       1.21585                      89.21014
                      -3.98257                       1.17195                      89.30576
                      -3.73093                       1.10622                      89.46584
                      -3.53016                       1.02279                      89.68032
                      -3.39288                       0.92691                      89.93572
                      -3.25139                       0.70694                      90.16633
                      -3.26317                       0.59786                      90.47291
                      -3.35545                       0.49563                      90.76798
                      -3.52246                       0.40668                      91.03298
                      -3.75368                       0.33659                      91.25128
                      -4.03460                       0.28978                      91.40916
                      -4.34757                       0.26918                      91.49668
                      -4.67291                       0.27608                      91.50836
                      -4.99019                       0.31006                      91.44346
                      -5.27947                       0.36897                      91.30606
                      -5.52257                       0.44912                      91.10479
                      -5.70422                       0.54547                      90.85230
                      -5.81301                       0.65197                      90.56446
                      -5.84209                       0.76192                      90.25934
                      -5.78965                       0.86841                      89.95612
                      -5.65897                       0.96476                      89.67386
                      -5.45828                       1.04491                      89.43029
                      -5.20017                       1.10383                      89.24071
                      -4.90086                       1.13781                      89.11703
                      -4.57917                       1.14471                      89.06703
                      -4.25531                       1.12411                      89.09385
                      -3.94962                       1.07729                      89.19581
                      -3.68131                       1.00721                      89.36649
                      -3.46725                       0.91826                      89.59517
                      -3.32088                       0.81603                      89.86749
                      -3.19114                       0.58928                      90.11818
                      -3.20350                       0.47478                      90.44000
                      -3.30037                       0.36747                      90.74973
                      -3.47567                       0.27410                      91.02791
                      -3.71839                       0.20053                      91.25705
                      -4.01327                       0.15139                      91.42277
                      -4.34178                       0.12977                      91.51465
                      -4.68329                       0.13701                      91.52691
                      -5.01634                       0.17268                      91.45878
                      -5.31999                       0.23452                      91.31456
                      -5.57517                       0.31865                      91.10329
                      -5.76585                       0.41979                      90.83825
                      -5.88004                       0.53158                      90.53610
                      -5.91057                       0.64699                      90.21582
                      -5.85552                       0.75878                      89.89754
                      -5.71835                       0.85992                      89.60125
                      -5.50768                       0.94405                      89.34557
                      -5.23675                       1.00589                      89.14657
                      -4.92257                       1.04156                      89.01675
                      -4.58490                       1.04880                      88.96427
                      -4.24494                       1.02718                      88.99242
                      -3.92406                       0.97804                      89.09944
                      -3.64242                       0.90447                      89.27860
                      -3.41772                       0.81110                      89.51865
                      -3.26408                       0.70379                      89.80449
                      -3.14475                       0.47163                      90.07136
                      -3.15756                       0.35287                      90.40513
                      -3.25803                       0.24158                      90.72636
                      -3.43984                       0.14474                      91.01486
                      -3.69157                       0.06844                      91.25251
                      -3.99740                       0.01748                      91.42438
                      -4.33811                      -0.00495                      91.51967
                      -4.69230                       0.00256                      91.53239
                      -5.03771                       0.03955                      91.46173
                      -5.35263                       0.10369                      91.31215
                      -5.61729                       0.19095                      91.09304
                      -5.81505                       0.29584                      90.81816
                      -5.93348                       0.41178                      90.50479
                      -5.96514                       0.53147                      90.17262
                      -5.90805                       0.64741                      89.84252
                      -5.76579                       0.75231                      89.53523
                      -5.54730                       0.83956                      89.27006
                      -5.26630                       0.90370                      89.06368
                      -4.94046                       0.94069                      88.92904
                      -4.59025                       0.94821                      88.87460
                      -4.23767                       0.92578                      88.90380
                      -3.90488                       0.87481                      89.01480
                      -3.61279                       0.79851                      89.20061
                      -3.37974                       0.70167                      89.44957
                      -3.22039                       0.59038                      89.74603
                      -3.11077                       0.35397                      90.02572
                      -3.12393                       0.23201                      90.36850
                      -3.22711                       0.11771                      90.69839
                      -3.41383                       0.01826                      90.99468
                      -3.67235                      -0.06010                      91.23874
                      -3.98643                      -0.11244                      91.41525
                      -4.33633                      -0.13547                      91.51311
                      -4.70007                      -0.12775                      91.52617
                      -5.05480                      -0.08976                      91.45361
                      -5.37823                      -0.02390                      91.29999
                      -5.65002                       0.06571                      91.07496
                      -5.85311                       0.17344                      90.79267
                      -5.97474                       0.29250                      90.47085
                      -6.00726                       0.41543                      90.12972
                      -5.94863                       0.53450                      89.79071
                      -5.80253                       0.64222                      89.47513
                      -5.57814                       0.73183                      89.20281
                      -5.28957                       0.79770                      88.99085
                      -4.95493                       0.83569                      88.85258
                      -4.59527                       0.84340                      88.79668
                      -4.23318                       0.82037                      88.82667
                      -3.89141                       0.76803                      88.94065
                      -3.59144                       0.68967                      89.13148
                      -3.35211                       0.59022                      89.38715
                      -3.18846                       0.47593                      89.69161
                      -3.08825                       0.23631                      89.98118
                      -3.10165                       0.11211                      90.33024
                      -3.20672                      -0.00428                      90.66619
                      -3.39686                      -0.10556                      90.96791
                      -3.66013                      -0.18535                      91.21646
                      -3.97997                      -0.23865                      91.39620
                      -4.33629                      -0.26211                      91.49586
                      -4.70671                      -0.25425                      91.50915
                      -5.06795                      -0.21557                      91.43526
                      -5.39731                      -0.14849                      91.27883
                      -5.67409                      -0.05723                      91.04967
                      -5.88091                       0.05247                      90.76220
                      -6.00477                       0.17372                      90.43447
                      -6.03788                       0.29890                      90.08708
                      -5.97818                       0.42015                      89.74185
                      -5.82939                       0.52985                      89.42048
                      -5.60089                       0.62111                      89.14316
                      -5.30702                       0.68818                      88.92731
                      -4.96625                       0.72687                      88.78650
                      -4.59999                       0.73473                      88.72958
                      -4.23125                       0.71127                      88.76012
                      -3.88321                       0.65797                      88.87620
                      -3.57773                       0.57817                      89.07052
                      -3.33401                       0.47690                      89.33089
                      -3.16736                       0.36051                      89.64094
                      -3.07656                       0.11865                      89.93767
                      -3.09010                      -0.00687                      90.29045
                      -3.19630                      -0.12450                      90.62998
                      -3.38847                      -0.22686                      90.93492
                      -3.65453                      -0.30750                      91.18611
                      -3.97779                      -0.36137                      91.36777
                      -4.33791                      -0.38508                      91.46849
                      -4.71227                      -0.37714                      91.48193
                      -5.07736                      -0.33804                      91.40725
                      -5.41023                      -0.27025                      91.24914
                      -5.68996                      -0.17802                      91.01755
                      -5.89899                      -0.06715                      90.72701
                      -6.02417                       0.05539                      90.39579
                      -6.05763                       0.18191                      90.04470
                      -5.99729                       0.30445                      89.69579
                      -5.84692                       0.41532                      89.37099
                      -5.61598                       0.50755                      89.09072
                      -5.31898                       0.57534                      88.87257
                      -4.97458                       0.61444                      88.73026
                      -4.60441                       0.62238                      88.67273
                      -4.23175                       0.59867                      88.70359
                      -3.88000                       0.54481                      88.82091
                      -3.57126                       0.46416                      89.01731
                      -3.32494                       0.36180                      89.28045
                      -3.15651                       0.24417                      89.59380
                      -3.07537                       0.00099                      89.89515
                      -3.08896                      -0.12497                      90.24917
                      -3.19553                      -0.24301                      90.58988
                      -3.38837                      -0.34572                      90.89589
                      -3.65536                      -0.42665                      91.14796
                      -3.97974                      -0.48071                      91.33025
                      -4.34112                      -0.50450                      91.43132
                      -4.71680                      -0.49653                      91.44480
                      -5.08316                      -0.45729                      91.36987
                      -5.41719                      -0.38926                      91.21121
                      -5.69790                      -0.29672                      90.97880
                      -5.90765                      -0.18546                      90.68725
                      -6.03327                      -0.06249                      90.35488
                      -6.06685                       0.06447                      90.00256
                      -6.00629                       0.18744                      89.65243
                      -5.85540                       0.29870                      89.32650
                      -5.62366                       0.39125                      89.04525
                      -5.32562                       0.45928                      88.82634
                      -4.98001                       0.49851                      88.68353
                      -4.60856                       0.50648                      88.62580
                      -4.23459                       0.48269                      88.65677
                      -3.88161                       0.42863                      88.77450
                      -3.57180                       0.34771                      88.97158
                      -3.32462                       0.24499                      89.23564
                      -3.15560                       0.12695                      89.55008
                      -3.08457                      -0.11667                      89.85363
                      -3.09811                      -0.24219                      90.20641
                      -3.20431                      -0.35982                      90.54594
                      -3.39648                      -0.46218                      90.85088
                      -3.66254                      -0.54282                      91.10208
                      -3.98580                      -0.59669                      91.28374
                      -4.34592                      -0.62040                      91.38445
                      -4.72029                      -0.61245                      91.39789
                      -5.08537                      -0.57336                      91.32321
                      -5.41824                      -0.50557                      91.16511
                      -5.69797                      -0.41334                      90.93351
                      -5.90700                      -0.30247                      90.64298
                      -6.03218                      -0.17993                      90.31176
                      -6.06564                      -0.05341                      89.96066
                      -6.00530                       0.06913                      89.61176
                      -5.85493                       0.18000                      89.28696
                      -5.62399                       0.27223                      89.00668
                      -5.32699                       0.34002                      88.78854
                      -4.98259                       0.37912                      88.64623
                      -4.61242                       0.38706                      88.58869
                      -4.23976                       0.36336                      88.61956
                      -3.88801                       0.30949                      88.73687
                      -3.57927                       0.22884                      88.93327
                      -3.33295                       0.12649                      89.19641
                      -3.16452                       0.00885                      89.50976
                      -3.10427                      -0.23433                      89.81311
                      -3.11767                      -0.35852                      90.16217
                      -3.22274                      -0.47491                      90.49812
                      -3.41288                      -0.57619                      90.79985
                      -3.67615                      -0.65599                      91.04839
                      -3.99599                      -0.70929                      91.22814
                      -4.35231                      -0.73274                      91.32779
                      -4.72273                      -0.72488                      91.34109
                      -5.08397                      -0.68620                      91.26720
                      -5.41333                      -0.61912                      91.11076
                      -5.69011                      -0.52787                      90.88161
                      -5.89693                      -0.41817                      90.59413
                      -6.02079                      -0.29692                      90.26640
                      -6.05390                      -0.17173                      89.91901
                      -5.99420                      -0.05048                      89.57378
                      -5.84542                       0.05922                      89.25241
                      -5.61691                       0.15047                      88.97509
                      -5.32304                       0.21755                      88.75925
                      -4.98227                       0.25623                      88.61844
                      -4.61601                       0.26409                      88.56151
                      -4.24727                       0.24064                      88.59205
                      -3.89923                       0.18734                      88.70813
                      -3.59375                       0.10754                      88.90246
                      -3.35003                       0.00626                      89.16282
                      -3.18338                      -0.11013                      89.47287
                      -3.13480                      -0.35198                      89.77362
                      -3.14796                      -0.47394                      90.11640
                      -3.25114                      -0.58824                      90.44629
                      -3.43786                      -0.68769                      90.74258
                      -3.69638                      -0.76605                      90.98664
                      -4.01046                      -0.81839                      91.16315
                      -4.36036                      -0.84142                      91.26101
                      -4.72411                      -0.83370                      91.27407
                      -5.07883                      -0.79572                      91.20151
                      -5.40226                      -0.72985                      91.04789
                      -5.67405                      -0.64024                      90.82286
                      -5.87715                      -0.53251                      90.54057
                      -5.99877                      -0.41345                      90.21875
                      -6.03129                      -0.29052                      89.87762
                      -5.97266                      -0.17145                      89.53861
                      -5.82656                      -0.06373                      89.22303
                      -5.60217                       0.02588                      88.95071
                      -5.31360                       0.09175                      88.73875
                      -4.97897                       0.12973                      88.60048
                      -4.61931                       0.13745                      88.54458
                      -4.25721                       0.11442                      88.57456
                      -3.91544                       0.06208                      88.68855
                      -3.61547                      -0.01628                      88.87938
                      -3.37614                      -0.11573                      89.13505
                      -3.21249                      -0.23002                      89.43951
                      -3.17679                      -0.46964                      89.73523
                      -3.18961                      -0.58840                      90.06899
                      -3.29007                      -0.69969                      90.39022
                      -3.47189                      -0.79653                      90.67873
                      -3.72361                      -0.87283                      90.91638
                      -4.02944                      -0.92379                      91.08825
                      -4.37015                      -0.94622                      91.18354
                      -4.72434                      -0.93871                      91.19625
                      -5.06975                      -0.90172                      91.12560
                      -5.38468                      -0.83758                      90.97602
                      -5.64933                      -0.75032                      90.75690
                      -5.84709                      -0.64543                      90.48203
                      -5.96552                      -0.52949                      90.16866
                      -5.99718                      -0.40979                      89.83649
                      -5.94009                      -0.29386                      89.50639
                      -5.79783                      -0.18896                      89.19910
                      -5.57934                      -0.10171                      88.93393
                      -5.29835                      -0.03757                      88.72754
                      -4.97251                      -0.00058                      88.59290
                      -4.62229                       0.00694                      88.53847
                      -4.26972                      -0.01549                      88.56767
                      -3.93692                      -0.06646                      88.67866
                      -3.64483                      -0.14276                      88.86447
                      -3.41179                      -0.23959                      89.11343
                      -3.25243                      -0.35089                      89.40989
                      -3.23119                      -0.58730                      89.69801
                      -3.24355                      -0.70180                      90.01983
                      -3.34042                      -0.80911                      90.32956
                      -3.51572                      -0.90249                      90.60774
                      -3.75844                      -0.97605                      90.83688
                      -4.05332                      -1.02519                      91.00260
                      -4.38184                      -1.04682                      91.09448
                      -4.72334                      -1.03957                      91.10674
                      -5.05639                      -1.00391                      91.03861
                      -5.36004                      -0.94207                      90.89439
                      -5.61522                      -0.85793                      90.68312
                      -5.80590                      -0.75680                      90.41808
                      -5.92009                      -0.64501                      90.11593
                      -5.95062                      -0.52959                      89.79565
                      -5.89558                      -0.41781                      89.47737
                      -5.75841                      -0.31667                      89.18108
                      -5.54774                      -0.23254                      88.92540
                      -5.27680                      -0.17069                      88.72640
                      -4.96263                      -0.13503                      88.59658
                      -4.62495                      -0.12778                      88.54410
                      -4.28499                      -0.14941                      88.57225
                      -3.96411                      -0.19855                      88.67927
                      -3.68248                      -0.27212                      88.85843
                      -3.45777                      -0.36549                      89.09848
                      -3.30413                      -0.47280                      89.38433
                      -3.29946                      -0.70496                      89.66212
                      -3.31123                      -0.81404                      89.96871
                      -3.40351                      -0.91627                      90.26377
                      -3.57052                      -1.00522                      90.52878
                      -3.80175                      -1.07531                      90.74708
                      -4.08267                      -1.12212                      90.90495
                      -4.39563                      -1.14273                      90.99248
                      -4.72097                      -1.13582                      91.00416
                      -5.03825                      -1.10185                      90.93926
                      -5.32753                      -1.04293                      90.80186
                      -5.57063                      -0.96278                      90.60059
                      -5.75228                      -0.86643                      90.34810
                      -5.86107                      -0.75994                      90.06025
                      -5.89015                      -0.64999                      89.75514
                      -5.83771                      -0.54349                      89.45192
                      -5.70704                      -0.44714                      89.16966
                      -5.50634                      -0.36699                      88.92608
                      -5.24823                      -0.30807                      88.73650
                      -4.94893                      -0.27410                      88.61283
                      -4.62724                      -0.26719                      88.56283
                      -4.30337                      -0.28780                      88.58965
                      -3.99768                      -0.33461                      88.69160
                      -3.72938                      -0.40470                      88.86229
                      -3.51531                      -0.49365                      89.09097
                      -3.36894                      -0.59588                      89.36328
                      -3.38379                      -0.82262                      89.62776
                      -3.39483                      -0.92493                      89.91530
                      -3.48138                      -1.02081                      90.19204
                      -3.63801                      -1.10423                      90.44059
                      -3.85488                      -1.16996                      90.64533
                      -4.11835                      -1.21387                      90.79340
                      -4.41187                      -1.23319                      90.87548
                      -4.71701                      -1.22672                      90.88644
                      -5.01458                      -1.19485                      90.82557
                      -5.28589                      -1.13960                      90.69671
                      -5.51389                      -1.06443                      90.50794
                      -5.68426                      -0.97406                      90.27113
                      -5.78629                      -0.87418                      90.00116
                      -5.81356                      -0.77106                      89.71500
                      -5.76438                      -0.67118                      89.43062
                      -5.64182                      -0.58081                      89.16589
                      -5.45359                      -0.50564                      88.93744
                      -5.21151                      -0.45039                      88.75964
                      -4.93080                      -0.41852                      88.64365
                      -4.62909                      -0.41204                      88.59675
                      -4.32534                      -0.43137                      88.62191
                      -4.03864                      -0.47527                      88.71753
                      -3.78700                      -0.54100                      88.87761
                      -3.58624                      -0.62443                      89.09208
                      -3.44895                      -0.72031                      89.34749
                      -3.48765                      -0.94028                      89.59527
                      -3.49779                      -1.03416                      89.85913
                      -3.57721                      -1.12215                      90.11308
                      -3.72095                      -1.19870                      90.34117
                      -3.91996                      -1.25902                      90.52905
                      -4.16173                      -1.29931                      90.66492
                      -4.43109                      -1.31705                      90.74025
                      -4.71110                      -1.31110                      90.75031
                      -4.98417                      -1.28186                      90.69445
                      -5.23314                      -1.23116                      90.57620
                      -5.44237                      -1.16217                      90.40297
                      -5.59871                      -1.07925                      90.18566
                      -5.69234                      -0.98759                      89.93792
                      -5.71737                      -0.89296                      89.67532
                      -5.67224                      -0.80130                      89.41435
                      -5.55977                      -0.71838                      89.17142
                      -5.38704                      -0.64940                      88.96178
                      -5.16489                      -0.59869                      88.79862
                      -4.90729                      -0.56945                      88.69218
                      -4.63043                      -0.56351                      88.64915
                      -4.35169                      -0.58124                      88.67223
                      -4.08859                      -0.62153                      88.75998
                      -3.85767                      -0.68185                      88.90687
                      -3.67343                      -0.75841                      89.10369
                      -3.54746                      -0.84639                      89.33807
                      -3.61697                      -1.05794                      89.56519
                      -3.62596                      -1.14125                      89.79935
                      -3.69644                      -1.21933                      90.02471
                      -3.82400                      -1.28727                      90.22712
                      -4.00060                      -1.34079                      90.39384
                      -4.21515                      -1.37655                      90.51442
                      -4.45419                      -1.39228                      90.58127
                      -4.70267                      -1.38701                      90.59019
                      -4.94500                      -1.36106                      90.54062
                      -5.16594                      -1.31607                      90.43568
                      -5.35161                      -1.25485                      90.28196
                      -5.49035                      -1.18126                      90.08912
                      -5.57343                      -1.09992                      89.86927
                      -5.59565                      -1.01595                      89.63623
                      -5.55559                      -0.93461                      89.40465
                      -5.45579                      -0.86102                      89.18907
                      -5.30250                      -0.79981                      89.00303
                      -5.10537                      -0.75481                      88.85824
                      -4.87677                      -0.72886                      88.76378
                      -4.63108                      -0.72359                      88.72560
                      -4.38372                      -0.73932                      88.74608
                      -4.15025                      -0.77508                      88.82395
                      -3.94533                      -0.82860                      88.95431
                      -3.78183                      -0.89654                      89.12897
                      -3.67004                      -0.97462                      89.33695
                      -3.78324                      -1.17559                      89.53864
                      -3.79075                      -1.24522                      89.73433
                      -3.84966                      -1.31047                      89.92267
                      -3.95625                      -1.36725                      90.09182
                      -4.10384                      -1.41198                      90.23116
                      -4.28315                      -1.44186                      90.33192
                      -4.48291                      -1.45501                      90.38779
                      -4.69057                      -1.45061                      90.39525
                      -4.89309                      -1.42892                      90.35382
                      -5.07773                      -1.39132                      90.26612
                      -5.23290                      -1.34016                      90.13766
                      -5.34884                      -1.27866                      89.97649
                      -5.41828                      -1.21068                      89.79277
                      -5.43684                      -1.14050                      89.59801
                      -5.40337                      -1.07253                      89.40448
                      -5.31996                      -1.01103                      89.22431
                      -5.19186                      -0.95987                      89.06884
                      -5.02711                      -0.92227                      88.94784
                      -4.83607                      -0.90058                      88.86890
                      -4.63074                      -0.89617                      88.83698
                      -4.42402                      -0.90932                      88.85410
                      -4.22891                      -0.93921                      88.91918
                      -4.05765                      -0.98394                      89.02812
                      -3.92102                      -1.04072                      89.17409
                      -3.82759                      -1.10597                      89.34790
                      -4.01589                      -1.29325                      89.51842
                      -4.02132                      -1.34359                      89.65991
                      -4.06391                      -1.39077                      89.79607
                      -4.14097                      -1.43182                      89.91837
                      -4.24768                      -1.46416                      90.01911
                      -4.37732                      -1.48576                      90.09196
                      -4.52175                      -1.49527                      90.13235
                      -4.67189                      -1.49209                      90.13775
                      -4.81830                      -1.47641                      90.10780
                      -4.95180                      -1.44922                      90.04439
                      -5.06399                      -1.41223                      89.95151
                      -5.14781                      -1.36777                      89.83499
                      -5.19802                      -1.31862                      89.70215
                      -5.21144                      -1.26788                      89.56135
                      -5.18724                      -1.21874                      89.42142
                      -5.12693                      -1.17427                      89.29116
                      -5.03431                      -1.13729                      89.17876
                      -4.91520                      -1.11010                      89.09127
                      -4.77708                      -1.09442                      89.03420
                      -4.62863                      -1.09123                      89.01112
                      -4.47917                      -1.10074                      89.02350
                      -4.33810                      -1.12234                      89.07055
                      -4.21428                      -1.15469                      89.14931
                      -4.11550                      -1.19574                      89.25485
                      -4.04795                      -1.24291                      89.38052
                      -4.61666                      -1.41091                      89.53329
                      -4.61666                      -1.41091                      89.53329
                      -4.61666                      -1.41091                      89.53329
                      -4.61666                      -1.41091                      89.53329
                      -4.61666                      -1.41091                      89.53329
                      -4.61666                      -1.41091                      89.53329
                      -4.61666                      -1.41091                      89.53329
                      -4.61666                      -1.41091                      89.53329
                      -4.61666                      -1.41091                      89.53329
                      -4.61666                      -1.41091                      89.53329
                      -4.61666                      -1.41091                      89.53329
                      -4.61666                      -1.41091                      89.53329
                      -4.61666                      -1.41091                      89.53329
                      -4.61666                      -1.41091                      89.53329
                      -4.61666                      -1.41091                      89.53329
                      -4.61666                      -1.41091                      89.53329
                      -4.61666                      -1.41091                      89.53329
                      -4.61666                      -1.41091                      89.53329
                      -4.61666                      -1.41091                      89.53329
                      -4.61666                      -1.41091                      89.53329
                      -4.61666                      -1.41091                      89.53329
                      -4.61666                      -1.41091                      89.53329
                      -4.61666                      -1.41091                      89.53329
                      -4.61666                      -1.41091                      89.53329
                      -4.61666                      -1.41091                      89.53329
        </DataArray>
      </Points>
      <Polys>
        <DataArray type="Int32" Name="connectivity" format="ascii">
      0      1     26     25
      1      2     27     26
      2      3     28     27
      3      4     29     28
      4      5     30     29
      5      6     31     30
      6      7     32     31
      7      8     33     32
      8      9     34     33
      9     10     35     34
     10     11     36     35
     11     12     37     36
     12     13     38     37
     13     14     39     38
     14     15     40     39
     15     16     41     40
     16     17     42     41
     17     18     43     42
     18     19     44     43
     19     20     45     44
     20     21     46     45
     21     22     47     46
     22     23     48     47
     23     24     49     48
     24      0     25     49
     25     26     51     50
     26     27     52     51
     27     28     53     52
     28     29     54     53
     29     30     55     54
     30     31     56     55
     31     32     57     56
     32     33     58     57
     33     34     59     58
     34     35     60     59
     35     36     61     60
     36     37     62     61
     37     38     63     62
     38     39     64     63
     39     40     65     64
     40     41     66     65
     41     42     67     66
     42     43     68     67
     43     44     69     68
     44     45     70     69
     45     46     71     70
     46     47     72     71
     47     48     73     72
     48     49     74     73
     49     25     50     74
     50     51     76     75
     51     52     77     76
     52     53     78     77
     53     54     79     78
     54     55     80     79
     55     56     81     80
     56     57     82     81
     57     58     83     82
     58     59     84     83
     59     60     85     84
     60     61     86     85
     61     62     87     86
     62     63     88     87
     63     64     89     88
     64     65     90     89
     65     66     91     90
     66     67     92     91
     67     68     93     92
     68     69     94     93
     69     70     95     94
     70     71     96     95
     71     72     97     96
     72     73     98     97
     73     74     99     98
     74     50     75     99
     75     76    101    100
     76     77    102    101
     77     78    103    102
     78     79    104    103
     79     80    105    104
     80     81    106    105
     81     82    107    106
     82     83    108    107
     83     84    109    108
     84     85    110    109
     85     86    111    110
     86     87    112    111
     87     88    113    112
     88     89    114    113
     89     90    115    114
     90     91    116    115
     91     92    117    116
     92     93    118    117
     93     94    119    118
     94     95    120    119
     95     96    121    120
     96     97    122    121
     97     98    123    122
     98     99    124    123
     99     75    100    124
    100    101    126    125
    101    102    127    126
    102    103    128    127
    103    104    129    128
    104    105    130    129
    105    106    131    130
    106    107    132    131
    107    108    133    132
    108    109    134    133
    109    110    135    134
    110    111    136    135
    111    112    137    136
    112    113    138    137
    113    114    139    138
    114    115    140    139
    115    116    141    140
    116    117    142    141
    117    118    143    142
    118    119    144    143
    119    120    145    144
    120    121    146    145
    121    122    147    146
    122    123    148    147
    123    124    149    148
    124    100    125    149
    125    126    151    150
    126    127    152    151
    127    128    153    152
    128    129    154    153
    129    130    155    154
    130    131    156    155
    131    132    157    156
    132    133    158    157
    133    134    159    158
    134    135    160    159
    135    136    161    160
    136    137    162    161
    137    138    163    162
    138    139    164    163
    139    140    165    164
    140    141    166    165
    141    142    167    166
    142    143    168    167
    143    144    169    168
    144    145    170    169
    145    146    171    170
    146    147    172    171
    147    148    173    172
    148    149    174    173
    149    125    150    174
    150    151    176    175
    151    152    177    176
    152    153    178    177
    153    154    179    178
    154    155    180    179
    155    156    181    180
    156    157    182    181
    157    158    183    182
    158    159    184    183
    159    160    185    184
    160    161    186    185
    161    162    187    186
    162    163    188    187
    163    164    189    188
    164    165    190    189
    165    166    191    190
    166    167    192    191
    167    168    193    192
    168    169    194    193
    169    170    195    194
    170    171    196    195
    171    172    197    196
    172    173    198    197
    173    174    199    198
    174    150    175    199
    175    176    201    200
    176    177    202    201
    177    178    203    202
    178    179    204    203
    179    180    205    204
    180    181    206    205
    181    182    207    206
    182    183    208    207
    183    184    209    208
    184    185    210    209
    185    186    211    210
    186    187    212    211
    187    188    213    212
    188    189    214    213
    189    190    215    214
    190    191    216    215
    191    192    217    216
    192    193    218    217
    193    194    219    218
    194    195    220    219
    195    196    221    220
    196    197    222    221
    197    198    223    222
    198    199    224    223
    199    175    200    224
    200    201    226    225
    201    202    227    226
    202    203    228    227
    203    204    229    228
    204    205    230    229
    205    206    231    230
    206    207    232    231
    207    208    233    232
    208    209    234    233
    209    210    235    234
    210    211    236    235
    211    212    237    236
    212    213    238    237
    213    214    239    238
    214    215    240    239
    215    216    241    240
    216    217    242    241
    217    218    243    242
    218    219    244    243
    219    220    245    244
    220    221    246    245
    221    222    247    246
    222    223    248    247
    223    224    249    248
    224    200    225    249
    225    226    251    250
    226    227    252    251
    227    228    253    252
    228    229    254    253
    229    230    255    254
    230    231    256    255
    231    232    257    256
    232    233    258    257
    233    234    259    258
    234    235    260    259
    235    236    261    260
    236    237    262    261
    237    238    263    262
    238    239    264    263
    239    240    265    264
    240    241    266    265
    241    242    267    266
    242    243    268    267
    243    244    269    268
    244    245    270    269
    245    246    271    270
    246    247    272    271
    247    248    273    272
    248    249    274    273
    249    225    250    274
    250    251    276    275
    251    252    277    276
    252    253    278    277
    253    254    279    278
    254    255    280    279
    255    256    281    280
    256    257    282    281
    257    258    283    282
    258    259    284    283
    259    260    285    284
    260    261    286    285
    261    262    287    286
    262    263    288    287
    263    264    289    288
    264    265    290    289
    265    266    291    290
    266    267    292    291
    267    268    293    292
    268    269    294    293
    269    270    295    294
    270    271    296    295
    271    272    297    296
    272    273    298    297
    273    274    299    298
    274    250    275    299
    275    276    301    300
    276    277    302    301
    277    278    303    302
    278    279    304    303
    279    280    305    304
    280    281    306    305
    281    282    307    306
    282    283    308    307
    283    284    309    308
    284    285    310    309
    285    286    311    310
    286    287    312    311
    287    288    313    312
    288    289    314    313
    289    290    315    314
    290    291    316    315
    291    292    317    316
    292    293    318    317
    293    294    319    318
    294    295    320    319
    295    296    321    320
    296    297    322    321
    297    298    323    322
    298    299    324    323
    299    275    300    324
    300    301    326    325
    301    302    327    326
    302    303    328    327
    303    304    329    328
    304    305    330    329
    305    306    331    330
    306    307    332    331
    307    308    333    332
    308    309    334    333
    309    310    335    334
    310    311    336    335
    311    312    337    336
    312    313    338    337
    313    314    339    338
    314    315    340    339
    315    316    341    340
    316    317    342    341
    317    318    343    342
    318    319    344    343
    319    320    345    344
    320    321    346    345
    321    322    347    346
    322    323    348    347
    323    324    349    348
    324    300    325    349
    325    326    351    350
    326    327    352    351
    327    328    353    352
    328    329    354    353
    329    330    355    354
    330    331    356    355
    331    332    357    356
    332    333    358    357
    333    334    359    358
    334    335    360    359
    335    336    361    360
    336    337    362    361
    337    338    363    362
    338    339    364    363
    339    340    365    364
    340    341    366    365
    341    342    367    366
    342    343    368    367
    343    344    369    368
    344    345    370    369
    345    346    371    370
    346    347    372    371
    347    348    373    372
    348    349    374    373
    349    325    350    374
    350    351    376    375
    351    352    377    376
    352    353    378    377
    353    354    379    378
    354    355    380    379
    355    356    381    380
    356    357    382    381
    357    358    383    382
    358    359    384    383
    359    360    385    384
    360    361    386    385
    361    362    387    386
    362    363    388    387
    363    364    389    388
    364    365    390    389
    365    366    391    390
    366    367    392    391
    367    368    393    392
    368    369    394    393
    369    370    395    394
    370    371    396    395
    371    372    397    396
    372    373    398    397
    373    374    399    398
    374    350    375    399
    375    376    401    400
    376    377    402    401
    377    378    403    402
    378    379    404    403
    379    380    405    404
    380    381    406    405
    381    382    407    406
    382    383    408    407
    383    384    409    408
    384    385    410    409
    385    386    411    410
    386    387    412    411
    387    388    413    412
    388    389    414    413
    389    390    415    414
    390    391    416    415
    391    392    417    416
    392    393    418    417
    393    394    419    418
    394    395    420    419
    395    396    421    420
    396    397    422    421
    397    398    423    422
    398    399    424    423
    399    375    400    424
    400    401    426    425
    401    402    427    426
    402    403    428    427
    403    404    429    428
    404    405    430    429
    405    406    431    430
    406    407    432    431
    407    408    433    432
    408    409    434    433
    409    410    435    434
    410    411    436    435
    411    412    437    436
    412    413    438    437
    413    414    439    438
    414    415    440    439
    415    416    441    440
    416    417    442    441
    417    418    443    442
    418    419    444    443
    419    420    445    444
    420    421    446    445
    421    422    447    446
    422    423    448    447
    423    424    449    448
    424    400    425    449
    425    426    451    450
    426    427    452    451
    427    428    453    452
    428    429    454    453
    429    430    455    454
    430    431    456    455
    431    432    457    456
    432    433    458    457
    433    434    459    458
    434    435    460    459
    435    436    461    460
    436    437    462    461
    437    438    463    462
    438    439    464    463
    439    440    465    464
    440    441    466    465
    441    442    467    466
    442    443    468    467
    443    444    469    468
    444    445    470    469
    445    446    471    470
    446    447    472    471
    447    448    473    472
    448    449    474    473
    449    425    450    474
    450    451    476    475
    451    452    477    476
    452    453    478    477
    453    454    479    478
    454    455    480    479
    455    456    481    480
    456    457    482    481
    457    458    483    482
    458    459    484    483
    459    460    485    484
    460    461    486    485
    461    462    487    486
    462    463    488    487
    463    464    489    488
    464    465    490    489
    465    466    491    490
    466    467    492    491
    467    468    493    492
    468    469    494    493
    469    470    495    494
    470    471    496    495
    471    472    497    496
    472    473    498    497
    473    474    499    498
    474    450    475    499
    475    476    501    500
    476    477    502    501
    477    478    503    502
    478    479    504    503
    479    480    505    504
    480    481    506    505
    481    482    507    506
    482    483    508    507
    483    484    509    508
    484    485    510    509
    485    486    511    510
    486    487    512    511
    487    488    513    512
    488    489    514    513
    489    490    515    514
    490    491    516    515
    491    492    517    516
    492    493    518    517
    493    494    519    518
    494    495    520    519
    495    496    521    520
    496    497    522    521
    497    498    523    522
    498    499    524    523
    499    475    500    524
    500    501    526    525
    501    502    527    526
    502    503    528    527
    503    504    529    528
    504    505    530    529
    505    506    531    530
    506    507    532    531
    507    508    533    532
    508    509    534    533
    509    510    535    534
    510    511    536    535
    511    512    537    536
    512    513    538    537
    513    514    539    538
    514    515    540    539
    515    516    541    540
    516    517    542    541
    517    518    543    542
    518    519    544    543
    519    520    545    544
    520    521    546    545
    521    522    547    546
    522    523    548    547
    523    524    549    548
    524    500    525    549
    525    526    551    550
    526    527    552    551
    527    528    553    552
    528    529    554    553
    529    530    555    554
    530    531    556    555
    531    532    557    556
    532    533    558    557
    533    534    559    558
    534    535    560    559
    535    536    561    560
    536    537    562    561
    537    538    563    562
    538    539    564    563
    539    540    565    564
    540    541    566    565
    541    542    567    566
    542    543    568    567
    543    544    569    568
    544    545    570    569
    545    546    571    570
    546    547    572    571
    547    548    573    572
    548    549    574    573
    549    525    550    574
    550    551    576    575
    551    552    577    576
    552    553    578    577
    553    554    579    578
    554    555    580    579
    555    556    581    580
    556    557    582    581
    557    558    583    582
    558    559    584    583
    559    560    585    584
    560    561    586    585
    561    562    587    586
    562    563    588    587
    563    564    589    588
    564    565    590    589
    565    566    591    590
    566    567    592    591
    567    568    593    592
    568    569    594    593
    569    570    595    594
    570    571    596    595
    571    572    597    596
    572    573    598    597
    573    574    599    598
    574    550    575    599
    575    576    601    600
    576    577    602    601
    577    578    603    602
    578    579    604    603
    579    580    605    604
    580    581    606    605
    581    582    607    606
    582    583    608    607
    583    584    609    608
    584    585    610    609
    585    586    611    610
    586    587    612    611
    587    588    613    612
    588    589    614    613
    589    590    615    614
    590    591    616    615
    591    592    617    616
    592    593    618    617
    593    594    619    618
    594    595    620    619
    595    596    621    620
    596    597    622    621
    597    598    623    622
    598    599    624    623
    599    575    600    624
        </DataArray>
        <DataArray type="Int32" Name="offsets" format="ascii">
      4
      8
     12
     16
     20
     24
     28
     32
     36
     40
     44
     48
     52
     56
     60
     64
     68
     72
     76
     80
     84
     88
     92
     96
    100
    104
    108
    112
    116
    120
    124
    128
    132
    136
    140
    144
    148
    152
    156
    160
    164
    168
    172
    176
    180
    184
    188
    192
    196
    200
    204
    208
    212
    216
    220
    224
    228
    232
    236
    240
    244
    248
    252
    256
    260
    264
    268
    272
    276
    280
    284
    288
    292
    296
    300
    304
    308
    312
    316
    320
    324
    328
    332
    336
    340
    344
    348
    352
    356
    360
    364
    368
    372
    376
    380
    384
    388
    392
    396
    400
    404
    408
    412
    416
    420
    424
    428
    432
    436
    440
    444
    448
    452
    456
    460
    464
    468
    472
    476
    480
    484
    488
    492
    496
    500
    504
    508
    512
    516
    520
    524
    528
    532
    536
    540
    544
    548
    552
    556
    560
    564
    568
    572
    576
    580
    584
    588
    592
    596
    600
    604
    608
    612
    616
    620
    624
    628
    632
    636
    640
    644
    648
    652
    656
    660
    664
    668
    672
    676
    680
    684
    688
    692
    696
    700
    704
    708
    712
    716
    720
    724
    728
    732
    736
    740
    744
    748
    752
    756
    760
    764
    768
    772
    776
    780
    784
    788
    792
    796
    800
    804
    808
    812
    816
    820
    824
    828
    832
    836
    840
    844
    848
    852
    856
    860
    864
    868
    872
    876
    880
    884
    888
    892
    896
    900
    904
    908
    912
    916
    920
    924
    928
    932
    936
    940
    944
    948
    952
    956
    960
    964
    968
    972
    976
    980
    984
    988
    992
    996
   1000
   1004
   1008
   1012
   1016
   1020
   1024
   1028
   1032
   1036
   1040
   1044
   1048
   1052
   1056
   1060
   1064
   1068
   1072
   1076
   1080
   1084
   1088
   1092
   1096
   1100
   1104
   1108
   1112
   1116
   1120
   1124
   1128
   1132
   1136
   1140
   1144
   1148
   1152
   1156
   1160
   1164
   1168
   1172
   1176
   1180
   1184
   1188
   1192
   1196
   1200
   1204
   1208
   1212
   1216
   1220
   1224
   1228
   1232
   1236
   1240
   1244
   1248
   1252
   1256
   1260
   1264
   1268
   1272
   1276
   1280
   1284
   1288
   1292
   1296
   1300
   1304
   1308
   1312
   1316
   1320
   1324
   1328
   1332
   1336
   1340
   1344
   1348
   1352
   1356
   1360
   1364
   1368
   1372
   1376
   1380
   1384
   1388
   1392
   1396
   1400
   1404
   1408
   1412
   1416
   1420
   1424
   1428
   1432
   1436
   1440
   1444
   1448
   1452
   1456
   1460
   1464
   1468
   1472
   1476
   1480
   1484
   1488
   1492
   1496
   1500
   1504
   1508
   1512
   1516
   1520
   1524
   1528
   1532
   1536
   1540
   1544
   1548
   1552
   1556
   1560
   1564
   1568
   1572
   1576
   1580
   1584
   1588
   1592
   1596
   1600
   1604
   1608
   1612
   1616
   1620
   1624
   1628
   1632
   1636
   1640
   1644
   1648
   1652
   1656
   1660
   1664
   1668
   1672
   1676
   1680
   1684
   1688
   1692
   1696
   1700
   1704
   1708
   1712
   1716
   1720
   1724
   1728
   1732
   1736
   1740
   1744
   1748
   1752
   1756
   1760
   1764
   1768
   1772
   1776
   1780
   1784
   1788
   1792
   1796
   1800
   1804
   1808
   1812
   1816
   1820
   1824
   1828
   1832
   1836
   1840
   1844
   1848
   1852
   1856
   1860
   1864
   1868
   1872
   1876
   1880
   1884
   1888
   1892
   1896
   1900
   1904
   1908
   1912
   1916
   1920
   1924
   1928
   1932
   1936
   1940
   1944
   1948
   1952
   1956
   1960
   1964
   1968
   1972
   1976
   1980
   1984
   1988
   1992
   1996
   2000
   2004
   2008
   2012
   2016
   2020
   2024
   2028
   2032
   2036
   2040
   2044
   2048
   2052
   2056
   2060
   2064
   2068
   2072
   2076
   2080
   2084
   2088
   2092
   2096
   2100
   2104
   2108
   2112
   2116
   2120
   2124
   2128
   2132
   2136
   2140
   2144
   2148
   2152
   2156
   2160
   2164
   2168
   2172
   2176
   2180
   2184
   2188
   2192
   2196
   2200
   2204
   2208
   2212
   2216
   2220
   2224
   2228
   2232
   2236
   2240
   2244
   2248
   2252
   2256
   2260
   2264
   2268
   2272
   2276
   2280
   2284
   2288
   2292
   2296
   2300
   2304
   2308
   2312
   2316
   2320
   2324
   2328
   2332
   2336
   2340
   2344
   2348
   2352
   2356
   2360
   2364
   2368
   2372
   2376
   2380
   2384
   2388
   2392
   2396
   2400
        </DataArray>
      </Polys>
    </Piece>
  </PolyData>
</VTKFile>
