<?xml version="1.0"?>
<VTKFile type="PolyData" version="0.1" byte_order="LittleEndian">
  <PolyData>
    <Piece NumberOfPoints="     19" NumberOfVerts="  0" NumberOfLines="     18"
           NumberOfStrips="  0" NumberOfPolys="      0">
      <Points>
        <DataArray type="Float32" NumberOfComponents="3" format="ascii">
                      -4.93329                       1.46465                      89.73168
                      -5.01643                       2.80527                      89.47760
                      -5.19546                       5.50397                      89.06271
                      -5.37859                       8.21126                      88.69036
                      -5.60636                      11.60088                      88.24776
                      -5.83048                      15.64287                      87.56570
                      -6.03070                      19.65999                      86.74767
                      -6.22250                      23.67610                      85.92085
                      -6.40561                      27.69094                      85.08389
                      -6.58418                      31.70491                      84.23958
                      -6.76436                      35.71864                      83.39254
                      -6.95217                      39.73162                      82.54218
                      -7.15656                      43.74337                      81.68939
                      -7.38822                      47.75303                      80.83481
                      -7.65716                      51.75948                      79.97885
                      -7.92053                      55.09453                      79.26441
                      -8.16160                      57.75774                      78.68432
                      -8.43164                      60.40650                      78.04938
                      -8.58455                      61.73724                      77.77212
        </DataArray>
      </Points>
      <PointData>
        <DataArray type="Float32" Name="TranslationalVelocity" NumberOfComponents="3" format="ascii">
                       0.37152                       0.81303                       4.08805
                       0.70815                       1.54014                       7.81449
                       1.38673                       2.73817                      15.31516
                       2.06896                       3.81898                      22.83847
                       2.92600                       5.10631                      32.25587
                       3.95359                       7.05803                      43.48257
                       4.98293                       9.38109                      54.63660
                       6.02232                      11.72606                      65.78419
                       7.07371                      14.09671                      76.92487
                       8.13895                      16.48651                      88.06003
                       9.21942                      18.88441                      99.19183
                      10.31550                      21.29376                     110.31935
                      11.42667                      23.71473                     121.44165
                      12.55118                      26.14863                     132.55677
                      13.68593                      28.59722                     143.66205
                      14.63603                      30.65227                     152.90570
                      15.39578                      32.32879                     160.28692
                      16.15050                      34.16574                     167.62786
                      16.52812                      34.97788                     171.31582
        </DataArray>
        <DataArray type="Float32" Name="RotationalVelocity" NumberOfComponents="3" format="ascii">
                       2.77976                       0.00017                      -0.25109
                       2.77962                       0.00015                      -0.25121
                       2.77926                       0.00007                      -0.25160
                       2.77881                      -0.00003                      -0.25220
                       2.77817                      -0.00017                      -0.25325
                       2.77731                      -0.00035                      -0.25496
                       2.77643                      -0.00055                      -0.25717
                       2.77556                      -0.00078                      -0.25986
                       2.77476                      -0.00107                      -0.26298
                       2.77405                      -0.00145                      -0.26647
                       2.77346                      -0.00194                      -0.27020
                       2.77300                      -0.00257                      -0.27399
                       2.77266                      -0.00332                      -0.27761
                       2.77244                      -0.00417                      -0.28075
                       2.77231                      -0.00508                      -0.28301
                       2.77226                      -0.00581                      -0.28393
                       2.77224                      -0.00632                      -0.28376
                       2.77221                      -0.00673                      -0.28259
                       2.77220                      -0.00688                      -0.28157
        </DataArray>
        <DataArray type="Float32" Name="TranslationalAcceleration" NumberOfComponents="3" format="ascii">
                       0.22385                     -11.45712                       2.25358
                       0.24741                     -13.85801                       2.69161
                       0.64071                     -39.78735                       6.99428
                       0.95892                     -63.69692                      10.57637
                       1.28801                     -91.65284                      14.51520
                       1.72432                    -123.21508                      20.06137
                       2.21207                    -153.72869                      26.51502
                       2.69210                    -184.11412                      33.04897
                       3.19504                    -214.75547                      39.74546
                       3.75098                    -245.78088                      46.60602
                       4.39118                    -277.13185                      53.58232
                       5.15257                    -308.62673                      60.64396
                       6.07367                    -340.04470                      67.74558
                       7.19582                    -371.19777                      74.85422
                       8.56309                    -402.00721                      81.96250
                       9.92957                    -427.48266                      87.91412
                      11.18789                    -447.84152                      92.78520
                      12.63099                    -468.28902                      98.15839
                      13.40140                    -478.71273                     100.59010
        </DataArray>
        <DataArray type="Float32" Name="OrientationX" NumberOfComponents="3" format="ascii">
                       0.98786                       0.08609                       0.12933
                       0.98787                       0.08589                       0.12939
                       0.98788                       0.08527                       0.12974
                       0.98787                       0.08436                       0.13037
                       0.98783                       0.08291                       0.13158
                       0.99187                       0.07499                       0.10276
                       0.99412                       0.06862                       0.08382
                       0.99559                       0.06321                       0.06938
                       0.99672                       0.05854                       0.05594
                       0.99748                       0.05527                       0.04443
                       0.99785                       0.05427                       0.03687
                       0.99792                       0.05582                       0.03234
                       0.99764                       0.06063                       0.03233
                       0.99683                       0.06941                       0.03879
                       0.99560                       0.08135                       0.04659
                       0.99422                       0.09348                       0.05289
                       0.99284                       0.10466                       0.05766
                       0.99095                       0.11759                       0.06475
                       0.98973                       0.12479                       0.06968
        </DataArray>
        <DataArray type="Float32" Name="OrientationY" NumberOfComponents="3" format="ascii">
                       0.14297                      -0.17798                      -0.97359
                       0.14301                      -0.17825                      -0.97354
                       0.14328                      -0.17897                      -0.97337
                       0.14379                      -0.17991                      -0.97312
                       0.14478                      -0.18127                      -0.97272
                       0.11513                      -0.18551                      -0.97587
                       0.09544                      -0.18878                      -0.97737
                       0.08032                      -0.19146                      -0.97821
                       0.06632                      -0.19375                      -0.97881
                       0.05445                      -0.19556                      -0.97918
                       0.04689                      -0.19680                      -0.97932
                       0.04279                      -0.19758                      -0.97935
                       0.04376                      -0.19786                      -0.97925
                       0.05185                      -0.19750                      -0.97893
                       0.06186                      -0.19677                      -0.97850
                       0.07046                      -0.19598                      -0.97807
                       0.07736                      -0.19520                      -0.97771
                       0.08686                      -0.19396                      -0.97716
                       0.09311                      -0.19305                      -0.97676
        </DataArray>
        <DataArray type="Float32" Name="OrientationZ" NumberOfComponents="3" format="ascii">
                      -0.06080                       0.98026                      -0.18813
                      -0.06055                       0.98023                      -0.18837
                      -0.05978                       0.98015                      -0.18902
                      -0.05864                       0.98006                      -0.18986
                      -0.05679                       0.97993                      -0.19107
                      -0.05412                       0.97978                      -0.19264
                      -0.05124                       0.97962                      -0.19422
                      -0.04855                       0.97946                      -0.19570
                      -0.04647                       0.97930                      -0.19700
                      -0.04543                       0.97913                      -0.19808
                      -0.04589                       0.97894                      -0.19892
                      -0.04828                       0.97870                      -0.19956
                      -0.05298                       0.97835                      -0.20004
                      -0.06029                       0.97784                      -0.20047
                      -0.07043                       0.97707                      -0.20094
                      -0.08106                       0.97614                      -0.20143
                      -0.09107                       0.97516                      -0.20190
                      -0.10235                       0.97394                      -0.20242
                      -0.10844                       0.97322                      -0.20268
        </DataArray>
        <DataArray type="Float32" Name="Force" NumberOfComponents="3" format="ascii">
                      -0.93564                      -2.04612                     -10.35927
                     167.94144                     -12.44569                    -118.87013
                     234.58581                     -51.22843                    -341.20165
                     224.40702                     -85.20085                    -513.16861
                    1486.40163                     124.18979                     199.83101
                    1443.33786                      99.23807                     104.28824
                    1301.18434                      69.50420                      10.98212
                    1908.40027                      95.97214                      13.43730
                    2300.29411                     101.66312                     -29.80792
                    2469.43089                      96.72971                     -81.53474
                    3913.18517                     149.87732                    -154.82713
                    3997.50954                     153.22929                    -206.59435
                    2771.36558                     104.52862                    -220.11409
                    1108.20579                      23.38830                    -226.70925
                     485.43860                      -8.74406                    -225.16706
                   -1087.44849                    -124.62968                    -189.89525
                   -2864.02310                    -287.55492                    -134.08642
                   -3870.54717                    -406.45928                     -41.31730
                  -19516.88153                   -1787.64216                    1831.86656
        </DataArray>
        <DataArray type="Float32" Name="Moment" NumberOfComponents="3" format="ascii">
                       0.00000                       0.00000                       0.00000
                       0.00000                       0.00000                       0.00000
                       0.00000                       0.00000                       0.00000
                       0.00000                       0.00000                       0.00000
                      72.88752                   -1263.27546                     242.93423
                     124.03630                   -2261.68879                     435.51733
                     157.51550                   -3041.51353                     586.52153
                     246.68006                   -5041.52049                     973.50204
                     345.18367                   -7391.43044                    1428.75057
                     383.95774                   -8428.16414                    1630.02023
                     436.52360                   -9499.71832                    1836.92183
                     488.85897                  -10118.48389                    1954.41117
                     405.41371                   -7645.76595                    1473.54603
                     451.39375                   -7473.99259                    1435.46514
                     511.66216                   -7242.80937                    1384.35933
                     553.94346                   -6805.19545                    1294.10468
                     549.04100                   -5997.67440                    1135.04898
                     309.00850                   -2999.95864                     564.63107
                     292.85251                   -2681.60664                     503.21059
        </DataArray>
      </PointData>
      <Lines>
        <DataArray type="Int32" Name="connectivity" format="ascii">
      0      1
      1      2
      2      3
      3      4
      4      5
      5      6
      6      7
      7      8
      8      9
      9     10
     10     11
     11     12
     12     13
     13     14
     14     15
     15     16
     16     17
     17     18
        </DataArray>
        <DataArray type="Int32" Name="offsets" format="ascii">
      2
      4
      6
      8
     10
     12
     14
     16
     18
     20
     22
     24
     26
     28
     30
     32
     34
     36
        </DataArray>
      </Lines>
    </Piece>
  </PolyData>
</VTKFile>
