<?xml version="1.0"?>
<VTKFile type="PolyData" version="0.1" byte_order="LittleEndian">
  <PolyData>
    <Piece NumberOfPoints="     19" NumberOfVerts="  0" NumberOfLines="     18"
           NumberOfStrips="  0" NumberOfPolys="      0">
      <Points>
        <DataArray type="Float32" NumberOfComponents="3" format="ascii">
                      -4.82110                      -1.16670                      90.96060
                      -4.80356                      -2.22927                      91.82047
                      -4.79536                      -4.41421                      93.46753
                      -4.79703                      -6.62840                      95.07930
                      -4.79987                      -9.41483                      97.07159
                      -4.72711                     -12.67314                      99.56606
                      -4.60396                     -15.85386                     102.15539
                      -4.46441                     -19.03629                     104.74256
                      -4.30614                     -22.21920                     107.32896
                      -4.13170                     -25.40347                     109.91358
                      -3.94584                     -28.59094                     112.49433
                      -3.75243                     -31.78008                     115.07318
                      -3.55853                     -34.97009                     117.65130
                      -3.37308                     -38.15997                     120.23011
                      -3.20460                     -41.34871                     122.81076
                      -3.08660                     -44.00413                     124.96408
                      -3.01050                     -46.12172                     126.69514
                      -2.94497                     -48.20336                     128.47067
                      -2.93258                     -49.26862                     129.32827
        </DataArray>
      </Points>
      <PointData>
        <DataArray type="Float32" Name="TranslationalVelocity" NumberOfComponents="3" format="ascii">
                      -0.29252                      -2.64740                      -3.23425
                      -0.55940                      -5.04201                      -6.18783
                      -1.10844                      -9.62383                     -12.26313
                      -1.66510                     -14.10702                     -18.42258
                      -2.36607                     -19.65141                     -26.17868
                      -3.18655                     -26.61731                     -35.25528
                      -3.98873                     -33.86593                     -44.12304
                      -4.79323                     -41.11847                     -53.00242
                      -5.60054                     -48.37887                     -61.88915
                      -6.41179                     -55.64291                     -70.78475
                      -7.22836                     -62.90274                     -79.69316
                      -8.05075                     -70.16193                     -88.60905
                      -8.87952                     -77.42109                     -97.52914
                      -9.71498                     -84.68111                    -106.44973
                     -10.55718                     -91.94252                    -115.36748
                     -11.26402                     -97.99594                    -122.79386
                     -11.83100                    -102.85765                    -128.71622
                     -12.39148                    -107.84134                    -134.53837
                     -12.67889                    -110.24367                    -137.51809
        </DataArray>
        <DataArray type="Float32" Name="RotationalVelocity" NumberOfComponents="3" format="ascii">
                       2.77928                      -0.00015                      -0.25106
                       2.77967                      -0.00016                      -0.25109
                       2.78071                      -0.00017                      -0.25117
                       2.78199                      -0.00017                      -0.25130
                       2.78380                      -0.00013                      -0.25151
                       2.78607                      -0.00006                      -0.25189
                       2.78828                       0.00001                      -0.25242
                       2.79029                       0.00004                      -0.25311
                       2.79203                      -0.00004                      -0.25397
                       2.79345                      -0.00028                      -0.25499
                       2.79455                      -0.00072                      -0.25616
                       2.79535                      -0.00138                      -0.25744
                       2.79590                      -0.00226                      -0.25879
                       2.79625                      -0.00331                      -0.26015
                       2.79645                      -0.00443                      -0.26145
                       2.79654                      -0.00533                      -0.26241
                       2.79657                      -0.00594                      -0.26305
                       2.79658                      -0.00637                      -0.26354
                       2.79657                      -0.00648                      -0.26371
        </DataArray>
        <DataArray type="Float32" Name="TranslationalAcceleration" NumberOfComponents="3" format="ascii">
                      -0.67180                       9.06017                      -7.32668
                      -0.80074                      10.97715                      -8.84093
                      -2.23878                      31.89572                     -24.71704
                      -3.53308                      51.42030                     -38.98374
                      -5.02766                      74.45702                     -55.38649
                      -6.80962                     100.09697                     -74.79779
                      -8.63240                     124.54100                     -94.45355
                     -10.47136                     148.98582                    -114.04319
                     -12.35118                     173.72083                    -133.82219
                     -14.27806                     198.84360                    -153.85622
                     -16.24510                     224.30864                    -174.08062
                     -18.24057                     249.95465                    -194.39109
                     -20.24882                     275.59667                    -214.65172
                     -22.25552                     301.07945                    -234.75256
                     -24.25203                     326.33955                    -254.65620
                     -25.90889                     347.27435                    -271.14896
                     -27.23910                     364.00813                    -284.41817
                     -28.60729                     380.65033                    -298.17650
                     -29.27729                     389.29298                    -304.90526
        </DataArray>
        <DataArray type="Float32" Name="OrientationX" NumberOfComponents="3" format="ascii">
                       0.95461                      -0.17804                      -0.23880
                       0.95459                      -0.17774                      -0.23908
                       0.95450                      -0.17693                      -0.24004
                       0.95433                      -0.17584                      -0.24152
                       0.95399                      -0.17421                      -0.24405
                       0.96243                      -0.15278                      -0.22447
                       0.96748                      -0.13702                      -0.21260
                       0.97105                      -0.12392                      -0.20422
                       0.97414                      -0.11161                      -0.19646
                       0.97660                      -0.10101                      -0.18985
                       0.97811                      -0.09376                      -0.18574
                       0.97897                      -0.08966                      -0.18326
                       0.97891                      -0.09002                      -0.18337
                       0.97753                      -0.09647                      -0.18742
                       0.97579                      -0.10613                      -0.19126
                       0.97425                      -0.11607                      -0.19330
                       0.97296                      -0.12541                      -0.19399
                       0.97094                      -0.13766                      -0.19578
                       0.96948                      -0.14523                      -0.19750
        </DataArray>
        <DataArray type="Float32" Name="OrientationY" NumberOfComponents="3" format="ascii">
                       0.29757                       0.60560                       0.73804
                       0.29760                       0.60552                       0.73809
                       0.29783                       0.60533                       0.73815
                       0.29830                       0.60511                       0.73814
                       0.29925                       0.60481                       0.73801
                       0.27055                       0.60960                       0.74511
                       0.25143                       0.61237                       0.74952
                       0.23670                       0.61426                       0.75277
                       0.22296                       0.61582                       0.75568
                       0.21119                       0.61697                       0.75812
                       0.20348                       0.61757                       0.75974
                       0.19899                       0.61778                       0.76076
                       0.19931                       0.61750                       0.76090
                       0.20651                       0.61653                       0.75977
                       0.21554                       0.61528                       0.75827
                       0.22335                       0.61413                       0.75694
                       0.22973                       0.61312                       0.75585
                       0.23880                       0.61166                       0.75421
                       0.24490                       0.61065                       0.75309
        </DataArray>
        <DataArray type="Float32" Name="OrientationZ" NumberOfComponents="3" format="ascii">
                       0.01322                      -0.77560                       0.63109
                       0.01358                      -0.77573                       0.63092
                       0.01470                      -0.77606                       0.63049
                       0.01635                      -0.77648                       0.62993
                       0.01904                      -0.77708                       0.62912
                       0.02300                      -0.77785                       0.62803
                       0.02749                      -0.77861                       0.62691
                       0.03216                      -0.77932                       0.62581
                       0.03664                      -0.77994                       0.62478
                       0.04055                      -0.78048                       0.62387
                       0.04348                      -0.78091                       0.62313
                       0.04500                      -0.78122                       0.62263
                       0.04473                      -0.78140                       0.62242
                       0.04226                      -0.78140                       0.62260
                       0.03721                      -0.78113                       0.62326
                       0.03085                      -0.78063                       0.62424
                       0.02415                      -0.77997                       0.62535
                       0.01593                      -0.77905                       0.62676
                       0.01123                      -0.77847                       0.62758
        </DataArray>
        <DataArray type="Float32" Name="Force" NumberOfComponents="3" format="ascii">
                       1.91671                      17.29722                      21.21789
                     204.00951                      83.68413                      98.45842
                     317.95486                     240.71066                     288.46305
                     332.16800                     356.97232                     430.26093
                    1599.27827                    -281.02972                    -394.31476
                    1521.59394                    -206.37975                    -310.04471
                    1470.13955                    -137.90071                    -234.64597
                    2242.94527                    -201.21071                    -363.77871
                    2701.20959                    -195.08805                    -399.63595
                    3037.26939                    -176.15480                    -415.41469
                    4705.53423                    -237.98430                    -622.95859
                    5059.11982                    -220.99242                    -639.44160
                    4315.46447                    -165.07446                    -514.75909
                    2859.84662                     -55.90505                    -263.75867
                     942.15906                      86.25541                      49.85093
                     660.35738                      73.32204                      57.46386
                    -109.71329                     156.12705                     196.47366
                   -1597.70549                     247.19956                     345.24024
                  -19652.72522                     864.21778                    1421.93334
        </DataArray>
        <DataArray type="Float32" Name="Moment" NumberOfComponents="3" format="ascii">
                       0.00000                       0.00000                       0.00000
                       0.00000                       0.00000                       0.00000
                       0.00000                       0.00000                       0.00000
                       0.00000                       0.00000                       0.00000
                     -25.60589                    1035.62579                    -841.94810
                     -56.29081                    1880.95877                   -1528.30720
                     -90.59485                    2530.71660                   -2054.90289
                    -175.75658                    4195.01676                   -3403.97795
                    -294.52480                    6168.24974                   -5001.86490
                    -370.75161                    7015.34250                   -5685.54459
                    -446.44342                    7877.62042                   -6381.65181
                    -492.39240                    8390.21165                   -6795.37483
                    -371.85445                    6371.67631                   -5160.71643
                    -346.97412                    6288.24762                   -5094.95139
                    -289.85273                    5958.04230                   -4830.92197
                    -230.49317                    5703.61227                   -4628.86816
                    -159.87396                    5041.65234                   -4095.60561
                     -52.73562                    2508.29528                   -2040.04462
                     -33.00097                    2213.11140                   -1801.18801
        </DataArray>
      </PointData>
      <Lines>
        <DataArray type="Int32" Name="connectivity" format="ascii">
      0      1
      1      2
      2      3
      3      4
      4      5
      5      6
      6      7
      7      8
      8      9
      9     10
     10     11
     11     12
     12     13
     13     14
     14     15
     15     16
     16     17
     17     18
        </DataArray>
        <DataArray type="Int32" Name="offsets" format="ascii">
      2
      4
      6
      8
     10
     12
     14
     16
     18
     20
     22
     24
     26
     28
     30
     32
     34
     36
        </DataArray>
      </Lines>
    </Piece>
  </PolyData>
</VTKFile>
