<?xml version="1.0"?>
<VTKFile type="PolyData" version="0.1" byte_order="LittleEndian">
  <PolyData>
    <Piece NumberOfPoints="      8" NumberOfVerts="  0" NumberOfLines="      0"
           NumberOfStrips="  0" NumberOfPolys="      6">
      <Points>
        <DataArray type="Float32" NumberOfComponents="3" format="ascii">
                      -3.34862                       2.39691                      87.60987
                       3.65136                       2.39692                      87.59011
                       3.65136                      -2.40309                      87.58978
                      -3.34862                      -2.40309                      87.60955
                      -3.33507                      -2.40342                      92.40953
                       3.66491                      -2.40342                      92.38977
                       3.66491                       2.39659                      92.39010
                      -3.33506                       2.39659                      92.40986
        </DataArray>
      </Points>
      <Polys>
        <DataArray type="Int32" Name="connectivity" format="ascii">
      0      1      2      3
      4      5      6      7
      7      6      1      0
      6      5      2      1
      5      4      3      2
      4      7      0      3
        </DataArray>
        <DataArray type="Int32" Name="offsets" format="ascii">
      4
      8
     12
     16
     20
     24
        </DataArray>
      </Polys>
    </Piece>
  </PolyData>
</VTKFile>
