<?xml version="1.0"?>
<VTKFile type="PolyData" version="0.1" byte_order="LittleEndian">
  <PolyData>
    <Piece NumberOfPoints="    625" NumberOfVerts="  0" NumberOfLines="      0"
           NumberOfStrips="  0" NumberOfPolys="    600">
      <Points>
        <DataArray type="Float32" NumberOfComponents="3" format="ascii">
                      -4.82725                       1.49006                      90.03996
                      -4.82725                       1.49006                      90.03996
                      -4.82725                       1.49006                      90.03996
                      -4.82725                       1.49006                      90.03996
                      -4.82725                       1.49006                      90.03996
                      -4.82725                       1.49006                      90.03996
                      -4.82725                       1.49006                      90.03996
                      -4.82725                       1.49006                      90.03996
                      -4.82725                       1.49006                      90.03996
                      -4.82725                       1.49006                      90.03996
                      -4.82725                       1.49006                      90.03996
                      -4.82725                       1.49006                      90.03996
                      -4.82725                       1.49006                      90.03996
                      -4.82725                       1.49006                      90.03996
                      -4.82725                       1.49006                      90.03996
                      -4.82725                       1.49006                      90.03996
                      -4.82725                       1.49006                      90.03996
                      -4.82725                       1.49006                      90.03996
                      -4.82725                       1.49006                      90.03996
                      -4.82725                       1.49006                      90.03996
                      -4.82725                       1.49006                      90.03996
                      -4.82725                       1.49006                      90.03996
                      -4.82725                       1.49006                      90.03996
                      -4.82725                       1.49006                      90.03996
                      -4.82725                       1.49006                      90.03996
                      -4.23040                       1.36509                      89.98380
                      -4.23571                       1.36262                      90.13396
                      -4.27820                       1.36030                      90.27808
                      -4.35520                       1.35829                      90.40711
                      -4.46187                       1.35670                      90.51293
                      -4.59151                       1.35564                      90.58891
                      -4.73597                       1.35517                      90.63027
                      -4.88618                       1.35533                      90.63441
                      -5.03270                       1.35609                      90.60106
                      -5.16633                       1.35742                      90.53233
                      -5.27866                       1.35923                      90.43254
                      -5.36264                       1.36141                      90.30794
                      -5.41298                       1.36382                      90.16638
                      -5.42654                       1.36631                      90.01674
                      -5.40246                       1.36872                      89.86844
                      -5.34224                       1.37090                      89.73078
                      -5.24967                       1.37271                      89.61242
                      -5.13058                       1.37405                      89.52079
                      -4.99244                       1.37482                      89.46165
                      -4.84393                       1.37498                      89.43872
                      -4.69438                       1.37451                      89.45345
                      -4.55320                       1.37346                      89.50489
                      -4.42924                       1.37187                      89.58982
                      -4.33031                       1.36986                      89.70291
                      -4.26261                       1.36755                      89.83705
                      -4.00185                       1.24011                      89.96102
                      -4.00919                       1.23669                      90.16870
                      -4.06795                       1.23349                      90.36804
                      -4.17445                       1.23071                      90.54650
                      -4.32199                       1.22851                      90.69287
                      -4.50130                       1.22705                      90.79797
                      -4.70111                       1.22640                      90.85517
                      -4.90888                       1.22661                      90.86089
                      -5.11153                       1.22767                      90.81477
                      -5.29635                       1.22951                      90.71971
                      -5.45172                       1.23201                      90.58167
                      -5.56787                       1.23503                      90.40934
                      -5.63751                       1.23836                      90.21354
                      -5.65626                       1.24180                      90.00658
                      -5.62295                       1.24513                      89.80145
                      -5.53966                       1.24815                      89.61105
                      -5.41163                       1.25066                      89.44734
                      -5.24691                       1.25250                      89.32061
                      -5.05584                       1.25357                      89.23882
                      -4.85043                       1.25379                      89.20711
                      -4.64359                       1.25315                      89.22747
                      -4.44831                       1.25169                      89.29862
                      -4.27687                       1.24950                      89.41609
                      -4.14003                       1.24672                      89.57251
                      -4.04639                       1.24352                      89.75804
                      -3.83970                       1.11513                      89.94425
                      -3.84848                       1.11104                      90.19276
                      -3.91880                       1.10721                      90.43128
                      -4.04623                       1.10388                      90.64483
                      -4.22277                       1.10125                      90.81998
                      -4.43733                       1.09950                      90.94573
                      -4.67643                       1.09872                      91.01418
                      -4.92503                       1.09898                      91.02102
                      -5.16753                       1.10024                      90.96584
                      -5.38868                       1.10245                      90.85209
                      -5.57459                       1.10544                      90.68692
                      -5.71358                       1.10905                      90.48071
                      -5.79691                       1.11303                      90.24642
                      -5.81934                       1.11715                      89.99877
                      -5.77948                       1.12114                      89.75331
                      -5.67982                       1.12475                      89.52548
                      -5.52662                       1.12775                      89.32959
                      -5.32952                       1.12996                      89.17795
                      -5.10089                       1.13124                      89.08007
                      -4.85510                       1.13150                      89.04213
                      -4.60759                       1.13073                      89.06649
                      -4.37393                       1.12898                      89.15163
                      -4.16878                       1.12636                      89.29220
                      -4.00504                       1.12304                      89.47936
                      -3.89300                       1.11921                      89.70136
                      -3.71452                       0.99015                      89.93083
                      -3.72441                       0.98554                      90.21087
                      -3.80365                       0.98123                      90.47966
                      -3.94725                       0.97747                      90.72029
                      -4.14620                       0.97451                      90.91767
                      -4.38798                       0.97253                      91.05937
                      -4.65741                       0.97166                      91.13650
                      -4.93755                       0.97195                      91.14422
                      -5.21082                       0.97337                      91.08203
                      -5.46003                       0.97586                      90.95385
                      -5.66952                       0.97923                      90.76772
                      -5.82614                       0.98330                      90.53535
                      -5.92004                       0.98779                      90.27134
                      -5.94533                       0.99243                      89.99226
                      -5.90040                       0.99692                      89.71567
                      -5.78810                       1.00099                      89.45894
                      -5.61547                       1.00437                      89.23819
                      -5.39335                       1.00686                      89.06730
                      -5.13572                       1.00830                      88.95702
                      -4.85874                       1.00860                      88.91426
                      -4.57984                       1.00773                      88.94171
                      -4.31653                       1.00576                      89.03765
                      -4.08535                       1.00281                      89.19605
                      -3.90084                       0.99906                      89.40696
                      -3.77458                       0.99475                      89.65713
                      -3.61480                       0.86517                      89.91972
                      -3.62558                       0.86015                      90.22489
                      -3.71193                       0.85545                      90.51779
                      -3.86842                       0.85136                      90.78002
                      -4.08521                       0.84813                      90.99510
                      -4.34868                       0.84597                      91.14952
                      -4.64228                       0.84502                      91.23357
                      -4.94757                       0.84533                      91.24198
                      -5.24535                       0.84689                      91.17421
                      -5.51692                       0.84959                      91.03452
                      -5.74521                       0.85327                      90.83170
                      -5.91588                       0.85770                      90.57848
                      -6.01821                       0.86259                      90.29078
                      -6.04576                       0.86765                      89.98666
                      -5.99681                       0.87255                      89.68525
                      -5.87443                       0.87698                      89.40548
                      -5.68631                       0.88067                      89.16493
                      -5.44427                       0.88338                      88.97871
                      -5.16351                       0.88495                      88.85853
                      -4.86169                       0.88527                      88.81193
                      -4.55776                       0.88433                      88.84185
                      -4.27082                       0.88218                      88.94640
                      -4.01890                       0.87896                      89.11901
                      -3.81784                       0.87488                      89.34885
                      -3.68025                       0.87018                      89.62146
                      -3.53462                       0.74018                      89.91038
                      -3.54612                       0.73484                      90.23576
                      -3.63819                       0.72982                      90.54805
                      -3.80504                       0.72546                      90.82765
                      -4.03619                       0.72202                      91.05698
                      -4.31711                       0.71972                      91.22162
                      -4.63016                       0.71870                      91.31124
                      -4.95566                       0.71904                      91.32021
                      -5.27316                       0.72070                      91.24795
                      -5.56272                       0.72358                      91.09901
                      -5.80613                       0.72750                      90.88276
                      -5.98810                       0.73222                      90.61277
                      -6.09721                       0.73744                      90.30601
                      -6.12659                       0.74283                      89.98176
                      -6.07439                       0.74805                      89.66038
                      -5.94390                       0.75278                      89.36208
                      -5.74332                       0.75671                      89.10560
                      -5.48525                       0.75960                      88.90705
                      -5.18591                       0.76128                      88.77891
                      -4.86409                       0.76162                      88.72922
                      -4.54003                       0.76062                      88.76112
                      -4.23409                       0.75833                      88.87260
                      -3.96549                       0.75489                      89.05664
                      -3.75111                       0.75054                      89.30170
                      -3.60441                       0.74553                      89.59236
                      -3.47052                       0.61520                      89.90249
                      -3.48259                       0.60959                      90.24404
                      -3.57923                       0.60433                      90.57186
                      -3.75437                       0.59975                      90.86535
                      -3.99701                       0.59614                      91.10607
                      -4.29189                       0.59372                      91.27889
                      -4.62049                       0.59266                      91.37297
                      -4.96217                       0.59300                      91.38238
                      -5.29545                       0.59475                      91.30653
                      -5.59939                       0.59777                      91.15019
                      -5.85490                       0.60189                      90.92319
                      -6.04592                       0.60685                      90.63978
                      -6.16044                       0.61232                      90.31778
                      -6.19128                       0.61798                      89.97742
                      -6.13649                       0.62346                      89.64008
                      -5.99952                       0.62842                      89.32695
                      -5.78897                       0.63255                      89.05773
                      -5.51808                       0.63559                      88.84931
                      -5.20386                       0.63734                      88.71480
                      -4.86605                       0.63770                      88.66264
                      -4.52589                       0.63665                      88.69613
                      -4.20475                       0.63425                      88.81314
                      -3.92280                       0.63064                      89.00633
                      -3.69776                       0.62607                      89.26357
                      -3.54378                       0.62081                      89.56868
                      -3.42028                       0.49022                      89.89586
                      -3.43280                       0.48440                      90.25009
                      -3.53303                       0.47894                      90.59008
                      -3.71468                       0.47419                      90.89446
                      -3.96632                       0.47045                      91.14412
                      -4.27215                       0.46794                      91.32337
                      -4.61295                       0.46684                      91.42093
                      -4.96732                       0.46720                      91.43069
                      -5.31297                       0.46901                      91.35203
                      -5.62820                       0.47214                      91.18989
                      -5.89319                       0.47642                      90.95446
                      -6.09130                       0.48155                      90.66053
                      -6.21008                       0.48724                      90.32657
                      -6.24206                       0.49310                      89.97357
                      -6.18524                       0.49879                      89.62370
                      -6.04318                       0.50393                      89.29896
                      -5.82481                       0.50821                      89.01973
                      -5.54386                       0.51136                      88.80358
                      -5.21797                       0.51318                      88.66407
                      -4.86763                       0.51356                      88.60999
                      -4.51484                       0.51246                      88.64471
                      -4.18177                       0.50997                      88.76607
                      -3.88936                       0.50624                      88.96644
                      -3.65597                       0.50149                      89.23322
                      -3.49626                       0.49604                      89.54966
                      -3.38247                       0.36524                      89.89036
                      -3.39533                       0.35926                      90.25415
                      -3.49826                       0.35365                      90.60331
                      -3.68480                       0.34878                      90.91590
                      -3.94324                       0.34493                      91.17230
                      -4.25732                       0.34236                      91.35638
                      -4.60732                       0.34122                      91.45657
                      -4.97124                       0.34160                      91.46660
                      -5.32622                       0.34345                      91.38581
                      -5.64995                       0.34667                      91.21930
                      -5.92209                       0.35106                      90.97751
                      -6.12555                       0.35634                      90.67566
                      -6.24753                       0.36217                      90.33269
                      -6.28037                       0.36820                      89.97016
                      -6.22202                       0.37404                      89.61086
                      -6.07613                       0.37932                      89.27735
                      -5.85187                       0.38372                      88.99059
                      -5.56334                       0.38695                      88.76861
                      -5.22866                       0.38882                      88.62534
                      -4.86886                       0.38920                      88.56979
                      -4.50656                       0.38808                      88.60545
                      -4.16450                       0.38552                      88.73008
                      -3.86420                       0.38169                      88.93586
                      -3.62451                       0.37681                      89.20984
                      -3.46050                       0.37121                      89.53481
                      -3.35611                       0.24026                      89.88590
                      -3.36920                       0.23417                      90.25636
                      -3.47403                       0.22846                      90.61192
                      -3.66399                       0.22349                      90.93026
                      -3.92717                       0.21958                      91.19135
                      -4.24701                       0.21696                      91.37881
                      -4.60344                       0.21580                      91.48085
                      -4.97404                       0.21618                      91.49105
                      -5.33553                       0.21807                      91.40879
                      -5.66520                       0.22135                      91.23922
                      -5.94234                       0.22582                      90.99300
                      -6.14953                       0.23119                      90.68560
                      -6.27375                       0.23713                      90.33634
                      -6.30719                       0.24327                      89.96716
                      -6.24777                       0.24922                      89.60126
                      -6.09920                       0.25460                      89.26164
                      -5.87083                       0.25907                      88.96962
                      -5.57700                       0.26237                      88.74356
                      -5.23618                       0.26427                      88.59766
                      -4.86978                       0.26466                      88.54109
                      -4.50083                       0.26352                      88.57741
                      -4.15250                       0.26091                      88.70433
                      -3.84668                       0.25700                      88.91388
                      -3.60259                       0.25204                      89.19288
                      -3.43557                       0.24634                      89.52382
                      -3.34060                       0.11527                      89.88241
                      -3.35383                       0.10912                      90.25682
                      -3.45977                       0.10335                      90.61618
                      -3.65176                       0.09833                      90.93790
                      -3.91774                       0.09437                      91.20179
                      -4.24100                       0.09173                      91.39124
                      -4.60121                       0.09056                      91.49436
                      -4.97576                       0.09094                      91.50468
                      -5.34111                       0.09285                      91.42154
                      -5.67430                       0.09617                      91.25016
                      -5.95439                       0.10068                      91.00131
                      -6.16378                       0.10611                      90.69064
                      -6.28933                       0.11212                      90.33766
                      -6.32313                       0.11832                      89.96455
                      -6.26307                       0.12433                      89.59475
                      -6.11292                       0.12977                      89.25150
                      -5.88212                       0.13429                      88.95637
                      -5.58516                       0.13762                      88.72790
                      -5.24070                       0.13954                      88.58045
                      -4.87040                       0.13994                      88.52328
                      -4.49751                       0.13878                      88.55998
                      -4.14547                       0.13615                      88.68825
                      -3.83639                       0.13220                      88.90003
                      -3.58971                       0.12719                      89.18201
                      -3.42090                       0.12142                      89.51648
                      -3.33559                      -0.00971                      89.87988
                      -3.34886                      -0.01588                      90.25560
                      -3.45517                      -0.02167                      90.61621
                      -3.64783                      -0.02671                      90.93906
                      -3.91474                      -0.03068                      91.20386
                      -4.23913                      -0.03334                      91.39398
                      -4.60060                      -0.03451                      91.49746
                      -4.97646                      -0.03413                      91.50781
                      -5.34308                      -0.03221                      91.42438
                      -5.67743                      -0.02888                      91.25240
                      -5.95850                      -0.02435                      91.00269
                      -6.16862                      -0.01890                      90.69093
                      -6.29461                      -0.01287                      90.33672
                      -6.32853                      -0.00665                      89.96230
                      -6.26826                      -0.00062                      89.59121
                      -6.11759                       0.00483                      89.24677
                      -5.88598                       0.00937                      88.95060
                      -5.58798                       0.01271                      88.72134
                      -5.24232                       0.01464                      88.57337
                      -4.87073                       0.01504                      88.51600
                      -4.49654                       0.01388                      88.55283
                      -4.14327                       0.01124                      88.68155
                      -3.83311                       0.00728                      88.89407
                      -3.58556                       0.00225                      89.17704
                      -3.41617                      -0.00354                      89.51267
                      -3.34097                      -0.13469                      89.87829
                      -3.35420                      -0.14085                      90.25270
                      -3.46014                      -0.14661                      90.61206
                      -3.65213                      -0.15164                      90.93378
                      -3.91811                      -0.15559                      91.19766
                      -4.24136                      -0.15824                      91.38712
                      -4.60158                      -0.15941                      91.49024
                      -4.97613                      -0.15903                      91.50056
                      -5.34148                      -0.15712                      91.41741
                      -5.67466                      -0.15380                      91.24604
                      -5.95475                      -0.14928                      90.99719
                      -6.16415                      -0.14385                      90.68652
                      -6.28970                      -0.13785                      90.33354
                      -6.32350                      -0.13165                      89.96043
                      -6.26344                      -0.12564                      89.59063
                      -6.11329                      -0.12020                      89.24738
                      -5.88248                      -0.11567                      88.95225
                      -5.58553                      -0.11235                      88.72378
                      -5.24107                      -0.11042                      88.57633
                      -4.87077                      -0.11003                      88.51916
                      -4.49788                      -0.11118                      88.55586
                      -4.14584                      -0.11382                      88.68413
                      -3.83676                      -0.11776                      88.89591
                      -3.59008                      -0.12278                      89.17789
                      -3.42127                      -0.12854                      89.51236
                      -3.35685                      -0.25968                      89.87765
                      -3.36994                      -0.26576                      90.24811
                      -3.47476                      -0.27147                      90.60368
                      -3.66473                      -0.27644                      90.92201
                      -3.92791                      -0.28036                      91.18311
                      -4.24775                      -0.28297                      91.37057
                      -4.60417                      -0.28413                      91.47261
                      -4.97477                      -0.28375                      91.48281
                      -5.33627                      -0.28186                      91.40055
                      -5.66594                      -0.27858                      91.23097
                      -5.94308                      -0.27411                      90.98476
                      -6.15026                      -0.26874                      90.67736
                      -6.27448                      -0.26280                      90.32810
                      -6.30793                      -0.25666                      89.95892
                      -6.24851                      -0.25072                      89.59302
                      -6.09994                      -0.24534                      89.25339
                      -5.87157                      -0.24086                      88.96137
                      -5.57774                      -0.23756                      88.73531
                      -5.23692                      -0.23566                      88.58942
                      -4.87052                      -0.23527                      88.53285
                      -4.50156                      -0.23641                      88.56917
                      -4.15323                      -0.23902                      88.69609
                      -3.84742                      -0.24293                      88.90563
                      -3.60333                      -0.24789                      89.18464
                      -3.43631                      -0.25359                      89.51558
                      -3.38358                      -0.38466                      89.87800
                      -3.39643                      -0.39064                      90.24178
                      -3.49937                      -0.39624                      90.59094
                      -3.68591                      -0.40112                      90.90354
                      -3.94434                      -0.40497                      91.15993
                      -4.25843                      -0.40754                      91.34401
                      -4.60842                      -0.40867                      91.44421
                      -4.97235                      -0.40830                      91.45423
                      -5.32732                      -0.40645                      91.37345
                      -5.65106                      -0.40322                      91.20693
                      -5.92320                      -0.39884                      90.96515
                      -6.12665                      -0.39356                      90.66329
                      -6.24864                      -0.38772                      90.32033
                      -6.28148                      -0.38170                      89.95780
                      -6.22313                      -0.37586                      89.59850
                      -6.07724                      -0.37058                      89.26499
                      -5.85298                      -0.36618                      88.97823
                      -5.56445                      -0.36295                      88.75624
                      -5.22977                      -0.36108                      88.61297
                      -4.86997                      -0.36069                      88.55743
                      -4.50766                      -0.36182                      88.59309
                      -4.16561                      -0.36438                      88.71772
                      -3.86531                      -0.36821                      88.92349
                      -3.62562                      -0.37308                      89.19747
                      -3.46160                      -0.37868                      89.52245
                      -3.42176                      -0.50964                      89.87938
                      -3.43428                      -0.51546                      90.23361
                      -3.53451                      -0.52092                      90.57359
                      -3.71615                      -0.52567                      90.87798
                      -3.96779                      -0.52942                      91.12764
                      -4.27363                      -0.53192                      91.30688
                      -4.61443                      -0.53303                      91.40445
                      -4.96879                      -0.53266                      91.41421
                      -5.31444                      -0.53086                      91.33554
                      -5.62967                      -0.52772                      91.17340
                      -5.89467                      -0.52345                      90.93797
                      -6.09277                      -0.51831                      90.64404
                      -6.21155                      -0.51263                      90.31009
                      -6.24353                      -0.50676                      89.95709
                      -6.18671                      -0.50108                      89.60722
                      -6.04466                      -0.49593                      89.28247
                      -5.82629                      -0.49165                      89.00325
                      -5.54534                      -0.48850                      88.78709
                      -5.21945                      -0.48668                      88.64759
                      -4.86911                      -0.48631                      88.59350
                      -4.51632                      -0.48740                      88.62823
                      -4.18325                      -0.48989                      88.74959
                      -3.89083                      -0.49363                      88.94995
                      -3.65744                      -0.49837                      89.21673
                      -3.49774                      -0.50382                      89.53317
                      -3.47236                      -0.63463                      89.88189
                      -3.48443                      -0.64024                      90.22343
                      -3.58107                      -0.64550                      90.55125
                      -3.75622                      -0.65008                      90.84474
                      -3.99885                      -0.65369                      91.08546
                      -4.29373                      -0.65611                      91.25829
                      -4.62234                      -0.65717                      91.35236
                      -4.96401                      -0.65682                      91.36177
                      -5.29729                      -0.65508                      91.28592
                      -5.60124                      -0.65206                      91.12959
                      -5.85675                      -0.64794                      90.90259
                      -6.04776                      -0.64298                      90.61918
                      -6.16229                      -0.63750                      90.29718
                      -6.19313                      -0.63185                      89.95681
                      -6.13834                      -0.62637                      89.61947
                      -6.00137                      -0.62141                      89.30635
                      -5.79082                      -0.61728                      89.03712
                      -5.51992                      -0.61424                      88.82870
                      -5.20570                      -0.61249                      88.69419
                      -4.86790                      -0.61213                      88.64204
                      -4.52774                      -0.61318                      88.67552
                      -4.20659                      -0.61558                      88.79254
                      -3.92464                      -0.61918                      88.98573
                      -3.69961                      -0.62376                      89.24296
                      -3.54562                      -0.62902                      89.54807
                      -3.53683                      -0.75961                      89.88565
                      -3.54833                      -0.76496                      90.21103
                      -3.64040                      -0.76997                      90.52333
                      -3.80725                      -0.77433                      90.80292
                      -4.03840                      -0.77777                      91.03225
                      -4.31932                      -0.78007                      91.19689
                      -4.63237                      -0.78109                      91.28651
                      -4.95787                      -0.78076                      91.29548
                      -5.27538                      -0.77910                      91.22322
                      -5.56493                      -0.77621                      91.07429
                      -5.80834                      -0.77229                      90.85803
                      -5.99032                      -0.76757                      90.58804
                      -6.09942                      -0.76235                      90.28128
                      -6.12880                      -0.75696                      89.95703
                      -6.07661                      -0.75174                      89.63566
                      -5.94612                      -0.74702                      89.33736
                      -5.74554                      -0.74308                      89.08087
                      -5.48747                      -0.74019                      88.88232
                      -5.18812                      -0.73852                      88.75418
                      -4.86631                      -0.73818                      88.70450
                      -4.54225                      -0.73918                      88.73639
                      -4.23631                      -0.74147                      88.84787
                      -3.96771                      -0.74490                      89.03192
                      -3.75332                      -0.74926                      89.27697
                      -3.60663                      -0.75426                      89.56764
                      -3.61738                      -0.88460                      89.89087
                      -3.62816                      -0.88961                      90.19604
                      -3.71451                      -0.89431                      90.48894
                      -3.87100                      -0.89840                      90.75117
                      -4.08779                      -0.90163                      90.96625
                      -4.35126                      -0.90379                      91.12067
                      -4.64487                      -0.90474                      91.20472
                      -4.95015                      -0.90443                      91.21313
                      -5.24793                      -0.90287                      91.14536
                      -5.51950                      -0.90017                      91.00568
                      -5.74779                      -0.89649                      90.80285
                      -5.91847                      -0.89206                      90.54963
                      -6.02079                      -0.88717                      90.26193
                      -6.04835                      -0.88211                      89.95782
                      -5.99939                      -0.87721                      89.65640
                      -5.87701                      -0.87278                      89.37663
                      -5.68889                      -0.86909                      89.13608
                      -5.44685                      -0.86638                      88.94986
                      -5.16609                      -0.86481                      88.82968
                      -4.86427                      -0.86449                      88.78308
                      -4.56034                      -0.86543                      88.81300
                      -4.27340                      -0.86758                      88.91755
                      -4.02149                      -0.87080                      89.09017
                      -3.82042                      -0.87488                      89.32000
                      -3.68283                      -0.87958                      89.59261
                      -3.71747                      -1.00958                      89.89786
                      -3.72737                      -1.01418                      90.17790
                      -3.80660                      -1.01850                      90.44669
                      -3.95021                      -1.02225                      90.68732
                      -4.14915                      -1.02521                      90.88470
                      -4.39093                      -1.02719                      91.02640
                      -4.66036                      -1.02807                      91.10353
                      -4.94050                      -1.02778                      91.11125
                      -5.21377                      -1.02635                      91.04906
                      -5.46298                      -1.02387                      90.92088
                      -5.67247                      -1.02049                      90.73475
                      -5.82909                      -1.01643                      90.50238
                      -5.92299                      -1.01194                      90.23837
                      -5.94828                      -1.00730                      89.95929
                      -5.90336                      -1.00281                      89.68270
                      -5.79105                      -0.99874                      89.42597
                      -5.61842                      -0.99535                      89.20522
                      -5.39630                      -0.99287                      89.03433
                      -5.13867                      -0.99143                      88.92405
                      -4.86170                      -0.99113                      88.88129
                      -4.58279                      -0.99200                      88.90874
                      -4.31948                      -0.99397                      89.00468
                      -4.08830                      -0.99692                      89.16308
                      -3.90379                      -1.00067                      89.37399
                      -3.77754                      -1.00498                      89.62416
                      -3.84302                      -1.13457                      89.90716
                      -3.85180                      -1.13865                      90.15567
                      -3.92212                      -1.14248                      90.39419
                      -4.04955                      -1.14581                      90.60774
                      -4.22609                      -1.14844                      90.78289
                      -4.44065                      -1.15019                      90.90864
                      -4.67975                      -1.15097                      90.97709
                      -4.92835                      -1.15072                      90.98393
                      -5.17085                      -1.14945                      90.92875
                      -5.39200                      -1.14725                      90.81500
                      -5.57791                      -1.14425                      90.64983
                      -5.71690                      -1.14064                      90.44362
                      -5.80023                      -1.13666                      90.20933
                      -5.82266                      -1.13254                      89.96168
                      -5.78280                      -1.12855                      89.71622
                      -5.68314                      -1.12495                      89.48839
                      -5.52994                      -1.12194                      89.29250
                      -5.33284                      -1.11973                      89.14086
                      -5.10421                      -1.11846                      89.04298
                      -4.85842                      -1.11819                      89.00504
                      -4.61091                      -1.11896                      89.02940
                      -4.37725                      -1.12071                      89.11454
                      -4.17210                      -1.12333                      89.25511
                      -4.00836                      -1.12666                      89.44227
                      -3.89632                      -1.13048                      89.66427
                      -4.00554                      -1.25955                      89.91981
                      -4.01288                      -1.26296                      90.12749
                      -4.07164                      -1.26616                      90.32683
                      -4.17814                      -1.26895                      90.50529
                      -4.32568                      -1.27114                      90.65166
                      -4.50499                      -1.27261                      90.75675
                      -4.70480                      -1.27326                      90.81396
                      -4.91256                      -1.27305                      90.81968
                      -5.11522                      -1.27199                      90.77356
                      -5.30004                      -1.27015                      90.67849
                      -5.45541                      -1.26764                      90.54046
                      -5.57156                      -1.26463                      90.36813
                      -5.64120                      -1.26130                      90.17233
                      -5.65995                      -1.25786                      89.96537
                      -5.62663                      -1.25453                      89.76024
                      -5.54335                      -1.25151                      89.56984
                      -5.41532                      -1.24900                      89.40613
                      -5.25060                      -1.24715                      89.27940
                      -5.05953                      -1.24609                      89.19761
                      -4.85412                      -1.24587                      89.16589
                      -4.64728                      -1.24651                      89.18625
                      -4.45200                      -1.24797                      89.25741
                      -4.28056                      -1.25016                      89.37488
                      -4.14372                      -1.25294                      89.53130
                      -4.05008                      -1.25614                      89.71682
                      -4.23446                      -1.38454                      89.93847
                      -4.23977                      -1.38701                      90.08863
                      -4.28226                      -1.38932                      90.23275
                      -4.35925                      -1.39133                      90.36177
                      -4.46592                      -1.39292                      90.46760
                      -4.59556                      -1.39398                      90.54358
                      -4.74003                      -1.39445                      90.58494
                      -4.89024                      -1.39430                      90.58908
                      -5.03676                      -1.39353                      90.55573
                      -5.17039                      -1.39220                      90.48700
                      -5.28272                      -1.39039                      90.38720
                      -5.36669                      -1.38821                      90.26261
                      -5.41704                      -1.38580                      90.12105
                      -5.43060                      -1.38332                      89.97141
                      -5.40651                      -1.38091                      89.82310
                      -5.34630                      -1.37873                      89.68544
                      -5.25373                      -1.37691                      89.56708
                      -5.13464                      -1.37558                      89.47546
                      -4.99650                      -1.37480                      89.41632
                      -4.84799                      -1.37465                      89.39339
                      -4.69844                      -1.37511                      89.40811
                      -4.55725                      -1.37617                      89.45956
                      -4.43330                      -1.37775                      89.54449
                      -4.33437                      -1.37976                      89.65758
                      -4.26667                      -1.38207                      89.79171
                      -4.83168                      -1.50953                      89.99050
                      -4.83168                      -1.50953                      89.99050
                      -4.83168                      -1.50953                      89.99050
                      -4.83168                      -1.50953                      89.99050
                      -4.83168                      -1.50953                      89.99050
                      -4.83168                      -1.50953                      89.99050
                      -4.83168                      -1.50953                      89.99050
                      -4.83168                      -1.50953                      89.99050
                      -4.83168                      -1.50953                      89.99050
                      -4.83168                      -1.50953                      89.99050
                      -4.83168                      -1.50953                      89.99050
                      -4.83168                      -1.50953                      89.99050
                      -4.83168                      -1.50953                      89.99050
                      -4.83168                      -1.50953                      89.99050
                      -4.83168                      -1.50953                      89.99050
                      -4.83168                      -1.50953                      89.99050
                      -4.83168                      -1.50953                      89.99050
                      -4.83168                      -1.50953                      89.99050
                      -4.83168                      -1.50953                      89.99050
                      -4.83168                      -1.50953                      89.99050
                      -4.83168                      -1.50953                      89.99050
                      -4.83168                      -1.50953                      89.99050
                      -4.83168                      -1.50953                      89.99050
                      -4.83168                      -1.50953                      89.99050
                      -4.83168                      -1.50953                      89.99050
        </DataArray>
      </Points>
      <Polys>
        <DataArray type="Int32" Name="connectivity" format="ascii">
      0      1     26     25
      1      2     27     26
      2      3     28     27
      3      4     29     28
      4      5     30     29
      5      6     31     30
      6      7     32     31
      7      8     33     32
      8      9     34     33
      9     10     35     34
     10     11     36     35
     11     12     37     36
     12     13     38     37
     13     14     39     38
     14     15     40     39
     15     16     41     40
     16     17     42     41
     17     18     43     42
     18     19     44     43
     19     20     45     44
     20     21     46     45
     21     22     47     46
     22     23     48     47
     23     24     49     48
     24      0     25     49
     25     26     51     50
     26     27     52     51
     27     28     53     52
     28     29     54     53
     29     30     55     54
     30     31     56     55
     31     32     57     56
     32     33     58     57
     33     34     59     58
     34     35     60     59
     35     36     61     60
     36     37     62     61
     37     38     63     62
     38     39     64     63
     39     40     65     64
     40     41     66     65
     41     42     67     66
     42     43     68     67
     43     44     69     68
     44     45     70     69
     45     46     71     70
     46     47     72     71
     47     48     73     72
     48     49     74     73
     49     25     50     74
     50     51     76     75
     51     52     77     76
     52     53     78     77
     53     54     79     78
     54     55     80     79
     55     56     81     80
     56     57     82     81
     57     58     83     82
     58     59     84     83
     59     60     85     84
     60     61     86     85
     61     62     87     86
     62     63     88     87
     63     64     89     88
     64     65     90     89
     65     66     91     90
     66     67     92     91
     67     68     93     92
     68     69     94     93
     69     70     95     94
     70     71     96     95
     71     72     97     96
     72     73     98     97
     73     74     99     98
     74     50     75     99
     75     76    101    100
     76     77    102    101
     77     78    103    102
     78     79    104    103
     79     80    105    104
     80     81    106    105
     81     82    107    106
     82     83    108    107
     83     84    109    108
     84     85    110    109
     85     86    111    110
     86     87    112    111
     87     88    113    112
     88     89    114    113
     89     90    115    114
     90     91    116    115
     91     92    117    116
     92     93    118    117
     93     94    119    118
     94     95    120    119
     95     96    121    120
     96     97    122    121
     97     98    123    122
     98     99    124    123
     99     75    100    124
    100    101    126    125
    101    102    127    126
    102    103    128    127
    103    104    129    128
    104    105    130    129
    105    106    131    130
    106    107    132    131
    107    108    133    132
    108    109    134    133
    109    110    135    134
    110    111    136    135
    111    112    137    136
    112    113    138    137
    113    114    139    138
    114    115    140    139
    115    116    141    140
    116    117    142    141
    117    118    143    142
    118    119    144    143
    119    120    145    144
    120    121    146    145
    121    122    147    146
    122    123    148    147
    123    124    149    148
    124    100    125    149
    125    126    151    150
    126    127    152    151
    127    128    153    152
    128    129    154    153
    129    130    155    154
    130    131    156    155
    131    132    157    156
    132    133    158    157
    133    134    159    158
    134    135    160    159
    135    136    161    160
    136    137    162    161
    137    138    163    162
    138    139    164    163
    139    140    165    164
    140    141    166    165
    141    142    167    166
    142    143    168    167
    143    144    169    168
    144    145    170    169
    145    146    171    170
    146    147    172    171
    147    148    173    172
    148    149    174    173
    149    125    150    174
    150    151    176    175
    151    152    177    176
    152    153    178    177
    153    154    179    178
    154    155    180    179
    155    156    181    180
    156    157    182    181
    157    158    183    182
    158    159    184    183
    159    160    185    184
    160    161    186    185
    161    162    187    186
    162    163    188    187
    163    164    189    188
    164    165    190    189
    165    166    191    190
    166    167    192    191
    167    168    193    192
    168    169    194    193
    169    170    195    194
    170    171    196    195
    171    172    197    196
    172    173    198    197
    173    174    199    198
    174    150    175    199
    175    176    201    200
    176    177    202    201
    177    178    203    202
    178    179    204    203
    179    180    205    204
    180    181    206    205
    181    182    207    206
    182    183    208    207
    183    184    209    208
    184    185    210    209
    185    186    211    210
    186    187    212    211
    187    188    213    212
    188    189    214    213
    189    190    215    214
    190    191    216    215
    191    192    217    216
    192    193    218    217
    193    194    219    218
    194    195    220    219
    195    196    221    220
    196    197    222    221
    197    198    223    222
    198    199    224    223
    199    175    200    224
    200    201    226    225
    201    202    227    226
    202    203    228    227
    203    204    229    228
    204    205    230    229
    205    206    231    230
    206    207    232    231
    207    208    233    232
    208    209    234    233
    209    210    235    234
    210    211    236    235
    211    212    237    236
    212    213    238    237
    213    214    239    238
    214    215    240    239
    215    216    241    240
    216    217    242    241
    217    218    243    242
    218    219    244    243
    219    220    245    244
    220    221    246    245
    221    222    247    246
    222    223    248    247
    223    224    249    248
    224    200    225    249
    225    226    251    250
    226    227    252    251
    227    228    253    252
    228    229    254    253
    229    230    255    254
    230    231    256    255
    231    232    257    256
    232    233    258    257
    233    234    259    258
    234    235    260    259
    235    236    261    260
    236    237    262    261
    237    238    263    262
    238    239    264    263
    239    240    265    264
    240    241    266    265
    241    242    267    266
    242    243    268    267
    243    244    269    268
    244    245    270    269
    245    246    271    270
    246    247    272    271
    247    248    273    272
    248    249    274    273
    249    225    250    274
    250    251    276    275
    251    252    277    276
    252    253    278    277
    253    254    279    278
    254    255    280    279
    255    256    281    280
    256    257    282    281
    257    258    283    282
    258    259    284    283
    259    260    285    284
    260    261    286    285
    261    262    287    286
    262    263    288    287
    263    264    289    288
    264    265    290    289
    265    266    291    290
    266    267    292    291
    267    268    293    292
    268    269    294    293
    269    270    295    294
    270    271    296    295
    271    272    297    296
    272    273    298    297
    273    274    299    298
    274    250    275    299
    275    276    301    300
    276    277    302    301
    277    278    303    302
    278    279    304    303
    279    280    305    304
    280    281    306    305
    281    282    307    306
    282    283    308    307
    283    284    309    308
    284    285    310    309
    285    286    311    310
    286    287    312    311
    287    288    313    312
    288    289    314    313
    289    290    315    314
    290    291    316    315
    291    292    317    316
    292    293    318    317
    293    294    319    318
    294    295    320    319
    295    296    321    320
    296    297    322    321
    297    298    323    322
    298    299    324    323
    299    275    300    324
    300    301    326    325
    301    302    327    326
    302    303    328    327
    303    304    329    328
    304    305    330    329
    305    306    331    330
    306    307    332    331
    307    308    333    332
    308    309    334    333
    309    310    335    334
    310    311    336    335
    311    312    337    336
    312    313    338    337
    313    314    339    338
    314    315    340    339
    315    316    341    340
    316    317    342    341
    317    318    343    342
    318    319    344    343
    319    320    345    344
    320    321    346    345
    321    322    347    346
    322    323    348    347
    323    324    349    348
    324    300    325    349
    325    326    351    350
    326    327    352    351
    327    328    353    352
    328    329    354    353
    329    330    355    354
    330    331    356    355
    331    332    357    356
    332    333    358    357
    333    334    359    358
    334    335    360    359
    335    336    361    360
    336    337    362    361
    337    338    363    362
    338    339    364    363
    339    340    365    364
    340    341    366    365
    341    342    367    366
    342    343    368    367
    343    344    369    368
    344    345    370    369
    345    346    371    370
    346    347    372    371
    347    348    373    372
    348    349    374    373
    349    325    350    374
    350    351    376    375
    351    352    377    376
    352    353    378    377
    353    354    379    378
    354    355    380    379
    355    356    381    380
    356    357    382    381
    357    358    383    382
    358    359    384    383
    359    360    385    384
    360    361    386    385
    361    362    387    386
    362    363    388    387
    363    364    389    388
    364    365    390    389
    365    366    391    390
    366    367    392    391
    367    368    393    392
    368    369    394    393
    369    370    395    394
    370    371    396    395
    371    372    397    396
    372    373    398    397
    373    374    399    398
    374    350    375    399
    375    376    401    400
    376    377    402    401
    377    378    403    402
    378    379    404    403
    379    380    405    404
    380    381    406    405
    381    382    407    406
    382    383    408    407
    383    384    409    408
    384    385    410    409
    385    386    411    410
    386    387    412    411
    387    388    413    412
    388    389    414    413
    389    390    415    414
    390    391    416    415
    391    392    417    416
    392    393    418    417
    393    394    419    418
    394    395    420    419
    395    396    421    420
    396    397    422    421
    397    398    423    422
    398    399    424    423
    399    375    400    424
    400    401    426    425
    401    402    427    426
    402    403    428    427
    403    404    429    428
    404    405    430    429
    405    406    431    430
    406    407    432    431
    407    408    433    432
    408    409    434    433
    409    410    435    434
    410    411    436    435
    411    412    437    436
    412    413    438    437
    413    414    439    438
    414    415    440    439
    415    416    441    440
    416    417    442    441
    417    418    443    442
    418    419    444    443
    419    420    445    444
    420    421    446    445
    421    422    447    446
    422    423    448    447
    423    424    449    448
    424    400    425    449
    425    426    451    450
    426    427    452    451
    427    428    453    452
    428    429    454    453
    429    430    455    454
    430    431    456    455
    431    432    457    456
    432    433    458    457
    433    434    459    458
    434    435    460    459
    435    436    461    460
    436    437    462    461
    437    438    463    462
    438    439    464    463
    439    440    465    464
    440    441    466    465
    441    442    467    466
    442    443    468    467
    443    444    469    468
    444    445    470    469
    445    446    471    470
    446    447    472    471
    447    448    473    472
    448    449    474    473
    449    425    450    474
    450    451    476    475
    451    452    477    476
    452    453    478    477
    453    454    479    478
    454    455    480    479
    455    456    481    480
    456    457    482    481
    457    458    483    482
    458    459    484    483
    459    460    485    484
    460    461    486    485
    461    462    487    486
    462    463    488    487
    463    464    489    488
    464    465    490    489
    465    466    491    490
    466    467    492    491
    467    468    493    492
    468    469    494    493
    469    470    495    494
    470    471    496    495
    471    472    497    496
    472    473    498    497
    473    474    499    498
    474    450    475    499
    475    476    501    500
    476    477    502    501
    477    478    503    502
    478    479    504    503
    479    480    505    504
    480    481    506    505
    481    482    507    506
    482    483    508    507
    483    484    509    508
    484    485    510    509
    485    486    511    510
    486    487    512    511
    487    488    513    512
    488    489    514    513
    489    490    515    514
    490    491    516    515
    491    492    517    516
    492    493    518    517
    493    494    519    518
    494    495    520    519
    495    496    521    520
    496    497    522    521
    497    498    523    522
    498    499    524    523
    499    475    500    524
    500    501    526    525
    501    502    527    526
    502    503    528    527
    503    504    529    528
    504    505    530    529
    505    506    531    530
    506    507    532    531
    507    508    533    532
    508    509    534    533
    509    510    535    534
    510    511    536    535
    511    512    537    536
    512    513    538    537
    513    514    539    538
    514    515    540    539
    515    516    541    540
    516    517    542    541
    517    518    543    542
    518    519    544    543
    519    520    545    544
    520    521    546    545
    521    522    547    546
    522    523    548    547
    523    524    549    548
    524    500    525    549
    525    526    551    550
    526    527    552    551
    527    528    553    552
    528    529    554    553
    529    530    555    554
    530    531    556    555
    531    532    557    556
    532    533    558    557
    533    534    559    558
    534    535    560    559
    535    536    561    560
    536    537    562    561
    537    538    563    562
    538    539    564    563
    539    540    565    564
    540    541    566    565
    541    542    567    566
    542    543    568    567
    543    544    569    568
    544    545    570    569
    545    546    571    570
    546    547    572    571
    547    548    573    572
    548    549    574    573
    549    525    550    574
    550    551    576    575
    551    552    577    576
    552    553    578    577
    553    554    579    578
    554    555    580    579
    555    556    581    580
    556    557    582    581
    557    558    583    582
    558    559    584    583
    559    560    585    584
    560    561    586    585
    561    562    587    586
    562    563    588    587
    563    564    589    588
    564    565    590    589
    565    566    591    590
    566    567    592    591
    567    568    593    592
    568    569    594    593
    569    570    595    594
    570    571    596    595
    571    572    597    596
    572    573    598    597
    573    574    599    598
    574    550    575    599
    575    576    601    600
    576    577    602    601
    577    578    603    602
    578    579    604    603
    579    580    605    604
    580    581    606    605
    581    582    607    606
    582    583    608    607
    583    584    609    608
    584    585    610    609
    585    586    611    610
    586    587    612    611
    587    588    613    612
    588    589    614    613
    589    590    615    614
    590    591    616    615
    591    592    617    616
    592    593    618    617
    593    594    619    618
    594    595    620    619
    595    596    621    620
    596    597    622    621
    597    598    623    622
    598    599    624    623
    599    575    600    624
        </DataArray>
        <DataArray type="Int32" Name="offsets" format="ascii">
      4
      8
     12
     16
     20
     24
     28
     32
     36
     40
     44
     48
     52
     56
     60
     64
     68
     72
     76
     80
     84
     88
     92
     96
    100
    104
    108
    112
    116
    120
    124
    128
    132
    136
    140
    144
    148
    152
    156
    160
    164
    168
    172
    176
    180
    184
    188
    192
    196
    200
    204
    208
    212
    216
    220
    224
    228
    232
    236
    240
    244
    248
    252
    256
    260
    264
    268
    272
    276
    280
    284
    288
    292
    296
    300
    304
    308
    312
    316
    320
    324
    328
    332
    336
    340
    344
    348
    352
    356
    360
    364
    368
    372
    376
    380
    384
    388
    392
    396
    400
    404
    408
    412
    416
    420
    424
    428
    432
    436
    440
    444
    448
    452
    456
    460
    464
    468
    472
    476
    480
    484
    488
    492
    496
    500
    504
    508
    512
    516
    520
    524
    528
    532
    536
    540
    544
    548
    552
    556
    560
    564
    568
    572
    576
    580
    584
    588
    592
    596
    600
    604
    608
    612
    616
    620
    624
    628
    632
    636
    640
    644
    648
    652
    656
    660
    664
    668
    672
    676
    680
    684
    688
    692
    696
    700
    704
    708
    712
    716
    720
    724
    728
    732
    736
    740
    744
    748
    752
    756
    760
    764
    768
    772
    776
    780
    784
    788
    792
    796
    800
    804
    808
    812
    816
    820
    824
    828
    832
    836
    840
    844
    848
    852
    856
    860
    864
    868
    872
    876
    880
    884
    888
    892
    896
    900
    904
    908
    912
    916
    920
    924
    928
    932
    936
    940
    944
    948
    952
    956
    960
    964
    968
    972
    976
    980
    984
    988
    992
    996
   1000
   1004
   1008
   1012
   1016
   1020
   1024
   1028
   1032
   1036
   1040
   1044
   1048
   1052
   1056
   1060
   1064
   1068
   1072
   1076
   1080
   1084
   1088
   1092
   1096
   1100
   1104
   1108
   1112
   1116
   1120
   1124
   1128
   1132
   1136
   1140
   1144
   1148
   1152
   1156
   1160
   1164
   1168
   1172
   1176
   1180
   1184
   1188
   1192
   1196
   1200
   1204
   1208
   1212
   1216
   1220
   1224
   1228
   1232
   1236
   1240
   1244
   1248
   1252
   1256
   1260
   1264
   1268
   1272
   1276
   1280
   1284
   1288
   1292
   1296
   1300
   1304
   1308
   1312
   1316
   1320
   1324
   1328
   1332
   1336
   1340
   1344
   1348
   1352
   1356
   1360
   1364
   1368
   1372
   1376
   1380
   1384
   1388
   1392
   1396
   1400
   1404
   1408
   1412
   1416
   1420
   1424
   1428
   1432
   1436
   1440
   1444
   1448
   1452
   1456
   1460
   1464
   1468
   1472
   1476
   1480
   1484
   1488
   1492
   1496
   1500
   1504
   1508
   1512
   1516
   1520
   1524
   1528
   1532
   1536
   1540
   1544
   1548
   1552
   1556
   1560
   1564
   1568
   1572
   1576
   1580
   1584
   1588
   1592
   1596
   1600
   1604
   1608
   1612
   1616
   1620
   1624
   1628
   1632
   1636
   1640
   1644
   1648
   1652
   1656
   1660
   1664
   1668
   1672
   1676
   1680
   1684
   1688
   1692
   1696
   1700
   1704
   1708
   1712
   1716
   1720
   1724
   1728
   1732
   1736
   1740
   1744
   1748
   1752
   1756
   1760
   1764
   1768
   1772
   1776
   1780
   1784
   1788
   1792
   1796
   1800
   1804
   1808
   1812
   1816
   1820
   1824
   1828
   1832
   1836
   1840
   1844
   1848
   1852
   1856
   1860
   1864
   1868
   1872
   1876
   1880
   1884
   1888
   1892
   1896
   1900
   1904
   1908
   1912
   1916
   1920
   1924
   1928
   1932
   1936
   1940
   1944
   1948
   1952
   1956
   1960
   1964
   1968
   1972
   1976
   1980
   1984
   1988
   1992
   1996
   2000
   2004
   2008
   2012
   2016
   2020
   2024
   2028
   2032
   2036
   2040
   2044
   2048
   2052
   2056
   2060
   2064
   2068
   2072
   2076
   2080
   2084
   2088
   2092
   2096
   2100
   2104
   2108
   2112
   2116
   2120
   2124
   2128
   2132
   2136
   2140
   2144
   2148
   2152
   2156
   2160
   2164
   2168
   2172
   2176
   2180
   2184
   2188
   2192
   2196
   2200
   2204
   2208
   2212
   2216
   2220
   2224
   2228
   2232
   2236
   2240
   2244
   2248
   2252
   2256
   2260
   2264
   2268
   2272
   2276
   2280
   2284
   2288
   2292
   2296
   2300
   2304
   2308
   2312
   2316
   2320
   2324
   2328
   2332
   2336
   2340
   2344
   2348
   2352
   2356
   2360
   2364
   2368
   2372
   2376
   2380
   2384
   2388
   2392
   2396
   2400
        </DataArray>
      </Polys>
    </Piece>
  </PolyData>
</VTKFile>
