<?xml version="1.0"?>
<VTKFile type="PolyData" version="0.1" byte_order="LittleEndian">
  <PolyData>
    <Piece NumberOfPoints="     22" NumberOfVerts="  0" NumberOfLines="     21"
           NumberOfStrips="  0" NumberOfPolys="      0">
      <Points>
        <DataArray type="Float32" NumberOfComponents="3" format="ascii">
                       0.00007                      -0.00001                       2.19000
                       0.00070                      -0.00005                       6.57000
                       0.00209                      -0.00013                      10.95000
                       0.00431                      -0.00025                      15.33000
                       0.00736                      -0.00039                      19.71000
                       0.01124                      -0.00057                      24.09000
                       0.01589                      -0.00079                      28.46999
                       0.02131                      -0.00104                      32.84999
                       0.02746                      -0.00133                      37.22999
                       0.03435                      -0.00166                      41.60998
                       0.04200                      -0.00203                      45.98997
                       0.05043                      -0.00245                      50.36997
                       0.05970                      -0.00292                      54.74996
                       0.06982                      -0.00343                      59.12994
                       0.08082                      -0.00399                      63.50993
                       0.09267                      -0.00459                      67.88991
                       0.10529                      -0.00523                      72.26990
                       0.11848                      -0.00591                      76.64988
                       0.13194                      -0.00662                      81.02986
                       0.14520                      -0.00735                      85.40984
                       0.15154                      -0.00773                      87.59983
                       0.00000                       0.00000                       0.00000
        </DataArray>
      </Points>
      <PointData>
        <DataArray type="Float32" Name="TranslationalVelocity" NumberOfComponents="3" format="ascii">
                       0.00002                       0.00001                      -0.00000
                       0.00021                       0.00005                      -0.00000
                       0.00060                       0.00013                      -0.00000
                       0.00116                       0.00024                      -0.00000
                       0.00188                       0.00038                      -0.00000
                       0.00271                       0.00055                      -0.00000
                       0.00360                       0.00075                      -0.00000
                       0.00452                       0.00099                      -0.00000
                       0.00539                       0.00126                      -0.00000
                       0.00616                       0.00156                      -0.00001
                       0.00678                       0.00190                      -0.00001
                       0.00720                       0.00227                      -0.00001
                       0.00738                       0.00269                      -0.00001
                       0.00727                       0.00314                      -0.00001
                       0.00686                       0.00362                      -0.00001
                       0.00614                       0.00414                      -0.00000
                       0.00509                       0.00469                      -0.00000
                       0.00375                       0.00527                       0.00000
                       0.00213                       0.00586                       0.00001
                       0.00030                       0.00648                       0.00001
                      -0.00068                       0.00679                       0.00002
                       0.00000                      -0.00000                       0.00000
        </DataArray>
        <DataArray type="Float32" Name="RotationalVelocity" NumberOfComponents="3" format="ascii">
                      -0.00001                       0.00002                       0.00000
                      -0.00001                       0.00007                       0.00000
                      -0.00002                       0.00011                       0.00000
                      -0.00003                       0.00015                       0.00000
                      -0.00004                       0.00018                       0.00000
                      -0.00004                       0.00020                       0.00000
                      -0.00005                       0.00021                       0.00000
                      -0.00006                       0.00021                       0.00000
                      -0.00007                       0.00019                       0.00000
                      -0.00007                       0.00016                       0.00000
                      -0.00008                       0.00012                       0.00000
                      -0.00009                       0.00007                       0.00000
                      -0.00010                       0.00001                       0.00000
                      -0.00011                      -0.00006                       0.00000
                      -0.00011                      -0.00013                       0.00000
                      -0.00012                      -0.00020                       0.00000
                      -0.00013                      -0.00027                       0.00000
                      -0.00013                      -0.00034                       0.00000
                      -0.00014                      -0.00040                       0.00000
                      -0.00014                      -0.00044                       0.00000
                      -0.00014                      -0.00045                       0.00000
                       0.00000                      -0.00000                       0.00000
        </DataArray>
        <DataArray type="Float32" Name="TranslationalAcceleration" NumberOfComponents="3" format="ascii">
                      -0.00021                      -0.00006                       0.00000
                      -0.00189                      -0.00052                       0.00000
                      -0.00528                      -0.00134                       0.00000
                      -0.01022                      -0.00243                       0.00000
                      -0.01648                      -0.00372                       0.00001
                      -0.02368                      -0.00514                       0.00001
                      -0.03138                      -0.00660                       0.00002
                      -0.03911                      -0.00801                       0.00003
                      -0.04635                      -0.00930                       0.00004
                      -0.05256                      -0.01035                       0.00005
                      -0.05723                      -0.01106                       0.00006
                      -0.05991                      -0.01132                       0.00006
                      -0.06017                      -0.01103                       0.00006
                      -0.05767                      -0.01010                       0.00006
                      -0.05218                      -0.00843                       0.00004
                      -0.04359                      -0.00597                       0.00002
                      -0.03192                      -0.00270                      -0.00001
                      -0.01733                       0.00138                      -0.00006
                      -0.00019                       0.00616                      -0.00011
                       0.01897                       0.01151                      -0.00017
                       0.02907                       0.01433                      -0.00020
                       0.00000                      -0.00000                       0.00000
        </DataArray>
        <DataArray type="Float32" Name="RotationalAcceleration" NumberOfComponents="3" format="ascii">
                       0.00006                      -0.00019                       0.00000
                       0.00015                      -0.00058                       0.00000
                       0.00022                      -0.00096                       0.00000
                       0.00028                      -0.00129                       0.00000
                       0.00031                      -0.00155                       0.00000
                       0.00033                      -0.00172                       0.00000
                       0.00033                      -0.00178                       0.00000
                       0.00031                      -0.00173                       0.00000
                       0.00027                      -0.00155                       0.00000
                       0.00020                      -0.00126                       0.00000
                       0.00012                      -0.00086                       0.00000
                       0.00000                      -0.00035                       0.00000
                      -0.00014                       0.00024                       0.00000
                      -0.00029                       0.00090                       0.00000
                      -0.00047                       0.00160                       0.00000
                      -0.00065                       0.00232                       0.00000
                      -0.00084                       0.00301                       0.00000
                      -0.00102                       0.00364                       0.00000
                      -0.00116                       0.00417                       0.00000
                      -0.00127                       0.00455                       0.00000
                      -0.00130                       0.00467                       0.00000
                       0.00000                      -0.00000                       0.00000
        </DataArray>
        <DataArray type="Float32" Name="OrientationX" NumberOfComponents="3" format="ascii">
                       1.00000                       0.00000                      -0.00007
                       1.00000                       0.00000                      -0.00023
                       1.00000                       0.00000                      -0.00041
                       1.00000                       0.00000                      -0.00060
                       1.00000                       0.00000                      -0.00079
                       1.00000                       0.00000                      -0.00097
                       1.00000                       0.00000                      -0.00115
                       1.00000                       0.00000                      -0.00132
                       1.00000                       0.00000                      -0.00149
                       1.00000                       0.00000                      -0.00166
                       1.00000                       0.00000                      -0.00183
                       1.00000                       0.00000                      -0.00202
                       1.00000                       0.00000                      -0.00221
                       1.00000                       0.00000                      -0.00241
                       1.00000                       0.00000                      -0.00261
                       1.00000                       0.00000                      -0.00280
                       1.00000                       0.00000                      -0.00296
                       1.00000                       0.00000                      -0.00306
                       1.00000                       0.00000                      -0.00307
                       1.00000                       0.00000                      -0.00296
                       1.00000                       0.00000                      -0.00283
                       1.00000                      -0.00000                       0.00000
        </DataArray>
        <DataArray type="Float32" Name="OrientationY" NumberOfComponents="3" format="ascii">
                       0.00000                       1.00000                       0.00001
                       0.00000                       1.00000                       0.00001
                       0.00000                       1.00000                       0.00002
                       0.00000                       1.00000                       0.00003
                       0.00000                       1.00000                       0.00004
                       0.00000                       1.00000                       0.00005
                       0.00000                       1.00000                       0.00005
                       0.00000                       1.00000                       0.00006
                       0.00000                       1.00000                       0.00007
                       0.00000                       1.00000                       0.00008
                       0.00000                       1.00000                       0.00009
                       0.00000                       1.00000                       0.00010
                       0.00000                       1.00000                       0.00011
                       0.00000                       1.00000                       0.00012
                       0.00000                       1.00000                       0.00013
                       0.00000                       1.00000                       0.00014
                       0.00000                       1.00000                       0.00015
                       0.00000                       1.00000                       0.00016
                       0.00000                       1.00000                       0.00017
                       0.00000                       1.00000                       0.00017
                       0.00000                       1.00000                       0.00017
                      -0.00000                       1.00000                      -0.00000
        </DataArray>
        <DataArray type="Float32" Name="OrientationZ" NumberOfComponents="3" format="ascii">
                       0.00007                      -0.00001                       1.00000
                       0.00023                      -0.00001                       1.00000
                       0.00041                      -0.00002                       1.00000
                       0.00060                      -0.00003                       1.00000
                       0.00079                      -0.00004                       1.00000
                       0.00097                      -0.00005                       1.00000
                       0.00115                      -0.00005                       1.00000
                       0.00132                      -0.00006                       1.00000
                       0.00149                      -0.00007                       1.00000
                       0.00166                      -0.00008                       1.00000
                       0.00183                      -0.00009                       1.00000
                       0.00202                      -0.00010                       1.00000
                       0.00221                      -0.00011                       1.00000
                       0.00241                      -0.00012                       1.00000
                       0.00261                      -0.00013                       1.00000
                       0.00280                      -0.00014                       1.00000
                       0.00296                      -0.00015                       1.00000
                       0.00306                      -0.00016                       1.00000
                       0.00307                      -0.00017                       1.00000
                       0.00296                      -0.00017                       1.00000
                       0.00283                      -0.00017                       1.00000
                       0.00000                      -0.00000                       1.00000
        </DataArray>
      </PointData>
      <Lines>
        <DataArray type="Int32" Name="connectivity" format="ascii">
      0      1
      1      2
      2      3
      3      4
      4      5
      5      6
      6      7
      7      8
      8      9
      9     10
     10     11
     11     12
     12     13
     13     14
     14     15
     15     16
     16     17
     17     18
     18     19
     19     20
     21      0
        </DataArray>
        <DataArray type="Int32" Name="offsets" format="ascii">
      2
      4
      6
      8
     10
     12
     14
     16
     18
     20
     22
     24
     26
     28
     30
     32
     34
     36
     38
     40
     42
        </DataArray>
      </Lines>
    </Piece>
  </PolyData>
</VTKFile>
