<?xml version="1.0"?>
<VTKFile type="PolyData" version="0.1" byte_order="LittleEndian">
  <PolyData>
    <Piece NumberOfPoints="     19" NumberOfVerts="  0" NumberOfLines="     18"
           NumberOfStrips="  0" NumberOfPolys="      0">
      <Points>
        <DataArray type="Float32" NumberOfComponents="3" format="ascii">
                      -5.02289                      -0.77361                      88.73852
                      -5.18824                      -1.47092                      87.57439
                      -5.54393                      -2.78332                      85.19988
                      -5.90919                      -4.05644                      82.80265
                      -6.36739                      -5.62386                      79.79138
                      -6.84750                      -7.62732                      76.24147
                      -7.28424                      -9.74131                      72.75160
                      -7.70929                     -11.85584                      69.26007
                      -8.12120                     -13.97262                      65.76767
                      -8.52326                     -16.09020                      62.27394
                      -8.92086                     -18.20572                      58.77784
                      -9.31851                     -20.32087                      55.28102
                      -9.72376                     -22.43616                      51.78490
                     -10.14585                     -24.55221                      48.29136
                     -10.59341                     -26.66948                      44.80229
                     -10.99534                     -28.43543                      41.90020
                     -11.33928                     -29.85615                      39.58716
                     -11.69853                     -31.32517                      37.30606
                     -11.89866                     -32.02479                      36.14802
        </DataArray>
      </Points>
      <PointData>
        <DataArray type="Float32" Name="TranslationalVelocity" NumberOfComponents="3" format="ascii">
                      -0.19092                       3.58310                      -2.13563
                      -0.36624                       6.85995                      -4.07359
                      -0.69710                      13.54572                      -7.71938
                      -1.01956                      20.29287                     -11.25382
                      -1.41950                      28.76139                     -15.60183
                      -1.93543                      38.71957                     -21.15379
                      -2.48641                      48.48969                     -27.00492
                      -3.04684                      58.25118                     -32.85006
                      -3.61901                      68.00229                     -38.69423
                      -4.20439                      77.74624                     -44.53390
                      -4.80405                      87.48845                     -50.36174
                      -5.42006                      97.22673                     -56.18288
                      -6.05400                     106.96015                     -61.99904
                      -6.70728                     116.68677                     -67.81189
                      -7.38100                     126.40402                     -73.62238
                      -7.95909                     134.49132                     -78.46362
                      -8.43372                     140.94113                     -82.35482
                      -8.92906                     147.30486                     -86.37539
                      -9.17196                     150.53914                     -88.28760
        </DataArray>
        <DataArray type="Float32" Name="RotationalVelocity" NumberOfComponents="3" format="ascii">
                       2.77975                       0.00016                      -0.25108
                       2.77922                       0.00028                      -0.25109
                       2.77783                       0.00069                      -0.25115
                       2.77609                       0.00129                      -0.25131
                       2.77362                       0.00229                      -0.25162
                       2.77048                       0.00382                      -0.25219
                       2.76739                       0.00571                      -0.25295
                       2.76451                       0.00799                      -0.25386
                       2.76192                       0.01072                      -0.25488
                       2.75964                       0.01393                      -0.25597
                       2.75766                       0.01767                      -0.25710
                       2.75593                       0.02193                      -0.25821
                       2.75438                       0.02666                      -0.25930
                       2.75296                       0.03176                      -0.26033
                       2.75163                       0.03705                      -0.26133
                       2.75059                       0.04142                      -0.26216
                       2.74982                       0.04473                      -0.26284
                       2.74914                       0.04773                      -0.26357
                       2.74884                       0.04906                      -0.26396
        </DataArray>
        <DataArray type="Float32" Name="TranslationalAcceleration" NumberOfComponents="3" format="ascii">
                       0.89369                       5.98605                       9.96650
                       1.09150                       7.21572                      12.07678
                       3.16234                      19.99247                      34.92253
                       5.08958                      31.35888                      56.12041
                       7.35508                      44.32580                      80.99176
                       9.88254                      59.86973                     108.71690
                      12.29578                      75.78374                     135.18180
                      14.69663                      91.59774                     161.52098
                      17.11690                     107.53022                     188.06478
                      19.57070                     123.63978                     214.93004
                      22.05879                     139.87619                     242.07576
                      24.57235                     156.16465                     269.34171
                      27.10033                     172.40004                     296.53862
                      29.63452                     188.49529                     323.50749
                      32.17517                     204.41899                     350.18607
                      34.30732                     217.59968                     372.25811
                      36.03298                     228.20543                     389.89010
                      37.78997                     239.28093                     407.47837
                      38.69031                     244.62163                     416.55602
        </DataArray>
        <DataArray type="Float32" Name="OrientationX" NumberOfComponents="3" format="ascii">
                       0.95438                       0.17585                      -0.24133
                       0.95441                       0.17604                      -0.24107
                       0.95446                       0.17674                      -0.24035
                       0.95450                       0.17785                      -0.23938
                       0.95450                       0.17981                      -0.23792
                       0.96268                       0.15620                      -0.22103
                       0.96777                       0.14122                      -0.20851
                       0.97151                       0.13008                      -0.19813
                       0.97475                       0.11964                      -0.18855
                       0.97733                       0.11051                      -0.18060
                       0.97891                       0.10433                      -0.17566
                       0.97969                       0.10017                      -0.17368
                       0.97942                       0.09920                      -0.17578
                       0.97765                       0.10306                      -0.18327
                       0.97515                       0.10720                      -0.19389
                       0.97265                       0.10983                      -0.20466
                       0.97034                       0.11126                      -0.21463
                       0.96714                       0.11436                      -0.22709
                       0.96504                       0.11701                      -0.23451
        </DataArray>
        <DataArray type="Float32" Name="OrientationY" NumberOfComponents="3" format="ascii">
                       0.27316                      -0.84058                       0.46777
                       0.27319                      -0.84059                       0.46773
                       0.27340                      -0.84058                       0.46762
                       0.27385                      -0.84051                       0.46749
                       0.27478                      -0.84032                       0.46729
                       0.24604                      -0.84531                       0.47425
                       0.22688                      -0.84822                       0.47859
                       0.21210                      -0.85026                       0.48174
                       0.19829                      -0.85202                       0.48450
                       0.18644                      -0.85345                       0.48669
                       0.17863                      -0.85438                       0.48798
                       0.17403                      -0.85497                       0.48860
                       0.17425                      -0.85510                       0.48831
                       0.18133                      -0.85453                       0.48672
                       0.19023                      -0.85376                       0.48468
                       0.19792                      -0.85306                       0.48282
                       0.20420                      -0.85247                       0.48125
                       0.21316                      -0.85156                       0.47896
                       0.21918                      -0.85092                       0.47738
        </DataArray>
        <DataArray type="Float32" Name="OrientationZ" NumberOfComponents="3" format="ascii">
                      -0.12060                      -0.51235                      -0.85026
                      -0.12030                      -0.51226                      -0.85036
                      -0.11939                      -0.51204                      -0.85062
                      -0.11806                      -0.51177                      -0.85097
                      -0.11590                      -0.51140                      -0.85149
                      -0.11276                      -0.51093                      -0.85220
                      -0.10927                      -0.51047                      -0.85293
                      -0.10580                      -0.51004                      -0.85362
                      -0.10269                      -0.50965                      -0.85423
                      -0.10034                      -0.50932                      -0.85471
                      -0.09917                      -0.50907                      -0.85500
                      -0.09955                      -0.50891                      -0.85505
                      -0.10187                      -0.50889                      -0.85478
                      -0.10645                      -0.50907                      -0.85412
                      -0.11358                      -0.50952                      -0.85293
                      -0.12156                      -0.51013                      -0.85147
                      -0.12942                      -0.51080                      -0.84990
                      -0.13861                      -0.51163                      -0.84795
                      -0.14370                      -0.51209                      -0.84682
        </DataArray>
        <DataArray type="Float32" Name="Force" NumberOfComponents="3" format="ascii">
                       1.17921                     -21.93788                      13.05211
                     166.01643                    -122.39565                      50.26406
                     281.82734                    -351.32112                     172.11363
                     300.36607                    -511.11939                     266.23002
                    1482.74205                     245.44151                    -349.69831
                    1328.30303                     159.21449                    -271.66766
                    1176.27591                      71.60627                    -193.85819
                    1786.82246                     121.11946                    -294.42079
                    2206.12393                     118.73711                    -336.73399
                    2404.50260                      91.17643                    -337.24813
                    3945.04397                     138.75944                    -541.20413
                    4142.26025                     107.26927                    -546.99412
                    3195.41683                      27.54117                    -397.55780
                    1710.60886                     -90.47937                    -158.86729
                     767.64793                    -109.82256                     -36.14693
                     -17.71247                    -202.61745                     124.63407
                   -1573.76180                    -260.37976                     396.74466
                   -2767.51505                    -244.23040                     599.78778
                  -18712.23631                     443.68131                    2906.23115
        </DataArray>
        <DataArray type="Float32" Name="Moment" NumberOfComponents="3" format="ascii">
                       0.00000                       0.00000                       0.00000
                       0.00000                       0.00000                       0.00000
                       0.00000                       0.00000                       0.00000
                       0.00000                       0.00000                       0.00000
                     152.48390                     674.53319                    1119.97323
                     267.00938                    1214.59397                    2017.35580
                     345.79376                    1623.75406                    2697.95067
                     555.18933                    2693.82842                    4477.60435
                     794.72620                    3974.22481                    6608.04232
                     880.70054                    4508.36295                    7498.04963
                     977.20188                    5062.81866                    8421.25548
                    1042.18210                    5379.16396                    8947.09523
                     804.90111                    4059.66034                    6750.72235
                     825.02612                    3980.78351                    6616.32864
                     839.43136                    3793.74280                    6300.65077
                     857.93861                    3620.05065                    6007.03846
                     804.72654                    3186.72451                    5283.51512
                     430.35385                    1589.67206                    2633.02628
                     400.03283                    1424.53150                    2358.19884
        </DataArray>
      </PointData>
      <Lines>
        <DataArray type="Int32" Name="connectivity" format="ascii">
      0      1
      1      2
      2      3
      3      4
      4      5
      5      6
      6      7
      7      8
      8      9
      9     10
     10     11
     11     12
     12     13
     13     14
     14     15
     15     16
     16     17
     17     18
        </DataArray>
        <DataArray type="Int32" Name="offsets" format="ascii">
      2
      4
      6
      8
     10
     12
     14
     16
     18
     20
     22
     24
     26
     28
     30
     32
     34
     36
        </DataArray>
      </Lines>
    </Piece>
  </PolyData>
</VTKFile>
