<?xml version="1.0"?>
<VTKFile type="PolyData" version="0.1" byte_order="LittleEndian">
  <PolyData>
    <Piece NumberOfPoints="      8" NumberOfVerts="  0" NumberOfLines="      0"
           NumberOfStrips="  0" NumberOfPolys="      6">
      <Points>
        <DataArray type="Float32" NumberOfComponents="3" format="ascii">
                      -3.34816                       2.39528                      87.60999
                       3.65182                       2.39528                      87.59017
                       3.65181                      -2.40472                      87.58966
                      -3.34816                      -2.40473                      87.60948
                      -3.33457                      -2.40524                      92.40947
                       3.66541                      -2.40524                      92.38965
                       3.66541                       2.39477                      92.39016
                      -3.33457                       2.39477                      92.40998
        </DataArray>
      </Points>
      <Polys>
        <DataArray type="Int32" Name="connectivity" format="ascii">
      0      1      2      3
      4      5      6      7
      7      6      1      0
      6      5      2      1
      5      4      3      2
      4      7      0      3
        </DataArray>
        <DataArray type="Int32" Name="offsets" format="ascii">
      4
      8
     12
     16
     20
     24
        </DataArray>
      </Polys>
    </Piece>
  </PolyData>
</VTKFile>
