<?xml version="1.0"?>
<VTKFile type="PolyData" version="0.1" byte_order="LittleEndian">
  <PolyData>
    <Piece NumberOfPoints="     22" NumberOfVerts="  0" NumberOfLines="     21"
           NumberOfStrips="  0" NumberOfPolys="      0">
      <Points>
        <DataArray type="Float32" NumberOfComponents="3" format="ascii">
                       0.00007                      -0.00001                       2.19000
                       0.00067                      -0.00005                       6.57000
                       0.00202                      -0.00012                      10.95000
                       0.00417                      -0.00023                      15.33000
                       0.00713                      -0.00036                      19.71000
                       0.01090                      -0.00053                      24.09000
                       0.01545                      -0.00072                      28.46999
                       0.02074                      -0.00095                      32.84999
                       0.02678                      -0.00121                      37.22999
                       0.03357                      -0.00150                      41.60998
                       0.04113                      -0.00184                      45.98997
                       0.04949                      -0.00221                      50.36997
                       0.05871                      -0.00262                      54.74996
                       0.06882                      -0.00307                      59.12995
                       0.07984                      -0.00355                      63.50993
                       0.09174                      -0.00408                      67.88992
                       0.10444                      -0.00463                      72.26990
                       0.11775                      -0.00522                      76.64988
                       0.13136                      -0.00583                      81.02986
                       0.14478                      -0.00646                      85.40984
                       0.15122                      -0.00678                      87.59983
                       0.00000                       0.00000                       0.00000
        </DataArray>
      </Points>
      <PointData>
        <DataArray type="Float32" Name="TranslationalVelocity" NumberOfComponents="3" format="ascii">
                       0.00001                      -0.00000                      -0.00000
                       0.00007                      -0.00001                      -0.00000
                       0.00020                      -0.00003                      -0.00000
                       0.00039                      -0.00006                      -0.00000
                       0.00062                      -0.00010                      -0.00000
                       0.00089                      -0.00016                      -0.00000
                       0.00117                      -0.00023                      -0.00000
                       0.00145                      -0.00033                      -0.00000
                       0.00170                      -0.00046                      -0.00000
                       0.00190                      -0.00063                      -0.00000
                       0.00204                      -0.00083                      -0.00000
                       0.00208                      -0.00108                      -0.00000
                       0.00203                      -0.00137                      -0.00000
                       0.00185                      -0.00172                      -0.00000
                       0.00154                      -0.00213                      -0.00000
                       0.00110                      -0.00259                       0.00000
                       0.00053                      -0.00311                       0.00000
                      -0.00016                      -0.00369                       0.00000
                      -0.00096                      -0.00431                       0.00001
                      -0.00185                      -0.00496                       0.00001
                      -0.00231                      -0.00530                       0.00001
                       0.00000                      -0.00000                       0.00000
        </DataArray>
        <DataArray type="Float32" Name="RotationalVelocity" NumberOfComponents="3" format="ascii">
                       0.00000                       0.00001                       0.00000
                       0.00000                       0.00002                       0.00000
                       0.00001                       0.00004                       0.00000
                       0.00001                       0.00005                       0.00000
                       0.00001                       0.00006                       0.00000
                       0.00002                       0.00006                       0.00000
                       0.00002                       0.00006                       0.00000
                       0.00003                       0.00006                       0.00000
                       0.00003                       0.00005                       0.00000
                       0.00004                       0.00004                       0.00000
                       0.00005                       0.00002                       0.00000
                       0.00006                      -0.00000                       0.00000
                       0.00007                      -0.00003                       0.00000
                       0.00009                      -0.00005                       0.00000
                       0.00010                      -0.00008                       0.00000
                       0.00011                      -0.00012                       0.00000
                       0.00013                      -0.00015                       0.00000
                       0.00014                      -0.00017                       0.00000
                       0.00015                      -0.00019                       0.00000
                       0.00015                      -0.00021                       0.00000
                       0.00015                      -0.00021                       0.00000
                       0.00000                      -0.00000                       0.00000
        </DataArray>
        <DataArray type="Float32" Name="TranslationalAcceleration" NumberOfComponents="3" format="ascii">
                       0.00040                       0.00005                      -0.00000
                       0.00365                       0.00042                      -0.00000
                       0.01023                       0.00108                      -0.00000
                       0.01990                       0.00199                      -0.00001
                       0.03220                       0.00309                      -0.00002
                       0.04646                       0.00435                      -0.00003
                       0.06189                       0.00573                      -0.00004
                       0.07760                       0.00718                      -0.00006
                       0.09262                       0.00865                      -0.00008
                       0.10601                       0.01011                      -0.00010
                       0.11686                       0.01150                      -0.00012
                       0.12430                       0.01277                      -0.00014
                       0.12760                       0.01386                      -0.00014
                       0.12616                       0.01472                      -0.00014
                       0.11955                       0.01530                      -0.00012
                       0.10757                       0.01557                      -0.00009
                       0.09021                       0.01550                      -0.00004
                       0.06773                       0.01510                       0.00003
                       0.04070                       0.01439                       0.00011
                       0.00994                       0.01343                       0.00021
                      -0.00648                       0.01289                       0.00025
                       0.00000                      -0.00000                       0.00000
        </DataArray>
        <DataArray type="Float32" Name="RotationalAcceleration" NumberOfComponents="3" format="ascii">
                      -0.00004                       0.00036                       0.00000
                      -0.00012                       0.00113                       0.00000
                      -0.00018                       0.00187                       0.00000
                      -0.00023                       0.00253                       0.00000
                      -0.00027                       0.00306                       0.00000
                      -0.00030                       0.00342                       0.00000
                      -0.00032                       0.00359                       0.00000
                      -0.00034                       0.00354                       0.00000
                      -0.00034                       0.00328                       0.00000
                      -0.00033                       0.00280                       0.00000
                      -0.00031                       0.00212                       0.00000
                      -0.00027                       0.00125                       0.00000
                      -0.00022                       0.00023                       0.00000
                      -0.00017                      -0.00091                       0.00000
                      -0.00010                      -0.00212                       0.00000
                      -0.00002                      -0.00336                       0.00000
                       0.00005                      -0.00456                       0.00000
                       0.00013                      -0.00568                       0.00000
                       0.00019                      -0.00664                       0.00000
                       0.00024                      -0.00737                       0.00000
                       0.00025                      -0.00762                       0.00000
                       0.00000                      -0.00000                       0.00000
        </DataArray>
        <DataArray type="Float32" Name="OrientationX" NumberOfComponents="3" format="ascii">
                       1.00000                       0.00000                      -0.00006
                       1.00000                       0.00000                      -0.00022
                       1.00000                       0.00000                      -0.00040
                       1.00000                       0.00000                      -0.00058
                       1.00000                       0.00000                      -0.00077
                       1.00000                       0.00000                      -0.00095
                       1.00000                       0.00000                      -0.00112
                       1.00000                       0.00000                      -0.00129
                       1.00000                       0.00000                      -0.00146
                       1.00000                       0.00000                      -0.00164
                       1.00000                       0.00000                      -0.00182
                       1.00000                       0.00000                      -0.00201
                       1.00000                       0.00000                      -0.00221
                       1.00000                       0.00000                      -0.00241
                       1.00000                       0.00000                      -0.00262
                       1.00000                       0.00000                      -0.00281
                       1.00000                       0.00000                      -0.00298
                       1.00000                       0.00000                      -0.00309
                       1.00000                       0.00000                      -0.00311
                       1.00000                       0.00000                      -0.00300
                       1.00000                       0.00000                      -0.00288
                       1.00000                      -0.00000                       0.00000
        </DataArray>
        <DataArray type="Float32" Name="OrientationY" NumberOfComponents="3" format="ascii">
                       0.00000                       1.00000                       0.00000
                       0.00000                       1.00000                       0.00001
                       0.00000                       1.00000                       0.00002
                       0.00000                       1.00000                       0.00003
                       0.00000                       1.00000                       0.00003
                       0.00000                       1.00000                       0.00004
                       0.00000                       1.00000                       0.00005
                       0.00000                       1.00000                       0.00006
                       0.00000                       1.00000                       0.00006
                       0.00000                       1.00000                       0.00007
                       0.00000                       1.00000                       0.00008
                       0.00000                       1.00000                       0.00009
                       0.00000                       1.00000                       0.00010
                       0.00000                       1.00000                       0.00011
                       0.00000                       1.00000                       0.00012
                       0.00000                       1.00000                       0.00012
                       0.00000                       1.00000                       0.00013
                       0.00000                       1.00000                       0.00014
                       0.00000                       1.00000                       0.00014
                       0.00000                       1.00000                       0.00015
                       0.00000                       1.00000                       0.00015
                      -0.00000                       1.00000                      -0.00000
        </DataArray>
        <DataArray type="Float32" Name="OrientationZ" NumberOfComponents="3" format="ascii">
                       0.00006                      -0.00000                       1.00000
                       0.00022                      -0.00001                       1.00000
                       0.00040                      -0.00002                       1.00000
                       0.00058                      -0.00003                       1.00000
                       0.00077                      -0.00003                       1.00000
                       0.00095                      -0.00004                       1.00000
                       0.00112                      -0.00005                       1.00000
                       0.00129                      -0.00006                       1.00000
                       0.00146                      -0.00006                       1.00000
                       0.00164                      -0.00007                       1.00000
                       0.00182                      -0.00008                       1.00000
                       0.00201                      -0.00009                       1.00000
                       0.00221                      -0.00010                       1.00000
                       0.00241                      -0.00011                       1.00000
                       0.00262                      -0.00012                       1.00000
                       0.00281                      -0.00012                       1.00000
                       0.00298                      -0.00013                       1.00000
                       0.00309                      -0.00014                       1.00000
                       0.00311                      -0.00014                       1.00000
                       0.00300                      -0.00015                       1.00000
                       0.00288                      -0.00015                       1.00000
                       0.00000                      -0.00000                       1.00000
        </DataArray>
      </PointData>
      <Lines>
        <DataArray type="Int32" Name="connectivity" format="ascii">
      0      1
      1      2
      2      3
      3      4
      4      5
      5      6
      6      7
      7      8
      8      9
      9     10
     10     11
     11     12
     12     13
     13     14
     14     15
     15     16
     16     17
     17     18
     18     19
     19     20
     21      0
        </DataArray>
        <DataArray type="Int32" Name="offsets" format="ascii">
      2
      4
      6
      8
     10
     12
     14
     16
     18
     20
     22
     24
     26
     28
     30
     32
     34
     36
     38
     40
     42
        </DataArray>
      </Lines>
    </Piece>
  </PolyData>
</VTKFile>
