<?xml version="1.0"?>
<VTKFile type="PolyData" version="0.1" byte_order="LittleEndian">
  <PolyData>
    <Piece NumberOfPoints="    625" NumberOfVerts="  0" NumberOfLines="      0"
           NumberOfStrips="  0" NumberOfPolys="    600">
      <Points>
        <DataArray type="Float32" NumberOfComponents="3" format="ascii">
                      -4.39177                       0.24210                      91.51290
                      -4.39177                       0.24210                      91.51290
                      -4.39177                       0.24210                      91.51290
                      -4.39177                       0.24210                      91.51290
                      -4.39177                       0.24210                      91.51290
                      -4.39177                       0.24210                      91.51290
                      -4.39177                       0.24210                      91.51290
                      -4.39177                       0.24210                      91.51290
                      -4.39177                       0.24210                      91.51290
                      -4.39177                       0.24210                      91.51290
                      -4.39177                       0.24210                      91.51290
                      -4.39177                       0.24210                      91.51290
                      -4.39177                       0.24210                      91.51290
                      -4.39177                       0.24210                      91.51290
                      -4.39177                       0.24210                      91.51290
                      -4.39177                       0.24210                      91.51290
                      -4.39177                       0.24210                      91.51290
                      -4.39177                       0.24210                      91.51290
                      -4.39177                       0.24210                      91.51290
                      -4.39177                       0.24210                      91.51290
                      -4.39177                       0.24210                      91.51290
                      -4.39177                       0.24210                      91.51290
                      -4.39177                       0.24210                      91.51290
                      -4.39177                       0.24210                      91.51290
                      -4.39177                       0.24210                      91.51290
                      -3.80680                       0.22146                      91.33294
                      -3.82320                       0.07442                      91.35925
                      -3.87606                      -0.06338                      91.38752
                      -3.96206                      -0.18328                      91.41594
                      -4.07580                      -0.27775                      91.44275
                      -4.21014                      -0.34085                      91.46626
                      -4.35663                      -0.36862                      91.48499
                      -4.50606                      -0.35932                      91.49776
                      -4.64906                      -0.31352                      91.50377
                      -4.77662                      -0.23411                      91.50264
                      -4.88075                      -0.12608                      91.49445
                      -4.95489                       0.00379                      91.47970
                      -4.99439                       0.14734                      91.45933
                      -4.99676                       0.29554                      91.43462
                      -4.96186                       0.43909                      91.40711
                      -4.89188                       0.56896                      91.37854
                      -4.79121                       0.67700                      91.35070
                      -4.66619                       0.75641                      91.32534
                      -4.52466                       0.80221                      91.30406
                      -4.37552                       0.81152                      91.28819
                      -4.22814                       0.78375                      91.27872
                      -4.09179                       0.72065                      91.27626
                      -3.97502                       0.62618                      91.28096
                      -3.88518                       0.50629                      91.29252
                      -3.82790                       0.36849                      91.31021
                      -3.58995                       0.20081                      91.18828
                      -3.61262                      -0.00256                      91.22469
                      -3.68573                      -0.19316                      91.26377
                      -3.80469                      -0.35899                      91.30310
                      -3.96201                      -0.48966                      91.34018
                      -4.14781                      -0.57694                      91.37269
                      -4.35042                      -0.61535                      91.39859
                      -4.55711                      -0.60248                      91.41626
                      -4.75489                      -0.53914                      91.42457
                      -4.93134                      -0.42931                      91.42301
                      -5.07536                      -0.27988                      91.41168
                      -5.17790                      -0.10025                      91.39128
                      -5.23253                       0.09829                      91.36311
                      -5.23581                       0.30328                      91.32893
                      -5.18754                       0.50182                      91.29088
                      -5.09075                       0.68145                      91.25136
                      -4.95151                       0.83088                      91.21286
                      -4.77859                       0.94072                      91.17778
                      -4.58283                       1.00407                      91.14835
                      -4.37656                       1.01694                      91.12639
                      -4.17271                       0.97853                      91.11330
                      -3.98412                       0.89126                      91.10990
                      -3.82261                       0.76060                      91.11639
                      -3.69835                       0.59476                      91.13238
                      -3.61913                       0.40417                      91.15686
                      -3.43946                       0.18015                      91.05000
                      -3.46660                      -0.06319                      91.09356
                      -3.55408                      -0.29125                      91.14033
                      -3.69642                      -0.48969                      91.18738
                      -3.88467                      -0.64604                      91.23175
                      -4.10700                      -0.75048                      91.27066
                      -4.34944                      -0.79645                      91.30165
                      -4.59676                      -0.78105                      91.32279
                      -4.83342                      -0.70526                      91.33273
                      -5.04455                      -0.57383                      91.33087
                      -5.21688                      -0.39503                      91.31731
                      -5.33959                      -0.18009                      91.29291
                      -5.40496                       0.05749                      91.25919
                      -5.40889                       0.30277                      91.21829
                      -5.35112                       0.54035                      91.17277
                      -5.23530                       0.75529                      91.12548
                      -5.06869                       0.93410                      91.07941
                      -4.86177                       1.06553                      91.03744
                      -4.62754                       1.14133                      91.00221
                      -4.38071                       1.15673                      90.97594
                      -4.13679                       1.11077                      90.96027
                      -3.91112                       1.00634                      90.95620
                      -3.71787                       0.84999                      90.96397
                      -3.56917                       0.65156                      90.98311
                      -3.47439                       0.42350                      91.01239
                      -3.32594                       0.15950                      90.91526
                      -3.35651                      -0.11472                      90.96434
                      -3.45509                      -0.37171                      91.01705
                      -3.61549                      -0.59533                      91.07007
                      -3.82762                      -0.77152                      91.12007
                      -4.07816                      -0.88921                      91.16392
                      -4.35136                      -0.94100                      91.19884
                      -4.63006                      -0.92365                      91.22266
                      -4.89675                      -0.83824                      91.23387
                      -5.13466                      -0.69014                      91.23177
                      -5.32886                      -0.48865                      91.21648
                      -5.46713                      -0.24644                      91.18899
                      -5.54080                       0.02127                      91.15100
                      -5.54522                       0.29768                      91.10490
                      -5.48013                       0.56539                      91.05360
                      -5.34961                       0.80761                      91.00032
                      -5.16187                       1.00910                      90.94840
                      -4.92869                       1.15721                      90.90110
                      -4.66474                       1.24262                      90.86141
                      -4.38660                       1.25998                      90.83180
                      -4.11174                       1.20819                      90.81415
                      -3.85743                       1.09051                      90.80956
                      -3.63966                       0.91433                      90.81832
                      -3.47210                       0.69071                      90.83988
                      -3.36529                       0.43372                      90.87288
                      -3.23785                       0.13885                      90.78296
                      -3.27117                      -0.15998                      90.83645
                      -3.37860                      -0.44003                      90.89389
                      -3.55338                      -0.68371                      90.95167
                      -3.78455                      -0.87570                      91.00615
                      -4.05757                      -1.00395                      91.05393
                      -4.35528                      -1.06040                      91.09199
                      -4.65899                      -1.04149                      91.11794
                      -4.94960                      -0.94841                      91.13016
                      -5.20887                      -0.78703                      91.12787
                      -5.42049                      -0.56746                      91.11121
                      -5.57117                      -0.30352                      91.08125
                      -5.65144                      -0.01178                      91.03985
                      -5.65626                       0.28942                      90.98962
                      -5.58533                       0.58116                      90.93372
                      -5.44310                       0.84511                      90.87565
                      -5.23851                       1.06468                      90.81907
                      -4.98442                       1.22607                      90.76754
                      -4.69678                       1.31915                      90.72428
                      -4.39368                       1.33807                      90.69202
                      -4.09416                       1.28163                      90.67278
                      -3.81704                       1.15339                      90.66778
                      -3.57972                       0.96140                      90.67733
                      -3.39713                       0.71773                      90.70082
                      -3.28074                       0.43768                      90.73678
                      -3.16930                       0.11820                      90.65254
                      -3.20483                      -0.20042                      90.70957
                      -3.31937                      -0.49902                      90.77081
                      -3.50573                      -0.75884                      90.83241
                      -3.75221                      -0.96355                      90.89051
                      -4.04331                      -1.10029                      90.94145
                      -4.36074                      -1.16047                      90.98203
                      -4.68456                      -1.14031                      91.00970
                      -4.99442                      -1.04107                      91.02273
                      -5.27085                      -0.86900                      91.02028
                      -5.49649                      -0.63489                      91.00253
                      -5.65715                      -0.35347                      90.97058
                      -5.74274                      -0.04241                      90.92644
                      -5.74788                       0.27874                      90.87288
                      -5.67225                       0.58980                      90.81328
                      -5.52060                       0.87123                      90.75137
                      -5.30246                       1.10534                      90.69104
                      -5.03154                       1.27743                      90.63609
                      -4.72486                       1.37667                      90.58997
                      -4.40168                       1.39684                      90.55557
                      -4.08232                       1.33667                      90.53506
                      -3.78685                       1.19993                      90.52973
                      -3.53382                       0.99522                      90.53990
                      -3.33913                       0.73541                      90.56495
                      -3.21503                       0.43681                      90.60330
                      -3.11682                       0.09755                      90.52366
                      -3.15411                      -0.23690                      90.58352
                      -3.27434                      -0.55034                      90.64780
                      -3.46997                      -0.82307                      90.71247
                      -3.72869                      -1.03795                      90.77345
                      -4.03425                      -1.18149                      90.82692
                      -4.36746                      -1.24466                      90.86952
                      -4.70737                      -1.22350                      90.89857
                      -5.03263                      -1.11933                      90.91224
                      -5.32280                      -0.93870                      90.90967
                      -5.55965                      -0.69297                      90.89104
                      -5.72829                      -0.39756                      90.85750
                      -5.81813                      -0.07104                      90.81117
                      -5.82353                       0.26607                      90.75495
                      -5.74414                       0.59258                      90.69238
                      -5.58496                       0.88800                      90.62740
                      -5.35598                       1.13374                      90.56407
                      -5.07159                       1.31438                      90.50639
                      -4.74967                       1.41855                      90.45797
                      -4.41044                       1.43972                      90.42187
                      -4.07521                       1.37656                      90.40034
                      -3.76505                       1.23303                      90.39474
                      -3.49945                       1.01815                      90.40543
                      -3.29509                       0.74543                      90.43172
                      -3.16482                       0.43200                      90.47197
                      -3.07820                       0.07689                      90.39610
                      -3.11687                      -0.26997                      90.45819
                      -3.24157                      -0.59505                      90.52486
                      -3.44446                      -0.87790                      90.59193
                      -3.71279                      -1.10076                      90.65517
                      -4.02969                      -1.24963                      90.71063
                      -4.37527                      -1.31515                      90.75481
                      -4.72780                      -1.29320                      90.78493
                      -5.06514                      -1.18516                      90.79911
                      -5.36608                      -0.99783                      90.79645
                      -5.61172                      -0.74297                      90.77712
                      -5.78662                      -0.43659                      90.74234
                      -5.87980                      -0.09795                      90.69429
                      -5.88540                       0.25167                      90.63598
                      -5.80306                       0.59031                      90.57109
                      -5.63797                       0.89669                      90.50369
                      -5.40049                       1.15156                      90.43802
                      -5.10555                       1.33890                      90.37820
                      -4.77167                       1.44694                      90.32798
                      -4.41984                       1.46890                      90.29054
                      -4.07217                       1.40339                      90.26821
                      -3.75049                       1.25453                      90.26240
                      -3.47503                       1.03168                      90.27348
                      -3.26309                       0.74883                      90.30075
                      -3.12798                       0.42376                      90.34250
                      -3.05199                       0.05624                      90.26974
                      -3.09171                      -0.29999                      90.33350
                      -3.21977                      -0.63383                      90.40197
                      -3.42813                      -0.92431                      90.47085
                      -3.70370                      -1.15319                      90.53580
                      -4.02916                      -1.30607                      90.59275
                      -4.38406                      -1.37336                      90.63812
                      -4.74610                      -1.35082                      90.66906
                      -5.09253                      -1.23987                      90.68362
                      -5.40160                      -1.04748                      90.68089
                      -5.65386                      -0.78574                      90.66104
                      -5.83349                      -0.47110                      90.62532
                      -5.92918                      -0.12332                      90.57597
                      -5.93493                       0.23573                      90.51609
                      -5.85037                       0.58351                      90.44945
                      -5.68082                       0.89816                      90.38023
                      -5.43694                       1.15990                      90.31279
                      -5.13404                       1.35230                      90.25135
                      -4.79115                       1.46325                      90.19978
                      -4.42983                       1.48580                      90.16133
                      -4.07278                       1.41853                      90.13840
                      -3.74242                       1.26565                      90.13243
                      -3.45953                       1.03679                      90.14381
                      -3.24187                       0.74631                      90.17182
                      -3.10311                       0.41246                      90.21469
                      -3.03723                       0.03559                      90.14448
                      -3.07768                      -0.32717                      90.20941
                      -3.20809                      -0.66714                      90.27913
                      -3.42028                      -0.96296                      90.34927
                      -3.70090                      -1.19604                      90.41542
                      -4.03233                      -1.35172                      90.47342
                      -4.39374                      -1.42024                      90.51962
                      -4.76243                      -1.39729                      90.55112
                      -5.11522                      -1.28430                      90.56595
                      -5.42995                      -1.08838                      90.56317
                      -5.68685                      -0.82184                      90.54296
                      -5.86977                      -0.50143                      90.50658
                      -5.96722                      -0.14727                      90.45633
                      -5.97307                       0.21837                      90.39535
                      -5.88697                       0.57253                      90.32749
                      -5.71431                       0.89295                      90.25700
                      -5.46594                       1.15950                      90.18831
                      -5.15748                       1.35543                      90.12575
                      -4.80831                       1.46842                      90.07324
                      -4.44036                       1.49138                      90.03407
                      -4.07675                       1.42287                      90.01072
                      -3.74034                       1.26719                      90.00465
                      -3.45225                       1.03413                      90.01624
                      -3.23059                       0.73832                      90.04476
                      -3.08930                       0.39835                      90.08842
                      -3.03332                       0.01493                      90.02025
                      -3.07419                      -0.35169                      90.08588
                      -3.20599                      -0.69529                      90.15635
                      -3.42044                      -0.99426                      90.22723
                      -3.70405                      -1.22981                      90.29408
                      -4.03902                      -1.38716                      90.35270
                      -4.40428                      -1.45641                      90.39939
                      -4.77690                      -1.43321                      90.43123
                      -5.13345                      -1.31902                      90.44622
                      -5.45154                      -1.12102                      90.44341
                      -5.71117                      -0.85163                      90.42298
                      -5.89604                      -0.52780                      90.38622
                      -5.99453                      -0.16987                      90.33543
                      -6.00044                       0.19967                      90.27380
                      -5.91342                       0.55760                      90.20521
                      -5.73892                       0.88144                      90.13397
                      -5.48791                       1.15082                      90.06456
                      -5.17616                       1.34884                      90.00133
                      -4.82327                       1.46304                      89.94825
                      -4.45139                       1.48625                      89.90867
                      -4.08391                       1.41701                      89.88507
                      -3.74391                       1.25967                      89.87894
                      -3.45275                       1.02412                      89.89065
                      -3.22874                       0.72515                      89.91947
                      -3.08593                       0.38156                      89.96360
                      -3.03989                      -0.00572                      89.89704
                      -3.08091                      -0.37363                      89.96289
                      -3.21318                      -0.71842                      90.03360
                      -3.42837                      -1.01843                      90.10474
                      -3.71297                      -1.25481                      90.17182
                      -4.04911                      -1.41271                      90.23064
                      -4.41565                      -1.48220                      90.27750
                      -4.78956                      -1.45892                      90.30945
                      -5.14736                      -1.34433                      90.32449
                      -5.46656                      -1.14563                      90.32167
                      -5.72710                      -0.87531                      90.30117
                      -5.91261                      -0.55035                      90.26428
                      -6.01144                      -0.19117                      90.21331
                      -6.01738                       0.17966                      90.15147
                      -5.93005                       0.53884                      90.08264
                      -5.75494                       0.86381                      90.01115
                      -5.50306                       1.13414                      89.94149
                      -5.19022                       1.33284                      89.87804
                      -4.83609                       1.44744                      89.82478
                      -4.46292                       1.47073                      89.78507
                      -4.09416                       1.40125                      89.76138
                      -3.75297                       1.24336                      89.75523
                      -3.46080                       1.00698                      89.76698
                      -3.23600                       0.70698                      89.79590
                      -3.09270                       0.36219                      89.84018
                      -3.05686                      -0.02637                      89.77482
                      -3.09774                      -0.39300                      89.84044
                      -3.22954                      -0.73659                      89.91091
                      -3.44399                      -1.03556                      89.98180
                      -3.72760                      -1.27112                      90.04865
                      -4.06256                      -1.42847                      90.10726
                      -4.42783                      -1.49772                      90.15396
                      -4.80044                      -1.47452                      90.18580
                      -5.15699                      -1.36033                      90.20078
                      -5.47508                      -1.16232                      90.19797
                      -5.73472                      -0.89294                      90.17755
                      -5.91959                      -0.56911                      90.14078
                      -6.01807                      -0.21118                      90.08999
                      -6.02399                       0.15836                      90.02836
                      -5.93696                       0.51630                      89.95978
                      -5.76246                       0.84013                      89.88854
                      -5.51145                       1.10952                      89.81912
                      -5.19971                       1.30753                      89.75589
                      -4.84681                       1.42173                      89.70282
                      -4.47494                       1.44494                      89.66324
                      -4.10746                       1.37570                      89.63964
                      -3.76746                       1.21836                      89.63350
                      -3.47630                       0.98281                      89.64521
                      -3.25228                       0.68385                      89.67403
                      -3.10948                       0.34026                      89.71816
                      -3.08432                      -0.04703                      89.65360
                      -3.12477                      -0.40979                      89.71853
                      -3.25518                      -0.74976                      89.78826
                      -3.46737                      -1.04557                      89.85840
                      -3.74799                      -1.27865                      89.92455
                      -4.07942                      -1.43434                      89.98254
                      -4.44083                      -1.50286                      90.02875
                      -4.80952                      -1.47990                      90.06025
                      -5.16231                      -1.36691                      90.07508
                      -5.47704                      -1.17100                      90.07230
                      -5.73394                      -0.90446                      90.05209
                      -5.91686                      -0.58404                      90.01571
                      -6.01431                      -0.22988                      89.96545
                      -6.02016                       0.13576                      89.90448
                      -5.93406                       0.48992                      89.83661
                      -5.76140                       0.81034                      89.76612
                      -5.51303                       1.07689                      89.69744
                      -5.20457                       1.27281                      89.63487
                      -4.85540                       1.38581                      89.58236
                      -4.48745                       1.40877                      89.54320
                      -4.12384                       1.34026                      89.51985
                      -3.78743                       1.18458                      89.51378
                      -3.49934                       0.95151                      89.52536
                      -3.27768                       0.65570                      89.55388
                      -3.13639                       0.31574                      89.59754
                      -3.12263                      -0.06768                      89.53343
                      -3.16234                      -0.42390                      89.59719
                      -3.29041                      -0.75775                      89.66566
                      -3.49877                      -1.04823                      89.73454
                      -3.77433                      -1.27711                      89.79949
                      -4.09979                      -1.42999                      89.85644
                      -4.45469                      -1.49728                      89.90181
                      -4.81673                      -1.47474                      89.93275
                      -5.16317                      -1.36378                      89.94731
                      -5.47223                      -1.17140                      89.94458
                      -5.72450                      -0.90966                      89.92473
                      -5.90412                      -0.59502                      89.88901
                      -5.99981                      -0.24724                      89.83966
                      -6.00556                       0.11181                      89.77978
                      -5.92101                       0.45959                      89.71314
                      -5.75146                       0.77424                      89.64392
                      -5.50757                       1.03598                      89.57648
                      -5.20467                       1.22838                      89.51504
                      -4.86179                       1.33934                      89.46347
                      -4.50047                       1.36189                      89.42501
                      -4.14341                       1.29461                      89.40208
                      -3.81306                       1.14173                      89.39612
                      -3.53016                       0.91287                      89.40750
                      -3.31250                       0.62239                      89.43551
                      -3.17375                       0.28855                      89.47838
                      -3.17238                      -0.08833                      89.41435
                      -3.21105                      -0.43520                      89.47644
                      -3.33575                      -0.76027                      89.54311
                      -3.53864                      -1.04313                      89.61018
                      -3.80697                      -1.26599                      89.67343
                      -4.12387                      -1.41486                      89.72888
                      -4.46945                      -1.48037                      89.77306
                      -4.82198                      -1.45842                      89.80318
                      -5.15932                      -1.35039                      89.81736
                      -5.46026                      -1.16305                      89.81470
                      -5.70590                      -0.90819                      89.79538
                      -5.88080                      -0.60182                      89.76059
                      -5.97398                      -0.26318                      89.71254
                      -5.97958                       0.08644                      89.65424
                      -5.89724                       0.42509                      89.58935
                      -5.73215                       0.73147                      89.52194
                      -5.49467                       0.98633                      89.45627
                      -5.19973                       1.17367                      89.39645
                      -4.86585                       1.28172                      89.34623
                      -4.51402                       1.30368                      89.30879
                      -4.16635                       1.23817                      89.28646
                      -3.84467                       1.08931                      89.28065
                      -3.56921                       0.86645                      89.29173
                      -3.35727                       0.58360                      89.31900
                      -3.22216                       0.25853                      89.36075
                      -3.23455                      -0.10899                      89.29647
                      -3.27183                      -0.44344                      89.35633
                      -3.39207                      -0.75687                      89.42062
                      -3.58769                      -1.02960                      89.48528
                      -3.84641                      -1.24449                      89.54627
                      -4.15198                      -1.38802                      89.59974
                      -4.48518                      -1.45120                      89.64233
                      -4.82510                      -1.43003                      89.67138
                      -5.15036                      -1.32586                      89.68505
                      -5.44052                      -1.14524                      89.68249
                      -5.67737                      -0.89950                      89.66385
                      -5.84602                      -0.60409                      89.63031
                      -5.93586                      -0.27757                      89.58398
                      -5.94126                       0.05953                      89.52776
                      -5.86187                       0.38605                      89.46520
                      -5.70268                       0.68147                      89.40021
                      -5.47370                       0.92721                      89.33688
                      -5.18932                       1.10784                      89.27920
                      -4.86740                       1.21202                      89.23079
                      -4.52816                       1.23319                      89.19468
                      -4.19293                       1.17003                      89.17315
                      -3.88277                       1.02650                      89.16756
                      -3.61717                       0.81162                      89.17824
                      -3.41281                       0.53890                      89.20453
                      -3.28254                       0.22546                      89.24479
                      -3.31057                      -0.12964                      89.17991
                      -3.34610                      -0.44826                      89.23695
                      -3.46064                      -0.74686                      89.29819
                      -3.64700                      -1.00668                      89.35979
                      -3.89348                      -1.21139                      89.41789
                      -4.18458                      -1.34813                      89.46883
                      -4.50201                      -1.40831                      89.50941
                      -4.82583                      -1.38815                      89.53708
                      -5.13569                      -1.28891                      89.55010
                      -5.41212                      -1.11684                      89.54766
                      -5.63776                      -0.88273                      89.52991
                      -5.79842                      -0.60131                      89.49796
                      -5.88401                      -0.29025                      89.45382
                      -5.88915                       0.03090                      89.40026
                      -5.81352                       0.34196                      89.34066
                      -5.66187                       0.62339                      89.27874
                      -5.44373                       0.85750                      89.21842
                      -5.17281                       1.02959                      89.16347
                      -4.86613                       1.12883                      89.11734
                      -4.54295                       1.14900                      89.08295
                      -4.22359                       1.08883                      89.06244
                      -3.92812                       0.95209                      89.05710
                      -3.67509                       0.74739                      89.06728
                      -3.48040                       0.48757                      89.09233
                      -3.35630                       0.18898                      89.13068
                      -3.40267                      -0.15029                      89.06490
                      -3.43598                      -0.44912                      89.11839
                      -3.54341                      -0.72917                      89.17583
                      -3.71820                      -0.97285                      89.23361
                      -3.94936                      -1.16485                      89.28809
                      -4.22238                      -1.29310                      89.33587
                      -4.52010                      -1.34954                      89.37393
                      -4.82380                      -1.33063                      89.39988
                      -5.11442                      -1.23756                      89.41209
                      -5.37368                      -1.07617                      89.40980
                      -5.58530                      -0.85661                      89.39315
                      -5.73598                      -0.59266                      89.36319
                      -5.81625                      -0.30093                      89.32179
                      -5.82108                       0.00028                      89.27156
                      -5.75014                       0.29202                      89.21566
                      -5.60792                       0.55596                      89.15759
                      -5.40333                       0.77553                      89.10101
                      -5.14923                       0.93693                      89.04947
                      -4.86160                       1.03001                      89.00622
                      -4.55850                       1.04892                      88.97396
                      -4.25897                       0.99249                      88.95472
                      -3.98185                       0.86425                      88.94972
                      -3.74454                       0.67226                      88.95926
                      -3.56195                       0.42858                      88.98276
                      -3.44555                       0.14853                      89.01872
                      -3.51430                      -0.17095                      88.95176
                      -3.54487                      -0.44517                      89.00085
                      -3.64345                      -0.70216                      89.05355
                      -3.80385                      -0.92578                      89.10658
                      -4.01598                      -1.10197                      89.15658
                      -4.26652                      -1.21966                      89.20042
                      -4.53972                      -1.27145                      89.23534
                      -4.81842                      -1.25410                      89.25916
                      -5.08511                      -1.16869                      89.27037
                      -5.32302                      -1.02059                      89.26827
                      -5.51722                      -0.81911                      89.25299
                      -5.65549                      -0.57689                      89.22549
                      -5.72916                      -0.30918                      89.18750
                      -5.73358                      -0.03278                      89.14141
                      -5.66849                       0.23494                      89.09011
                      -5.53797                       0.47716                      89.03682
                      -5.35023                       0.67865                      88.98490
                      -5.11705                       0.82676                      88.93761
                      -4.85310                       0.91217                      88.89791
                      -4.57496                       0.92953                      88.86831
                      -4.30010                       0.87774                      88.85065
                      -4.04579                       0.76006                      88.84606
                      -3.82802                       0.58388                      88.85482
                      -3.66046                       0.36026                      88.87638
                      -3.55365                       0.10327                      88.90939
                      -3.65137                      -0.19160                      88.84106
                      -3.67850                      -0.43495                      88.88462
                      -3.76598                      -0.66301                      88.93140
                      -3.90832                      -0.86145                      88.97845
                      -4.09657                      -1.01780                      89.02282
                      -4.31890                      -1.12224                      89.06172
                      -4.56134                      -1.16820                      89.09272
                      -4.80867                      -1.15281                      89.11385
                      -5.04533                      -1.07701                      89.12380
                      -5.25646                      -0.94559                      89.12193
                      -5.42879                      -0.76679                      89.10838
                      -5.55149                      -0.55184                      89.08397
                      -5.61686                      -0.31427                      89.05026
                      -5.62079                      -0.06899                      89.00936
                      -5.56303                       0.16859                      88.96383
                      -5.44720                       0.38353                      88.91655
                      -5.28060                       0.56234                      88.87047
                      -5.07368                       0.69377                      88.82850
                      -4.83944                       0.76957                      88.79327
                      -4.59261                       0.78497                      88.76700
                      -4.34870                       0.73902                      88.75134
                      -4.12303                       0.63458                      88.74727
                      -3.92977                       0.47824                      88.75504
                      -3.78108                       0.27980                      88.77417
                      -3.68629                       0.05174                      88.80346
                      -3.82540                      -0.21226                      88.73391
                      -3.84807                      -0.41563                      88.77031
                      -3.92118                      -0.60622                      88.80940
                      -4.04014                      -0.77206                      88.84872
                      -4.19746                      -0.90272                      88.88581
                      -4.38326                      -0.99000                      88.91832
                      -4.58587                      -1.02841                      88.94422
                      -4.79256                      -1.01555                      88.96188
                      -4.99034                      -0.95220                      88.97020
                      -5.16679                      -0.84237                      88.96864
                      -5.31081                      -0.69294                      88.95731
                      -5.41335                      -0.51332                      88.93691
                      -5.46798                      -0.31477                      88.90874
                      -5.47126                      -0.10979                      88.87456
                      -5.42299                       0.08876                      88.83651
                      -5.32620                       0.26839                      88.79699
                      -5.18696                       0.41782                      88.75849
                      -5.01404                       0.52766                      88.72341
                      -4.81828                       0.59100                      88.69397
                      -4.61201                       0.60388                      88.67202
                      -4.40816                       0.56547                      88.65893
                      -4.21957                       0.47819                      88.65552
                      -4.05806                       0.34753                      88.66202
                      -3.93380                       0.18170                      88.67801
                      -3.85458                      -0.00889                      88.70249
                      -4.06580                      -0.23291                      88.63313
                      -4.08219                      -0.37995                      88.65944
                      -4.13505                      -0.51775                      88.68771
                      -4.22105                      -0.63765                      88.71614
                      -4.33480                      -0.73212                      88.74295
                      -4.46913                      -0.79522                      88.76645
                      -4.61562                      -0.82299                      88.78518
                      -4.76506                      -0.81369                      88.79795
                      -4.90805                      -0.76789                      88.80396
                      -5.03562                      -0.68848                      88.80283
                      -5.13975                      -0.58045                      88.79464
                      -5.21389                      -0.45058                      88.77990
                      -5.25338                      -0.30703                      88.75953
                      -5.25576                      -0.15883                      88.73481
                      -5.22086                      -0.01528                      88.70730
                      -5.15087                       0.11459                      88.67873
                      -5.05021                       0.22263                      88.65089
                      -4.92518                       0.30204                      88.62554
                      -4.78365                       0.34784                      88.60425
                      -4.63452                       0.35715                      88.58838
                      -4.48714                       0.32938                      88.57891
                      -4.35078                       0.26628                      88.57645
                      -4.23401                       0.17181                      88.58115
                      -4.14417                       0.05192                      88.59271
                      -4.08690                      -0.08588                      88.61040
                      -4.67431                      -0.25358                      88.56765
                      -4.67431                      -0.25358                      88.56765
                      -4.67431                      -0.25358                      88.56765
                      -4.67431                      -0.25358                      88.56765
                      -4.67431                      -0.25358                      88.56765
                      -4.67431                      -0.25358                      88.56765
                      -4.67431                      -0.25358                      88.56765
                      -4.67431                      -0.25358                      88.56765
                      -4.67431                      -0.25358                      88.56765
                      -4.67431                      -0.25358                      88.56765
                      -4.67431                      -0.25358                      88.56765
                      -4.67431                      -0.25358                      88.56765
                      -4.67431                      -0.25358                      88.56765
                      -4.67431                      -0.25358                      88.56765
                      -4.67431                      -0.25358                      88.56765
                      -4.67431                      -0.25358                      88.56765
                      -4.67431                      -0.25358                      88.56765
                      -4.67431                      -0.25358                      88.56765
                      -4.67431                      -0.25358                      88.56765
                      -4.67431                      -0.25358                      88.56765
                      -4.67431                      -0.25358                      88.56765
                      -4.67431                      -0.25358                      88.56765
                      -4.67431                      -0.25358                      88.56765
                      -4.67431                      -0.25358                      88.56765
                      -4.67431                      -0.25358                      88.56765
        </DataArray>
      </Points>
      <Polys>
        <DataArray type="Int32" Name="connectivity" format="ascii">
      0      1     26     25
      1      2     27     26
      2      3     28     27
      3      4     29     28
      4      5     30     29
      5      6     31     30
      6      7     32     31
      7      8     33     32
      8      9     34     33
      9     10     35     34
     10     11     36     35
     11     12     37     36
     12     13     38     37
     13     14     39     38
     14     15     40     39
     15     16     41     40
     16     17     42     41
     17     18     43     42
     18     19     44     43
     19     20     45     44
     20     21     46     45
     21     22     47     46
     22     23     48     47
     23     24     49     48
     24      0     25     49
     25     26     51     50
     26     27     52     51
     27     28     53     52
     28     29     54     53
     29     30     55     54
     30     31     56     55
     31     32     57     56
     32     33     58     57
     33     34     59     58
     34     35     60     59
     35     36     61     60
     36     37     62     61
     37     38     63     62
     38     39     64     63
     39     40     65     64
     40     41     66     65
     41     42     67     66
     42     43     68     67
     43     44     69     68
     44     45     70     69
     45     46     71     70
     46     47     72     71
     47     48     73     72
     48     49     74     73
     49     25     50     74
     50     51     76     75
     51     52     77     76
     52     53     78     77
     53     54     79     78
     54     55     80     79
     55     56     81     80
     56     57     82     81
     57     58     83     82
     58     59     84     83
     59     60     85     84
     60     61     86     85
     61     62     87     86
     62     63     88     87
     63     64     89     88
     64     65     90     89
     65     66     91     90
     66     67     92     91
     67     68     93     92
     68     69     94     93
     69     70     95     94
     70     71     96     95
     71     72     97     96
     72     73     98     97
     73     74     99     98
     74     50     75     99
     75     76    101    100
     76     77    102    101
     77     78    103    102
     78     79    104    103
     79     80    105    104
     80     81    106    105
     81     82    107    106
     82     83    108    107
     83     84    109    108
     84     85    110    109
     85     86    111    110
     86     87    112    111
     87     88    113    112
     88     89    114    113
     89     90    115    114
     90     91    116    115
     91     92    117    116
     92     93    118    117
     93     94    119    118
     94     95    120    119
     95     96    121    120
     96     97    122    121
     97     98    123    122
     98     99    124    123
     99     75    100    124
    100    101    126    125
    101    102    127    126
    102    103    128    127
    103    104    129    128
    104    105    130    129
    105    106    131    130
    106    107    132    131
    107    108    133    132
    108    109    134    133
    109    110    135    134
    110    111    136    135
    111    112    137    136
    112    113    138    137
    113    114    139    138
    114    115    140    139
    115    116    141    140
    116    117    142    141
    117    118    143    142
    118    119    144    143
    119    120    145    144
    120    121    146    145
    121    122    147    146
    122    123    148    147
    123    124    149    148
    124    100    125    149
    125    126    151    150
    126    127    152    151
    127    128    153    152
    128    129    154    153
    129    130    155    154
    130    131    156    155
    131    132    157    156
    132    133    158    157
    133    134    159    158
    134    135    160    159
    135    136    161    160
    136    137    162    161
    137    138    163    162
    138    139    164    163
    139    140    165    164
    140    141    166    165
    141    142    167    166
    142    143    168    167
    143    144    169    168
    144    145    170    169
    145    146    171    170
    146    147    172    171
    147    148    173    172
    148    149    174    173
    149    125    150    174
    150    151    176    175
    151    152    177    176
    152    153    178    177
    153    154    179    178
    154    155    180    179
    155    156    181    180
    156    157    182    181
    157    158    183    182
    158    159    184    183
    159    160    185    184
    160    161    186    185
    161    162    187    186
    162    163    188    187
    163    164    189    188
    164    165    190    189
    165    166    191    190
    166    167    192    191
    167    168    193    192
    168    169    194    193
    169    170    195    194
    170    171    196    195
    171    172    197    196
    172    173    198    197
    173    174    199    198
    174    150    175    199
    175    176    201    200
    176    177    202    201
    177    178    203    202
    178    179    204    203
    179    180    205    204
    180    181    206    205
    181    182    207    206
    182    183    208    207
    183    184    209    208
    184    185    210    209
    185    186    211    210
    186    187    212    211
    187    188    213    212
    188    189    214    213
    189    190    215    214
    190    191    216    215
    191    192    217    216
    192    193    218    217
    193    194    219    218
    194    195    220    219
    195    196    221    220
    196    197    222    221
    197    198    223    222
    198    199    224    223
    199    175    200    224
    200    201    226    225
    201    202    227    226
    202    203    228    227
    203    204    229    228
    204    205    230    229
    205    206    231    230
    206    207    232    231
    207    208    233    232
    208    209    234    233
    209    210    235    234
    210    211    236    235
    211    212    237    236
    212    213    238    237
    213    214    239    238
    214    215    240    239
    215    216    241    240
    216    217    242    241
    217    218    243    242
    218    219    244    243
    219    220    245    244
    220    221    246    245
    221    222    247    246
    222    223    248    247
    223    224    249    248
    224    200    225    249
    225    226    251    250
    226    227    252    251
    227    228    253    252
    228    229    254    253
    229    230    255    254
    230    231    256    255
    231    232    257    256
    232    233    258    257
    233    234    259    258
    234    235    260    259
    235    236    261    260
    236    237    262    261
    237    238    263    262
    238    239    264    263
    239    240    265    264
    240    241    266    265
    241    242    267    266
    242    243    268    267
    243    244    269    268
    244    245    270    269
    245    246    271    270
    246    247    272    271
    247    248    273    272
    248    249    274    273
    249    225    250    274
    250    251    276    275
    251    252    277    276
    252    253    278    277
    253    254    279    278
    254    255    280    279
    255    256    281    280
    256    257    282    281
    257    258    283    282
    258    259    284    283
    259    260    285    284
    260    261    286    285
    261    262    287    286
    262    263    288    287
    263    264    289    288
    264    265    290    289
    265    266    291    290
    266    267    292    291
    267    268    293    292
    268    269    294    293
    269    270    295    294
    270    271    296    295
    271    272    297    296
    272    273    298    297
    273    274    299    298
    274    250    275    299
    275    276    301    300
    276    277    302    301
    277    278    303    302
    278    279    304    303
    279    280    305    304
    280    281    306    305
    281    282    307    306
    282    283    308    307
    283    284    309    308
    284    285    310    309
    285    286    311    310
    286    287    312    311
    287    288    313    312
    288    289    314    313
    289    290    315    314
    290    291    316    315
    291    292    317    316
    292    293    318    317
    293    294    319    318
    294    295    320    319
    295    296    321    320
    296    297    322    321
    297    298    323    322
    298    299    324    323
    299    275    300    324
    300    301    326    325
    301    302    327    326
    302    303    328    327
    303    304    329    328
    304    305    330    329
    305    306    331    330
    306    307    332    331
    307    308    333    332
    308    309    334    333
    309    310    335    334
    310    311    336    335
    311    312    337    336
    312    313    338    337
    313    314    339    338
    314    315    340    339
    315    316    341    340
    316    317    342    341
    317    318    343    342
    318    319    344    343
    319    320    345    344
    320    321    346    345
    321    322    347    346
    322    323    348    347
    323    324    349    348
    324    300    325    349
    325    326    351    350
    326    327    352    351
    327    328    353    352
    328    329    354    353
    329    330    355    354
    330    331    356    355
    331    332    357    356
    332    333    358    357
    333    334    359    358
    334    335    360    359
    335    336    361    360
    336    337    362    361
    337    338    363    362
    338    339    364    363
    339    340    365    364
    340    341    366    365
    341    342    367    366
    342    343    368    367
    343    344    369    368
    344    345    370    369
    345    346    371    370
    346    347    372    371
    347    348    373    372
    348    349    374    373
    349    325    350    374
    350    351    376    375
    351    352    377    376
    352    353    378    377
    353    354    379    378
    354    355    380    379
    355    356    381    380
    356    357    382    381
    357    358    383    382
    358    359    384    383
    359    360    385    384
    360    361    386    385
    361    362    387    386
    362    363    388    387
    363    364    389    388
    364    365    390    389
    365    366    391    390
    366    367    392    391
    367    368    393    392
    368    369    394    393
    369    370    395    394
    370    371    396    395
    371    372    397    396
    372    373    398    397
    373    374    399    398
    374    350    375    399
    375    376    401    400
    376    377    402    401
    377    378    403    402
    378    379    404    403
    379    380    405    404
    380    381    406    405
    381    382    407    406
    382    383    408    407
    383    384    409    408
    384    385    410    409
    385    386    411    410
    386    387    412    411
    387    388    413    412
    388    389    414    413
    389    390    415    414
    390    391    416    415
    391    392    417    416
    392    393    418    417
    393    394    419    418
    394    395    420    419
    395    396    421    420
    396    397    422    421
    397    398    423    422
    398    399    424    423
    399    375    400    424
    400    401    426    425
    401    402    427    426
    402    403    428    427
    403    404    429    428
    404    405    430    429
    405    406    431    430
    406    407    432    431
    407    408    433    432
    408    409    434    433
    409    410    435    434
    410    411    436    435
    411    412    437    436
    412    413    438    437
    413    414    439    438
    414    415    440    439
    415    416    441    440
    416    417    442    441
    417    418    443    442
    418    419    444    443
    419    420    445    444
    420    421    446    445
    421    422    447    446
    422    423    448    447
    423    424    449    448
    424    400    425    449
    425    426    451    450
    426    427    452    451
    427    428    453    452
    428    429    454    453
    429    430    455    454
    430    431    456    455
    431    432    457    456
    432    433    458    457
    433    434    459    458
    434    435    460    459
    435    436    461    460
    436    437    462    461
    437    438    463    462
    438    439    464    463
    439    440    465    464
    440    441    466    465
    441    442    467    466
    442    443    468    467
    443    444    469    468
    444    445    470    469
    445    446    471    470
    446    447    472    471
    447    448    473    472
    448    449    474    473
    449    425    450    474
    450    451    476    475
    451    452    477    476
    452    453    478    477
    453    454    479    478
    454    455    480    479
    455    456    481    480
    456    457    482    481
    457    458    483    482
    458    459    484    483
    459    460    485    484
    460    461    486    485
    461    462    487    486
    462    463    488    487
    463    464    489    488
    464    465    490    489
    465    466    491    490
    466    467    492    491
    467    468    493    492
    468    469    494    493
    469    470    495    494
    470    471    496    495
    471    472    497    496
    472    473    498    497
    473    474    499    498
    474    450    475    499
    475    476    501    500
    476    477    502    501
    477    478    503    502
    478    479    504    503
    479    480    505    504
    480    481    506    505
    481    482    507    506
    482    483    508    507
    483    484    509    508
    484    485    510    509
    485    486    511    510
    486    487    512    511
    487    488    513    512
    488    489    514    513
    489    490    515    514
    490    491    516    515
    491    492    517    516
    492    493    518    517
    493    494    519    518
    494    495    520    519
    495    496    521    520
    496    497    522    521
    497    498    523    522
    498    499    524    523
    499    475    500    524
    500    501    526    525
    501    502    527    526
    502    503    528    527
    503    504    529    528
    504    505    530    529
    505    506    531    530
    506    507    532    531
    507    508    533    532
    508    509    534    533
    509    510    535    534
    510    511    536    535
    511    512    537    536
    512    513    538    537
    513    514    539    538
    514    515    540    539
    515    516    541    540
    516    517    542    541
    517    518    543    542
    518    519    544    543
    519    520    545    544
    520    521    546    545
    521    522    547    546
    522    523    548    547
    523    524    549    548
    524    500    525    549
    525    526    551    550
    526    527    552    551
    527    528    553    552
    528    529    554    553
    529    530    555    554
    530    531    556    555
    531    532    557    556
    532    533    558    557
    533    534    559    558
    534    535    560    559
    535    536    561    560
    536    537    562    561
    537    538    563    562
    538    539    564    563
    539    540    565    564
    540    541    566    565
    541    542    567    566
    542    543    568    567
    543    544    569    568
    544    545    570    569
    545    546    571    570
    546    547    572    571
    547    548    573    572
    548    549    574    573
    549    525    550    574
    550    551    576    575
    551    552    577    576
    552    553    578    577
    553    554    579    578
    554    555    580    579
    555    556    581    580
    556    557    582    581
    557    558    583    582
    558    559    584    583
    559    560    585    584
    560    561    586    585
    561    562    587    586
    562    563    588    587
    563    564    589    588
    564    565    590    589
    565    566    591    590
    566    567    592    591
    567    568    593    592
    568    569    594    593
    569    570    595    594
    570    571    596    595
    571    572    597    596
    572    573    598    597
    573    574    599    598
    574    550    575    599
    575    576    601    600
    576    577    602    601
    577    578    603    602
    578    579    604    603
    579    580    605    604
    580    581    606    605
    581    582    607    606
    582    583    608    607
    583    584    609    608
    584    585    610    609
    585    586    611    610
    586    587    612    611
    587    588    613    612
    588    589    614    613
    589    590    615    614
    590    591    616    615
    591    592    617    616
    592    593    618    617
    593    594    619    618
    594    595    620    619
    595    596    621    620
    596    597    622    621
    597    598    623    622
    598    599    624    623
    599    575    600    624
        </DataArray>
        <DataArray type="Int32" Name="offsets" format="ascii">
      4
      8
     12
     16
     20
     24
     28
     32
     36
     40
     44
     48
     52
     56
     60
     64
     68
     72
     76
     80
     84
     88
     92
     96
    100
    104
    108
    112
    116
    120
    124
    128
    132
    136
    140
    144
    148
    152
    156
    160
    164
    168
    172
    176
    180
    184
    188
    192
    196
    200
    204
    208
    212
    216
    220
    224
    228
    232
    236
    240
    244
    248
    252
    256
    260
    264
    268
    272
    276
    280
    284
    288
    292
    296
    300
    304
    308
    312
    316
    320
    324
    328
    332
    336
    340
    344
    348
    352
    356
    360
    364
    368
    372
    376
    380
    384
    388
    392
    396
    400
    404
    408
    412
    416
    420
    424
    428
    432
    436
    440
    444
    448
    452
    456
    460
    464
    468
    472
    476
    480
    484
    488
    492
    496
    500
    504
    508
    512
    516
    520
    524
    528
    532
    536
    540
    544
    548
    552
    556
    560
    564
    568
    572
    576
    580
    584
    588
    592
    596
    600
    604
    608
    612
    616
    620
    624
    628
    632
    636
    640
    644
    648
    652
    656
    660
    664
    668
    672
    676
    680
    684
    688
    692
    696
    700
    704
    708
    712
    716
    720
    724
    728
    732
    736
    740
    744
    748
    752
    756
    760
    764
    768
    772
    776
    780
    784
    788
    792
    796
    800
    804
    808
    812
    816
    820
    824
    828
    832
    836
    840
    844
    848
    852
    856
    860
    864
    868
    872
    876
    880
    884
    888
    892
    896
    900
    904
    908
    912
    916
    920
    924
    928
    932
    936
    940
    944
    948
    952
    956
    960
    964
    968
    972
    976
    980
    984
    988
    992
    996
   1000
   1004
   1008
   1012
   1016
   1020
   1024
   1028
   1032
   1036
   1040
   1044
   1048
   1052
   1056
   1060
   1064
   1068
   1072
   1076
   1080
   1084
   1088
   1092
   1096
   1100
   1104
   1108
   1112
   1116
   1120
   1124
   1128
   1132
   1136
   1140
   1144
   1148
   1152
   1156
   1160
   1164
   1168
   1172
   1176
   1180
   1184
   1188
   1192
   1196
   1200
   1204
   1208
   1212
   1216
   1220
   1224
   1228
   1232
   1236
   1240
   1244
   1248
   1252
   1256
   1260
   1264
   1268
   1272
   1276
   1280
   1284
   1288
   1292
   1296
   1300
   1304
   1308
   1312
   1316
   1320
   1324
   1328
   1332
   1336
   1340
   1344
   1348
   1352
   1356
   1360
   1364
   1368
   1372
   1376
   1380
   1384
   1388
   1392
   1396
   1400
   1404
   1408
   1412
   1416
   1420
   1424
   1428
   1432
   1436
   1440
   1444
   1448
   1452
   1456
   1460
   1464
   1468
   1472
   1476
   1480
   1484
   1488
   1492
   1496
   1500
   1504
   1508
   1512
   1516
   1520
   1524
   1528
   1532
   1536
   1540
   1544
   1548
   1552
   1556
   1560
   1564
   1568
   1572
   1576
   1580
   1584
   1588
   1592
   1596
   1600
   1604
   1608
   1612
   1616
   1620
   1624
   1628
   1632
   1636
   1640
   1644
   1648
   1652
   1656
   1660
   1664
   1668
   1672
   1676
   1680
   1684
   1688
   1692
   1696
   1700
   1704
   1708
   1712
   1716
   1720
   1724
   1728
   1732
   1736
   1740
   1744
   1748
   1752
   1756
   1760
   1764
   1768
   1772
   1776
   1780
   1784
   1788
   1792
   1796
   1800
   1804
   1808
   1812
   1816
   1820
   1824
   1828
   1832
   1836
   1840
   1844
   1848
   1852
   1856
   1860
   1864
   1868
   1872
   1876
   1880
   1884
   1888
   1892
   1896
   1900
   1904
   1908
   1912
   1916
   1920
   1924
   1928
   1932
   1936
   1940
   1944
   1948
   1952
   1956
   1960
   1964
   1968
   1972
   1976
   1980
   1984
   1988
   1992
   1996
   2000
   2004
   2008
   2012
   2016
   2020
   2024
   2028
   2032
   2036
   2040
   2044
   2048
   2052
   2056
   2060
   2064
   2068
   2072
   2076
   2080
   2084
   2088
   2092
   2096
   2100
   2104
   2108
   2112
   2116
   2120
   2124
   2128
   2132
   2136
   2140
   2144
   2148
   2152
   2156
   2160
   2164
   2168
   2172
   2176
   2180
   2184
   2188
   2192
   2196
   2200
   2204
   2208
   2212
   2216
   2220
   2224
   2228
   2232
   2236
   2240
   2244
   2248
   2252
   2256
   2260
   2264
   2268
   2272
   2276
   2280
   2284
   2288
   2292
   2296
   2300
   2304
   2308
   2312
   2316
   2320
   2324
   2328
   2332
   2336
   2340
   2344
   2348
   2352
   2356
   2360
   2364
   2368
   2372
   2376
   2380
   2384
   2388
   2392
   2396
   2400
        </DataArray>
      </Polys>
    </Piece>
  </PolyData>
</VTKFile>
