<?xml version="1.0"?>
<VTKFile type="PolyData" version="0.1" byte_order="LittleEndian">
  <PolyData>
    <Piece NumberOfPoints="      8" NumberOfVerts="  0" NumberOfLines="      0"
           NumberOfStrips="  0" NumberOfPolys="      6">
      <Points>
        <DataArray type="Float32" NumberOfComponents="3" format="ascii">
                      -3.34878                       2.39961                      87.60972
                       3.65119                       2.39961                      87.59003
                       3.65119                      -2.40040                      87.58994
                      -3.34878                      -2.40040                      87.60962
                      -3.33529                      -2.40049                      92.40961
                       3.66469                      -2.40049                      92.38993
                       3.66469                       2.39951                      92.39002
                      -3.33529                       2.39951                      92.40970
        </DataArray>
      </Points>
      <Polys>
        <DataArray type="Int32" Name="connectivity" format="ascii">
      0      1      2      3
      4      5      6      7
      7      6      1      0
      6      5      2      1
      5      4      3      2
      4      7      0      3
        </DataArray>
        <DataArray type="Int32" Name="offsets" format="ascii">
      4
      8
     12
     16
     20
     24
        </DataArray>
      </Polys>
    </Piece>
  </PolyData>
</VTKFile>
