<?xml version="1.0"?>
<VTKFile type="PolyData" version="0.1" byte_order="LittleEndian">
  <PolyData>
    <Piece NumberOfPoints="     19" NumberOfVerts="  0" NumberOfLines="     18"
           NumberOfStrips="  0" NumberOfPolys="      0">
      <Points>
        <DataArray type="Float32" NumberOfComponents="3" format="ascii">
                      -4.82854                      -1.22385                      90.88668
                      -4.81711                      -2.33767                      91.67914
                      -4.82144                      -4.62041                      93.18778
                      -4.83582                      -6.93011                      94.65934
                      -4.85467                      -9.83456                      96.47517
                      -4.80069                     -13.24158                      98.76284
                      -4.69597                     -16.57739                     101.14989
                      -4.57494                     -19.91496                     103.53456
                      -4.43528                     -23.25314                     105.91834
                      -4.27958                     -26.59273                     108.30019
                      -4.11263                     -29.93536                     110.67793
                      -3.93832                     -33.27961                     113.05366
                      -3.76373                     -36.62470                     115.42862
                      -3.59785                     -39.96964                     117.80429
                      -3.44919                     -43.31345                     120.18190
                      -3.34793                     -46.09812                     122.16617
                      -3.28533                     -48.31953                     123.76241
                      -3.23324                     -50.50775                     125.40529
                      -3.22777                     -51.62426                     126.19510
        </DataArray>
      </Points>
      <PointData>
        <DataArray type="Float32" Name="TranslationalVelocity" NumberOfComponents="3" format="ascii">
                      -0.30603                      -2.42201                      -3.39176
                      -0.58579                      -4.62823                      -6.48857
                      -1.15945                      -8.82292                     -12.83712
                      -1.74027                     -12.91360                     -19.26340
                      -2.47131                     -17.96344                     -27.34894
                      -3.33007                     -24.34901                     -36.84020
                      -4.17266                     -31.02900                     -46.14003
                      -5.01810                     -37.71135                     -55.45120
                      -5.86684                     -44.40034                     -64.76973
                      -6.71988                     -51.09175                     -74.09686
                      -7.57845                     -57.77759                     -83.43612
                      -8.44290                     -64.46190                     -92.78243
                      -9.31364                     -71.14559                    -102.13260
                     -10.19083                     -77.82986                    -111.48304
                     -11.07438                     -84.51550                    -120.83048
                     -11.81530                     -90.08928                    -128.61489
                     -12.40937                     -94.56831                    -134.82480
                     -12.99731                     -99.17520                    -140.94222
                     -13.29786                    -101.38497                    -144.06379
        </DataArray>
        <DataArray type="Float32" Name="RotationalVelocity" NumberOfComponents="3" format="ascii">
                       2.77996                      -0.00011                      -0.25109
                       2.78033                      -0.00012                      -0.25113
                       2.78128                      -0.00015                      -0.25124
                       2.78246                      -0.00017                      -0.25139
                       2.78410                      -0.00019                      -0.25166
                       2.78617                      -0.00018                      -0.25211
                       2.78817                      -0.00017                      -0.25272
                       2.78998                      -0.00020                      -0.25349
                       2.79153                      -0.00030                      -0.25442
                       2.79278                      -0.00052                      -0.25551
                       2.79374                      -0.00090                      -0.25675
                       2.79442                      -0.00143                      -0.25810
                       2.79486                      -0.00213                      -0.25952
                       2.79513                      -0.00294                      -0.26096
                       2.79526                      -0.00377                      -0.26235
                       2.79530                      -0.00440                      -0.26339
                       2.79530                      -0.00478                      -0.26411
                       2.79529                      -0.00498                      -0.26469
                       2.79528                      -0.00499                      -0.26491
        </DataArray>
        <DataArray type="Float32" Name="TranslationalAcceleration" NumberOfComponents="3" format="ascii">
                      -0.61032                       9.50795                      -6.74317
                      -0.73392                      11.51427                      -8.14454
                      -2.04687                      33.39482                     -22.69546
                      -3.22812                      53.78176                     -35.72566
                      -4.59520                      77.80763                     -50.66800
                      -6.24317                     104.61869                     -68.44775
                      -7.94525                     130.24873                     -86.54123
                      -9.66770                     155.87210                    -104.56532
                     -11.43012                     181.79251                    -122.75934
                     -13.23472                     208.11014                    -141.18555
                     -15.07194                     234.77429                    -159.78496
                     -16.92906                     261.61645                    -178.46581
                     -18.79112                     288.44303                    -197.10541
                     -20.64634                     315.09239                    -215.60386
                     -22.49067                     341.50005                    -233.92625
                     -24.02517                     363.38168                    -249.11147
                     -25.26444                     380.87673                    -261.33458
                     -26.55386                     398.31160                    -274.04751
                     -27.18672                     407.34142                    -280.23260
        </DataArray>
        <DataArray type="Float32" Name="OrientationX" NumberOfComponents="3" format="ascii">
                       0.95364                      -0.16825                      -0.24951
                       0.95363                      -0.16794                      -0.24977
                       0.95355                      -0.16706                      -0.25068
                       0.95338                      -0.16588                      -0.25209
                       0.95304                      -0.16410                      -0.25452
                       0.96160                      -0.14397                      -0.23365
                       0.96674                      -0.12902                      -0.22083
                       0.97038                      -0.11650                      -0.21165
                       0.97353                      -0.10474                      -0.20315
                       0.97605                      -0.09461                      -0.19588
                       0.97760                      -0.08768                      -0.19132
                       0.97848                      -0.08379                      -0.18857
                       0.97842                      -0.08420                      -0.18869
                       0.97700                      -0.09043                      -0.19311
                       0.97520                      -0.09989                      -0.19752
                       0.97360                      -0.10974                      -0.20015
                       0.97225                      -0.11905                      -0.20140
                       0.97015                      -0.13120                      -0.20394
                       0.96865                      -0.13866                      -0.20612
        </DataArray>
        <DataArray type="Float32" Name="OrientationY" NumberOfComponents="3" format="ascii">
                       0.30081                       0.55709                       0.77405
                       0.30084                       0.55701                       0.77411
                       0.30107                       0.55680                       0.77417
                       0.30154                       0.55656                       0.77416
                       0.30249                       0.55624                       0.77402
                       0.27382                       0.56071                       0.78143
                       0.25472                       0.56327                       0.78603
                       0.24001                       0.56501                       0.78941
                       0.22629                       0.56644                       0.79243
                       0.21454                       0.56748                       0.79494
                       0.20684                       0.56801                       0.79661
                       0.20237                       0.56817                       0.79764
                       0.20272                       0.56786                       0.79777
                       0.20992                       0.56692                       0.79658
                       0.21897                       0.56571                       0.79500
                       0.22679                       0.56458                       0.79361
                       0.23317                       0.56360                       0.79246
                       0.24225                       0.56219                       0.79073
                       0.24834                       0.56120                       0.78954
        </DataArray>
        <DataArray type="Float32" Name="OrientationZ" NumberOfComponents="3" format="ascii">
                       0.00876                      -0.81323                       0.58188
                       0.00912                      -0.81335                       0.58170
                       0.01024                      -0.81368                       0.58123
                       0.01188                      -0.81408                       0.58063
                       0.01456                      -0.81466                       0.57976
                       0.01851                      -0.81540                       0.57860
                       0.02297                      -0.81614                       0.57740
                       0.02762                      -0.81682                       0.57623
                       0.03207                      -0.81742                       0.57515
                       0.03595                      -0.81793                       0.57419
                       0.03883                      -0.81834                       0.57342
                       0.04031                      -0.81864                       0.57289
                       0.03998                      -0.81881                       0.57268
                       0.03744                      -0.81880                       0.57286
                       0.03232                      -0.81853                       0.57355
                       0.02591                      -0.81805                       0.57456
                       0.01917                      -0.81742                       0.57572
                       0.01091                      -0.81654                       0.57719
                       0.00620                      -0.81598                       0.57805
        </DataArray>
        <DataArray type="Float32" Name="Force" NumberOfComponents="3" format="ascii">
                       2.03293                      16.12797                      22.50964
                     204.57589                      76.64638                     103.91465
                     319.38582                     221.28995                     303.69662
                     334.12611                     328.56320                     452.54538
                    1594.50671                    -263.84846                    -409.43648
                    1512.64791                    -193.81219                    -320.06739
                    1457.50894                    -129.51693                    -239.85422
                    2225.79790                    -188.82487                    -372.07212
                    2682.98210                    -183.42497                    -407.72909
                    3015.49873                    -165.48125                    -421.87635
                    4681.56962                    -224.11037                    -632.86442
                    5031.81439                    -208.31150                    -647.79486
                    4283.58541                    -155.72634                    -518.80636
                    2824.71908                     -53.74008                    -260.91124
                     909.98175                      79.83160                      60.34895
                     638.57415                      69.98239                      68.96740
                    -155.61664                     148.20341                     212.74388
                   -1636.20536                     238.43362                     365.22295
                  -19678.05712                     895.29862                    1472.73971
        </DataArray>
        <DataArray type="Float32" Name="Moment" NumberOfComponents="3" format="ascii">
                       0.00000                       0.00000                       0.00000
                       0.00000                       0.00000                       0.00000
                       0.00000                       0.00000                       0.00000
                       0.00000                       0.00000                       0.00000
                     -19.64456                    1086.08547                    -776.39727
                     -45.43497                    1972.22141                   -1408.97727
                     -75.92902                    2652.82998                   -1893.87377
                    -151.39238                    4398.76832                   -3138.00906
                    -258.60920                    6470.14283                   -4612.44897
                    -329.61661                    7358.13444                   -5242.27482
                    -399.87510                    8262.69208                   -5884.03773
                    -442.23450                    8799.31997                   -6264.70163
                    -333.21673                    6680.62026                   -4756.51625
                    -308.26134                    6591.67293                   -4695.04003
                    -252.58558                    6243.74792                   -4450.78286
                    -194.37109                    5975.82885                   -4264.07860
                    -127.67276                    5282.01944                   -3772.99355
                     -36.59822                    2627.99048                   -1879.62858
                     -18.72043                    2319.28931                   -1660.06130
        </DataArray>
      </PointData>
      <Lines>
        <DataArray type="Int32" Name="connectivity" format="ascii">
      0      1
      1      2
      2      3
      3      4
      4      5
      5      6
      6      7
      7      8
      8      9
      9     10
     10     11
     11     12
     12     13
     13     14
     14     15
     15     16
     16     17
     17     18
        </DataArray>
        <DataArray type="Int32" Name="offsets" format="ascii">
      2
      4
      6
      8
     10
     12
     14
     16
     18
     20
     22
     24
     26
     28
     30
     32
     34
     36
        </DataArray>
      </Lines>
    </Piece>
  </PolyData>
</VTKFile>
