<?xml version="1.0"?>
<VTKFile type="PolyData" version="0.1" byte_order="LittleEndian">
  <PolyData>
    <Piece NumberOfPoints="     22" NumberOfVerts="  0" NumberOfLines="     21"
           NumberOfStrips="  0" NumberOfPolys="      0">
      <Points>
        <DataArray type="Float32" NumberOfComponents="3" format="ascii">
                       0.00007                      -0.00000                       2.19000
                       0.00071                      -0.00001                       6.57000
                       0.00213                      -0.00004                      10.95000
                       0.00439                      -0.00007                      15.33000
                       0.00750                      -0.00011                      19.71000
                       0.01143                      -0.00016                      24.09000
                       0.01616                      -0.00022                      28.46999
                       0.02164                      -0.00030                      32.84999
                       0.02786                      -0.00039                      37.22999
                       0.03482                      -0.00049                      41.60998
                       0.04252                      -0.00062                      45.98997
                       0.05101                      -0.00076                      50.36997
                       0.06030                      -0.00091                      54.74996
                       0.07045                      -0.00109                      59.12994
                       0.08145                      -0.00129                      63.50993
                       0.09329                      -0.00151                      67.88991
                       0.10588                      -0.00175                      72.26990
                       0.11903                      -0.00200                      76.64988
                       0.13242                      -0.00227                      81.02986
                       0.14560                      -0.00256                      85.40984
                       0.15190                      -0.00270                      87.59983
                       0.00000                       0.00000                       0.00000
        </DataArray>
      </Points>
      <PointData>
        <DataArray type="Float32" Name="TranslationalVelocity" NumberOfComponents="3" format="ascii">
                       0.00000                      -0.00001                      -0.00000
                       0.00002                      -0.00006                      -0.00000
                       0.00004                      -0.00016                      -0.00000
                       0.00009                      -0.00030                      -0.00000
                       0.00014                      -0.00049                      -0.00000
                       0.00020                      -0.00071                      -0.00000
                       0.00026                      -0.00098                      -0.00000
                       0.00033                      -0.00130                      -0.00000
                       0.00039                      -0.00167                      -0.00000
                       0.00045                      -0.00209                      -0.00000
                       0.00049                      -0.00257                      -0.00000
                       0.00051                      -0.00311                      -0.00000
                       0.00052                      -0.00372                      -0.00000
                       0.00051                      -0.00439                      -0.00000
                       0.00047                      -0.00513                      -0.00000
                       0.00041                      -0.00593                      -0.00000
                       0.00032                      -0.00679                      -0.00000
                       0.00021                      -0.00770                       0.00000
                       0.00008                      -0.00866                       0.00000
                      -0.00007                      -0.00965                       0.00000
                      -0.00015                      -0.01016                       0.00000
                       0.00000                      -0.00000                       0.00000
        </DataArray>
        <DataArray type="Float32" Name="RotationalVelocity" NumberOfComponents="3" format="ascii">
                       0.00001                       0.00000                       0.00000
                       0.00002                       0.00000                       0.00000
                       0.00003                       0.00001                       0.00000
                       0.00004                       0.00001                       0.00000
                       0.00005                       0.00001                       0.00000
                       0.00006                       0.00001                       0.00000
                       0.00007                       0.00002                       0.00000
                       0.00008                       0.00001                       0.00000
                       0.00009                       0.00001                       0.00000
                       0.00010                       0.00001                       0.00000
                       0.00012                       0.00001                       0.00000
                       0.00013                       0.00000                       0.00000
                       0.00015                      -0.00000                       0.00000
                       0.00016                      -0.00001                       0.00000
                       0.00018                      -0.00001                       0.00000
                       0.00019                      -0.00002                       0.00000
                       0.00020                      -0.00002                       0.00000
                       0.00021                      -0.00003                       0.00000
                       0.00022                      -0.00003                       0.00000
                       0.00023                      -0.00004                       0.00000
                       0.00023                      -0.00004                       0.00000
                       0.00000                      -0.00000                       0.00000
        </DataArray>
        <DataArray type="Float32" Name="TranslationalAcceleration" NumberOfComponents="3" format="ascii">
                      -0.00023                      -0.00005                       0.00000
                      -0.00214                      -0.00041                       0.00000
                      -0.00600                      -0.00105                       0.00000
                      -0.01168                      -0.00193                       0.00000
                      -0.01893                      -0.00298                       0.00001
                      -0.02735                      -0.00415                       0.00002
                      -0.03649                      -0.00540                       0.00003
                      -0.04583                      -0.00666                       0.00004
                      -0.05483                      -0.00789                       0.00005
                      -0.06294                      -0.00902                       0.00006
                      -0.06963                      -0.00998                       0.00008
                      -0.07442                      -0.01070                       0.00008
                      -0.07688                      -0.01113                       0.00009
                      -0.07668                      -0.01118                       0.00009
                      -0.07356                      -0.01081                       0.00008
                      -0.06742                      -0.00998                       0.00006
                      -0.05823                      -0.00866                       0.00004
                      -0.04615                      -0.00687                       0.00000
                      -0.03146                      -0.00464                      -0.00004
                      -0.01463                      -0.00207                      -0.00009
                      -0.00560                      -0.00071                      -0.00012
                       0.00000                      -0.00000                       0.00000
        </DataArray>
        <DataArray type="Float32" Name="RotationalAcceleration" NumberOfComponents="3" format="ascii">
                       0.00004                      -0.00021                       0.00000
                       0.00012                      -0.00066                       0.00000
                       0.00018                      -0.00110                       0.00000
                       0.00022                      -0.00149                       0.00000
                       0.00026                      -0.00180                       0.00000
                       0.00028                      -0.00202                       0.00000
                       0.00029                      -0.00213                       0.00000
                       0.00029                      -0.00211                       0.00000
                       0.00027                      -0.00197                       0.00000
                       0.00024                      -0.00171                       0.00000
                       0.00020                      -0.00133                       0.00000
                       0.00013                      -0.00084                       0.00000
                       0.00006                      -0.00027                       0.00000
                      -0.00003                       0.00037                       0.00000
                      -0.00014                       0.00105                       0.00000
                      -0.00025                       0.00175                       0.00000
                      -0.00036                       0.00244                       0.00000
                      -0.00046                       0.00307                       0.00000
                      -0.00055                       0.00362                       0.00000
                      -0.00061                       0.00404                       0.00000
                      -0.00063                       0.00420                       0.00000
                       0.00000                      -0.00000                       0.00000
        </DataArray>
        <DataArray type="Float32" Name="OrientationX" NumberOfComponents="3" format="ascii">
                       1.00000                       0.00000                      -0.00007
                       1.00000                       0.00000                      -0.00023
                       1.00000                       0.00000                      -0.00042
                       1.00000                       0.00000                      -0.00061
                       1.00000                       0.00000                      -0.00080
                       1.00000                       0.00000                      -0.00099
                       1.00000                       0.00000                      -0.00117
                       1.00000                       0.00000                      -0.00134
                       1.00000                       0.00000                      -0.00150
                       1.00000                       0.00000                      -0.00167
                       1.00000                       0.00000                      -0.00185
                       1.00000                       0.00000                      -0.00203
                       1.00000                       0.00000                      -0.00222
                       1.00000                       0.00000                      -0.00241
                       1.00000                       0.00000                      -0.00261
                       1.00000                       0.00000                      -0.00279
                       1.00000                       0.00000                      -0.00295
                       1.00000                       0.00000                      -0.00304
                       1.00000                       0.00000                      -0.00306
                       1.00000                       0.00000                      -0.00294
                       1.00000                       0.00000                      -0.00281
                       1.00000                      -0.00000                       0.00000
        </DataArray>
        <DataArray type="Float32" Name="OrientationY" NumberOfComponents="3" format="ascii">
                       0.00000                       1.00000                       0.00000
                       0.00000                       1.00000                       0.00000
                       0.00000                       1.00000                       0.00001
                       0.00000                       1.00000                       0.00001
                       0.00000                       1.00000                       0.00001
                       0.00000                       1.00000                       0.00001
                       0.00000                       1.00000                       0.00002
                       0.00000                       1.00000                       0.00002
                       0.00000                       1.00000                       0.00002
                       0.00000                       1.00000                       0.00003
                       0.00000                       1.00000                       0.00003
                       0.00000                       1.00000                       0.00003
                       0.00000                       1.00000                       0.00004
                       0.00000                       1.00000                       0.00004
                       0.00000                       1.00000                       0.00005
                       0.00000                       1.00000                       0.00005
                       0.00000                       1.00000                       0.00006
                       0.00000                       1.00000                       0.00006
                       0.00000                       1.00000                       0.00006
                       0.00000                       1.00000                       0.00007
                       0.00000                       1.00000                       0.00007
                      -0.00000                       1.00000                      -0.00000
        </DataArray>
        <DataArray type="Float32" Name="OrientationZ" NumberOfComponents="3" format="ascii">
                       0.00007                      -0.00000                       1.00000
                       0.00023                      -0.00000                       1.00000
                       0.00042                      -0.00001                       1.00000
                       0.00061                      -0.00001                       1.00000
                       0.00080                      -0.00001                       1.00000
                       0.00099                      -0.00001                       1.00000
                       0.00117                      -0.00002                       1.00000
                       0.00134                      -0.00002                       1.00000
                       0.00150                      -0.00002                       1.00000
                       0.00167                      -0.00003                       1.00000
                       0.00185                      -0.00003                       1.00000
                       0.00203                      -0.00003                       1.00000
                       0.00222                      -0.00004                       1.00000
                       0.00241                      -0.00004                       1.00000
                       0.00261                      -0.00005                       1.00000
                       0.00279                      -0.00005                       1.00000
                       0.00295                      -0.00006                       1.00000
                       0.00304                      -0.00006                       1.00000
                       0.00306                      -0.00006                       1.00000
                       0.00294                      -0.00007                       1.00000
                       0.00281                      -0.00007                       1.00000
                       0.00000                      -0.00000                       1.00000
        </DataArray>
      </PointData>
      <Lines>
        <DataArray type="Int32" Name="connectivity" format="ascii">
      0      1
      1      2
      2      3
      3      4
      4      5
      5      6
      6      7
      7      8
      8      9
      9     10
     10     11
     11     12
     12     13
     13     14
     14     15
     15     16
     16     17
     17     18
     18     19
     19     20
     21      0
        </DataArray>
        <DataArray type="Int32" Name="offsets" format="ascii">
      2
      4
      6
      8
     10
     12
     14
     16
     18
     20
     22
     24
     26
     28
     30
     32
     34
     36
     38
     40
     42
        </DataArray>
      </Lines>
    </Piece>
  </PolyData>
</VTKFile>
