<?xml version="1.0"?>
<VTKFile type="PolyData" version="0.1" byte_order="LittleEndian">
  <PolyData>
    <Piece NumberOfPoints="     22" NumberOfVerts="  0" NumberOfLines="     21"
           NumberOfStrips="  0" NumberOfPolys="      0">
      <Points>
        <DataArray type="Float32" NumberOfComponents="3" format="ascii">
                       0.00016                      -0.00000                       2.19000
                       0.00161                      -0.00001                       6.57000
                       0.00480                      -0.00003                      10.95000
                       0.00989                      -0.00005                      15.33000
                       0.01688                      -0.00009                      19.70999
                       0.02573                      -0.00013                      24.08998
                       0.03636                      -0.00020                      28.46997
                       0.04871                      -0.00028                      32.84995
                       0.06272                      -0.00039                      37.22993
                       0.07838                      -0.00053                      41.60990
                       0.09572                      -0.00070                      45.98987
                       0.11482                      -0.00091                      50.36982
                       0.13575                      -0.00116                      54.74977
                       0.15858                      -0.00145                      59.12971
                       0.18336                      -0.00179                      63.50964
                       0.21002                      -0.00218                      67.88956
                       0.23835                      -0.00261                      72.26947
                       0.26795                      -0.00309                      76.64937
                       0.29812                      -0.00360                      81.02927
                       0.32779                      -0.00415                      85.40917
                       0.34198                      -0.00443                      87.59912
                       0.00000                       0.00000                       0.00000
        </DataArray>
      </Points>
      <PointData>
        <DataArray type="Float32" Name="TranslationalVelocity" NumberOfComponents="3" format="ascii">
                       0.00007                      -0.00001                      -0.00000
                       0.00070                      -0.00010                      -0.00000
                       0.00207                      -0.00025                      -0.00000
                       0.00423                      -0.00048                      -0.00000
                       0.00718                      -0.00075                      -0.00001
                       0.01088                      -0.00108                      -0.00002
                       0.01529                      -0.00146                      -0.00003
                       0.02035                      -0.00189                      -0.00004
                       0.02603                      -0.00237                      -0.00006
                       0.03230                      -0.00289                      -0.00008
                       0.03915                      -0.00345                      -0.00011
                       0.04658                      -0.00405                      -0.00014
                       0.05461                      -0.00468                      -0.00018
                       0.06325                      -0.00535                      -0.00023
                       0.07251                      -0.00604                      -0.00028
                       0.08235                      -0.00675                      -0.00034
                       0.09270                      -0.00747                      -0.00040
                       0.10341                      -0.00820                      -0.00048
                       0.11422                      -0.00894                      -0.00055
                       0.12476                      -0.00968                      -0.00062
                       0.12977                      -0.01005                      -0.00066
                       0.00000                      -0.00000                       0.00000
        </DataArray>
        <DataArray type="Float32" Name="RotationalVelocity" NumberOfComponents="3" format="ascii">
                       0.00001                       0.00007                       0.00000
                       0.00003                       0.00022                       0.00000
                       0.00004                       0.00040                       0.00000
                       0.00006                       0.00058                       0.00000
                       0.00007                       0.00076                       0.00000
                       0.00008                       0.00093                       0.00000
                       0.00009                       0.00108                       0.00000
                       0.00010                       0.00123                       0.00000
                       0.00011                       0.00136                       0.00000
                       0.00012                       0.00150                       0.00000
                       0.00013                       0.00163                       0.00000
                       0.00014                       0.00176                       0.00000
                       0.00015                       0.00190                       0.00000
                       0.00016                       0.00204                       0.00000
                       0.00016                       0.00218                       0.00000
                       0.00016                       0.00231                       0.00000
                       0.00017                       0.00241                       0.00000
                       0.00017                       0.00247                       0.00000
                       0.00017                       0.00246                       0.00000
                       0.00017                       0.00234                       0.00000
                       0.00017                       0.00222                       0.00000
                       0.00000                      -0.00000                       0.00000
        </DataArray>
        <DataArray type="Float32" Name="TranslationalAcceleration" NumberOfComponents="3" format="ascii">
                       0.00005                       0.00004                      -0.00000
                       0.00026                       0.00030                      -0.00000
                       0.00031                       0.00077                      -0.00000
                      -0.00015                       0.00139                      -0.00000
                      -0.00145                       0.00213                      -0.00000
                      -0.00398                       0.00294                       0.00000
                      -0.00817                       0.00377                       0.00001
                      -0.01452                       0.00457                       0.00002
                      -0.02361                       0.00528                       0.00004
                      -0.03606                       0.00586                       0.00008
                      -0.05255                       0.00623                       0.00013
                      -0.07374                       0.00633                       0.00021
                      -0.10023                       0.00611                       0.00033
                      -0.13253                       0.00551                       0.00048
                      -0.17098                       0.00447                       0.00068
                      -0.21564                       0.00296                       0.00093
                      -0.26622                       0.00097                       0.00123
                      -0.32198                      -0.00149                       0.00158
                      -0.38159                      -0.00437                       0.00196
                      -0.44304                      -0.00759                       0.00235
                      -0.47358                      -0.00928                       0.00254
                       0.00000                      -0.00000                       0.00000
        </DataArray>
        <DataArray type="Float32" Name="RotationalAcceleration" NumberOfComponents="3" format="ascii">
                      -0.00003                       0.00004                       0.00000
                      -0.00009                       0.00004                       0.00000
                      -0.00013                      -0.00003                       0.00000
                      -0.00016                      -0.00019                       0.00000
                      -0.00018                      -0.00042                       0.00000
                      -0.00019                      -0.00075                       0.00000
                      -0.00019                      -0.00118                       0.00000
                      -0.00018                      -0.00174                       0.00000
                      -0.00015                      -0.00243                       0.00000
                      -0.00011                      -0.00328                       0.00000
                      -0.00006                      -0.00428                       0.00000
                       0.00001                      -0.00542                       0.00000
                       0.00009                      -0.00670                       0.00000
                       0.00019                      -0.00807                       0.00000
                       0.00029                      -0.00949                       0.00000
                       0.00040                      -0.01089                       0.00000
                       0.00051                      -0.01218                       0.00000
                       0.00061                      -0.01323                       0.00000
                       0.00070                      -0.01391                       0.00000
                       0.00076                      -0.01404                       0.00000
                       0.00078                      -0.01383                       0.00000
                       0.00000                      -0.00000                       0.00000
        </DataArray>
        <DataArray type="Float32" Name="OrientationX" NumberOfComponents="3" format="ascii">
                       1.00000                       0.00000                      -0.00015
                       1.00000                       0.00000                      -0.00052
                       1.00000                       0.00000                      -0.00094
                       1.00000                       0.00000                      -0.00138
                       1.00000                       0.00000                      -0.00181
                       1.00000                       0.00000                      -0.00223
                       1.00000                       0.00000                      -0.00263
                       1.00000                       0.00000                      -0.00301
                       0.99999                       0.00000                      -0.00339
                       0.99999                       0.00000                      -0.00377
                       0.99999                       0.00000                      -0.00416
                       0.99999                       0.00000                      -0.00457
                       0.99999                       0.00000                      -0.00499
                       0.99999                       0.00000                      -0.00544
                       0.99998                       0.00000                      -0.00588
                       0.99998                       0.00000                      -0.00629
                       0.99998                       0.00000                      -0.00663
                       0.99998                       0.00000                      -0.00685
                       0.99998                       0.00000                      -0.00688
                       0.99998                       0.00000                      -0.00661
                       0.99998                       0.00000                      -0.00633
                       1.00000                      -0.00000                       0.00000
        </DataArray>
        <DataArray type="Float32" Name="OrientationY" NumberOfComponents="3" format="ascii">
                       0.00000                       1.00000                       0.00000
                       0.00000                       1.00000                       0.00000
                       0.00000                       1.00000                       0.00000
                       0.00000                       1.00000                       0.00001
                       0.00000                       1.00000                       0.00001
                       0.00000                       1.00000                       0.00001
                       0.00000                       1.00000                       0.00002
                       0.00000                       1.00000                       0.00002
                       0.00000                       1.00000                       0.00003
                       0.00000                       1.00000                       0.00003
                       0.00000                       1.00000                       0.00004
                       0.00000                       1.00000                       0.00005
                       0.00000                       1.00000                       0.00006
                       0.00000                       1.00000                       0.00007
                       0.00000                       1.00000                       0.00008
                       0.00000                       1.00000                       0.00009
                       0.00000                       1.00000                       0.00010
                       0.00000                       1.00000                       0.00011
                       0.00000                       1.00000                       0.00012
                       0.00000                       1.00000                       0.00013
                       0.00000                       1.00000                       0.00013
                      -0.00000                       1.00000                      -0.00000
        </DataArray>
        <DataArray type="Float32" Name="OrientationZ" NumberOfComponents="3" format="ascii">
                       0.00015                      -0.00000                       1.00000
                       0.00052                      -0.00000                       1.00000
                       0.00094                      -0.00000                       1.00000
                       0.00138                      -0.00001                       1.00000
                       0.00181                      -0.00001                       1.00000
                       0.00223                      -0.00001                       1.00000
                       0.00263                      -0.00002                       1.00000
                       0.00301                      -0.00002                       1.00000
                       0.00339                      -0.00003                       0.99999
                       0.00377                      -0.00003                       0.99999
                       0.00416                      -0.00004                       0.99999
                       0.00457                      -0.00005                       0.99999
                       0.00499                      -0.00006                       0.99999
                       0.00544                      -0.00007                       0.99999
                       0.00588                      -0.00008                       0.99998
                       0.00629                      -0.00009                       0.99998
                       0.00663                      -0.00010                       0.99998
                       0.00685                      -0.00011                       0.99998
                       0.00688                      -0.00012                       0.99998
                       0.00661                      -0.00013                       0.99998
                       0.00633                      -0.00013                       0.99998
                       0.00000                      -0.00000                       1.00000
        </DataArray>
      </PointData>
      <Lines>
        <DataArray type="Int32" Name="connectivity" format="ascii">
      0      1
      1      2
      2      3
      3      4
      4      5
      5      6
      6      7
      7      8
      8      9
      9     10
     10     11
     11     12
     12     13
     13     14
     14     15
     15     16
     16     17
     17     18
     18     19
     19     20
     21      0
        </DataArray>
        <DataArray type="Int32" Name="offsets" format="ascii">
      2
      4
      6
      8
     10
     12
     14
     16
     18
     20
     22
     24
     26
     28
     30
     32
     34
     36
     38
     40
     42
        </DataArray>
      </Lines>
    </Piece>
  </PolyData>
</VTKFile>
