<?xml version="1.0"?>
<VTKFile type="PolyData" version="0.1" byte_order="LittleEndian">
  <PolyData>
    <Piece NumberOfPoints="      8" NumberOfVerts="  0" NumberOfLines="      0"
           NumberOfStrips="  0" NumberOfPolys="      6">
      <Points>
        <DataArray type="Float32" NumberOfComponents="3" format="ascii">
                      -3.34848                       2.39261                      87.61005
                       3.65150                       2.39261                      87.59037
                       3.65150                      -2.40739                      87.58960
                      -3.34848                      -2.40739                      87.60928
                      -3.33498                      -2.40817                      92.40927
                       3.66499                      -2.40816                      92.38959
                       3.66499                       2.39184                      92.39036
                      -3.33498                       2.39184                      92.41004
        </DataArray>
      </Points>
      <Polys>
        <DataArray type="Int32" Name="connectivity" format="ascii">
      0      1      2      3
      4      5      6      7
      7      6      1      0
      6      5      2      1
      5      4      3      2
      4      7      0      3
        </DataArray>
        <DataArray type="Int32" Name="offsets" format="ascii">
      4
      8
     12
     16
     20
     24
        </DataArray>
      </Polys>
    </Piece>
  </PolyData>
</VTKFile>
