<?xml version="1.0"?>
<VTKFile type="PolyData" version="0.1" byte_order="LittleEndian">
  <PolyData>
    <Piece NumberOfPoints="     22" NumberOfVerts="  0" NumberOfLines="     21"
           NumberOfStrips="  0" NumberOfPolys="      0">
      <Points>
        <DataArray type="Float32" NumberOfComponents="3" format="ascii">
                       0.00007                      -0.00000                       2.19000
                       0.00071                      -0.00002                       6.57000
                       0.00212                      -0.00004                      10.95000
                       0.00437                      -0.00008                      15.33000
                       0.00747                      -0.00013                      19.71000
                       0.01138                      -0.00019                      24.09000
                       0.01609                      -0.00026                      28.46999
                       0.02155                      -0.00035                      32.84999
                       0.02775                      -0.00045                      37.22999
                       0.03469                      -0.00057                      41.60998
                       0.04237                      -0.00071                      45.98997
                       0.05083                      -0.00086                      50.36997
                       0.06010                      -0.00104                      54.74996
                       0.07022                      -0.00124                      59.12994
                       0.08121                      -0.00145                      63.50993
                       0.09302                      -0.00169                      67.88991
                       0.10559                      -0.00194                      72.26990
                       0.11872                      -0.00222                      76.64988
                       0.13210                      -0.00250                      81.02986
                       0.14526                      -0.00280                      85.40984
                       0.15156                      -0.00296                      87.59983
                       0.00000                       0.00000                       0.00000
        </DataArray>
      </Points>
      <PointData>
        <DataArray type="Float32" Name="TranslationalVelocity" NumberOfComponents="3" format="ascii">
                       0.00001                       0.00001                      -0.00000
                       0.00008                       0.00007                      -0.00000
                       0.00023                       0.00019                      -0.00000
                       0.00046                       0.00035                      -0.00000
                       0.00074                       0.00055                      -0.00000
                       0.00107                       0.00079                      -0.00000
                       0.00143                       0.00106                      -0.00000
                       0.00180                       0.00135                      -0.00000
                       0.00216                       0.00168                      -0.00000
                       0.00249                       0.00202                      -0.00000
                       0.00276                       0.00238                      -0.00000
                       0.00297                       0.00275                      -0.00000
                       0.00309                       0.00314                      -0.00000
                       0.00311                       0.00352                      -0.00000
                       0.00302                       0.00390                      -0.00000
                       0.00282                       0.00428                      -0.00000
                       0.00251                       0.00464                      -0.00000
                       0.00209                       0.00499                      -0.00000
                       0.00158                       0.00532                       0.00000
                       0.00098                       0.00564                       0.00000
                       0.00065                       0.00580                       0.00000
                       0.00000                      -0.00000                       0.00000
        </DataArray>
        <DataArray type="Float32" Name="RotationalVelocity" NumberOfComponents="3" format="ascii">
                      -0.00001                       0.00001                       0.00000
                      -0.00002                       0.00003                       0.00000
                      -0.00003                       0.00004                       0.00000
                      -0.00004                       0.00006                       0.00000
                      -0.00005                       0.00007                       0.00000
                      -0.00006                       0.00008                       0.00000
                      -0.00006                       0.00008                       0.00000
                      -0.00007                       0.00008                       0.00000
                      -0.00008                       0.00008                       0.00000
                      -0.00008                       0.00007                       0.00000
                      -0.00008                       0.00006                       0.00000
                      -0.00009                       0.00004                       0.00000
                      -0.00009                       0.00002                       0.00000
                      -0.00009                      -0.00001                       0.00000
                      -0.00009                      -0.00003                       0.00000
                      -0.00008                      -0.00006                       0.00000
                      -0.00008                      -0.00008                       0.00000
                      -0.00008                      -0.00011                       0.00000
                      -0.00007                      -0.00013                       0.00000
                      -0.00007                      -0.00014                       0.00000
                      -0.00007                      -0.00015                       0.00000
                       0.00000                      -0.00000                       0.00000
        </DataArray>
        <DataArray type="Float32" Name="TranslationalAcceleration" NumberOfComponents="3" format="ascii">
                      -0.00014                      -0.00003                       0.00000
                      -0.00128                      -0.00023                       0.00000
                      -0.00360                      -0.00058                       0.00000
                      -0.00703                      -0.00107                       0.00000
                      -0.01141                      -0.00165                       0.00001
                      -0.01651                      -0.00231                       0.00001
                      -0.02208                      -0.00300                       0.00002
                      -0.02779                      -0.00371                       0.00002
                      -0.03334                      -0.00440                       0.00003
                      -0.03841                      -0.00504                       0.00004
                      -0.04268                      -0.00560                       0.00005
                      -0.04588                      -0.00603                       0.00005
                      -0.04777                      -0.00629                       0.00006
                      -0.04813                      -0.00637                       0.00006
                      -0.04684                      -0.00621                       0.00005
                      -0.04381                      -0.00581                       0.00005
                      -0.03905                      -0.00514                       0.00003
                      -0.03262                      -0.00422                       0.00001
                      -0.02469                      -0.00306                      -0.00001
                      -0.01549                      -0.00172                      -0.00004
                      -0.01052                      -0.00101                      -0.00005
                       0.00000                      -0.00000                       0.00000
        </DataArray>
        <DataArray type="Float32" Name="RotationalAcceleration" NumberOfComponents="3" format="ascii">
                       0.00002                      -0.00013                       0.00000
                       0.00007                      -0.00040                       0.00000
                       0.00010                      -0.00066                       0.00000
                       0.00012                      -0.00090                       0.00000
                       0.00014                      -0.00109                       0.00000
                       0.00016                      -0.00123                       0.00000
                       0.00016                      -0.00130                       0.00000
                       0.00016                      -0.00130                       0.00000
                       0.00015                      -0.00122                       0.00000
                       0.00014                      -0.00108                       0.00000
                       0.00011                      -0.00086                       0.00000
                       0.00008                      -0.00059                       0.00000
                       0.00004                      -0.00026                       0.00000
                      -0.00001                       0.00010                       0.00000
                      -0.00006                       0.00049                       0.00000
                      -0.00012                       0.00089                       0.00000
                      -0.00018                       0.00128                       0.00000
                      -0.00024                       0.00165                       0.00000
                      -0.00029                       0.00197                       0.00000
                      -0.00032                       0.00222                       0.00000
                      -0.00033                       0.00232                       0.00000
                       0.00000                      -0.00000                       0.00000
        </DataArray>
        <DataArray type="Float32" Name="OrientationX" NumberOfComponents="3" format="ascii">
                       1.00000                       0.00000                      -0.00007
                       1.00000                       0.00000                      -0.00023
                       1.00000                       0.00000                      -0.00042
                       1.00000                       0.00000                      -0.00061
                       1.00000                       0.00000                      -0.00080
                       1.00000                       0.00000                      -0.00099
                       1.00000                       0.00000                      -0.00116
                       1.00000                       0.00000                      -0.00133
                       1.00000                       0.00000                      -0.00150
                       1.00000                       0.00000                      -0.00167
                       1.00000                       0.00000                      -0.00184
                       1.00000                       0.00000                      -0.00202
                       1.00000                       0.00000                      -0.00221
                       1.00000                       0.00000                      -0.00241
                       1.00000                       0.00000                      -0.00261
                       1.00000                       0.00000                      -0.00279
                       1.00000                       0.00000                      -0.00294
                       1.00000                       0.00000                      -0.00304
                       1.00000                       0.00000                      -0.00305
                       1.00000                       0.00000                      -0.00293
                       1.00000                       0.00000                      -0.00281
                       1.00000                      -0.00000                       0.00000
        </DataArray>
        <DataArray type="Float32" Name="OrientationY" NumberOfComponents="3" format="ascii">
                       0.00000                       1.00000                       0.00000
                       0.00000                       1.00000                       0.00000
                       0.00000                       1.00000                       0.00001
                       0.00000                       1.00000                       0.00001
                       0.00000                       1.00000                       0.00001
                       0.00000                       1.00000                       0.00002
                       0.00000                       1.00000                       0.00002
                       0.00000                       1.00000                       0.00002
                       0.00000                       1.00000                       0.00003
                       0.00000                       1.00000                       0.00003
                       0.00000                       1.00000                       0.00003
                       0.00000                       1.00000                       0.00004
                       0.00000                       1.00000                       0.00004
                       0.00000                       1.00000                       0.00005
                       0.00000                       1.00000                       0.00005
                       0.00000                       1.00000                       0.00006
                       0.00000                       1.00000                       0.00006
                       0.00000                       1.00000                       0.00006
                       0.00000                       1.00000                       0.00007
                       0.00000                       1.00000                       0.00007
                       0.00000                       1.00000                       0.00007
                      -0.00000                       1.00000                      -0.00000
        </DataArray>
        <DataArray type="Float32" Name="OrientationZ" NumberOfComponents="3" format="ascii">
                       0.00007                      -0.00000                       1.00000
                       0.00023                      -0.00000                       1.00000
                       0.00042                      -0.00001                       1.00000
                       0.00061                      -0.00001                       1.00000
                       0.00080                      -0.00001                       1.00000
                       0.00099                      -0.00002                       1.00000
                       0.00116                      -0.00002                       1.00000
                       0.00133                      -0.00002                       1.00000
                       0.00150                      -0.00003                       1.00000
                       0.00167                      -0.00003                       1.00000
                       0.00184                      -0.00003                       1.00000
                       0.00202                      -0.00004                       1.00000
                       0.00221                      -0.00004                       1.00000
                       0.00241                      -0.00005                       1.00000
                       0.00261                      -0.00005                       1.00000
                       0.00279                      -0.00006                       1.00000
                       0.00294                      -0.00006                       1.00000
                       0.00304                      -0.00006                       1.00000
                       0.00305                      -0.00007                       1.00000
                       0.00293                      -0.00007                       1.00000
                       0.00281                      -0.00007                       1.00000
                       0.00000                      -0.00000                       1.00000
        </DataArray>
      </PointData>
      <Lines>
        <DataArray type="Int32" Name="connectivity" format="ascii">
      0      1
      1      2
      2      3
      3      4
      4      5
      5      6
      6      7
      7      8
      8      9
      9     10
     10     11
     11     12
     12     13
     13     14
     14     15
     15     16
     16     17
     17     18
     18     19
     19     20
     21      0
        </DataArray>
        <DataArray type="Int32" Name="offsets" format="ascii">
      2
      4
      6
      8
     10
     12
     14
     16
     18
     20
     22
     24
     26
     28
     30
     32
     34
     36
     38
     40
     42
        </DataArray>
      </Lines>
    </Piece>
  </PolyData>
</VTKFile>
