<?xml version="1.0"?>
<VTKFile type="PolyData" version="0.1" byte_order="LittleEndian">
  <PolyData>
    <Piece NumberOfPoints="     19" NumberOfVerts="  0" NumberOfLines="     18"
           NumberOfStrips="  0" NumberOfPolys="      0">
      <Points>
        <DataArray type="Float32" NumberOfComponents="3" format="ascii">
                      -4.64423                      -1.26714                      89.23225
                      -4.77619                      -2.40771                      88.49070
                      -5.06542                      -4.63561                      86.93010
                      -5.36188                      -6.83797                      85.33130
                      -5.72843                      -9.57529                      83.30750
                      -6.08124                     -12.93894                      80.98579
                      -6.36700                     -16.37312                      78.76203
                      -6.61266                     -19.80685                      76.53249
                      -6.80632                     -23.24077                      74.29805
                      -6.93940                     -26.67325                      72.05708
                      -7.00437                     -30.10150                      69.80685
                      -6.99214                     -33.52535                      67.54896
                      -6.89644                     -36.94357                      65.28419
                      -6.71293                     -40.35468                      63.01357
                      -6.43708                     -43.75663                      60.73823
                      -6.13485                     -46.58282                      58.83965
                      -5.84881                     -48.84160                      57.32665
                      -5.52129                     -51.12432                      55.85921
                      -5.34802                     -52.23972                      55.09128
        </DataArray>
      </Points>
      <PointData>
        <DataArray type="Float32" Name="TranslationalVelocity" NumberOfComponents="3" format="ascii">
                      -0.17631                       0.93943                      -1.45381
                      -0.30315                       1.81201                      -2.77339
                      -0.55089                       3.64911                      -5.35026
                      -0.79587                       5.53035                      -7.89655
                      -1.10063                       7.90928                     -11.05959
                      -1.47586                      10.62869                     -14.94351
                      -1.86011                      13.22531                     -18.90543
                      -2.24582                      15.82197                     -22.86331
                      -2.63348                      18.41638                     -26.81803
                      -3.02328                      21.00954                     -30.76797
                      -3.41523                      23.60389                     -34.71027
                      -3.80955                      26.19670                     -38.64515
                      -4.20624                      28.78651                     -42.57163
                      -4.60510                      31.37178                     -46.48843
                      -5.00574                      33.95075                     -50.39356
                      -5.34054                      36.09359                     -53.63708
                      -5.60911                      37.79554                     -56.22907
                      -5.88101                      39.43993                     -58.84824
                      -6.01420                      40.30009                     -60.12791
        </DataArray>
        <DataArray type="Float32" Name="RotationalVelocity" NumberOfComponents="3" format="ascii">
                       1.15701                      -0.00060                      -0.11160
                       1.15686                      -0.00059                      -0.11160
                       1.15646                      -0.00057                      -0.11162
                       1.15594                      -0.00054                      -0.11167
                       1.15519                      -0.00051                      -0.11180
                       1.15421                      -0.00051                      -0.11207
                       1.15321                      -0.00053                      -0.11247
                       1.15224                      -0.00057                      -0.11298
                       1.15135                      -0.00059                      -0.11360
                       1.15055                      -0.00055                      -0.11428
                       1.14984                      -0.00043                      -0.11499
                       1.14923                      -0.00019                      -0.11568
                       1.14870                       0.00019                      -0.11631
                       1.14825                       0.00071                      -0.11682
                       1.14786                       0.00138                      -0.11715
                       1.14758                       0.00202                      -0.11727
                       1.14738                       0.00257                      -0.11722
                       1.14721                       0.00312                      -0.11705
                       1.14714                       0.00338                      -0.11691
        </DataArray>
        <DataArray type="Float32" Name="TranslationalAcceleration" NumberOfComponents="3" format="ascii">
                      -0.27066                       1.77562                       0.92212
                       0.01143                       2.15492                       1.15428
                       0.08987                       6.10312                       3.41535
                       0.22283                       9.69649                       5.57121
                       0.43790                      13.85977                       8.14725
                       0.71825                      18.65442                      10.94015
                       0.99852                      23.38253                      13.52570
                       1.27538                      28.07803                      16.11640
                       1.53754                      32.80404                      18.74038
                       1.77987                      37.57940                      21.40727
                       2.00171                      42.39173                      24.11229
                       2.20440                      47.21388                      26.83506
                       2.39049                      52.01140                      29.55398
                       2.56196                      56.75522                      32.25105
                       2.71851                      61.43278                      34.91818
                       2.83436                      65.28959                      37.12331
                       2.91344                      68.37344                      38.87634
                       2.96861                      71.51643                      40.58007
                       2.99460                      73.07944                      41.49073
        </DataArray>
        <DataArray type="Float32" Name="OrientationX" NumberOfComponents="3" format="ascii">
                       0.94699                       0.09055                      -0.30822
                       0.94705                       0.09107                      -0.30790
                       0.94723                       0.09272                      -0.30686
                       0.94748                       0.09515                      -0.30534
                       0.94786                       0.09919                      -0.30286
                       0.95770                       0.08819                      -0.27393
                       0.96440                       0.08360                      -0.25090
                       0.96993                       0.08229                      -0.22906
                       0.97529                       0.08219                      -0.20507
                       0.98025                       0.08366                      -0.17921
                       0.98434                       0.08768                      -0.15291
                       0.98769                       0.09351                      -0.12538
                       0.98995                       0.10175                      -0.09826
                       0.99081                       0.11317                      -0.07406
                       0.99096                       0.12450                      -0.04988
                       0.99067                       0.13293                      -0.03015
                       0.99021                       0.13867                      -0.01569
                       0.98944                       0.14482                      -0.00568
                       0.98894                       0.14830                      -0.00315
        </DataArray>
        <DataArray type="Float32" Name="OrientationY" NumberOfComponents="3" format="ascii">
                       0.30659                      -0.54127                       0.78296
                       0.30660                      -0.54130                       0.78294
                       0.30662                      -0.54131                       0.78292
                       0.30668                      -0.54124                       0.78295
                       0.30682                      -0.54100                       0.78306
                       0.27672                      -0.54352                       0.79247
                       0.25504                      -0.54490                       0.79877
                       0.23617                      -0.54579                       0.80395
                       0.21617                      -0.54660                       0.80901
                       0.19549                      -0.54739                       0.81372
                       0.17584                      -0.54812                       0.81771
                       0.15621                      -0.54901                       0.82109
                       0.13829                      -0.55002                       0.82362
                       0.12461                      -0.55093                       0.82520
                       0.11097                      -0.55219                       0.82630
                       0.09944                      -0.55356                       0.82685
                       0.09079                      -0.55474                       0.82706
                       0.08604                      -0.55545                       0.82708
                       0.08593                      -0.55549                       0.82707
        </DataArray>
        <DataArray type="Float32" Name="OrientationZ" NumberOfComponents="3" format="ascii">
                      -0.09593                      -0.83596                      -0.54034
                      -0.09536                      -0.83588                      -0.54056
                      -0.09352                      -0.83569                      -0.54117
                      -0.09076                      -0.83547                      -0.54199
                      -0.08618                      -0.83515                      -0.54323
                      -0.07900                      -0.83475                      -0.54494
                      -0.06994                      -0.83433                      -0.54682
                      -0.05886                      -0.83387                      -0.54881
                      -0.04560                      -0.83335                      -0.55086
                      -0.03002                      -0.83268                      -0.55293
                      -0.01211                      -0.83179                      -0.55496
                       0.00795                      -0.83057                      -0.55686
                       0.02975                      -0.82893                      -0.55856
                       0.05258                      -0.82684                      -0.55997
                       0.07533                      -0.82437                      -0.56102
                       0.09322                      -0.82213                      -0.56161
                       0.10599                      -0.82039                      -0.56190
                       0.11663                      -0.81884                      -0.56205
                       0.12091                      -0.81819                      -0.56209
        </DataArray>
        <DataArray type="Float32" Name="Force" NumberOfComponents="3" format="ascii">
                       0.64746                      -4.41116                       6.70947
                     155.64054                     -38.88141                      32.68515
                     205.28590                     -79.09365                      86.82114
                     183.93440                     -92.03205                     111.42109
                    1445.55056                     243.97410                    -606.37794
                    1864.40456                     365.58553                    -834.57142
                    2473.74794                     457.22825                   -1020.94089
                    2969.19958                     478.76972                   -1054.48076
                    3332.66493                     497.70425                   -1038.49095
                    3758.56253                     538.05129                   -1025.01026
                    4456.26626                     631.86896                   -1056.41530
                    4999.95488                     729.97290                   -1030.26536
                    5552.37977                     863.27912                    -999.11116
                    5986.62785                     995.80430                    -922.26907
                    6343.55845                    1127.84734                    -819.33412
                    6527.84786                    1214.43634                    -707.43060
                    6339.96345                    1207.98468                    -579.47370
                    4568.64424                     888.44392                    -354.05118
                    1855.65029                     260.02281                      21.08605
        </DataArray>
        <DataArray type="Float32" Name="Moment" NumberOfComponents="3" format="ascii">
                       0.00000                       0.00000                       0.00000
                       0.00000                       0.00000                       0.00000
                       0.00000                       0.00000                       0.00000
                       0.00000                       0.00000                       0.00000
                      46.16760                     448.89035                     290.66891
                      41.86917                     444.73294                     288.35041
                      56.72064                     681.80492                     442.78081
                      70.23845                    1005.58490                     654.34630
                      72.62308                    1347.20667                     878.71627
                      54.33467                    1542.90407                    1009.14284
                      22.44596                    1632.47197                    1071.10674
                     -17.82341                    1727.17896                    1137.25808
                     -58.56002                    1602.59617                    1059.28190
                    -102.55845                    1599.94078                    1061.78195
                    -141.95999                    1547.51496                    1031.11672
                    -166.98600                    1469.91642                     982.51437
                    -169.17775                    1308.38001                     876.52336
                     -94.31791                     662.11059                     444.40794
                     -80.93900                     547.78212                     367.95133
        </DataArray>
      </PointData>
      <Lines>
        <DataArray type="Int32" Name="connectivity" format="ascii">
      0      1
      1      2
      2      3
      3      4
      4      5
      5      6
      6      7
      7      8
      8      9
      9     10
     10     11
     11     12
     12     13
     13     14
     14     15
     15     16
     16     17
     17     18
        </DataArray>
        <DataArray type="Int32" Name="offsets" format="ascii">
      2
      4
      6
      8
     10
     12
     14
     16
     18
     20
     22
     24
     26
     28
     30
     32
     34
     36
        </DataArray>
      </Lines>
    </Piece>
  </PolyData>
</VTKFile>
