<?xml version="1.0"?>
<VTKFile type="PolyData" version="0.1" byte_order="LittleEndian">
  <PolyData>
    <Piece NumberOfPoints="     19" NumberOfVerts="  0" NumberOfLines="     18"
           NumberOfStrips="  0" NumberOfPolys="      0">
      <Points>
        <DataArray type="Float32" NumberOfComponents="3" format="ascii">
                      -5.03086                       0.58327                      88.64820
                      -5.20346                       1.12442                      87.40476
                      -5.56638                       2.29304                      84.95733
                      -5.93592                       3.50217                      82.52775
                      -6.39855                       5.03716                      79.50021
                      -6.89788                       6.74684                      75.80184
                      -7.36747                       8.33548                      72.04696
                      -7.82936                       9.91984                      68.28888
                      -8.28300                      11.49849                      64.52687
                      -8.73224                      13.07335                      60.76220
                      -9.18291                      14.64777                      56.99703
                      -9.64029                      16.22023                      53.23146
                     -10.11251                      17.79024                      49.46653
                     -10.60930                      19.35683                      45.70352
                     -11.13961                      20.91891                      41.94378
                     -11.61693                      22.21573                      38.81441
                     -12.02581                      23.24191                      36.31104
                     -12.45784                      24.21360                      33.78907
                     -12.69246                      24.73504                      32.54658
        </DataArray>
      </Points>
      <PointData>
        <DataArray type="Float32" Name="TranslationalVelocity" NumberOfComponents="3" format="ascii">
                       0.14819                       3.83826                       1.64412
                       0.28312                       7.33757                       3.14832
                       0.57337                      14.22786                       6.39533
                       0.87121                      21.06564                       9.75285
                       1.24429                      29.57949                      14.01176
                       1.64974                      39.95187                      18.75047
                       2.01346                      50.46008                      23.14912
                       2.36378                      60.96181                      27.53190
                       2.70030                      71.45977                      31.89527
                       3.02410                      81.95266                      36.24500
                       3.33734                      92.43752                      40.59098
                       3.64156                     102.91706                      44.92956
                       3.93916                     113.39216                      49.25989
                       4.23296                     123.86330                      53.57988
                       4.52622                     134.33034                      57.88682
                       4.77282                     143.04936                      61.46206
                       4.97116                     150.02993                      64.29106
                       5.16035                     157.06638                      66.96993
                       5.26657                     160.53803                      68.40720
        </DataArray>
        <DataArray type="Float32" Name="RotationalVelocity" NumberOfComponents="3" format="ascii">
                       2.77994                       0.00055                      -0.25119
                       2.77938                       0.00073                      -0.25105
                       2.77788                       0.00135                      -0.25064
                       2.77600                       0.00230                      -0.25009
                       2.77332                       0.00390                      -0.24932
                       2.76987                       0.00632                      -0.24843
                       2.76642                       0.00916                      -0.24768
                       2.76315                       0.01224                      -0.24715
                       2.76015                       0.01536                      -0.24688
                       2.75749                       0.01835                      -0.24688
                       2.75518                       0.02101                      -0.24711
                       2.75321                       0.02317                      -0.24753
                       2.75156                       0.02467                      -0.24809
                       2.75023                       0.02537                      -0.24872
                       2.74921                       0.02517                      -0.24938
                       2.74862                       0.02427                      -0.24993
                       2.74836                       0.02305                      -0.25034
                       2.74833                       0.02137                      -0.25075
                       2.74842                       0.02038                      -0.25094
        </DataArray>
        <DataArray type="Float32" Name="TranslationalAcceleration" NumberOfComponents="3" format="ascii">
                       0.95552                      -4.57824                      10.68429
                       1.16857                      -5.57595                      12.91178
                       3.32696                     -16.62025                      36.63777
                       5.31451                     -27.12952                      58.26617
                       7.65916                     -39.63425                      83.35735
                      10.42355                     -52.86406                     112.21816
                      13.23042                     -64.78130                     140.64092
                      16.11737                     -76.58523                     168.91335
                      19.12125                     -88.42023                     197.40308
                      22.24907                    -100.35260                     226.22452
                      25.48307                    -112.38522                     255.31323
                      28.78730                    -124.43895                     284.51670
                      32.11080                    -136.42823                     313.64337
                      35.39294                    -148.28021                     342.53718
                      38.56841                    -159.96703                     371.14738
                      41.08218                    -169.60631                     394.85428
                      42.98440                    -177.24734                     413.88015
                      44.77582                    -184.56702                     433.28308
                      45.61984                    -188.56391                     443.01234
        </DataArray>
        <DataArray type="Float32" Name="OrientationX" NumberOfComponents="3" format="ascii">
                       0.97292                       0.22830                      -0.03602
                       0.97295                       0.22824                      -0.03581
                       0.97299                       0.22818                      -0.03511
                       0.97302                       0.22821                      -0.03403
                       0.97303                       0.22842                      -0.03219
                       0.97875                       0.20066                      -0.04234
                       0.98216                       0.18176                      -0.04813
                       0.98457                       0.16702                      -0.05212
                       0.98656                       0.15345                      -0.05612
                       0.98802                       0.14212                      -0.06009
                       0.98878                       0.13517                      -0.06358
                       0.98897                       0.13196                      -0.06729
                       0.98842                       0.13412                      -0.07092
                       0.98687                       0.14365                      -0.07390
                       0.98465                       0.15592                      -0.07850
                       0.98234                       0.16715                      -0.08408
                       0.98015                       0.17675                      -0.08979
                       0.97727                       0.18924                      -0.09550
                       0.97547                       0.19706                      -0.09812
        </DataArray>
        <DataArray type="Float32" Name="OrientationY" NumberOfComponents="3" format="ascii">
                       0.19371                      -0.89046                      -0.41177
                       0.19375                      -0.89051                      -0.41164
                       0.19402                      -0.89062                      -0.41128
                       0.19454                      -0.89073                      -0.41080
                       0.19556                      -0.89084                      -0.41007
                       0.16640                      -0.89771                      -0.40796
                       0.14701                      -0.90193                      -0.40608
                       0.13211                      -0.90497                      -0.40444
                       0.11824                      -0.90755                      -0.40296
                       0.10640                      -0.90956                      -0.40172
                       0.09873                      -0.91079                      -0.40090
                       0.09437                      -0.91145                      -0.40044
                       0.09494                      -0.91139                      -0.40044
                       0.10248                      -0.91031                      -0.40105
                       0.11187                      -0.90882                      -0.40191
                       0.11994                      -0.90743                      -0.40272
                       0.12646                      -0.90623                      -0.40344
                       0.13561                      -0.90443                      -0.40450
                       0.14169                      -0.90316                      -0.40524
        </DataArray>
        <DataArray type="Float32" Name="OrientationZ" NumberOfComponents="3" format="ascii">
                      -0.12608                       0.39364                      -0.91058
                      -0.12584                       0.39357                      -0.91064
                      -0.12511                       0.39336                      -0.91083
                      -0.12405                       0.39309                      -0.91109
                      -0.12234                       0.39272                      -0.91149
                      -0.11987                       0.39224                      -0.91202
                      -0.11722                       0.39177                      -0.91257
                      -0.11472                       0.39132                      -0.91308
                      -0.11276                       0.39091                      -0.91350
                      -0.11175                       0.39052                      -0.91379
                      -0.11209                       0.39012                      -0.91391
                      -0.11417                       0.38967                      -0.91385
                      -0.11834                       0.38907                      -0.91358
                      -0.12488                       0.38821                      -0.91307
                      -0.13401                       0.38696                      -0.91231
                      -0.14361                       0.38552                      -0.91146
                      -0.15267                       0.38407                      -0.91059
                      -0.16292                       0.38235                      -0.90954
                      -0.16847                       0.38139                      -0.90893
        </DataArray>
        <DataArray type="Float32" Name="Force" NumberOfComponents="3" format="ascii">
                      -0.50588                     -13.11693                      -5.60042
                     139.11032                     -86.51180                     -56.62225
                     221.44379                    -280.77045                    -151.78478
                     230.46316                    -445.32261                    -223.85689
                    1255.92174                     274.89356                     -49.80665
                    1121.75414                     178.15078                     -70.49931
                     999.93198                      88.33643                     -90.31411
                    1599.98645                     159.49757                    -132.20594
                    2079.13856                     178.78703                    -179.54359
                    2295.85010                     155.07940                    -213.92198
                    3817.73920                     243.44984                    -363.32950
                    3981.64047                     215.83748                    -404.47262
                    2799.58865                      87.76316                    -324.93826
                    1256.28451                     -77.26746                    -205.35645
                     620.85303                    -108.78384                    -138.36119
                    -644.38628                    -266.51122                     -13.73228
                   -2323.31052                    -432.17514                     202.94167
                   -3409.61136                    -501.15204                     394.75112
                  -18816.98367                    -875.14022                    3117.01787
        </DataArray>
        <DataArray type="Float32" Name="Moment" NumberOfComponents="3" format="ascii">
                       0.00000                       0.00000                       0.00000
                       0.00000                       0.00000                       0.00000
                       0.00000                       0.00000                       0.00000
                       0.00000                       0.00000                       0.00000
                     146.26919                    -470.85170                    1089.58477
                     268.30991                    -881.77475                    2040.99723
                     361.31628                   -1214.68146                    2812.30772
                     593.19016                   -2038.14902                    4720.03302
                     855.48283                   -2991.04918                    6928.15893
                     964.90375                   -3404.77848                    7887.28392
                    1089.69446                   -3833.94728                    8881.18196
                    1179.43987                   -4074.39443                    9436.23444
                     922.04874                   -3073.02633                    7114.14744
                     950.43767                   -3001.32939                    6943.65934
                     988.37462                   -2907.83428                    6721.25458
                     995.24898                   -2731.36188                    6307.31185
                     931.90154                   -2404.62854                    5547.78113
                     497.37670                   -1201.92371                    2770.13714
                     461.44668                   -1077.95735                    2483.03702
        </DataArray>
      </PointData>
      <Lines>
        <DataArray type="Int32" Name="connectivity" format="ascii">
      0      1
      1      2
      2      3
      3      4
      4      5
      5      6
      6      7
      7      8
      8      9
      9     10
     10     11
     11     12
     12     13
     13     14
     14     15
     15     16
     16     17
     17     18
        </DataArray>
        <DataArray type="Int32" Name="offsets" format="ascii">
      2
      4
      6
      8
     10
     12
     14
     16
     18
     20
     22
     24
     26
     28
     30
     32
     34
     36
        </DataArray>
      </Lines>
    </Piece>
  </PolyData>
</VTKFile>
