<?xml version="1.0"?>
<VTKFile type="PolyData" version="0.1" byte_order="LittleEndian">
  <PolyData>
    <Piece NumberOfPoints="    625" NumberOfVerts="  0" NumberOfLines="      0"
           NumberOfStrips="  0" NumberOfPolys="    600">
      <Points>
        <DataArray type="Float32" NumberOfComponents="3" format="ascii">
                      -4.78617                       1.36373                      90.63139
                      -4.78617                       1.36373                      90.63139
                      -4.78617                       1.36373                      90.63139
                      -4.78617                       1.36373                      90.63139
                      -4.78617                       1.36373                      90.63139
                      -4.78617                       1.36373                      90.63139
                      -4.78617                       1.36373                      90.63139
                      -4.78617                       1.36373                      90.63139
                      -4.78617                       1.36373                      90.63139
                      -4.78617                       1.36373                      90.63139
                      -4.78617                       1.36373                      90.63139
                      -4.78617                       1.36373                      90.63139
                      -4.78617                       1.36373                      90.63139
                      -4.78617                       1.36373                      90.63139
                      -4.78617                       1.36373                      90.63139
                      -4.78617                       1.36373                      90.63139
                      -4.78617                       1.36373                      90.63139
                      -4.78617                       1.36373                      90.63139
                      -4.78617                       1.36373                      90.63139
                      -4.78617                       1.36373                      90.63139
                      -4.78617                       1.36373                      90.63139
                      -4.78617                       1.36373                      90.63139
                      -4.78617                       1.36373                      90.63139
                      -4.78617                       1.36373                      90.63139
                      -4.78617                       1.36373                      90.63139
                      -4.19378                       1.24991                      90.52600
                      -4.20032                       1.18830                      90.66290
                      -4.24396                       1.13057                      90.79459
                      -4.32196                       1.08033                      90.91280
                      -4.42943                       1.04075                      91.01009
                      -4.55960                       1.01431                      91.08035
                      -4.70430                       1.00267                      91.11917
                      -4.85444                       1.00657                      91.12411
                      -5.00058                       1.02576                      91.09486
                      -5.13354                       1.05903                      91.03325
                      -5.24497                       1.10430                      90.94316
                      -5.32786                       1.15871                      90.83025
                      -5.37700                       1.21886                      90.70161
                      -5.38932                       1.28095                      90.56533
                      -5.36403                       1.34110                      90.42996
                      -5.30272                       1.39551                      90.30402
                      -5.20925                       1.44078                      90.19542
                      -5.08949                       1.47405                      90.11097
                      -4.95096                       1.49324                      90.05600
                      -4.80237                       1.49714                      90.03394
                      -4.65305                       1.48550                      90.04620
                      -4.51239                       1.45907                      90.09199
                      -4.38923                       1.41949                      90.16844
                      -4.29129                       1.36925                      90.27075
                      -4.22475                       1.31151                      90.39248
                      -3.96968                       1.13608                      90.45388
                      -3.97872                       1.05087                      90.64324
                      -4.03909                       0.97102                      90.82539
                      -4.14698                       0.90153                      90.98888
                      -4.29562                       0.84679                      91.12344
                      -4.47566                       0.81022                      91.22063
                      -4.67580                       0.79412                      91.27432
                      -4.88346                       0.79952                      91.28115
                      -5.08559                       0.82605                      91.24069
                      -5.26949                       0.87207                      91.15548
                      -5.42361                       0.93468                      91.03088
                      -5.53826                       1.00994                      90.87471
                      -5.60623                       1.09313                      90.69678
                      -5.62327                       1.17902                      90.50828
                      -5.58829                       1.26220                      90.32105
                      -5.50349                       1.33747                      90.14686
                      -5.37421                       1.40008                      89.99665
                      -5.20856                       1.44610                      89.87985
                      -5.01696                       1.47264                      89.80382
                      -4.81144                       1.47803                      89.77331
                      -4.60491                       1.46194                      89.79026
                      -4.41036                       1.42537                      89.85359
                      -4.24001                       1.37063                      89.95934
                      -4.10456                       1.30114                      90.10084
                      -4.01252                       1.22129                      90.26922
                      -3.81199                       1.02225                      90.38777
                      -3.82281                       0.92029                      90.61435
                      -3.89504                       0.82474                      90.83231
                      -4.02414                       0.74160                      91.02794
                      -4.20200                       0.67609                      91.18896
                      -4.41744                       0.63233                      91.30525
                      -4.65692                       0.61307                      91.36950
                      -4.90541                       0.61952                      91.37767
                      -5.14727                       0.65128                      91.32926
                      -5.36733                       0.70635                      91.22729
                      -5.55174                       0.78126                      91.07819
                      -5.68893                       0.87132                      90.89132
                      -5.77027                       0.97086                      90.67842
                      -5.79065                       1.07363                      90.45286
                      -5.74879                       1.17317                      90.22883
                      -5.64733                       1.26323                      90.02039
                      -5.49263                       1.33815                      89.84065
                      -5.29442                       1.39321                      89.70089
                      -5.06514                       1.42497                      89.60991
                      -4.81922                       1.43143                      89.57341
                      -4.57210                       1.41217                      89.59369
                      -4.33930                       1.36842                      89.66947
                      -4.13546                       1.30291                      89.79600
                      -3.97338                       1.21977                      89.96532
                      -3.86325                       1.12421                      90.16680
                      -3.69127                       0.90843                      90.32500
                      -3.70347                       0.79353                      90.58033
                      -3.78486                       0.68585                      90.82593
                      -3.93034                       0.59216                      91.04639
                      -4.13076                       0.51834                      91.22783
                      -4.37354                       0.46903                      91.35888
                      -4.64340                       0.44733                      91.43128
                      -4.92341                       0.45460                      91.44049
                      -5.19597                       0.49039                      91.38593
                      -5.44394                       0.55244                      91.27103
                      -5.65175                       0.63686                      91.10302
                      -5.80634                       0.73834                      90.89243
                      -5.89800                       0.85051                      90.65252
                      -5.92097                       0.96632                      90.39835
                      -5.87380                       1.07849                      90.14589
                      -5.75946                       1.17998                      89.91101
                      -5.58513                       1.26440                      89.70846
                      -5.36178                       1.32645                      89.55098
                      -5.10342                       1.36224                      89.44845
                      -4.82629                       1.36951                      89.40732
                      -4.54782                       1.34781                      89.43017
                      -4.28549                       1.29851                      89.51557
                      -4.05578                       1.22469                      89.65815
                      -3.87314                       1.13100                      89.84895
                      -3.74904                       1.02332                      90.07599
                      -3.59601                       0.79460                      90.26453
                      -3.60930                       0.66939                      90.54276
                      -3.69800                       0.55206                      90.81041
                      -3.85653                       0.44996                      91.05064
                      -4.07494                       0.36951                      91.24837
                      -4.33949                       0.31578                      91.39117
                      -4.63357                       0.29213                      91.47007
                      -4.93871                       0.30005                      91.48010
                      -5.23571                       0.33905                      91.42065
                      -5.50594                       0.40667                      91.29545
                      -5.73239                       0.49866                      91.11235
                      -5.90085                       0.60925                      90.88288
                      -6.00074                       0.73149                      90.62144
                      -6.02577                       0.85769                      90.34446
                      -5.97437                       0.97992                      90.06935
                      -5.84977                       1.09051                      89.81339
                      -5.65980                       1.18251                      89.59267
                      -5.41640                       1.25013                      89.42106
                      -5.13486                       1.28913                      89.30933
                      -4.83287                       1.29706                      89.26451
                      -4.52941                       1.27341                      89.28941
                      -4.24354                       1.21968                      89.38247
                      -3.99323                       1.13924                      89.53785
                      -3.79420                       1.03714                      89.74577
                      -3.65896                       0.91980                      89.99318
                      -3.52030                       0.68077                      90.20582
                      -3.53447                       0.54727                      90.50249
                      -3.62904                       0.42216                      90.78786
                      -3.79807                       0.31330                      91.04400
                      -4.03094                       0.22753                      91.25482
                      -4.31302                       0.17024                      91.40708
                      -4.62658                       0.14502                      91.49120
                      -4.95192                       0.15347                      91.50190
                      -5.26859                       0.19505                      91.43851
                      -5.55671                       0.26715                      91.30502
                      -5.79817                       0.36524                      91.10980
                      -5.97779                       0.48315                      90.86512
                      -6.08428                       0.61348                      90.58637
                      -6.11097                       0.74804                      90.29105
                      -6.05617                       0.87837                      89.99772
                      -5.92332                       0.99628                      89.72481
                      -5.72077                       1.09437                      89.48947
                      -5.46125                       1.16647                      89.30649
                      -5.16106                       1.20805                      89.18736
                      -4.83907                       1.21650                      89.13957
                      -4.51551                       1.19129                      89.16612
                      -4.21071                       1.13400                      89.26535
                      -3.94382                       1.04823                      89.43101
                      -3.73161                       0.93937                      89.65271
                      -3.58742                       0.81427                      89.91650
                      -3.46065                       0.56694                      90.14857
                      -3.47553                       0.42681                      90.45997
                      -3.57480                       0.29549                      90.75952
                      -3.75223                       0.18122                      91.02840
                      -3.99667                       0.09118                      91.24969
                      -4.29277                       0.03104                      91.40952
                      -4.62191                       0.00457                      91.49782
                      -4.96341                       0.01344                      91.50905
                      -5.29583                       0.05709                      91.44252
                      -5.59826                       0.13277                      91.30238
                      -5.85172                       0.23573                      91.09746
                      -6.04026                       0.35950                      90.84063
                      -6.15205                       0.49631                      90.54803
                      -6.18006                       0.63755                      90.23803
                      -6.12254                       0.77436                      89.93012
                      -5.98308                       0.89813                      89.64365
                      -5.77047                       1.00110                      89.39662
                      -5.49806                       1.07678                      89.20455
                      -5.18295                       1.12043                      89.07950
                      -4.84497                       1.12930                      89.02933
                      -4.50533                       1.10283                      89.05721
                      -4.18538                       1.04270                      89.16136
                      -3.90523                       0.95266                      89.33526
                      -3.68247                       0.83840                      89.56797
                      -3.53111                       0.70707                      89.84487
                      -3.41488                       0.45311                      90.09257
                      -3.43031                       0.30778                      90.41554
                      -3.53327                       0.17158                      90.72621
                      -3.71729                       0.05307                      91.00506
                      -3.97080                      -0.04031                      91.23458
                      -4.27789                      -0.10268                      91.40033
                      -4.61925                      -0.13013                      91.49191
                      -4.97344                      -0.12094                      91.50356
                      -5.31819                      -0.07567                      91.43455
                      -5.63185                       0.00282                      91.28922
                      -5.89472                       0.10960                      91.07669
                      -6.09026                       0.23797                      90.81033
                      -6.20620                       0.37986                      90.50686
                      -6.23525                       0.52634                      90.18535
                      -6.17559                       0.66823                      89.86601
                      -6.03096                       0.79660                      89.56891
                      -5.81045                       0.90339                      89.31271
                      -5.52793                       0.98188                      89.11350
                      -5.20112                       1.02715                      88.98381
                      -4.85059                       1.03635                      88.93178
                      -4.49834                       1.00890                      88.96069
                      -4.16652                       0.94653                      89.06871
                      -3.87596                       0.85316                      89.24907
                      -3.64494                       0.73465                      89.49042
                      -3.48796                       0.59845                      89.77760
                      -3.38153                       0.33929                      90.03769
                      -3.39737                       0.19003                      90.36937
                      -3.50311                       0.05016                      90.68842
                      -3.69209                      -0.07155                      90.97480
                      -3.95245                      -0.16745                      91.21051
                      -4.26782                      -0.23150                      91.38074
                      -4.61839                      -0.25970                      91.47479
                      -4.98213                      -0.25025                      91.48675
                      -5.33619                      -0.20376                      91.41588
                      -5.65831                      -0.12316                      91.26663
                      -5.92827                      -0.01349                      91.04837
                      -6.12909                       0.11834                      90.77481
                      -6.24816                       0.26405                      90.46316
                      -6.27799                       0.41449                      90.13298
                      -6.21672                       0.56021                      89.80502
                      -6.06819                       0.69204                      89.49990
                      -5.84173                       0.80171                      89.23679
                      -5.55158                       0.88232                      89.03221
                      -5.21596                       0.92881                      88.89902
                      -4.85597                       0.93825                      88.84559
                      -4.49422                       0.91007                      88.87527
                      -4.15344                       0.84601                      88.98621
                      -3.85505                       0.75012                      89.17143
                      -3.61779                       0.62841                      89.41929
                      -3.45657                       0.48854                      89.71422
                      -3.35964                       0.22546                      89.98385
                      -3.37577                       0.07346                      90.32162
                      -3.48345                      -0.06898                      90.64652
                      -3.67590                      -0.19292                      90.93816
                      -3.94103                      -0.29058                      91.17819
                      -4.26219                      -0.35581                      91.35154
                      -4.61919                      -0.38452                      91.44732
                      -4.98961                      -0.37490                      91.45950
                      -5.35016                      -0.32756                      91.38733
                      -5.67820                      -0.24547                      91.23534
                      -5.95311                      -0.13379                      91.01307
                      -6.15761                       0.00046                      90.73450
                      -6.27887                       0.14884                      90.41712
                      -6.30925                       0.30204                      90.08088
                      -6.24685                       0.45043                      89.74691
                      -6.09560                       0.58468                      89.43619
                      -5.86498                       0.69636                      89.16825
                      -5.56951                       0.77845                      88.95991
                      -5.22773                       0.82580                      88.82428
                      -4.86113                       0.83542                      88.76987
                      -4.49274                       0.80671                      88.80010
                      -4.14571                       0.74148                      88.91307
                      -3.84184                       0.64383                      89.10169
                      -3.60023                       0.51989                      89.35410
                      -3.43606                       0.37745                      89.65445
                      -3.34858                       0.11163                      89.93099
                      -3.36489                      -0.04198                      90.27235
                      -3.47371                      -0.18594                      90.60072
                      -3.66822                      -0.31121                      90.89546
                      -3.93618                      -0.40990                      91.13805
                      -4.26076                      -0.47583                      91.31325
                      -4.62157                      -0.50485                      91.41005
                      -4.99593                      -0.49512                      91.42237
                      -5.36033                      -0.44728                      91.34943
                      -5.69186                      -0.36432                      91.19581
                      -5.96970                      -0.25145                      90.97118
                      -6.17638                      -0.11577                      90.68963
                      -6.29893                       0.03420                      90.36888
                      -6.32963                       0.18903                      90.02906
                      -6.26657                       0.33900                      89.69153
                      -6.11370                       0.47468                      89.37749
                      -5.88063                       0.58755                      89.10669
                      -5.58201                       0.67052                      88.89614
                      -5.23659                       0.71837                      88.75906
                      -4.86608                       0.72809                      88.70407
                      -4.49377                       0.69908                      88.73462
                      -4.14304                       0.63316                      88.84880
                      -3.83593                       0.53446                      89.03943
                      -3.59174                       0.40920                      89.29453
                      -3.42582                       0.26524                      89.59807
                      -3.34804                      -0.00220                      89.87907
                      -3.36440                      -0.15635                      90.22163
                      -3.47360                      -0.30081                      90.55115
                      -3.66878                      -0.42651                      90.84692
                      -3.93768                      -0.52555                      91.09035
                      -4.26339                      -0.59171                      91.26616
                      -4.62546                      -0.62083                      91.36330
                      -5.00113                      -0.61107                      91.37566
                      -5.36680                      -0.56306                      91.30246
                      -5.69949                      -0.47981                      91.14831
                      -5.97830                      -0.36655                      90.92289
                      -6.18570                      -0.23039                      90.64037
                      -6.30868                      -0.07990                      90.31849
                      -6.33949                       0.07547                      89.97748
                      -6.27621                       0.22597                      89.63878
                      -6.12281                       0.36212                      89.32365
                      -5.88892                       0.47539                      89.05190
                      -5.58926                       0.55864                      88.84061
                      -5.24263                       0.60665                      88.70305
                      -4.87083                       0.61641                      88.64787
                      -4.49722                       0.58730                      88.67853
                      -4.14526                       0.52115                      88.79311
                      -3.83708                       0.42211                      88.98440
                      -3.59204                       0.29641                      89.24039
                      -3.42554                       0.15195                      89.54500
                      -3.35788                      -0.11603                      89.82810
                      -3.37419                      -0.26964                      90.16947
                      -3.48301                      -0.41360                      90.49783
                      -3.67751                      -0.53887                      90.79258
                      -3.94547                      -0.63756                      91.03517
                      -4.27005                      -0.70349                      91.21037
                      -4.63086                      -0.73250                      91.30716
                      -5.00522                      -0.72278                      91.31948
                      -5.36962                      -0.67494                      91.24654
                      -5.70115                      -0.59197                      91.09292
                      -5.97899                      -0.47911                      90.86829
                      -6.18568                      -0.34343                      90.58675
                      -6.30822                      -0.19346                      90.26599
                      -6.33893                      -0.03863                      89.92617
                      -6.27587                       0.11134                      89.58864
                      -6.12300                       0.24703                      89.27461
                      -5.88993                       0.35990                      89.00380
                      -5.59130                       0.44286                      88.79325
                      -5.24589                       0.49071                      88.65617
                      -4.87538                       0.50043                      88.60118
                      -4.50306                       0.47142                      88.63173
                      -4.15233                       0.40550                      88.74591
                      -3.84523                       0.30681                      88.93654
                      -3.60104                       0.18154                      89.19164
                      -3.43512                       0.03758                      89.49518
                      -3.37823                      -0.22986                      89.77807
                      -3.39436                      -0.38185                      90.11584
                      -3.50204                      -0.52429                      90.44075
                      -3.69449                      -0.64823                      90.73238
                      -3.95962                      -0.74589                      90.97241
                      -4.28078                      -0.81112                      91.14576
                      -4.63778                      -0.83983                      91.24154
                      -5.00820                      -0.83021                      91.25373
                      -5.36875                      -0.78287                      91.18155
                      -5.69679                      -0.70078                      91.02956
                      -5.97170                      -0.58911                      90.80729
                      -6.17620                      -0.45486                      90.52872
                      -6.29746                      -0.30647                      90.21134
                      -6.32784                      -0.15327                      89.87511
                      -6.26544                      -0.00488                      89.54114
                      -6.11419                       0.12937                      89.23042
                      -5.88358                       0.24105                      88.96247
                      -5.58810                       0.32314                      88.75414
                      -5.24632                       0.37048                      88.61850
                      -4.87972                       0.38010                      88.56409
                      -4.51133                       0.35140                      88.59432
                      -4.16430                       0.28617                      88.70730
                      -3.86043                       0.18852                      88.89592
                      -3.61882                       0.06458                      89.14833
                      -3.45465                      -0.07786                      89.44867
                      -3.40942                      -0.34369                      89.72903
                      -3.42526                      -0.49294                      90.06071
                      -3.53100                      -0.63281                      90.37976
                      -3.71998                      -0.75452                      90.66614
                      -3.98034                      -0.85042                      90.90185
                      -4.29571                      -0.91448                      91.07207
                      -4.64628                      -0.94267                      91.16612
                      -5.01002                      -0.93322                      91.17809
                      -5.36408                      -0.88674                      91.10722
                      -5.68620                      -0.80613                      90.95796
                      -5.95616                      -0.69646                      90.73970
                      -6.15698                      -0.56463                      90.46615
                      -6.27605                      -0.41892                      90.15449
                      -6.30588                      -0.26848                      89.82431
                      -6.24461                      -0.12276                      89.49636
                      -6.09608                       0.00907                      89.19124
                      -5.86962                       0.11873                      88.92812
                      -5.57947                       0.19935                      88.72354
                      -5.24385                       0.24584                      88.59035
                      -4.88386                       0.25528                      88.53692
                      -4.52211                       0.22710                      88.56661
                      -4.18133                       0.16304                      88.67755
                      -3.88294                       0.06715                      88.86277
                      -3.64568                      -0.05456                      89.11063
                      -3.48446                      -0.19443                      89.40556
                      -3.45207                      -0.45751                      89.68102
                      -3.46749                      -0.60285                      90.00398
                      -3.57045                      -0.73905                      90.31465
                      -3.75447                      -0.85756                      90.59351
                      -4.00799                      -0.95094                      90.82302
                      -4.31507                      -1.01331                      90.98878
                      -4.65643                      -1.04076                      91.08036
                      -5.01062                      -1.03156                      91.09201
                      -5.35537                      -0.98630                      91.02300
                      -5.66904                      -0.90781                      90.87767
                      -5.93190                      -0.80102                      90.66514
                      -6.12744                      -0.67266                      90.39877
                      -6.24338                      -0.53077                      90.09530
                      -6.27244                      -0.38428                      89.77380
                      -6.21277                      -0.24240                      89.45446
                      -6.06814                      -0.11403                      89.15736
                      -5.84764                      -0.00724                      88.90115
                      -5.56511                       0.07125                      88.70195
                      -5.23831                       0.11652                      88.57226
                      -4.88777                       0.12572                      88.52023
                      -4.53552                       0.09827                      88.54914
                      -4.20370                       0.03590                      88.65716
                      -3.91314                      -0.05747                      88.83751
                      -3.68212                      -0.17598                      89.07886
                      -3.52514                      -0.31218                      89.36605
                      -3.50713                      -0.57134                      89.63413
                      -3.52201                      -0.71147                      89.94553
                      -3.62128                      -0.84280                      90.24508
                      -3.79871                      -0.95707                      90.51396
                      -4.04315                      -1.04710                      90.73526
                      -4.33925                      -1.10724                      90.89508
                      -4.66839                      -1.13371                      90.98338
                      -5.00989                      -1.12484                      90.99461
                      -5.34231                      -1.08120                      90.92808
                      -5.64474                      -1.00552                      90.78794
                      -5.89820                      -0.90256                      90.58302
                      -6.08674                      -0.77878                      90.32619
                      -6.19853                      -0.64198                      90.03359
                      -6.22654                      -0.50073                      89.72359
                      -6.16902                      -0.36393                      89.41568
                      -6.02956                      -0.24015                      89.12922
                      -5.81695                      -0.13719                      88.88218
                      -5.54453                      -0.06151                      88.69011
                      -5.22943                      -0.01786                      88.56506
                      -4.89144                      -0.00899                      88.51489
                      -4.55181                      -0.03545                      88.54277
                      -4.23186                      -0.09559                      88.64692
                      -3.95171                      -0.18562                      88.82082
                      -3.72895                      -0.29989                      89.05353
                      -3.57759                      -0.43121                      89.33043
                      -3.57607                      -0.68517                      89.58849
                      -3.59024                      -0.81867                      89.88516
                      -3.68481                      -0.94378                      90.17053
                      -3.85385                      -1.05264                      90.42667
                      -4.08672                      -1.13841                      90.63749
                      -4.36879                      -1.19570                      90.78975
                      -4.68235                      -1.22092                      90.87387
                      -5.00769                      -1.21247                      90.88458
                      -5.32437                      -1.17089                      90.82119
                      -5.61249                      -1.09879                      90.68769
                      -5.85394                      -1.00070                      90.49247
                      -6.03356                      -0.88279                      90.24780
                      -6.14006                      -0.75246                      89.96904
                      -6.16675                      -0.61790                      89.67372
                      -6.11194                      -0.48757                      89.38039
                      -5.97909                      -0.36966                      89.10748
                      -5.77654                      -0.27157                      88.87214
                      -5.51702                      -0.19947                      88.68916
                      -5.21684                      -0.15789                      88.57003
                      -4.89485                      -0.14944                      88.52224
                      -4.57129                      -0.17465                      88.54880
                      -4.26649                      -0.23194                      88.64802
                      -3.99960                      -0.31771                      88.81369
                      -3.78739                      -0.42657                      89.03538
                      -3.64319                      -0.55167                      89.29918
                      -3.66108                      -0.79900                      89.54431
                      -3.67437                      -0.92420                      89.82255
                      -3.76307                      -1.04154                      90.09019
                      -3.92160                      -1.14364                      90.33043
                      -4.14001                      -1.22408                      90.52815
                      -4.40456                      -1.27782                      90.67095
                      -4.69865                      -1.30147                      90.74985
                      -5.00378                      -1.29355                      90.75989
                      -5.30078                      -1.25455                      90.70044
                      -5.57101                      -1.18693                      90.57523
                      -5.79746                      -1.09493                      90.39214
                      -5.96593                      -0.98435                      90.16266
                      -6.06581                      -0.86211                      89.90122
                      -6.09084                      -0.73591                      89.62424
                      -6.03944                      -0.61368                      89.34913
                      -5.91484                      -0.50309                      89.09318
                      -5.72487                      -0.41109                      88.87246
                      -5.48147                      -0.34347                      88.70084
                      -5.19993                      -0.30447                      88.58911
                      -4.89794                      -0.29654                      88.54429
                      -4.59448                      -0.32019                      88.56919
                      -4.30861                      -0.37392                      88.66226
                      -4.05830                      -0.45436                      88.81763
                      -3.85927                      -0.55646                      89.02555
                      -3.72403                      -0.67380                      89.27296
                      -3.76564                      -0.91283                      89.50190
                      -3.77783                      -1.02772                      89.75722
                      -3.85923                      -1.13540                      90.00283
                      -4.00471                      -1.22909                      90.22328
                      -4.20513                      -1.30291                      90.40473
                      -4.44790                      -1.35222                      90.53577
                      -4.71777                      -1.37393                      90.60817
                      -4.99778                      -1.36665                      90.61738
                      -5.27033                      -1.33087                      90.56283
                      -5.51830                      -1.26882                      90.44793
                      -5.72612                      -1.18440                      90.27991
                      -5.88071                      -1.08291                      90.06933
                      -5.97237                      -0.97074                      89.82942
                      -5.99533                      -0.85494                      89.57525
                      -5.94817                      -0.74276                      89.32279
                      -5.83383                      -0.64128                      89.08791
                      -5.65950                      -0.55686                      88.88536
                      -5.43614                      -0.49480                      88.72787
                      -5.17778                      -0.45902                      88.62534
                      -4.90066                      -0.45174                      88.58421
                      -4.62218                      -0.47344                      88.60707
                      -4.35985                      -0.52275                      88.69247
                      -4.13015                      -0.59657                      88.83505
                      -3.94751                      -0.69026                      89.02585
                      -3.82340                      -0.79793                      89.25289
                      -3.89565                      -1.02666                      89.46178
                      -3.90647                      -1.12862                      89.68836
                      -3.97870                      -1.22417                      89.90631
                      -4.10780                      -1.30731                      90.10195
                      -4.28566                      -1.37282                      90.26297
                      -4.50110                      -1.41658                      90.37925
                      -4.74059                      -1.43584                      90.44350
                      -4.98907                      -1.42939                      90.45168
                      -5.23094                      -1.39763                      90.40326
                      -5.45099                      -1.34257                      90.30130
                      -5.63540                      -1.26765                      90.15220
                      -5.77259                      -1.17759                      89.96533
                      -5.85393                      -1.07805                      89.75243
                      -5.87431                      -0.97528                      89.52687
                      -5.83245                      -0.87574                      89.30284
                      -5.73099                      -0.78568                      89.09440
                      -5.57629                      -0.71077                      88.91466
                      -5.37808                      -0.65570                      88.77490
                      -5.14881                      -0.62394                      88.68392
                      -4.90288                      -0.61748                      88.64742
                      -4.65576                      -0.63674                      88.66770
                      -4.42297                      -0.68050                      88.74348
                      -4.21912                      -0.74600                      88.87001
                      -4.05705                      -0.82915                      89.03933
                      -3.94691                      -0.92470                      89.24081
                      -4.06264                      -1.14049                      89.42500
                      -4.07168                      -1.22570                      89.61436
                      -4.13205                      -1.30555                      89.79651
                      -4.23994                      -1.37503                      89.96000
                      -4.38857                      -1.42978                      90.09457
                      -4.56862                      -1.46635                      90.19175
                      -4.76876                      -1.48245                      90.24544
                      -4.97642                      -1.47705                      90.25227
                      -5.17855                      -1.45051                      90.21181
                      -5.36245                      -1.40449                      90.12660
                      -5.51657                      -1.34189                      90.00200
                      -5.63122                      -1.26663                      89.84583
                      -5.69919                      -1.18344                      89.66790
                      -5.71623                      -1.09755                      89.47940
                      -5.68124                      -1.01436                      89.29218
                      -5.59645                      -0.93910                      89.11798
                      -5.46717                      -0.87649                      88.96777
                      -5.30152                      -0.83047                      88.85097
                      -5.10991                      -0.80393                      88.77494
                      -4.90439                      -0.79854                      88.74443
                      -4.69787                      -0.81463                      88.76138
                      -4.50332                      -0.85120                      88.82472
                      -4.33297                      -0.90594                      88.93046
                      -4.19752                      -0.97542                      89.07196
                      -4.10548                      -1.05528                      89.24034
                      -4.29603                      -1.25432                      89.39423
                      -4.30257                      -1.31592                      89.53113
                      -4.34621                      -1.37366                      89.66283
                      -4.42422                      -1.42389                      89.78103
                      -4.53168                      -1.46348                      89.87832
                      -4.66186                      -1.48992                      89.94858
                      -4.80656                      -1.50155                      89.98741
                      -4.95669                      -1.49765                      89.99234
                      -5.10283                      -1.47847                      89.96309
                      -5.23579                      -1.44519                      89.90148
                      -5.34722                      -1.39993                      89.81140
                      -5.43011                      -1.34551                      89.69848
                      -5.47926                      -1.28537                      89.56984
                      -5.49157                      -1.22327                      89.43356
                      -5.46628                      -1.16313                      89.29819
                      -5.40497                      -1.10871                      89.17225
                      -5.31150                      -1.06345                      89.06365
                      -5.19174                      -1.03018                      88.97921
                      -5.05321                      -1.01099                      88.92423
                      -4.90462                      -1.00709                      88.90218
                      -4.75530                      -1.01872                      88.91443
                      -4.61464                      -1.04516                      88.96022
                      -4.49148                      -1.08474                      89.03667
                      -4.39355                      -1.13498                      89.13898
                      -4.32701                      -1.19271                      89.26072
                      -4.89772                      -1.36815                      89.39673
                      -4.89772                      -1.36815                      89.39673
                      -4.89772                      -1.36815                      89.39673
                      -4.89772                      -1.36815                      89.39673
                      -4.89772                      -1.36815                      89.39673
                      -4.89772                      -1.36815                      89.39673
                      -4.89772                      -1.36815                      89.39673
                      -4.89772                      -1.36815                      89.39673
                      -4.89772                      -1.36815                      89.39673
                      -4.89772                      -1.36815                      89.39673
                      -4.89772                      -1.36815                      89.39673
                      -4.89772                      -1.36815                      89.39673
                      -4.89772                      -1.36815                      89.39673
                      -4.89772                      -1.36815                      89.39673
                      -4.89772                      -1.36815                      89.39673
                      -4.89772                      -1.36815                      89.39673
                      -4.89772                      -1.36815                      89.39673
                      -4.89772                      -1.36815                      89.39673
                      -4.89772                      -1.36815                      89.39673
                      -4.89772                      -1.36815                      89.39673
                      -4.89772                      -1.36815                      89.39673
                      -4.89772                      -1.36815                      89.39673
                      -4.89772                      -1.36815                      89.39673
                      -4.89772                      -1.36815                      89.39673
                      -4.89772                      -1.36815                      89.39673
        </DataArray>
      </Points>
      <Polys>
        <DataArray type="Int32" Name="connectivity" format="ascii">
      0      1     26     25
      1      2     27     26
      2      3     28     27
      3      4     29     28
      4      5     30     29
      5      6     31     30
      6      7     32     31
      7      8     33     32
      8      9     34     33
      9     10     35     34
     10     11     36     35
     11     12     37     36
     12     13     38     37
     13     14     39     38
     14     15     40     39
     15     16     41     40
     16     17     42     41
     17     18     43     42
     18     19     44     43
     19     20     45     44
     20     21     46     45
     21     22     47     46
     22     23     48     47
     23     24     49     48
     24      0     25     49
     25     26     51     50
     26     27     52     51
     27     28     53     52
     28     29     54     53
     29     30     55     54
     30     31     56     55
     31     32     57     56
     32     33     58     57
     33     34     59     58
     34     35     60     59
     35     36     61     60
     36     37     62     61
     37     38     63     62
     38     39     64     63
     39     40     65     64
     40     41     66     65
     41     42     67     66
     42     43     68     67
     43     44     69     68
     44     45     70     69
     45     46     71     70
     46     47     72     71
     47     48     73     72
     48     49     74     73
     49     25     50     74
     50     51     76     75
     51     52     77     76
     52     53     78     77
     53     54     79     78
     54     55     80     79
     55     56     81     80
     56     57     82     81
     57     58     83     82
     58     59     84     83
     59     60     85     84
     60     61     86     85
     61     62     87     86
     62     63     88     87
     63     64     89     88
     64     65     90     89
     65     66     91     90
     66     67     92     91
     67     68     93     92
     68     69     94     93
     69     70     95     94
     70     71     96     95
     71     72     97     96
     72     73     98     97
     73     74     99     98
     74     50     75     99
     75     76    101    100
     76     77    102    101
     77     78    103    102
     78     79    104    103
     79     80    105    104
     80     81    106    105
     81     82    107    106
     82     83    108    107
     83     84    109    108
     84     85    110    109
     85     86    111    110
     86     87    112    111
     87     88    113    112
     88     89    114    113
     89     90    115    114
     90     91    116    115
     91     92    117    116
     92     93    118    117
     93     94    119    118
     94     95    120    119
     95     96    121    120
     96     97    122    121
     97     98    123    122
     98     99    124    123
     99     75    100    124
    100    101    126    125
    101    102    127    126
    102    103    128    127
    103    104    129    128
    104    105    130    129
    105    106    131    130
    106    107    132    131
    107    108    133    132
    108    109    134    133
    109    110    135    134
    110    111    136    135
    111    112    137    136
    112    113    138    137
    113    114    139    138
    114    115    140    139
    115    116    141    140
    116    117    142    141
    117    118    143    142
    118    119    144    143
    119    120    145    144
    120    121    146    145
    121    122    147    146
    122    123    148    147
    123    124    149    148
    124    100    125    149
    125    126    151    150
    126    127    152    151
    127    128    153    152
    128    129    154    153
    129    130    155    154
    130    131    156    155
    131    132    157    156
    132    133    158    157
    133    134    159    158
    134    135    160    159
    135    136    161    160
    136    137    162    161
    137    138    163    162
    138    139    164    163
    139    140    165    164
    140    141    166    165
    141    142    167    166
    142    143    168    167
    143    144    169    168
    144    145    170    169
    145    146    171    170
    146    147    172    171
    147    148    173    172
    148    149    174    173
    149    125    150    174
    150    151    176    175
    151    152    177    176
    152    153    178    177
    153    154    179    178
    154    155    180    179
    155    156    181    180
    156    157    182    181
    157    158    183    182
    158    159    184    183
    159    160    185    184
    160    161    186    185
    161    162    187    186
    162    163    188    187
    163    164    189    188
    164    165    190    189
    165    166    191    190
    166    167    192    191
    167    168    193    192
    168    169    194    193
    169    170    195    194
    170    171    196    195
    171    172    197    196
    172    173    198    197
    173    174    199    198
    174    150    175    199
    175    176    201    200
    176    177    202    201
    177    178    203    202
    178    179    204    203
    179    180    205    204
    180    181    206    205
    181    182    207    206
    182    183    208    207
    183    184    209    208
    184    185    210    209
    185    186    211    210
    186    187    212    211
    187    188    213    212
    188    189    214    213
    189    190    215    214
    190    191    216    215
    191    192    217    216
    192    193    218    217
    193    194    219    218
    194    195    220    219
    195    196    221    220
    196    197    222    221
    197    198    223    222
    198    199    224    223
    199    175    200    224
    200    201    226    225
    201    202    227    226
    202    203    228    227
    203    204    229    228
    204    205    230    229
    205    206    231    230
    206    207    232    231
    207    208    233    232
    208    209    234    233
    209    210    235    234
    210    211    236    235
    211    212    237    236
    212    213    238    237
    213    214    239    238
    214    215    240    239
    215    216    241    240
    216    217    242    241
    217    218    243    242
    218    219    244    243
    219    220    245    244
    220    221    246    245
    221    222    247    246
    222    223    248    247
    223    224    249    248
    224    200    225    249
    225    226    251    250
    226    227    252    251
    227    228    253    252
    228    229    254    253
    229    230    255    254
    230    231    256    255
    231    232    257    256
    232    233    258    257
    233    234    259    258
    234    235    260    259
    235    236    261    260
    236    237    262    261
    237    238    263    262
    238    239    264    263
    239    240    265    264
    240    241    266    265
    241    242    267    266
    242    243    268    267
    243    244    269    268
    244    245    270    269
    245    246    271    270
    246    247    272    271
    247    248    273    272
    248    249    274    273
    249    225    250    274
    250    251    276    275
    251    252    277    276
    252    253    278    277
    253    254    279    278
    254    255    280    279
    255    256    281    280
    256    257    282    281
    257    258    283    282
    258    259    284    283
    259    260    285    284
    260    261    286    285
    261    262    287    286
    262    263    288    287
    263    264    289    288
    264    265    290    289
    265    266    291    290
    266    267    292    291
    267    268    293    292
    268    269    294    293
    269    270    295    294
    270    271    296    295
    271    272    297    296
    272    273    298    297
    273    274    299    298
    274    250    275    299
    275    276    301    300
    276    277    302    301
    277    278    303    302
    278    279    304    303
    279    280    305    304
    280    281    306    305
    281    282    307    306
    282    283    308    307
    283    284    309    308
    284    285    310    309
    285    286    311    310
    286    287    312    311
    287    288    313    312
    288    289    314    313
    289    290    315    314
    290    291    316    315
    291    292    317    316
    292    293    318    317
    293    294    319    318
    294    295    320    319
    295    296    321    320
    296    297    322    321
    297    298    323    322
    298    299    324    323
    299    275    300    324
    300    301    326    325
    301    302    327    326
    302    303    328    327
    303    304    329    328
    304    305    330    329
    305    306    331    330
    306    307    332    331
    307    308    333    332
    308    309    334    333
    309    310    335    334
    310    311    336    335
    311    312    337    336
    312    313    338    337
    313    314    339    338
    314    315    340    339
    315    316    341    340
    316    317    342    341
    317    318    343    342
    318    319    344    343
    319    320    345    344
    320    321    346    345
    321    322    347    346
    322    323    348    347
    323    324    349    348
    324    300    325    349
    325    326    351    350
    326    327    352    351
    327    328    353    352
    328    329    354    353
    329    330    355    354
    330    331    356    355
    331    332    357    356
    332    333    358    357
    333    334    359    358
    334    335    360    359
    335    336    361    360
    336    337    362    361
    337    338    363    362
    338    339    364    363
    339    340    365    364
    340    341    366    365
    341    342    367    366
    342    343    368    367
    343    344    369    368
    344    345    370    369
    345    346    371    370
    346    347    372    371
    347    348    373    372
    348    349    374    373
    349    325    350    374
    350    351    376    375
    351    352    377    376
    352    353    378    377
    353    354    379    378
    354    355    380    379
    355    356    381    380
    356    357    382    381
    357    358    383    382
    358    359    384    383
    359    360    385    384
    360    361    386    385
    361    362    387    386
    362    363    388    387
    363    364    389    388
    364    365    390    389
    365    366    391    390
    366    367    392    391
    367    368    393    392
    368    369    394    393
    369    370    395    394
    370    371    396    395
    371    372    397    396
    372    373    398    397
    373    374    399    398
    374    350    375    399
    375    376    401    400
    376    377    402    401
    377    378    403    402
    378    379    404    403
    379    380    405    404
    380    381    406    405
    381    382    407    406
    382    383    408    407
    383    384    409    408
    384    385    410    409
    385    386    411    410
    386    387    412    411
    387    388    413    412
    388    389    414    413
    389    390    415    414
    390    391    416    415
    391    392    417    416
    392    393    418    417
    393    394    419    418
    394    395    420    419
    395    396    421    420
    396    397    422    421
    397    398    423    422
    398    399    424    423
    399    375    400    424
    400    401    426    425
    401    402    427    426
    402    403    428    427
    403    404    429    428
    404    405    430    429
    405    406    431    430
    406    407    432    431
    407    408    433    432
    408    409    434    433
    409    410    435    434
    410    411    436    435
    411    412    437    436
    412    413    438    437
    413    414    439    438
    414    415    440    439
    415    416    441    440
    416    417    442    441
    417    418    443    442
    418    419    444    443
    419    420    445    444
    420    421    446    445
    421    422    447    446
    422    423    448    447
    423    424    449    448
    424    400    425    449
    425    426    451    450
    426    427    452    451
    427    428    453    452
    428    429    454    453
    429    430    455    454
    430    431    456    455
    431    432    457    456
    432    433    458    457
    433    434    459    458
    434    435    460    459
    435    436    461    460
    436    437    462    461
    437    438    463    462
    438    439    464    463
    439    440    465    464
    440    441    466    465
    441    442    467    466
    442    443    468    467
    443    444    469    468
    444    445    470    469
    445    446    471    470
    446    447    472    471
    447    448    473    472
    448    449    474    473
    449    425    450    474
    450    451    476    475
    451    452    477    476
    452    453    478    477
    453    454    479    478
    454    455    480    479
    455    456    481    480
    456    457    482    481
    457    458    483    482
    458    459    484    483
    459    460    485    484
    460    461    486    485
    461    462    487    486
    462    463    488    487
    463    464    489    488
    464    465    490    489
    465    466    491    490
    466    467    492    491
    467    468    493    492
    468    469    494    493
    469    470    495    494
    470    471    496    495
    471    472    497    496
    472    473    498    497
    473    474    499    498
    474    450    475    499
    475    476    501    500
    476    477    502    501
    477    478    503    502
    478    479    504    503
    479    480    505    504
    480    481    506    505
    481    482    507    506
    482    483    508    507
    483    484    509    508
    484    485    510    509
    485    486    511    510
    486    487    512    511
    487    488    513    512
    488    489    514    513
    489    490    515    514
    490    491    516    515
    491    492    517    516
    492    493    518    517
    493    494    519    518
    494    495    520    519
    495    496    521    520
    496    497    522    521
    497    498    523    522
    498    499    524    523
    499    475    500    524
    500    501    526    525
    501    502    527    526
    502    503    528    527
    503    504    529    528
    504    505    530    529
    505    506    531    530
    506    507    532    531
    507    508    533    532
    508    509    534    533
    509    510    535    534
    510    511    536    535
    511    512    537    536
    512    513    538    537
    513    514    539    538
    514    515    540    539
    515    516    541    540
    516    517    542    541
    517    518    543    542
    518    519    544    543
    519    520    545    544
    520    521    546    545
    521    522    547    546
    522    523    548    547
    523    524    549    548
    524    500    525    549
    525    526    551    550
    526    527    552    551
    527    528    553    552
    528    529    554    553
    529    530    555    554
    530    531    556    555
    531    532    557    556
    532    533    558    557
    533    534    559    558
    534    535    560    559
    535    536    561    560
    536    537    562    561
    537    538    563    562
    538    539    564    563
    539    540    565    564
    540    541    566    565
    541    542    567    566
    542    543    568    567
    543    544    569    568
    544    545    570    569
    545    546    571    570
    546    547    572    571
    547    548    573    572
    548    549    574    573
    549    525    550    574
    550    551    576    575
    551    552    577    576
    552    553    578    577
    553    554    579    578
    554    555    580    579
    555    556    581    580
    556    557    582    581
    557    558    583    582
    558    559    584    583
    559    560    585    584
    560    561    586    585
    561    562    587    586
    562    563    588    587
    563    564    589    588
    564    565    590    589
    565    566    591    590
    566    567    592    591
    567    568    593    592
    568    569    594    593
    569    570    595    594
    570    571    596    595
    571    572    597    596
    572    573    598    597
    573    574    599    598
    574    550    575    599
    575    576    601    600
    576    577    602    601
    577    578    603    602
    578    579    604    603
    579    580    605    604
    580    581    606    605
    581    582    607    606
    582    583    608    607
    583    584    609    608
    584    585    610    609
    585    586    611    610
    586    587    612    611
    587    588    613    612
    588    589    614    613
    589    590    615    614
    590    591    616    615
    591    592    617    616
    592    593    618    617
    593    594    619    618
    594    595    620    619
    595    596    621    620
    596    597    622    621
    597    598    623    622
    598    599    624    623
    599    575    600    624
        </DataArray>
        <DataArray type="Int32" Name="offsets" format="ascii">
      4
      8
     12
     16
     20
     24
     28
     32
     36
     40
     44
     48
     52
     56
     60
     64
     68
     72
     76
     80
     84
     88
     92
     96
    100
    104
    108
    112
    116
    120
    124
    128
    132
    136
    140
    144
    148
    152
    156
    160
    164
    168
    172
    176
    180
    184
    188
    192
    196
    200
    204
    208
    212
    216
    220
    224
    228
    232
    236
    240
    244
    248
    252
    256
    260
    264
    268
    272
    276
    280
    284
    288
    292
    296
    300
    304
    308
    312
    316
    320
    324
    328
    332
    336
    340
    344
    348
    352
    356
    360
    364
    368
    372
    376
    380
    384
    388
    392
    396
    400
    404
    408
    412
    416
    420
    424
    428
    432
    436
    440
    444
    448
    452
    456
    460
    464
    468
    472
    476
    480
    484
    488
    492
    496
    500
    504
    508
    512
    516
    520
    524
    528
    532
    536
    540
    544
    548
    552
    556
    560
    564
    568
    572
    576
    580
    584
    588
    592
    596
    600
    604
    608
    612
    616
    620
    624
    628
    632
    636
    640
    644
    648
    652
    656
    660
    664
    668
    672
    676
    680
    684
    688
    692
    696
    700
    704
    708
    712
    716
    720
    724
    728
    732
    736
    740
    744
    748
    752
    756
    760
    764
    768
    772
    776
    780
    784
    788
    792
    796
    800
    804
    808
    812
    816
    820
    824
    828
    832
    836
    840
    844
    848
    852
    856
    860
    864
    868
    872
    876
    880
    884
    888
    892
    896
    900
    904
    908
    912
    916
    920
    924
    928
    932
    936
    940
    944
    948
    952
    956
    960
    964
    968
    972
    976
    980
    984
    988
    992
    996
   1000
   1004
   1008
   1012
   1016
   1020
   1024
   1028
   1032
   1036
   1040
   1044
   1048
   1052
   1056
   1060
   1064
   1068
   1072
   1076
   1080
   1084
   1088
   1092
   1096
   1100
   1104
   1108
   1112
   1116
   1120
   1124
   1128
   1132
   1136
   1140
   1144
   1148
   1152
   1156
   1160
   1164
   1168
   1172
   1176
   1180
   1184
   1188
   1192
   1196
   1200
   1204
   1208
   1212
   1216
   1220
   1224
   1228
   1232
   1236
   1240
   1244
   1248
   1252
   1256
   1260
   1264
   1268
   1272
   1276
   1280
   1284
   1288
   1292
   1296
   1300
   1304
   1308
   1312
   1316
   1320
   1324
   1328
   1332
   1336
   1340
   1344
   1348
   1352
   1356
   1360
   1364
   1368
   1372
   1376
   1380
   1384
   1388
   1392
   1396
   1400
   1404
   1408
   1412
   1416
   1420
   1424
   1428
   1432
   1436
   1440
   1444
   1448
   1452
   1456
   1460
   1464
   1468
   1472
   1476
   1480
   1484
   1488
   1492
   1496
   1500
   1504
   1508
   1512
   1516
   1520
   1524
   1528
   1532
   1536
   1540
   1544
   1548
   1552
   1556
   1560
   1564
   1568
   1572
   1576
   1580
   1584
   1588
   1592
   1596
   1600
   1604
   1608
   1612
   1616
   1620
   1624
   1628
   1632
   1636
   1640
   1644
   1648
   1652
   1656
   1660
   1664
   1668
   1672
   1676
   1680
   1684
   1688
   1692
   1696
   1700
   1704
   1708
   1712
   1716
   1720
   1724
   1728
   1732
   1736
   1740
   1744
   1748
   1752
   1756
   1760
   1764
   1768
   1772
   1776
   1780
   1784
   1788
   1792
   1796
   1800
   1804
   1808
   1812
   1816
   1820
   1824
   1828
   1832
   1836
   1840
   1844
   1848
   1852
   1856
   1860
   1864
   1868
   1872
   1876
   1880
   1884
   1888
   1892
   1896
   1900
   1904
   1908
   1912
   1916
   1920
   1924
   1928
   1932
   1936
   1940
   1944
   1948
   1952
   1956
   1960
   1964
   1968
   1972
   1976
   1980
   1984
   1988
   1992
   1996
   2000
   2004
   2008
   2012
   2016
   2020
   2024
   2028
   2032
   2036
   2040
   2044
   2048
   2052
   2056
   2060
   2064
   2068
   2072
   2076
   2080
   2084
   2088
   2092
   2096
   2100
   2104
   2108
   2112
   2116
   2120
   2124
   2128
   2132
   2136
   2140
   2144
   2148
   2152
   2156
   2160
   2164
   2168
   2172
   2176
   2180
   2184
   2188
   2192
   2196
   2200
   2204
   2208
   2212
   2216
   2220
   2224
   2228
   2232
   2236
   2240
   2244
   2248
   2252
   2256
   2260
   2264
   2268
   2272
   2276
   2280
   2284
   2288
   2292
   2296
   2300
   2304
   2308
   2312
   2316
   2320
   2324
   2328
   2332
   2336
   2340
   2344
   2348
   2352
   2356
   2360
   2364
   2368
   2372
   2376
   2380
   2384
   2388
   2392
   2396
   2400
        </DataArray>
      </Polys>
    </Piece>
  </PolyData>
</VTKFile>
