<?xml version="1.0"?>
<VTKFile type="PolyData" version="0.1" byte_order="LittleEndian">
  <PolyData>
    <Piece NumberOfPoints="     19" NumberOfVerts="  0" NumberOfLines="     18"
           NumberOfStrips="  0" NumberOfPolys="      0">
      <Points>
        <DataArray type="Float32" NumberOfComponents="3" format="ascii">
                      -4.97865                       1.26616                      89.22496
                      -5.10361                       2.42370                      88.50855
                      -5.36748                       4.78811                      87.15681
                      -5.63622                       7.17571                      85.84201
                      -5.97183                      10.17369                      84.21827
                      -6.32458                      13.69531                      82.13830
                      -6.65301                      17.14622                      79.94077
                      -6.97423                      20.59366                      77.73603
                      -7.28796                      24.03690                      75.52286
                      -7.59830                      27.47712                      73.30366
                      -7.91127                      30.91632                      71.08251
                      -8.23262                      34.35360                      68.85899
                      -8.57092                      37.78849                      66.63408
                      -8.93638                      41.22003                      64.40869
                      -9.33842                      44.64704                      62.18362
                      -9.71164                      47.49790                      60.33004
                     -10.03949                      49.77016                      58.84121
                     -10.39454                      52.00856                      57.30656
                     -10.58984                      53.14749                      56.57472
        </DataArray>
      </Points>
      <PointData>
        <DataArray type="Float32" Name="TranslationalVelocity" NumberOfComponents="3" format="ascii">
                       0.31615                       2.23760                       3.52294
                       0.60759                       4.26024                       6.74028
                       1.20351                       8.08281                      13.31037
                       1.80701                      11.80289                      19.94222
                       2.56871                      16.39632                      28.26499
                       3.47097                      22.25805                      38.03474
                       4.36427                      28.43606                      47.60114
                       5.26522                      34.62835                      57.15092
                       6.17221                      40.83846                      66.68265
                       7.08313                      47.06100                      76.20035
                       7.99510                      53.28657                      85.71043
                       8.90365                      59.51794                      95.21133
                       9.80364                      65.75462                     104.70258
                      10.68909                      71.99646                     114.18233
                      11.55331                      78.24312                     123.64781
                      12.25134                      83.45306                     131.52079
                      12.79164                      87.64224                     137.79508
                      13.30721                      91.96202                     143.97500
                      13.56235                      94.02706                     147.11906
        </DataArray>
        <DataArray type="Float32" Name="RotationalVelocity" NumberOfComponents="3" format="ascii">
                       2.77985                      -0.00053                      -0.25119
                       2.77954                      -0.00063                      -0.25130
                       2.77869                      -0.00096                      -0.25171
                       2.77761                      -0.00146                      -0.25235
                       2.77607                      -0.00225                      -0.25344
                       2.77410                      -0.00338                      -0.25503
                       2.77215                      -0.00462                      -0.25672
                       2.77033                      -0.00587                      -0.25825
                       2.76872                      -0.00703                      -0.25935
                       2.76733                      -0.00801                      -0.25975
                       2.76617                      -0.00872                      -0.25919
                       2.76521                      -0.00904                      -0.25749
                       2.76441                      -0.00886                      -0.25451
                       2.76371                      -0.00808                      -0.25020
                       2.76305                      -0.00656                      -0.24464
                       2.76252                      -0.00465                      -0.23920
                       2.76207                      -0.00262                      -0.23443
                       2.76160                      -0.00010                      -0.22944
                       2.76135                       0.00137                      -0.22691
        </DataArray>
        <DataArray type="Float32" Name="TranslationalAcceleration" NumberOfComponents="3" format="ascii">
                       0.57942                      -9.89394                       6.19973
                       0.67604                     -11.96609                       7.46910
                       1.88296                     -34.61246                      20.75494
                       2.97054                     -55.62227                      32.63899
                       4.23449                     -80.25963                      46.28938
                       5.77765                    -107.65589                      62.70625
                       7.39285                    -133.72703                      79.57173
                       9.04722                    -159.63051                      96.44215
                      10.76900                    -185.69731                     113.53052
                      12.57473                    -212.04839                     130.88256
                      14.47481                    -238.64828                     148.43005
                      16.48278                    -265.34008                     166.07654
                      18.61602                    -291.93531                     183.69612
                      20.90160                    -318.27109                     201.18446
                      23.38109                    -344.27618                     218.49918
                      25.64424                    -365.74223                     232.83632
                      27.61571                    -382.84895                     244.36692
                      29.79797                    -399.85120                     256.36324
                      30.93717                    -408.62661                     262.17972
        </DataArray>
        <DataArray type="Float32" Name="OrientationX" NumberOfComponents="3" format="ascii">
                       0.98377                       0.15854                       0.08402
                       0.98379                       0.15838                       0.08414
                       0.98381                       0.15798                       0.08466
                       0.98382                       0.15744                       0.08553
                       0.98381                       0.15664                       0.08710
                       0.98825                       0.13928                       0.06288
                       0.99079                       0.12688                       0.04730
                       0.99250                       0.11697                       0.03557
                       0.99384                       0.10809                       0.02449
                       0.99476                       0.10115                       0.01471
                       0.99519                       0.09767                       0.00780
                       0.99523                       0.09755                       0.00280
                       0.99479                       0.10198                       0.00089
                       0.99367                       0.11228                       0.00365
                       0.99203                       0.12587                       0.00658
                       0.99025                       0.13905                       0.00812
                       0.98853                       0.15080                       0.00863
                       0.98624                       0.16495                       0.01073
                       0.98481                       0.17318                       0.01285
        </DataArray>
        <DataArray type="Float32" Name="OrientationY" NumberOfComponents="3" format="ascii">
                       0.15444                      -0.50984                      -0.84629
                       0.15448                      -0.51004                      -0.84616
                       0.15477                      -0.51057                      -0.84579
                       0.15530                      -0.51124                      -0.84529
                       0.15632                      -0.51220                      -0.84452
                       0.12684                      -0.51807                      -0.84588
                       0.10726                      -0.52212                      -0.84610
                       0.09222                      -0.52525                      -0.84593
                       0.07826                      -0.52792                      -0.84568
                       0.06639                      -0.53001                      -0.84539
                       0.05877                      -0.53137                      -0.84510
                       0.05455                      -0.53218                      -0.84487
                       0.05533                      -0.53231                      -0.84474
                       0.06317                      -0.53156                      -0.84466
                       0.07289                      -0.53038                      -0.84462
                       0.08123                      -0.52921                      -0.84459
                       0.08794                      -0.52814                      -0.84459
                       0.09724                      -0.52650                      -0.84460
                       0.10340                      -0.52532                      -0.84460
        </DataArray>
        <DataArray type="Float32" Name="OrientationZ" NumberOfComponents="3" format="ascii">
                      -0.09133                       0.84554                      -0.52605
                      -0.09110                       0.84544                      -0.52624
                      -0.09039                       0.84520                      -0.52676
                      -0.08935                       0.84489                      -0.52742
                      -0.08767                       0.84446                      -0.52839
                      -0.08524                       0.84392                      -0.52965
                      -0.08265                       0.84338                      -0.53092
                      -0.08027                       0.84287                      -0.53210
                      -0.07848                       0.84239                      -0.53312
                      -0.07771                       0.84194                      -0.53395
                      -0.07840                       0.84149                      -0.53456
                      -0.08093                       0.84099                      -0.53496
                      -0.08567                       0.84038                      -0.53518
                      -0.09290                       0.83955                      -0.53528
                      -0.10282                       0.83837                      -0.53532
                      -0.11314                       0.83702                      -0.53534
                      -0.12281                       0.83566                      -0.53534
                      -0.13367                       0.83402                      -0.53529
                      -0.13951                       0.83310                      -0.53524
        </DataArray>
        <DataArray type="Float32" Name="Force" NumberOfComponents="3" format="ascii">
                      -0.87429                      -6.11467                      -9.67650
                     155.93024                     -46.33153                    -101.46508
                     231.23325                    -156.74820                    -291.60370
                     228.35654                    -253.69856                    -446.35764
                    1427.59210                     224.26959                     122.97269
                    1378.24234                     166.93633                      45.67165
                    1225.79323                     101.50543                     -28.53116
                    1794.99404                     144.30211                     -40.28952
                    2175.07119                     147.95563                     -84.24991
                    2312.77359                     128.91877                    -131.46696
                    3738.54457                     200.14486                    -230.18874
                    3817.02497                     187.84362                    -279.53814
                    2667.90071                     102.55249                    -265.41049
                    1078.57982                     -25.54171                    -229.85150
                     453.12659                     -70.18429                    -200.97404
                    -992.68238                    -213.16797                    -131.36010
                   -2664.42770                    -392.93449                     -14.45208
                   -3643.41482                    -498.65778                     118.56431
                  -19071.72252                   -1620.66347                    2439.31305
        </DataArray>
        <DataArray type="Float32" Name="Moment" NumberOfComponents="3" format="ascii">
                       0.00000                       0.00000                       0.00000
                       0.00000                       0.00000                       0.00000
                       0.00000                       0.00000                       0.00000
                       0.00000                       0.00000                       0.00000
                     112.64283                   -1088.66195                     677.75815
                     196.58956                   -1956.43594                    1218.52788
                     255.49773                   -2625.56763                    1636.03597
                     408.82169                   -4331.49449                    2700.17395
                     584.93027                   -6345.70606                    3957.06128
                     659.05923                   -7227.01343                    4507.26993
                     748.65563                   -8143.59477                    5078.37102
                     822.83187                   -8673.99181                    5406.83190
                     657.50989                   -6548.83055                    4078.85984
                     698.06126                   -6410.93346                    3988.05751
                     749.44390                   -6216.90660                    3860.80763
                     776.00259                   -5847.51258                    3624.98449
                     742.94084                   -5155.11026                    3190.43621
                     404.83848                   -2579.12090                    1593.19267
                     378.55662                   -2309.60018                    1425.25463
        </DataArray>
      </PointData>
      <Lines>
        <DataArray type="Int32" Name="connectivity" format="ascii">
      0      1
      1      2
      2      3
      3      4
      4      5
      5      6
      6      7
      7      8
      8      9
      9     10
     10     11
     11     12
     12     13
     13     14
     14     15
     15     16
     16     17
     17     18
        </DataArray>
        <DataArray type="Int32" Name="offsets" format="ascii">
      2
      4
      6
      8
     10
     12
     14
     16
     18
     20
     22
     24
     26
     28
     30
     32
     34
     36
        </DataArray>
      </Lines>
    </Piece>
  </PolyData>
</VTKFile>
