<?xml version="1.0"?>
<VTKFile type="PolyData" version="0.1" byte_order="LittleEndian">
  <PolyData>
    <Piece NumberOfPoints="     19" NumberOfVerts="  0" NumberOfLines="     18"
           NumberOfStrips="  0" NumberOfPolys="      0">
      <Points>
        <DataArray type="Float32" NumberOfComponents="3" format="ascii">
                      -5.01404                       0.02033                      88.53010
                      -5.19733                       0.04119                      87.17557
                      -5.58445                       0.17759                      84.47026
                      -5.97908                       0.35876                      81.76609
                      -6.47286                       0.61180                      78.38564
                      -7.00268                       0.77214                      74.31844
                      -7.49550                       0.80227                      70.24443
                      -7.97691                       0.82960                      66.16860
                      -8.44539                       0.85244                      62.09075
                      -8.90393                       0.87274                      58.01124
                      -9.35749                       0.89408                      53.93071
                      -9.81032                       0.91478                      49.84972
                     -10.26956                       0.93438                      45.76925
                     -10.74403                       0.95219                      41.69063
                     -11.24182                       0.96751                      37.61527
                     -11.68351                       0.97736                      34.22307
                     -12.05810                       0.97500                      31.51266
                     -12.44918                       0.91547                      28.80457
                     -12.66247                       0.92553                      27.45373
        </DataArray>
      </Points>
      <PointData>
        <DataArray type="Float32" Name="TranslationalVelocity" NumberOfComponents="3" format="ascii">
                       0.00197                       4.14695                       0.05392
                       0.00665                       7.91948                       0.11141
                       0.03791                      15.45569                       0.48687
                       0.07751                      22.98519                       0.98529
                       0.12868                      32.38902                       1.68098
                       0.14603                      43.67369                       2.12208
                       0.12052                      54.95279                       2.20686
                       0.08248                      66.21927                       2.28541
                       0.03017                      77.47454                       2.35320
                      -0.03729                      88.71986                       2.41571
                      -0.12057                      99.95648                       2.48291
                      -0.22188                     111.18569                       2.55048
                      -0.34349                     122.40807                       2.61769
                      -0.48820                     133.62325                       2.68331
                      -0.65938                     144.82984                       2.74634
                      -0.82588                     154.15998                       2.79516
                      -0.97791                     161.61686                       2.80953
                      -1.16081                     169.06766                       2.67166
                      -1.24883                     172.78708                       2.71280
        </DataArray>
        <DataArray type="Float32" Name="RotationalVelocity" NumberOfComponents="3" format="ascii">
                       2.75193                       0.00024                      -0.25006
                       2.75132                       0.00047                      -0.24999
                       2.74970                       0.00124                      -0.24981
                       2.74766                       0.00234                      -0.24962
                       2.74475                       0.00406                      -0.24946
                       2.74105                       0.00650                      -0.24947
                       2.73739                       0.00926                      -0.24971
                       2.73397                       0.01229                      -0.25013
                       2.73091                       0.01561                      -0.25063
                       2.72824                       0.01930                      -0.25113
                       2.72596                       0.02344                      -0.25151
                       2.72399                       0.02813                      -0.25170
                       2.72226                       0.03345                      -0.25170
                       2.72067                       0.03946                      -0.25158
                       2.71911                       0.04619                      -0.25151
                       2.71777                       0.05231                      -0.25169
                       2.71665                       0.05751                      -0.25218
                       2.71547                       0.06293                      -0.25317
                       2.71486                       0.06570                      -0.25391
        </DataArray>
        <DataArray type="Float32" Name="TranslationalAcceleration" NumberOfComponents="3" format="ascii">
                       1.03615                      -0.15692                      11.40300
                       1.24936                      -0.19493                      13.77882
                       3.57395                      -1.28035                      39.39365
                       5.70850                      -2.67764                      62.90567
                       8.19047                      -4.59758                      90.29611
                      10.98760                      -5.78848                     121.37066
                      13.66946                      -5.98966                     151.56590
                      16.28704                      -6.18415                     181.59529
                      18.87010                      -6.36755                     211.84915
                      21.43649                      -6.55839                     242.45689
                      24.00299                      -6.78322                     273.35882
                      26.59611                      -7.02547                     304.38020
                      29.26264                      -7.27544                     335.30326
                      32.08019                      -7.51952                     365.94056
                      35.16765                      -7.74205                     396.20888
                      38.07762                      -7.89495                     421.20734
                      40.70797                      -7.92879                     441.17622
                      43.69834                      -7.52068                     461.30256
                      45.35486                      -7.60940                     471.48264
        </DataArray>
        <DataArray type="Float32" Name="OrientationX" NumberOfComponents="3" format="ascii">
                       0.96466                       0.23071                      -0.12732
                       0.96469                       0.23073                      -0.12703
                       0.96476                       0.23093                      -0.12615
                       0.96482                       0.23136                      -0.12487
                       0.96488                       0.23222                      -0.12278
                       0.97171                       0.20284                      -0.12098
                       0.97593                       0.18319                      -0.11835
                       0.97901                       0.16797                      -0.11547
                       0.98165                       0.15373                      -0.11285
                       0.98372                       0.14146                      -0.11083
                       0.98498                       0.13326                      -0.10976
                       0.98561                       0.12830                      -0.11005
                       0.98540                       0.12818                      -0.11203
                       0.98403                       0.13498                      -0.11600
                       0.98204                       0.14359                      -0.12237
                       0.97999                       0.15101                      -0.12965
                       0.97806                       0.15703                      -0.13692
                       0.97539                       0.16575                      -0.14540
                       0.97366                       0.17167                      -0.15008
        </DataArray>
        <DataArray type="Float32" Name="OrientationY" NumberOfComponents="3" format="ascii">
                       0.22699                      -0.97294                      -0.04318
                       0.22702                      -0.97293                      -0.04312
                       0.22727                      -0.97289                      -0.04292
                       0.22775                      -0.97279                      -0.04266
                       0.22870                      -0.97258                      -0.04225
                       0.19967                      -0.97913                      -0.03787
                       0.18030                      -0.98300                      -0.03477
                       0.16531                      -0.98571                      -0.03233
                       0.15127                      -0.98803                      -0.03016
                       0.13914                      -0.98987                      -0.02839
                       0.13104                      -0.99100                      -0.02725
                       0.12612                      -0.99166                      -0.02661
                       0.12597                      -0.99168                      -0.02663
                       0.13266                      -0.99078                      -0.02752
                       0.14111                      -0.98958                      -0.02874
                       0.14837                      -0.98848                      -0.02985
                       0.15424                      -0.98755                      -0.03082
                       0.16276                      -0.98614                      -0.03227
                       0.16856                      -0.98513                      -0.03328
        </DataArray>
        <DataArray type="Float32" Name="OrientationZ" NumberOfComponents="3" format="ascii">
                      -0.13384                       0.01276                      -0.99092
                      -0.13354                       0.01275                      -0.99096
                      -0.13265                       0.01274                      -0.99108
                      -0.13134                       0.01272                      -0.99126
                      -0.12923                       0.01268                      -0.99153
                      -0.12614                       0.01264                      -0.99193
                      -0.12270                       0.01260                      -0.99236
                      -0.11925                       0.01256                      -0.99278
                      -0.11614                       0.01254                      -0.99315
                      -0.11372                       0.01251                      -0.99343
                      -0.11240                       0.01246                      -0.99359
                      -0.11254                       0.01235                      -0.99357
                      -0.11452                       0.01212                      -0.99335
                      -0.11865                       0.01169                      -0.99287
                      -0.12522                       0.01095                      -0.99207
                      -0.13266                       0.01002                      -0.99111
                      -0.14005                       0.00902                      -0.99010
                      -0.14874                       0.00780                      -0.98885
                      -0.15356                       0.00711                      -0.98811
        </DataArray>
        <DataArray type="Float32" Name="Force" NumberOfComponents="3" format="ascii">
                      -0.02140                     -18.49176                      -0.23515
                     143.24689                    -110.83834                     -20.73108
                     226.00661                    -336.72992                     -34.58288
                     233.38653                    -513.10241                     -37.52696
                    1247.76456                     251.74624                    -159.38046
                    1046.79534                     150.34312                    -131.17480
                     869.09890                      49.54013                    -106.82203
                    1398.97217                     106.07669                    -166.67426
                    1800.11019                     112.64865                    -209.03753
                    1969.14571                      83.53367                    -224.32624
                    3443.12283                     152.75373                    -387.50090
                    3635.67633                     123.73049                    -410.17636
                    2809.29111                      37.87689                    -323.32718
                    1452.90994                     -98.62684                    -174.85937
                     596.22966                    -128.74234                     -76.89826
                     -70.46099                    -233.32602                       6.42643
                   -1496.32932                    -335.56168                     207.29615
                   -2572.42863                    -358.06202                     382.24130
                  -17226.88020                    -210.15797                    2674.05633
        </DataArray>
        <DataArray type="Float32" Name="Moment" NumberOfComponents="3" format="ascii">
                       0.00000                       0.00000                       0.00000
                       0.00000                       0.00000                       0.00000
                       0.00000                       0.00000                       0.00000
                       0.00000                       0.00000                       0.00000
                     144.36558                     -14.25309                    1107.70226
                     262.74567                     -26.57987                    2066.28746
                     349.17382                     -36.31555                    2824.01949
                     576.55633                     -61.70644                    4800.02534
                     848.97953                     -93.31189                    7260.63503
                     949.17565                    -106.54607                    8292.23100
                    1058.83762                    -120.26199                    9360.84930
                    1130.73710                    -128.26706                    9983.81181
                     869.39925                     -96.92099                    7542.59043
                     886.31979                     -95.35920                    7418.23436
                     902.33764                     -91.96978                    7150.23847
                     907.84415                     -87.31477                    6783.67530
                     845.81359                     -77.03143                    5980.65549
                     449.29941                     -38.51213                    2987.64400
                     420.67138                     -34.91424                    2707.31690
        </DataArray>
      </PointData>
      <Lines>
        <DataArray type="Int32" Name="connectivity" format="ascii">
      0      1
      1      2
      2      3
      3      4
      4      5
      5      6
      6      7
      7      8
      8      9
      9     10
     10     11
     11     12
     12     13
     13     14
     14     15
     15     16
     16     17
     17     18
        </DataArray>
        <DataArray type="Int32" Name="offsets" format="ascii">
      2
      4
      6
      8
     10
     12
     14
     16
     18
     20
     22
     24
     26
     28
     30
     32
     34
     36
        </DataArray>
      </Lines>
    </Piece>
  </PolyData>
</VTKFile>
