<?xml version="1.0"?>
<VTKFile type="PolyData" version="0.1" byte_order="LittleEndian">
  <PolyData>
    <Piece NumberOfPoints="     19" NumberOfVerts="  0" NumberOfLines="     18"
           NumberOfStrips="  0" NumberOfPolys="      0">
      <Points>
        <DataArray type="Float32" NumberOfComponents="3" format="ascii">
                      -4.77245                      -0.02996                      91.51212
                      -4.70925                      -0.05660                      92.87740
                      -4.60323                      -0.20466                      95.60754
                      -4.50390                      -0.39761                      98.33768
                      -4.37840                      -0.66560                     101.75050
                      -4.16092                      -0.84421                     105.84547
                      -3.90158                      -0.89296                     109.94076
                      -3.62591                      -0.93926                     114.03544
                      -3.33206                      -0.98141                     118.12940
                      -3.02287                      -1.02131                     122.22277
                      -2.70336                      -1.06253                     126.31582
                      -2.37805                      -1.10333                     130.40881
                      -2.05458                      -1.14324                     134.50215
                      -1.74256                      -1.18149                     138.59626
                      -1.45107                      -1.21737                     142.69140
                      -1.23383                      -1.24442                     146.10523
                      -1.08114                      -1.25584                     148.83713
                      -0.94491                      -1.21017                     151.57027
                      -0.89529                      -1.22712                     152.93697
        </DataArray>
      </Points>
      <PointData>
        <DataArray type="Float32" Name="TranslationalVelocity" NumberOfComponents="3" format="ascii">
                      -0.00974                      -4.19200                      -0.07309
                      -0.01702                      -8.00422                      -0.14715
                      -0.05473                     -15.62602                      -0.55905
                      -0.10275                     -23.25154                      -1.09652
                      -0.16786                     -32.79299                      -1.84417
                      -0.20701                     -44.27186                      -2.34445
                      -0.20902                     -55.77716                      -2.48316
                      -0.20464                     -67.29961                      -2.61543
                      -0.19201                     -78.83822                      -2.73654
                      -0.17009                     -90.39110                      -2.85201
                      -0.13818                    -101.95594                      -2.97191
                      -0.09422                    -113.53058                      -3.09152
                      -0.03648                    -125.11258                      -3.20950
                       0.03679                    -136.69946                      -3.32365
                       0.12726                    -148.28896                      -3.43177
                       0.21741                    -157.94759                      -3.51414
                       0.30133                    -165.67422                      -3.55129
                       0.40827                    -173.40308                      -3.42788
                       0.45514                    -177.26456                      -3.47774
        </DataArray>
        <DataArray type="Float32" Name="RotationalVelocity" NumberOfComponents="3" format="ascii">
                       2.77998                      -0.00045                      -0.25112
                       2.78060                      -0.00037                      -0.25116
                       2.78222                      -0.00010                      -0.25127
                       2.78426                       0.00030                      -0.25145
                       2.78713                       0.00095                      -0.25176
                       2.79077                       0.00195                      -0.25227
                       2.79433                       0.00320                      -0.25288
                       2.79765                       0.00473                      -0.25349
                       2.80060                       0.00659                      -0.25403
                       2.80318                       0.00883                      -0.25439
                       2.80540                       0.01150                      -0.25450
                       2.80733                       0.01460                      -0.25431
                       2.80902                       0.01813                      -0.25380
                       2.81055                       0.02203                      -0.25304
                       2.81195                       0.02619                      -0.25213
                       2.81302                       0.02975                      -0.25141
                       2.81380                       0.03256                      -0.25097
                       2.81445                       0.03523                      -0.25077
                       2.81472                       0.03649                      -0.25080
        </DataArray>
        <DataArray type="Float32" Name="TranslationalAcceleration" NumberOfComponents="3" format="ascii">
                      -1.00609                       0.20348                     -11.60567
                      -1.25423                       0.27203                     -14.05964
                      -3.59698                       1.52251                     -40.23867
                      -5.77549                       3.09083                     -64.33554
                      -8.37012                       5.23461                     -92.51727
                     -11.41002                       6.66844                    -124.66145
                     -14.46743                       7.07574                    -156.07577
                     -17.59211                       7.46523                    -187.47567
                     -20.79446                       7.82801                    -219.24527
                     -24.05577                       8.17914                    -251.50127
                     -27.33881                       8.54324                    -284.16795
                     -30.59962                       8.90187                    -317.05523
                     -33.79840                       9.24625                    -349.93466
                     -36.91100                       9.56716                    -382.61680
                     -39.94046                       9.85925                    -415.02869
                     -42.43064                      10.07610                    -441.91035
                     -44.43475                      10.17013                    -463.46380
                     -46.48617                       9.81645                    -485.26426
                     -47.55011                       9.96121                    -496.32256
        </DataArray>
        <DataArray type="Float32" Name="OrientationX" NumberOfComponents="3" format="ascii">
                       0.97175                      -0.23086                      -0.04910
                       0.97172                      -0.23088                      -0.04946
                       0.97162                      -0.23109                      -0.05060
                       0.97143                      -0.23151                      -0.05226
                       0.97107                      -0.23238                      -0.05495
                       0.97741                      -0.20300                      -0.05876
                       0.98101                      -0.18338                      -0.06311
                       0.98343                      -0.16823                      -0.06762
                       0.98543                      -0.15412                      -0.07188
                       0.98698                      -0.14206                      -0.07547
                       0.98788                      -0.13421                      -0.07797
                       0.98840                      -0.12974                      -0.07897
                       0.98841                      -0.13025                      -0.07805
                       0.98763                      -0.13782                      -0.07481
                       0.98669                      -0.14733                      -0.06886
                       0.98590                      -0.15557                      -0.06165
                       0.98526                      -0.16227                      -0.05420
                       0.98412                      -0.17166                      -0.04522
                       0.98323                      -0.17789                      -0.04014
        </DataArray>
        <DataArray type="Float32" Name="OrientationY" NumberOfComponents="3" format="ascii">
                       0.23142                       0.97284                       0.00577
                       0.23144                       0.97283                       0.00570
                       0.23165                       0.97278                       0.00545
                       0.23208                       0.97268                       0.00505
                       0.23296                       0.97248                       0.00440
                       0.20366                       0.97903                       0.00526
                       0.18409                       0.98289                       0.00565
                       0.16900                       0.98560                       0.00587
                       0.15496                       0.98790                       0.00620
                       0.14296                       0.98971                       0.00658
                       0.13515                       0.99080                       0.00684
                       0.13069                       0.99140                       0.00700
                       0.13118                       0.99133                       0.00691
                       0.13868                       0.99032                       0.00640
                       0.14808                       0.98896                       0.00587
                       0.15620                       0.98771                       0.00551
                       0.16279                       0.98665                       0.00530
                       0.17206                       0.98507                       0.00507
                       0.17823                       0.98398                       0.00496
        </DataArray>
        <DataArray type="Float32" Name="OrientationZ" NumberOfComponents="3" format="ascii">
                       0.04643                      -0.01697                       0.99878
                       0.04680                      -0.01699                       0.99876
                       0.04796                      -0.01701                       0.99870
                       0.04966                      -0.01704                       0.99862
                       0.05241                      -0.01707                       0.99848
                       0.05646                      -0.01711                       0.99826
                       0.06100                      -0.01716                       0.99799
                       0.06566                      -0.01720                       0.99769
                       0.07005                      -0.01725                       0.99739
                       0.07375                      -0.01728                       0.99713
                       0.07634                      -0.01729                       0.99693
                       0.07738                      -0.01724                       0.99685
                       0.07647                      -0.01707                       0.99693
                       0.07320                      -0.01669                       0.99718
                       0.06723                      -0.01598                       0.99761
                       0.06003                      -0.01506                       0.99808
                       0.05262                      -0.01405                       0.99852
                       0.04367                      -0.01277                       0.99896
                       0.03861                      -0.01203                       0.99918
        </DataArray>
        <DataArray type="Float32" Name="Force" NumberOfComponents="3" format="ascii">
                       0.02923                      19.23185                       0.32547
                     189.65042                     125.96950                      -6.74585
                     284.30961                     365.77592                      -7.43650
                     287.85131                     546.87462                      -5.01776
                    1627.02162                    -387.38645                     -91.99510
                    1591.03719                    -282.79135                     -94.79680
                    1556.16358                    -186.85814                     -98.29345
                    2336.27980                    -271.46433                    -158.37296
                    2782.20178                    -259.20570                    -199.81185
                    3110.43905                    -233.99607                    -234.04002
                    4737.61401                    -312.43829                    -368.07912
                    5044.14996                    -284.68778                    -396.38145
                    4181.12960                    -191.03664                    -323.93057
                    2644.50723                     -23.56930                    -194.51043
                     579.43619                     185.44208                     -35.88519
                     505.55609                     221.62680                     -26.62805
                    -643.91722                     280.48092                      38.68747
                   -2071.86082                     344.75328                      96.38753
                  -19757.97107                     290.84563                     768.05862
        </DataArray>
        <DataArray type="Float32" Name="Moment" NumberOfComponents="3" format="ascii">
                       0.00000                       0.00000                       0.00000
                       0.00000                       0.00000                       0.00000
                       0.00000                       0.00000                       0.00000
                       0.00000                       0.00000                       0.00000
                     -69.08513                      22.37732                   -1316.06653
                    -135.24391                      40.67315                   -2391.22094
                    -197.44756                      54.97035                   -3230.45308
                    -352.01255                      91.05630                   -5348.88238
                    -550.30301                     133.44114                   -7835.58487
                    -660.33013                     152.09554                   -8927.98764
                    -768.72366                     171.07248                  -10039.59587
                    -830.83484                     182.40734                  -10703.79216
                    -624.32215                     138.70933                   -8140.23332
                    -589.36698                     136.78114                   -8029.43596
                    -511.70961                     129.30028                   -7594.36856
                    -438.27229                     124.01691                   -7288.77042
                    -339.37790                     109.55104                   -6442.86708
                    -140.25353                      54.53425                   -3209.82046
                    -109.73950                      48.25077                   -2841.27191
        </DataArray>
      </PointData>
      <Lines>
        <DataArray type="Int32" Name="connectivity" format="ascii">
      0      1
      1      2
      2      3
      3      4
      4      5
      5      6
      6      7
      7      8
      8      9
      9     10
     10     11
     11     12
     12     13
     13     14
     14     15
     15     16
     16     17
     17     18
        </DataArray>
        <DataArray type="Int32" Name="offsets" format="ascii">
      2
      4
      6
      8
     10
     12
     14
     16
     18
     20
     22
     24
     26
     28
     30
     32
     34
     36
        </DataArray>
      </Lines>
    </Piece>
  </PolyData>
</VTKFile>
