<?xml version="1.0"?>
<VTKFile type="PolyData" version="0.1" byte_order="LittleEndian">
  <PolyData>
    <Piece NumberOfPoints="     19" NumberOfVerts="  0" NumberOfLines="     18"
           NumberOfStrips="  0" NumberOfPolys="      0">
      <Points>
        <DataArray type="Float32" NumberOfComponents="3" format="ascii">
                      -5.01485                       0.88883                      88.82111
                      -5.17322                       1.70467                      87.73570
                      -5.50605                       3.41140                      85.62299
                      -5.84485                       5.15329                      83.53672
                      -6.26885                       7.35092                      80.94303
                      -6.72489                       9.87236                      77.73591
                      -7.15416                      12.28737                      74.44533
                      -7.57648                      14.69784                      71.15002
                      -7.99137                      17.10258                      67.84903
                      -8.40266                      19.50332                      64.54408
                      -8.81609                      21.90308                      61.23815
                      -9.23694                      24.30058                      57.93109
                      -9.67326                      26.69536                      54.62390
                     -10.13472                      29.08652                      51.31770
                     -10.63014                      31.47293                      48.01364
                     -11.07865                      33.45648                      45.26282
                     -11.46472                      35.03274                      43.05975
                     -11.87499                      36.56053                      40.82621
                     -12.09797                      37.35519                      39.73556
        </DataArray>
      </Points>
      <PointData>
        <DataArray type="Float32" Name="TranslationalVelocity" NumberOfComponents="3" format="ascii">
                       0.22285                       3.37125                       2.48121
                       0.42771                       6.42766                       4.74869
                       0.85596                      12.38071                       9.49039
                       1.29254                      18.25845                      14.32678
                       1.84244                      25.56114                      20.42369
                       2.47151                      34.56552                      27.41186
                       3.07117                      43.78471                      34.09797
                       3.66579                      53.00540                      40.76501
                       4.25388                      62.23091                      47.41048
                       4.83467                      71.45834                      54.04006
                       5.40783                      80.68208                      60.66308
                       5.97220                      89.90499                      67.27699
                       6.52716                      99.12734                      73.88144
                       7.07239                     108.34914                      80.47464
                       7.60805                     117.56982                      87.05394
                       8.04734                     125.25252                      92.52197
                       8.39334                     131.40998                      96.86677
                       8.72599                     137.65520                     101.07728
                       8.89898                     140.70909                     103.26699
        </DataArray>
        <DataArray type="Float32" Name="RotationalVelocity" NumberOfComponents="3" format="ascii">
                       2.77979                       0.00015                      -0.25130
                       2.77929                       0.00015                      -0.25123
                       2.77797                       0.00016                      -0.25104
                       2.77632                       0.00021                      -0.25078
                       2.77399                       0.00033                      -0.25039
                       2.77105                       0.00060                      -0.24982
                       2.76818                       0.00103                      -0.24908
                       2.76555                       0.00159                      -0.24810
                       2.76324                       0.00226                      -0.24680
                       2.76131                       0.00300                      -0.24512
                       2.75974                       0.00377                      -0.24302
                       2.75849                       0.00450                      -0.24052
                       2.75750                       0.00518                      -0.23771
                       2.75672                       0.00576                      -0.23474
                       2.75609                       0.00624                      -0.23192
                       2.75564                       0.00658                      -0.22993
                       2.75534                       0.00683                      -0.22882
                       2.75509                       0.00707                      -0.22834
                       2.75499                       0.00720                      -0.22840
        </DataArray>
        <DataArray type="Float32" Name="TranslationalAcceleration" NumberOfComponents="3" format="ascii">
                       0.81975                      -6.95532                       9.30288
                       1.02572                      -8.42359                      11.26835
                       2.91567                     -24.67440                      31.79855
                       4.66703                     -39.91114                      50.42321
                       6.76067                     -57.88169                      71.97427
                       9.30211                     -77.41509                      97.05307
                      11.94715                     -95.55443                     122.03260
                      14.68923                    -113.53503                     146.91801
                      17.54041                    -131.58445                     172.03407
                      20.48471                    -149.79592                     197.47655
                      23.48532                    -168.16017                     223.18061
                      26.49479                    -186.56818                     249.01270
                      29.45907                    -204.89626                     274.80032
                      32.32505                    -223.04202                     300.39938
                      35.04741                    -240.97129                     325.75496
                      37.18018                    -255.79538                     346.76001
                      38.80185                    -267.60838                     363.62011
                      40.39327                    -279.19787                     380.89512
                      41.12592                    -285.33735                     389.47130
        </DataArray>
        <DataArray type="Float32" Name="OrientationX" NumberOfComponents="3" format="ascii">
                       0.97754                       0.21021                       0.01502
                       0.97756                       0.21011                       0.01519
                       0.97759                       0.20993                       0.01581
                       0.97761                       0.20975                       0.01680
                       0.97761                       0.20960                       0.01853
                       0.98276                       0.18488                       0.00211
                       0.98578                       0.16783                      -0.00802
                       0.98788                       0.15443                      -0.01547
                       0.98958                       0.14218                      -0.02265
                       0.99080                       0.13211                      -0.02929
                       0.99141                       0.12619                      -0.03445
                       0.99152                       0.12397                      -0.03895
                       0.99101                       0.12697                      -0.04213
                       0.98964                       0.13701                      -0.04297
                       0.98766                       0.15007                      -0.04474
                       0.98559                       0.16232                      -0.04765
                       0.98360                       0.17299                      -0.05104
                       0.98099                       0.18647                      -0.05375
                       0.97935                       0.19469                      -0.05451
        </DataArray>
        <DataArray type="Float32" Name="OrientationY" NumberOfComponents="3" format="ascii">
                       0.17614                      -0.77583                      -0.60586
                       0.17619                      -0.77593                      -0.60571
                       0.17647                      -0.77619                      -0.60529
                       0.17700                      -0.77651                      -0.60474
                       0.17802                      -0.77692                      -0.60390
                       0.14872                      -0.78365                      -0.60314
                       0.12925                      -0.78794                      -0.60203
                       0.11426                      -0.79112                      -0.60090
                       0.10032                      -0.79382                      -0.59983
                       0.08842                      -0.79593                      -0.59890
                       0.08069                      -0.79726                      -0.59822
                       0.07629                      -0.79801                      -0.59780
                       0.07684                      -0.79803                      -0.59770
                       0.08438                      -0.79704                      -0.59800
                       0.09378                      -0.79563                      -0.59848
                       0.10186                      -0.79429                      -0.59894
                       0.10839                      -0.79311                      -0.59936
                       0.11754                      -0.79132                      -0.60000
                       0.12363                      -0.79005                      -0.60045
        </DataArray>
        <DataArray type="Float32" Name="OrientationZ" NumberOfComponents="3" format="ascii">
                      -0.11571                       0.59490                      -0.79543
                      -0.11548                       0.59480                      -0.79554
                      -0.11479                       0.59452                      -0.79584
                      -0.11380                       0.59417                      -0.79625
                      -0.11218                       0.59368                      -0.79684
                      -0.10985                       0.59306                      -0.79763
                      -0.10736                       0.59244                      -0.79843
                      -0.10504                       0.59185                      -0.79918
                      -0.10326                       0.59130                      -0.79981
                      -0.10243                       0.59080                      -0.80029
                      -0.10295                       0.59030                      -0.80059
                      -0.10519                       0.58976                      -0.80070
                      -0.10951                       0.58909                      -0.80061
                      -0.11618                       0.58818                      -0.80034
                      -0.12541                       0.58690                      -0.79989
                      -0.13507                       0.58545                      -0.79938
                      -0.14416                       0.58400                      -0.79885
                      -0.15442                       0.58228                      -0.79819
                      -0.15997                       0.58131                      -0.79780
        </DataArray>
        <DataArray type="Float32" Name="Force" NumberOfComponents="3" format="ascii">
                      -0.68779                     -10.30790                      -7.60920
                     141.19210                     -70.88962                     -73.51295
                     225.86981                    -240.86352                    -212.70621
                     231.46066                    -387.68284                    -322.97030
                    1340.82873                     276.69419                      18.00225
                    1267.62109                     195.12463                     -28.85903
                    1148.07501                     111.26344                     -71.36547
                    1741.15925                     172.33252                    -100.33499
                    2174.72265                     181.34289                    -145.64652
                    2347.16166                     154.39357                    -185.48601
                    3819.61789                     235.80820                    -315.71611
                    3946.77186                     211.65670                    -361.19563
                    2806.85352                      99.11112                    -310.55534
                    1246.44055                     -57.78451                    -224.56868
                     573.91814                     -86.03170                    -154.65808
                    -689.96974                    -247.94741                     -68.81932
                   -2354.23770                    -422.43834                     109.82318
                   -3423.80517                    -509.82772                     283.03103
                  -18716.27547                   -1184.35770                    2884.98705
        </DataArray>
        <DataArray type="Float32" Name="Moment" NumberOfComponents="3" format="ascii">
                       0.00000                       0.00000                       0.00000
                       0.00000                       0.00000                       0.00000
                       0.00000                       0.00000                       0.00000
                       0.00000                       0.00000                       0.00000
                     141.09785                    -748.92213                    1001.78327
                     253.58521                   -1375.25823                    1840.08988
                     336.65201                   -1869.16485                    2501.65850
                     544.25792                   -3090.24379                    4137.04344
                     778.19995                   -4496.59910                    6021.03490
                     876.90850                   -5110.00551                    6843.07159
                     991.35253                   -5749.65348                    7699.23444
                    1077.38867                   -6116.48686                    8188.39325
                     846.20442                   -4615.01429                    6175.30072
                     879.31263                   -4519.97798                    6043.56595
                     920.92548                   -4384.67153                    5856.51000
                     932.92752                   -4122.84578                    5500.73956
                     877.60960                   -3632.30196                    4841.21823
                     470.24776                   -1815.93771                    2417.47811
                     437.17556                   -1629.10786                    2167.37603
        </DataArray>
      </PointData>
      <Lines>
        <DataArray type="Int32" Name="connectivity" format="ascii">
      0      1
      1      2
      2      3
      3      4
      4      5
      5      6
      6      7
      7      8
      8      9
      9     10
     10     11
     11     12
     12     13
     13     14
     14     15
     15     16
     16     17
     17     18
        </DataArray>
        <DataArray type="Int32" Name="offsets" format="ascii">
      2
      4
      6
      8
     10
     12
     14
     16
     18
     20
     22
     24
     26
     28
     30
     32
     34
     36
        </DataArray>
      </Lines>
    </Piece>
  </PolyData>
</VTKFile>
