<?xml version="1.0"?>
<VTKFile type="PolyData" version="0.1" byte_order="LittleEndian">
  <PolyData>
    <Piece NumberOfPoints="     19" NumberOfVerts="  0" NumberOfLines="     18"
           NumberOfStrips="  0" NumberOfPolys="      0">
      <Points>
        <DataArray type="Float32" NumberOfComponents="3" format="ascii">
                      -4.80796                      -1.01899                      91.11501
                      -4.77769                      -1.94946                      92.11602
                      -4.74319                      -3.88013                      94.05463
                      -4.71813                      -5.84470                      95.96258
                      -4.68731                      -8.32188                      98.32822
                      -4.57532                     -11.19399                     101.25793
                      -4.41401                     -13.97483                     104.27094
                      -4.23625                     -16.75704                     107.28241
                      -4.03972                     -19.53921                     110.29352
                      -3.82693                     -22.32244                     113.30334
                      -3.60259                     -25.10893                     116.31003
                      -3.37057                     -27.89702                     119.31526
                      -3.13791                     -30.68589                     122.32005
                      -2.91358                     -33.47451                     125.32560
                      -2.70609                     -36.26187                     128.33292
                      -2.55549                     -38.58266                     130.84156
                      -2.45335                     -40.43161                     132.85588
                      -2.36222                     -42.23876                     134.90916
                      -2.33668                     -43.17106                     135.90945
        </DataArray>
      </Points>
      <PointData>
        <DataArray type="Float32" Name="TranslationalVelocity" NumberOfComponents="3" format="ascii">
                      -0.25497                      -3.07406                      -2.83086
                      -0.48877                      -5.86484                      -5.41790
                      -0.97414                     -11.26546                     -10.78769
                      -1.46837                     -16.58114                     -16.25473
                      -2.09206                     -23.17608                     -23.15321
                      -2.81597                     -31.36876                     -31.15879
                      -3.51775                     -39.81402                     -38.91755
                      -4.22091                     -48.26722                     -46.68734
                      -4.92535                     -56.73162                     -54.46357
                      -5.63173                     -65.20319                     -62.24850
                      -6.34111                     -73.67457                     -70.04736
                      -7.05363                     -82.14838                     -77.85450
                      -7.76977                     -90.62457                     -85.66664
                      -8.49000                     -99.10328                     -93.48001
                      -9.21488                    -107.58436                    -101.29109
                      -9.82297                    -114.65432                    -107.79535
                     -10.31070                    -120.32691                    -112.97756
                     -10.79115                    -126.10639                    -118.04293
                     -11.03985                    -128.91739                    -120.65635
        </DataArray>
        <DataArray type="Float32" Name="RotationalVelocity" NumberOfComponents="3" format="ascii">
                       2.77988                      -0.00014                      -0.25110
                       2.78034                      -0.00015                      -0.25114
                       2.78153                      -0.00018                      -0.25124
                       2.78302                      -0.00018                      -0.25139
                       2.78511                      -0.00015                      -0.25165
                       2.78778                      -0.00004                      -0.25205
                       2.79041                       0.00011                      -0.25255
                       2.79285                       0.00027                      -0.25311
                       2.79503                       0.00034                      -0.25370
                       2.79691                       0.00026                      -0.25429
                       2.79847                      -0.00005                      -0.25484
                       2.79975                      -0.00064                      -0.25532
                       2.80076                      -0.00156                      -0.25573
                       2.80154                      -0.00279                      -0.25606
                       2.80211                      -0.00427                      -0.25634
                       2.80243                      -0.00561                      -0.25658
                       2.80255                      -0.00669                      -0.25679
                       2.80255                      -0.00768                      -0.25706
                       2.80249                      -0.00813                      -0.25723
        </DataArray>
        <DataArray type="Float32" Name="TranslationalAcceleration" NumberOfComponents="3" format="ascii">
                      -0.79091                       7.91793                      -8.54568
                      -0.93741                       9.61139                     -10.30711
                      -2.63393                      28.06650                     -28.98827
                      -4.16364                      45.37100                     -45.88240
                      -5.92435                      65.84949                     -65.39785
                      -7.98233                      88.47560                     -88.27826
                     -10.04780                     109.87829                    -111.24919
                     -12.11724                     131.28770                    -134.17225
                     -14.22845                     152.95548                    -157.33966
                     -16.40144                     174.97126                    -180.82725
                     -18.64394                     197.30240                    -204.56035
                     -20.95932                     219.80775                    -228.40785
                     -23.34810                     242.32773                    -252.20334
                     -25.81325                     264.72877                    -275.80991
                     -28.36473                     286.95795                    -299.17520
                     -30.57455                     305.40083                    -318.52132
                     -32.41146                     320.14428                    -334.05784
                     -34.34863                     334.73963                    -350.05255
                     -35.33285                     342.38403                    -357.94091
        </DataArray>
        <DataArray type="Float32" Name="OrientationX" NumberOfComponents="3" format="ascii">
                       0.95701                      -0.19775                      -0.21219
                       0.95700                      -0.19750                      -0.21250
                       0.95690                      -0.19684                      -0.21355
                       0.95671                      -0.19598                      -0.21515
                       0.95635                      -0.19475                      -0.21786
                       0.96451                      -0.17067                      -0.20148
                       0.96936                      -0.15334                      -0.19193
                       0.97275                      -0.13914                      -0.18545
                       0.97568                      -0.12581                      -0.17950
                       0.97801                      -0.11434                      -0.17444
                       0.97942                      -0.10656                      -0.17142
                       0.98021                      -0.10213                      -0.16956
                       0.98016                      -0.10251                      -0.16965
                       0.97885                      -0.10949                      -0.17279
                       0.97723                      -0.11964                      -0.17526
                       0.97581                      -0.12981                      -0.17592
                       0.97463                      -0.13918                      -0.17530
                       0.97276                      -0.15161                      -0.17536
                       0.97140                      -0.15938                      -0.17599
        </DataArray>
        <DataArray type="Float32" Name="OrientationY" NumberOfComponents="3" format="ascii">
                       0.28917                       0.70728                       0.64509
                       0.28920                       0.70723                       0.64513
                       0.28943                       0.70709                       0.64518
                       0.28990                       0.70693                       0.64515
                       0.29084                       0.70670                       0.64497
                       0.26206                       0.71217                       0.65126
                       0.24288                       0.71538                       0.65516
                       0.22810                       0.71761                       0.65803
                       0.21431                       0.71947                       0.66062
                       0.20251                       0.72088                       0.66281
                       0.19478                       0.72166                       0.66428
                       0.19029                       0.72200                       0.66521
                       0.19064                       0.72179                       0.66534
                       0.19789                       0.72079                       0.66431
                       0.20698                       0.71948                       0.66296
                       0.21485                       0.71826                       0.66178
                       0.22127                       0.71719                       0.66081
                       0.23040                       0.71564                       0.65938
                       0.23652                       0.71455                       0.65839
        </DataArray>
        <DataArray type="Float32" Name="OrientationZ" NumberOfComponents="3" format="ascii">
                       0.02251                      -0.67871                       0.73406
                       0.02287                      -0.67884                       0.73393
                       0.02400                      -0.67918                       0.73358
                       0.02566                      -0.67959                       0.73314
                       0.02836                      -0.68018                       0.73249
                       0.03234                      -0.68094                       0.73162
                       0.03684                      -0.68170                       0.73071
                       0.04153                      -0.68240                       0.72980
                       0.04603                      -0.68303                       0.72894
                       0.04996                      -0.68356                       0.72818
                       0.05292                      -0.68399                       0.72757
                       0.05448                      -0.68431                       0.72715
                       0.05424                      -0.68448                       0.72701
                       0.05180                      -0.68445                       0.72721
                       0.04679                      -0.68413                       0.72785
                       0.04045                      -0.68356                       0.72877
                       0.03375                      -0.68284                       0.72979
                       0.02553                      -0.68182                       0.73107
                       0.02082                      -0.68119                       0.73181
        </DataArray>
        <DataArray type="Float32" Name="Force" NumberOfComponents="3" format="ascii">
                       1.60607                      19.28307                      17.78002
                     202.19422                      97.68321                      84.01932
                     313.78442                     280.10936                     248.76251
                     326.73128                     415.19151                     372.58669
                    1608.55540                    -316.49409                    -355.25594
                    1540.58499                    -232.52660                    -283.52793
                    1497.08097                    -155.66074                    -219.85784
                    2279.70690                    -227.44719                    -340.82790
                    2741.21829                    -220.04743                    -377.51633
                    3085.01130                    -199.41367                    -397.05513
                    4756.52151                    -268.22206                    -595.40510
                    5111.30778                    -248.77007                    -614.40593
                    4356.87857                    -184.34924                    -496.65997
                    2885.48235                     -58.11113                    -259.84663
                     942.88085                     104.10719                      35.78886
                     665.79742                      91.86664                      48.04683
                    -136.34603                     181.95624                     174.81286
                   -1626.78009                     274.56318                     311.11499
                  -19723.79381                     806.91514                    1311.06745
        </DataArray>
        <DataArray type="Float32" Name="Moment" NumberOfComponents="3" format="ascii">
                       0.00000                       0.00000                       0.00000
                       0.00000                       0.00000                       0.00000
                       0.00000                       0.00000                       0.00000
                       0.00000                       0.00000                       0.00000
                     -37.96738                     905.47396                    -978.58967
                     -78.77965                    1645.79005                   -1777.80267
                    -120.96518                    2216.60145                   -2393.05767
                    -226.05712                    3673.20215                   -3963.30086
                    -368.22617                    5396.19123                   -5819.10272
                    -454.80124                    6138.99637                   -6616.88143
                    -541.04611                    6893.99758                   -7427.91706
                    -593.53669                    7344.03820                   -7911.26091
                    -449.06952                    5579.19221                   -6010.27131
                    -423.52557                    5507.40214                   -5934.71977
                    -362.67858                    5219.40877                   -5627.87686
                    -300.41003                    4997.93486                   -5393.30511
                    -221.76275                    4419.10906                   -4772.65180
                     -83.51142                    2198.83248                   -2377.16978
                     -60.09837                    1939.04792                   -2097.53893
        </DataArray>
      </PointData>
      <Lines>
        <DataArray type="Int32" Name="connectivity" format="ascii">
      0      1
      1      2
      2      3
      3      4
      4      5
      5      6
      6      7
      7      8
      8      9
      9     10
     10     11
     11     12
     12     13
     13     14
     14     15
     15     16
     16     17
     17     18
        </DataArray>
        <DataArray type="Int32" Name="offsets" format="ascii">
      2
      4
      6
      8
     10
     12
     14
     16
     18
     20
     22
     24
     26
     28
     30
     32
     34
     36
        </DataArray>
      </Lines>
    </Piece>
  </PolyData>
</VTKFile>
