<?xml version="1.0"?>
<VTKFile type="PolyData" version="0.1" byte_order="LittleEndian">
  <PolyData>
    <Piece NumberOfPoints="     19" NumberOfVerts="  0" NumberOfLines="     18"
           NumberOfStrips="  0" NumberOfPolys="      0">
      <Points>
        <DataArray type="Float32" NumberOfComponents="3" format="ascii">
                      -4.78710                      -0.68917                      91.34941
                      -4.73745                      -1.31273                      92.56491
                      -4.66225                      -2.64450                      94.95396
                      -4.59554                      -4.01708                      97.32295
                      -4.51199                      -5.75816                     100.27179
                      -4.33944                      -7.72337                     103.87095
                      -4.12001                      -9.57593                     107.52585
                      -3.88400                     -11.42882                     111.18009
                      -3.62918                     -13.28036                     114.83434
                      -3.35807                     -15.13204                     118.48799
                      -3.07538                     -16.98671                     122.13982
                      -2.78511                     -18.84251                     125.79097
                      -2.49443                     -20.69868                     129.44215
                      -2.21245                     -22.55419                     133.09425
                      -1.94785                     -24.40807                     136.74796
                      -1.75025                     -25.95063                     139.79485
                      -1.61112                     -27.17554                     142.23756
                      -1.48458                     -28.34970                     144.70648
                      -1.44072                     -28.97200                     145.92355
        </DataArray>
      </Points>
      <PointData>
        <DataArray type="Float32" Name="TranslationalVelocity" NumberOfComponents="3" format="ascii">
                      -0.16793                      -3.72677                      -1.89143
                      -0.32437                      -7.11865                      -3.62507
                      -0.65852                     -13.78257                      -7.32933
                      -1.00330                     -20.39266                     -11.14970
                      -1.44171                     -28.62740                     -16.00014
                      -1.93858                     -38.70627                     -21.48133
                      -2.40923                     -48.96447                     -26.65458
                      -2.88172                     -59.23703                     -31.83451
                      -3.35459                     -69.52565                     -37.01607
                      -3.82668                     -79.82677                     -42.20292
                      -4.29660                     -90.13452                     -47.40258
                      -4.76122                    -100.44972                     -52.60943
                      -5.21714                    -110.77141                     -57.82095
                      -5.66033                    -121.09894                     -63.03405
                      -6.08617                    -131.43170                     -68.24603
                      -6.42352                    -140.04677                     -72.58571
                      -6.67830                    -146.95165                     -76.03384
                      -6.90692                    -153.93018                     -79.34161
                      -7.02448                    -157.36718                     -81.09534
        </DataArray>
        <DataArray type="Float32" Name="RotationalVelocity" NumberOfComponents="3" format="ascii">
                       2.77970                       0.00020                      -0.25109
                       2.78024                       0.00019                      -0.25113
                       2.78169                       0.00013                      -0.25127
                       2.78351                       0.00005                      -0.25149
                       2.78608                      -0.00009                      -0.25189
                       2.78936                      -0.00027                      -0.25254
                       2.79258                      -0.00039                      -0.25330
                       2.79560                      -0.00039                      -0.25404
                       2.79832                      -0.00016                      -0.25461
                       2.80074                       0.00039                      -0.25485
                       2.80288                       0.00138                      -0.25463
                       2.80480                       0.00290                      -0.25382
                       2.80658                       0.00506                      -0.25236
                       2.80828                       0.00796                      -0.25026
                       2.80996                       0.01168                      -0.24759
                       2.81137                       0.01545                      -0.24508
                       2.81248                       0.01894                      -0.24298
                       2.81356                       0.02287                      -0.24095
                       2.81408                       0.02500                      -0.24000
        </DataArray>
        <DataArray type="Float32" Name="TranslationalAcceleration" NumberOfComponents="3" format="ascii">
                      -0.94437                       5.30886                     -10.36634
                      -1.13442                       6.44157                     -12.52048
                      -3.21622                      19.10870                     -35.49752
                      -5.11061                      31.15195                     -56.44947
                      -7.30189                      45.53146                     -80.79568
                      -9.82238                      61.05504                    -108.98191
                     -12.30979                      75.37129                    -136.94304
                     -14.79433                      89.70100                    -164.88020
                     -17.32568                     104.20335                    -193.14316
                     -19.93586                     118.93987                    -221.82932
                     -22.64492                     133.89530                    -250.85812
                     -25.46837                     148.96559                    -280.06543
                     -28.42030                     164.03951                    -309.24853
                     -31.51896                     179.02440                    -338.24080
                     -34.79193                     193.88448                    -366.97934
                     -37.68667                     206.20687                    -390.80749
                     -40.13205                     216.02972                    -409.93905
                     -42.73541                     225.57844                    -429.48287
                     -44.08401                     230.71770                    -439.25278
        </DataArray>
        <DataArray type="Float32" Name="OrientationX" NumberOfComponents="3" format="ascii">
                       0.96228                      -0.22433                      -0.15394
                       0.96226                      -0.22418                      -0.15429
                       0.96215                      -0.22384                      -0.15546
                       0.96195                      -0.22347                      -0.15720
                       0.96157                      -0.22303                      -0.16010
                       0.96909                      -0.19521                      -0.15083
                       0.97349                      -0.17581                      -0.14631
                       0.97652                      -0.16029                      -0.14391
                       0.97911                      -0.14576                      -0.14177
                       0.98114                      -0.13329                      -0.13998
                       0.98236                      -0.12496                      -0.13914
                       0.98304                      -0.12021                      -0.13851
                       0.98299                      -0.12067                      -0.13842
                       0.98187                      -0.12838                      -0.13944
                       0.98050                      -0.13899                      -0.13895
                       0.97933                      -0.14911                      -0.13668
                       0.97837                      -0.15808                      -0.13341
                       0.97681                      -0.17020                      -0.12994
                       0.97564                      -0.17792                      -0.12835
        </DataArray>
        <DataArray type="Float32" Name="OrientationY" NumberOfComponents="3" format="ascii">
                       0.26959                       0.86239                       0.42848
                       0.26962                       0.86238                       0.42850
                       0.26985                       0.86232                       0.42847
                       0.27030                       0.86224                       0.42835
                       0.27123                       0.86209                       0.42806
                       0.24226                       0.86849                       0.43248
                       0.22295                       0.87230                       0.43519
                       0.20805                       0.87498                       0.43718
                       0.19416                       0.87725                       0.43902
                       0.18228                       0.87900                       0.44061
                       0.17451                       0.88004                       0.44169
                       0.17001                       0.88057                       0.44238
                       0.17039                       0.88045                       0.44246
                       0.17771                       0.87943                       0.44162
                       0.18690                       0.87805                       0.44057
                       0.19486                       0.87676                       0.43969
                       0.20135                       0.87563                       0.43900
                       0.21055                       0.87397                       0.43800
                       0.21670                       0.87280                       0.43734
        </DataArray>
        <DataArray type="Float32" Name="OrientationZ" NumberOfComponents="3" format="ascii">
                       0.03663                      -0.45382                       0.89034
                       0.03700                      -0.45393                       0.89027
                       0.03814                      -0.45420                       0.89008
                       0.03982                      -0.45455                       0.88983
                       0.04255                      -0.45503                       0.88946
                       0.04657                      -0.45565                       0.88894
                       0.05111                      -0.45627                       0.88837
                       0.05584                      -0.45686                       0.88779
                       0.06037                      -0.45737                       0.88722
                       0.06431                      -0.45782                       0.88672
                       0.06726                      -0.45817                       0.88631
                       0.06879                      -0.45842                       0.88607
                       0.06848                      -0.45852                       0.88604
                       0.06593                      -0.45840                       0.88630
                       0.06077                      -0.45795                       0.88690
                       0.05427                      -0.45723                       0.88769
                       0.04742                      -0.45637                       0.88853
                       0.03902                      -0.45520                       0.88953
                       0.03422                      -0.45450                       0.89009
        </DataArray>
        <DataArray type="Float32" Name="Force" NumberOfComponents="3" format="ascii">
                       0.96822                      21.11439                      10.72248
                     197.81067                     117.09594                      51.46647
                     303.64797                     336.22585                     158.38988
                     313.47551                     499.31814                     240.55854
                    1621.55854                    -367.24333                    -264.91572
                    1570.78212                    -270.17744                    -220.20034
                    1539.17769                    -181.67758                    -181.36577
                    2335.17543                    -265.51518                    -282.57753
                    2802.78093                    -256.61924                    -321.94952
                    3159.94503                    -234.55139                    -349.20499
                    4836.74250                    -313.88312                    -527.69166
                    5194.09635                    -291.44684                    -552.41363
                    4412.39939                    -213.01268                    -450.07378
                    2906.89682                     -59.99507                    -247.01733
                     911.81199                     133.78264                       5.84995
                     645.76215                     131.98046                      27.88618
                    -264.29635                     229.39543                     131.17102
                   -1776.32401                     321.40917                     241.82336
                  -19754.03089                     657.94022                    1094.77315
        </DataArray>
        <DataArray type="Float32" Name="Moment" NumberOfComponents="3" format="ascii">
                       0.00000                       0.00000                       0.00000
                       0.00000                       0.00000                       0.00000
                       0.00000                       0.00000                       0.00000
                       0.00000                       0.00000                       0.00000
                     -56.62870                     603.42451                   -1183.13243
                    -112.78659                    1097.72190                   -2151.41745
                    -167.11111                    1481.51502                   -2902.26623
                    -302.52266                    2454.77283                   -4806.54965
                    -479.80383                    3600.68373                   -7047.03575
                    -582.04196                    4099.76410                   -8020.57832
                    -683.93799                    4606.28027                   -9008.79415
                    -745.47915                    4908.99322                   -9599.33058
                    -564.30699                    3732.41210                   -7298.80095
                    -536.26386                    3683.71461                   -7205.43950
                    -467.97582                    3488.04163                   -6826.29226
                    -400.02783                    3338.82006                   -6538.58507
                    -308.86150                    2950.91106                   -5782.95814
                    -126.35515                    1467.91177                   -2879.15928
                     -97.79428                    1296.18598                   -2543.58087
        </DataArray>
      </PointData>
      <Lines>
        <DataArray type="Int32" Name="connectivity" format="ascii">
      0      1
      1      2
      2      3
      3      4
      4      5
      5      6
      6      7
      7      8
      8      9
      9     10
     10     11
     11     12
     12     13
     13     14
     14     15
     15     16
     16     17
     17     18
        </DataArray>
        <DataArray type="Int32" Name="offsets" format="ascii">
      2
      4
      6
      8
     10
     12
     14
     16
     18
     20
     22
     24
     26
     28
     30
     32
     34
     36
        </DataArray>
      </Lines>
    </Piece>
  </PolyData>
</VTKFile>
