<?xml version="1.0"?>
<VTKFile type="PolyData" version="0.1" byte_order="LittleEndian">
  <PolyData>
    <Piece NumberOfPoints="     19" NumberOfVerts="  0" NumberOfLines="     18"
           NumberOfStrips="  0" NumberOfPolys="      0">
      <Points>
        <DataArray type="Float32" NumberOfComponents="3" format="ascii">
                      -5.01348                      -0.92297                      88.84267
                      -5.17028                      -1.75975                      87.77309
                      -5.50971                      -3.35757                      85.57788
                      -5.85905                      -4.91913                      83.35519
                      -6.29748                      -6.84886                      80.55907
                      -6.75232                      -9.27720                      77.28157
                      -7.16227                     -11.80697                      74.07680
                      -7.56012                     -14.33697                      70.87009
                      -7.94431                     -16.86881                      67.66243
                      -8.31805                     -19.40117                      64.45321
                      -8.68667                     -21.93147                      61.24110
                      -9.05458                     -24.46127                      58.02795
                      -9.42925                     -26.99103                      54.81527
                      -9.81987                     -29.52128                      51.60500
                     -10.23498                     -32.05236                      48.39907
                     -10.60908                     -34.16271                      45.73285
                     -10.93019                     -35.85803                      43.60927
                     -11.26567                     -37.59751                      41.52309
                     -11.45411                     -38.43495                      40.45832
        </DataArray>
      </Points>
      <PointData>
        <DataArray type="Float32" Name="TranslationalVelocity" NumberOfComponents="3" format="ascii">
                      -0.22922                       3.29433                      -2.56014
                      -0.43958                       6.30627                      -4.88572
                      -0.84242                      12.49012                      -9.32455
                      -1.23788                      18.74927                     -13.66012
                      -1.72963                      26.61717                     -19.01389
                      -2.35325                      35.81626                     -25.74469
                      -3.00949                      44.79340                     -32.74895
                      -3.67488                      53.76434                     -39.74581
                      -4.35176                      62.72656                     -46.74013
                      -5.04188                      71.68354                     -53.72881
                      -5.74677                      80.64133                     -60.70527
                      -6.46898                      89.59694                     -67.67434
                      -7.21078                      98.54908                     -74.63757
                      -7.97438                     107.49552                     -81.59633
                      -8.76182                     116.43357                     -88.55113
                      -9.43813                     123.87227                     -94.34418
                      -9.99393                     129.80153                     -98.99383
                     -10.57314                     135.62976                    -103.76086
                     -10.85919                     138.60832                    -106.05327
        </DataArray>
        <DataArray type="Float32" Name="RotationalVelocity" NumberOfComponents="3" format="ascii">
                       2.77973                       0.00018                      -0.25108
                       2.77925                       0.00032                      -0.25112
                       2.77795                       0.00074                      -0.25132
                       2.77633                       0.00133                      -0.25164
                       2.77403                       0.00223                      -0.25223
                       2.77110                       0.00354                      -0.25322
                       2.76821                       0.00507                      -0.25451
                       2.76551                       0.00686                      -0.25613
                       2.76305                       0.00895                      -0.25811
                       2.76085                       0.01142                      -0.26045
                       2.75888                       0.01433                      -0.26316
                       2.75707                       0.01771                      -0.26624
                       2.75538                       0.02157                      -0.26964
                       2.75373                       0.02584                      -0.27330
                       2.75209                       0.03043                      -0.27713
                       2.75073                       0.03433                      -0.28034
                       2.74967                       0.03740                      -0.28285
                       2.74867                       0.04030                      -0.28525
                       2.74820                       0.04164                      -0.28637
        </DataArray>
        <DataArray type="Float32" Name="TranslationalAcceleration" NumberOfComponents="3" format="ascii">
                       0.83584                       7.15563                       9.17543
                       1.00404                       8.64651                      11.10820
                       2.91018                      24.13789                      32.22975
                       4.68393                      38.02907                      51.88823
                       6.77383                      53.96468                      74.99915
                       9.10251                      72.81570                     100.62920
                      11.32506                      91.88413                     124.96475
                      13.54400                     110.84134                     149.19165
                      15.78109                     129.94280                     173.61338
                      18.04248                     149.25920                     198.34067
                      20.32556                     168.73419                     223.33993
                      22.62416                     188.27289                     248.46095
                      24.93898                     207.74768                     273.52654
                      27.28476                     227.05360                     298.38505
                      29.69787                     246.15413                     322.97107
                      31.80963                     261.96662                     343.29910
                      33.60021                     274.67896                     359.51471
                      35.51875                     287.85951                     375.61080
                      36.54590                     294.29156                     383.95669
        </DataArray>
        <DataArray type="Float32" Name="OrientationX" NumberOfComponents="3" format="ascii">
                       0.95254                       0.15545                      -0.26175
                       0.95257                       0.15568                      -0.26150
                       0.95261                       0.15648                      -0.26085
                       0.95264                       0.15774                      -0.25998
                       0.95262                       0.15991                      -0.25872
                       0.96106                       0.13872                      -0.23899
                       0.96632                       0.12552                      -0.22465
                       0.97018                       0.11587                      -0.21289
                       0.97355                       0.10680                      -0.20200
                       0.97623                       0.09886                      -0.19286
                       0.97789                       0.09346                      -0.18706
                       0.97875                       0.08969                      -0.18442
                       0.97851                       0.08860                      -0.18619
                       0.97673                       0.09163                      -0.19390
                       0.97424                       0.09454                      -0.20474
                       0.97176                       0.09592                      -0.21558
                       0.96948                       0.09618                      -0.22552
                       0.96629                       0.09778                      -0.23815
                       0.96420                       0.09952                      -0.24579
        </DataArray>
        <DataArray type="Float32" Name="OrientationY" NumberOfComponents="3" format="ascii">
                       0.28215                      -0.77368                       0.56729
                       0.28216                      -0.77371                       0.56724
                       0.28238                      -0.77374                       0.56708
                       0.28282                      -0.77372                       0.56689
                       0.28374                      -0.77360                       0.56660
                       0.25506                      -0.77808                       0.57405
                       0.23593                      -0.78072                       0.57864
                       0.22116                      -0.78258                       0.58195
                       0.20738                      -0.78419                       0.58484
                       0.19553                      -0.78552                       0.58713
                       0.18773                      -0.78641                       0.58849
                       0.18313                      -0.78700                       0.58915
                       0.18332                      -0.78717                       0.58885
                       0.19037                      -0.78674                       0.58719
                       0.19924                      -0.78613                       0.58507
                       0.20690                      -0.78558                       0.58314
                       0.21316                      -0.78512                       0.58151
                       0.22211                      -0.78439                       0.57914
                       0.22812                      -0.78387                       0.57750
        </DataArray>
        <DataArray type="Float32" Name="OrientationZ" NumberOfComponents="3" format="ascii">
                      -0.11432                      -0.61421                      -0.78082
                      -0.11402                      -0.61412                      -0.78094
                      -0.11309                      -0.61387                      -0.78126
                      -0.11174                      -0.61357                      -0.78169
                      -0.10954                      -0.61317                      -0.78232
                      -0.10632                      -0.61265                      -0.78317
                      -0.10276                      -0.61215                      -0.78404
                      -0.09917                      -0.61168                      -0.78487
                      -0.09594                      -0.61125                      -0.78560
                      -0.09345                      -0.61089                      -0.78618
                      -0.09210                      -0.61060                      -0.78657
                      -0.09229                      -0.61040                      -0.78670
                      -0.09439                      -0.61033                      -0.78650
                      -0.09875                      -0.61045                      -0.78588
                      -0.10564                      -0.61079                      -0.78471
                      -0.11342                      -0.61128                      -0.78324
                      -0.12113                      -0.61183                      -0.78166
                      -0.13017                      -0.61251                      -0.77967
                      -0.13520                      -0.61289                      -0.77851
        </DataArray>
        <DataArray type="Float32" Name="Force" NumberOfComponents="3" format="ascii">
                       1.46787                     -20.93117                      16.25019
                     171.90335                    -116.58616                      66.60716
                     293.13383                    -328.81333                     216.17901
                     311.79939                    -473.43901                     327.72787
                    1497.39128                     223.67915                    -385.59691
                    1343.60096                     143.07796                    -294.95433
                    1195.35630                      63.42213                    -206.59411
                    1815.52927                     107.89236                    -314.30099
                    2239.47393                     104.94225                    -356.08722
                    2450.63627                      80.57912                    -354.76612
                    4007.14868                     121.81506                    -565.17483
                    4223.56024                      93.49135                    -569.26505
                    3302.62197                      23.60470                    -415.25430
                    1827.58821                     -82.01660                    -165.45963
                     781.54608                    -109.38279                     -19.35834
                      75.32211                    -187.70155                     136.71559
                   -1372.59396                    -223.35290                     388.67749
                   -2585.68448                    -200.48795                     589.84408
                  -18794.70788                     564.75556                    2818.80525
        </DataArray>
        <DataArray type="Float32" Name="Moment" NumberOfComponents="3" format="ascii">
                       0.00000                       0.00000                       0.00000
                       0.00000                       0.00000                       0.00000
                       0.00000                       0.00000                       0.00000
                       0.00000                       0.00000                       0.00000
                     145.55438                     816.95455                    1039.13581
                     252.84948                    1462.86789                    1861.41680
                     325.95282                    1952.37390                    2485.32484
                     521.34027                    3237.33158                    4122.77376
                     743.59777                    4775.51245                    6083.96130
                     821.44551                    5418.43274                    6905.04704
                     908.88735                    6084.91919                    7755.62071
                     967.68066                    6466.25982                    8241.49823
                     747.42884                    4882.99467                    6222.05842
                     767.65145                    4792.41635                    6103.56172
                     782.21455                    4561.61601                    5804.96235
                     803.08413                    4358.12968                    5540.97532
                     756.44939                    3840.28508                    4878.17468
                     405.83141                    1914.96984                    2429.93091
                     377.50238                    1714.00432                    2173.63490
        </DataArray>
      </PointData>
      <Lines>
        <DataArray type="Int32" Name="connectivity" format="ascii">
      0      1
      1      2
      2      3
      3      4
      4      5
      5      6
      6      7
      7      8
      8      9
      9     10
     10     11
     11     12
     12     13
     13     14
     14     15
     15     16
     16     17
     17     18
        </DataArray>
        <DataArray type="Int32" Name="offsets" format="ascii">
      2
      4
      6
      8
     10
     12
     14
     16
     18
     20
     22
     24
     26
     28
     30
     32
     34
     36
        </DataArray>
      </Lines>
    </Piece>
  </PolyData>
</VTKFile>
