<?xml version="1.0"?>
<VTKFile type="PolyData" version="0.1" byte_order="LittleEndian">
  <PolyData>
    <Piece NumberOfPoints="    550" NumberOfVerts="  0" NumberOfLines="     21"
           NumberOfStrips="  0" NumberOfPolys="    567">
      <Points>
        <DataArray type="Float32" NumberOfComponents="3" format="ascii">
                       2.97358                       0.00000                       2.18944
                       2.88016                       0.73945                       2.18945
                       2.60579                       1.43244                       2.18950
                       2.16770                       2.03542                       2.18958
                       1.59341                       2.51051                       2.18969
                       0.91902                       2.82785                       2.18982
                       0.18690                       2.96751                       2.18996
                      -0.55695                       2.92071                       2.19010
                      -1.26580                       2.69039                       2.19023
                      -1.89510                       2.29103                       2.19035
                      -2.40531                       1.74771                       2.19045
                      -2.76437                       1.09458                       2.19052
                      -2.94973                       0.37267                       2.19056
                      -2.94973                      -0.37266                       2.19056
                      -2.76437                      -1.09457                       2.19053
                      -2.40531                      -1.74770                       2.19046
                      -1.89510                      -2.29102                       2.19037
                      -1.26580                      -2.69039                       2.19025
                      -0.55695                      -2.92070                       2.19011
                       0.18690                      -2.96750                       2.18997
                       0.91902                      -2.82784                       2.18984
                       1.59341                      -2.51050                       2.18971
                       2.16770                      -2.03541                       2.18960
                       2.60579                      -1.43243                       2.18951
                       2.88016                      -0.73944                       2.18946
                       2.92213                       0.00003                       6.56809
                       2.83039                       0.72624                       6.56815
                       2.56093                       1.40681                       6.56832
                       2.13069                       1.99899                       6.56859
                       1.56669                       2.46557                       6.56896
                       0.90438                       2.77723                       6.56939
                       0.18537                       2.91439                       6.56985
                      -0.54517                       2.86843                       6.57033
                      -1.24132                       2.64224                       6.57079
                      -1.85935                       2.25003                       6.57119
                      -2.36042                       1.71644                       6.57153
                      -2.71305                       1.07500                       6.57176
                      -2.89509                       0.36602                       6.57189
                      -2.89509                      -0.36596                       6.57189
                      -2.71305                      -1.07494                       6.57178
                      -2.36042                      -1.71638                       6.57156
                      -1.85935                      -2.24997                       6.57123
                      -1.24132                      -2.64218                       6.57083
                      -0.54517                      -2.86837                       6.57038
                       0.18537                      -2.91433                       6.56991
                       0.90438                      -2.77717                       6.56943
                       1.56669                      -2.46551                       6.56900
                       2.13069                      -1.99893                       6.56863
                       2.56093                      -1.40675                       6.56834
                       2.83039                      -0.72618                       6.56816
                       2.87288                       0.00008                      10.94661
                       2.78282                       0.71304                      10.94671
                       2.51827                       1.38121                      10.94701
                       2.09587                       1.96259                      10.94750
                       1.54216                       2.42066                      10.94815
                       0.89192                       2.72664                      10.94891
                       0.18602                       2.86130                      10.94975
                      -0.53119                       2.81617                      10.95059
                      -1.21464                       2.59410                      10.95140
                      -1.82140                       2.20904                      10.95213
                      -2.31334                       1.68519                      10.95271
                      -2.65954                       1.05545                      10.95313
                      -2.83826                       0.35939                      10.95335
                      -2.83826                      -0.35924                      10.95336
                      -2.65954                      -1.05529                      10.95316
                      -2.31334                      -1.68503                      10.95276
                      -1.82140                      -2.20889                      10.95219
                      -1.21465                      -2.59395                      10.95147
                      -0.53119                      -2.81602                      10.95067
                       0.18602                      -2.86114                      10.94982
                       0.89192                      -2.72648                      10.94899
                       1.54216                      -2.42050                      10.94822
                       2.09587                      -1.96243                      10.94756
                       2.51827                      -1.38105                      10.94705
                       2.78282                      -0.71288                      10.94673
                       2.82601                       0.00015                      15.32512
                       2.73761                       0.69987                      15.32526
                       2.47798                       1.35562                      15.32570
                       2.06343                       1.92620                      15.32641
                       1.52000                       2.37577                      15.32734
                       0.88184                       2.67606                      15.32844
                       0.18906                       2.80822                      15.32964
                      -0.51483                       2.76393                      15.33086
                      -1.18559                       2.54599                      15.33202
                      -1.78108                       2.16808                      15.33306
                      -2.26388                       1.65395                      15.33391
                      -2.60365                       1.03591                      15.33451
                      -2.77905                       0.35279                      15.33482
                      -2.77905                      -0.35249                      15.33483
                      -2.60365                      -1.03562                      15.33454
                      -2.26388                      -1.65366                      15.33396
                      -1.78108                      -2.16779                      15.33314
                      -1.18559                      -2.54570                      15.33211
                      -0.51483                      -2.76364                      15.33095
                       0.18906                      -2.80793                      15.32973
                       0.88184                      -2.67577                      15.32853
                       1.52000                      -2.37548                      15.32742
                       2.06343                      -1.92591                      15.32647
                       2.47798                      -1.35533                      15.32575
                       2.73761                      -0.69957                      15.32529
                       2.78154                       0.00023                      19.70369
                       2.69482                       0.68671                      19.70388
                       2.44010                       1.33005                      19.70445
                       2.03340                       1.88984                      19.70536
                       1.50025                       2.33089                      19.70657
                       0.87417                       2.62550                      19.70799
                       0.19450                       2.75516                      19.70953
                      -0.49607                       2.71171                      19.71111
                      -1.15413                       2.49789                      19.71261
                      -1.73835                       2.12713                      19.71395
                      -2.21201                       1.62274                      19.71504
                      -2.54535                       1.01639                      19.71581
                      -2.71743                       0.34620                      19.71622
                      -2.71743                      -0.34574                      19.71623
                      -2.54535                      -1.01593                      19.71585
                      -2.21201                      -1.62228                      19.71510
                      -1.73835                      -2.12668                      19.71404
                      -1.15413                      -2.49743                      19.71271
                      -0.49607                      -2.71125                      19.71122
                       0.19450                      -2.75470                      19.70965
                       0.87418                      -2.62504                      19.70809
                       1.50025                      -2.33043                      19.70666
                       2.03340                      -1.88938                      19.70544
                       2.44010                      -1.32959                      19.70450
                       2.69482                      -0.68625                      19.70391
                       2.73943                       0.00032                      24.08237
                       2.65438                       0.67356                      24.08259
                       2.40458                       1.30449                      24.08328
                       2.00572                       1.85348                      24.08439
                       1.48286                       2.28603                      24.08584
                       0.86886                       2.57495                      24.08756
                       0.20230                       2.70211                      24.08943
                      -0.47494                       2.65950                      24.09133
                      -1.12031                       2.44980                      24.09315
                      -1.69326                       2.08620                      24.09476
                      -2.15778                       1.59153                      24.09608
                      -2.48469                       0.99688                      24.09701
                      -2.65345                       0.33962                      24.09750
                      -2.65345                      -0.33897                      24.09752
                      -2.48469                      -0.99623                      24.09706
                      -2.15778                      -1.59088                      24.09615
                      -1.69326                      -2.08555                      24.09486
                      -1.12031                      -2.44916                      24.09326
                      -0.47494                      -2.65885                      24.09146
                       0.20230                      -2.70146                      24.08956
                       0.86886                      -2.57430                      24.08768
                       1.48286                      -2.28538                      24.08595
                       2.00572                      -1.85283                      24.08447
                       2.40458                      -1.30384                      24.08334
                       2.65438                      -0.67291                      24.08262
                       2.69959                       0.00043                      28.46115
                       2.61622                       0.66042                      28.46141
                       2.37133                       1.27895                      28.46220
                       1.98032                       1.81713                      28.46349
                       1.46774                       2.24117                      28.46518
                       0.86582                       2.52442                      28.46716
                       0.21237                       2.64907                      28.46933
                      -0.45155                       2.60730                      28.47153
                      -1.08422                       2.40173                      28.47363
                      -1.64590                       2.04528                      28.47550
                      -2.10128                       1.56034                      28.47703
                      -2.42176                       0.97739                      28.47810
                      -2.58720                       0.33305                      28.47867
                      -2.58720                      -0.33219                      28.47869
                      -2.42176                      -0.97652                      28.47816
                      -2.10128                      -1.55948                      28.47711
                      -1.64590                      -2.04441                      28.47561
                      -1.08422                      -2.40086                      28.47376
                      -0.45155                      -2.60643                      28.47166
                       0.21237                      -2.64821                      28.46946
                       0.86582                      -2.52355                      28.46729
                       1.46774                      -2.24031                      28.46529
                       1.98031                      -1.81627                      28.46358
                       2.37133                      -1.27808                      28.46227
                       2.61622                      -0.65956                      28.46144
                       2.66195                       0.00055                      32.84002
                       2.58024                       0.64730                      32.84031
                       2.34027                       1.25341                      32.84121
                       1.95710                       1.78080                      32.84265
                       1.45481                       2.19633                      32.84455
                       0.86497                       2.47389                      32.84679
                       0.22463                       2.59604                      32.84923
                      -0.42596                       2.55511                      32.85171
                      -1.04594                       2.35367                      32.85407
                      -1.59635                       2.00437                      32.85618
                      -2.04259                       1.52916                      32.85789
                      -2.35664                       0.95790                      32.85910
                      -2.51876                       0.32650                      32.85974
                      -2.51876                      -0.32539                      32.85976
                      -2.35664                      -0.95680                      32.85916
                      -2.04259                      -1.52806                      32.85798
                      -1.59635                      -2.00327                      32.85629
                      -1.04594                      -2.35257                      32.85420
                      -0.42596                      -2.55401                      32.85185
                       0.22463                      -2.59494                      32.84937
                       0.86497                      -2.47279                      32.84693
                       1.45481                      -2.19523                      32.84467
                       1.95710                      -1.77970                      32.84275
                       2.34027                      -1.25231                      32.84128
                       2.58024                      -0.64620                      32.84034
                       2.62644                       0.00068                      37.21894
                       2.54641                       0.63418                      37.21926
                       2.31135                       1.22788                      37.22026
                       1.93603                       1.74447                      37.22185
                       1.44403                       2.15150                      37.22396
                       0.86627                       2.42337                      37.22643
                       0.23904                       2.54302                      37.22912
                      -0.39823                       2.50293                      37.23186
                      -1.00552                       2.30561                      37.23448
                      -1.54465                       1.96346                      37.23680
                      -1.98176                       1.49798                      37.23870
                      -2.28938                       0.93843                      37.24003
                      -2.44817                       0.31995                      37.24073
                      -2.44817                      -0.31859                      37.24075
                      -2.28938                      -0.93708                      37.24009
                      -1.98176                      -1.49663                      37.23878
                      -1.54465                      -1.96211                      37.23692
                      -1.00552                      -2.30426                      37.23461
                      -0.39823                      -2.50158                      37.23201
                       0.23904                      -2.54167                      37.22927
                       0.86627                      -2.42202                      37.22657
                       1.44403                      -2.15014                      37.22408
                       1.93603                      -1.74312                      37.22196
                       2.31135                      -1.22653                      37.22033
                       2.54641                      -0.63283                      37.21930
                       2.59309                       0.00081                      41.59789
                       2.51473                       0.62107                      41.59825
                       2.28458                       1.20236                      41.59933
                       1.91711                       1.70815                      41.60108
                       1.43539                       2.10667                      41.60337
                       0.86971                       2.37286                      41.60607
                       0.25560                       2.49001                      41.60901
                      -0.36836                       2.45075                      41.61200
                      -0.96295                       2.25756                      41.61486
                      -1.49081                       1.92256                      41.61740
                      -1.91878                       1.46682                      41.61946
                      -2.21996                       0.91896                      41.62092
                      -2.37544                       0.31340                      41.62169
                      -2.37544                      -0.31179                      41.62170
                      -2.21996                      -0.91734                      41.62098
                      -1.91878                      -1.46520                      41.61955
                      -1.49081                      -1.92095                      41.61751
                      -0.96294                      -2.25594                      41.61500
                      -0.36836                      -2.44914                      41.61215
                       0.25560                      -2.48840                      41.60916
                       0.86971                      -2.37125                      41.60622
                       1.43539                      -2.10505                      41.60350
                       1.91711                      -1.70654                      41.60118
                       2.28458                      -1.20075                      41.59940
                       2.51473                      -0.61946                      41.59828
                       2.56193                       0.00094                      45.97684
                       2.48525                       0.60796                      45.97723
                       2.26001                       1.17684                      45.97840
                       1.90039                       1.67183                      45.98030
                       1.42896                       2.06184                      45.98278
                       0.87535                       2.32235                      45.98571
                       0.27435                       2.43700                      45.98890
                      -0.33628                       2.39858                      45.99214
                      -0.91817                       2.20951                      45.99523
                      -1.43476                       1.88167                      45.99798
                      -1.85359                       1.43565                      46.00021
                      -2.14835                       0.89949                      46.00179
                      -2.30050                       0.30686                      46.00262
                      -2.30050                      -0.30498                      46.00264
                      -2.14835                      -0.89761                      46.00185
                      -1.85359                      -1.43377                      46.00030
                      -1.43476                      -1.87979                      45.99809
                      -0.91817                      -2.20763                      45.99536
                      -0.33628                      -2.39670                      45.99228
                       0.27435                      -2.43512                      45.98905
                       0.87535                      -2.32047                      45.98585
                       1.42896                      -2.05996                      45.98291
                       1.90039                      -1.66995                      45.98040
                       2.26001                      -1.17496                      45.97848
                       2.48525                      -0.60608                      45.97726
                       2.53307                       0.00108                      50.35577
                       2.45806                       0.59485                      50.35619
                       2.23774                       1.15132                      50.35746
                       1.88596                       1.63552                      50.35950
                       1.42482                       2.01701                      50.36218
                       0.88329                       2.27184                      50.36534
                       0.29541                       2.38399                      50.36877
                      -0.30190                       2.34641                      50.37226
                      -0.87110                       2.16146                      50.37559
                      -1.37642                       1.84077                      50.37855
                      -1.78611                       1.40449                      50.38096
                      -2.07443                       0.88002                      50.38266
                      -2.22327                       0.30032                      50.38354
                      -2.22327                      -0.29817                      50.38356
                      -2.07443                      -0.87787                      50.38271
                      -1.78611                      -1.40234                      50.38104
                      -1.37641                      -1.83862                      50.37866
                      -0.87110                      -2.15931                      50.37572
                      -0.30190                      -2.34426                      50.37240
                       0.29541                      -2.38184                      50.36891
                       0.88329                      -2.26969                      50.36547
                       1.42482                      -2.01486                      50.36230
                       1.88596                      -1.63337                      50.35960
                       2.23774                      -1.14917                      50.35753
                       2.45806                      -0.59270                      50.35622
                       2.50663                       0.00121                      54.73468
                       2.43329                       0.58174                      54.73513
                       2.21789                       1.12580                      54.73649
                       1.87395                       1.59920                      54.73868
                       1.42310                       1.97219                      54.74156
                       0.89365                       2.22133                      54.74495
                       0.31888                       2.33098                      54.74862
                      -0.26511                       2.29423                      54.75237
                      -0.82160                       2.11341                      54.75594
                      -1.31565                       1.79987                      54.75911
                      -1.71621                       1.37332                      54.76169
                      -1.99810                       0.86055                      54.76351
                      -2.14362                       0.29378                      54.76446
                      -2.14362                      -0.29137                      54.76448
                      -1.99810                      -0.85813                      54.76356
                      -1.71621                      -1.37090                      54.76177
                      -1.31565                      -1.79746                      54.75922
                      -0.82160                      -2.11100                      54.75606
                      -0.26511                      -2.29182                      54.75250
                       0.31888                      -2.32856                      54.74876
                       0.89365                      -2.21891                      54.74508
                       1.42310                      -1.96977                      54.74168
                       1.87396                      -1.59678                      54.73878
                       2.21789                      -1.12339                      54.73656
                       2.43329                      -0.57933                      54.73516
                       2.48271                       0.00134                      59.11359
                       2.41105                       0.56863                      59.11407
                       2.20056                       1.10028                      59.11553
                       1.86447                       1.56287                      59.11786
                       1.42390                       1.92735                      59.12093
                       0.90653                       2.17081                      59.12454
                       0.34487                       2.27796                      59.12847
                      -0.22579                       2.24206                      59.13246
                      -0.76959                       2.06536                      59.13627
                      -1.25237                       1.75897                      59.13965
                      -1.64378                       1.34215                      59.14240
                      -1.91924                       0.84107                      59.14434
                      -2.06144                       0.28724                      59.14535
                      -2.06144                      -0.28456                      59.14536
                      -1.91924                      -0.83840                      59.14439
                      -1.64378                      -1.33948                      59.14247
                      -1.25237                      -1.75630                      59.13975
                      -0.76959                      -2.06269                      59.13638
                      -0.22579                      -2.23938                      59.13259
                       0.34487                      -2.27529                      59.12860
                       0.90653                      -2.16814                      59.12467
                       1.42390                      -1.92468                      59.12104
                       1.86447                      -1.56020                      59.11795
                       2.20056                      -1.09761                      59.11559
                       2.41105                      -0.56596                      59.11410
                       2.46136                       0.00146                      63.49254
                       2.39137                       0.55551                      63.49306
                       2.18579                       1.07474                      63.49460
                       1.85755                       1.52654                      63.49708
                       1.42727                       1.88251                      63.50033
                       0.92198                       2.12029                      63.50415
                       0.37343                       2.22493                      63.50830
                      -0.18390                       2.18987                      63.51252
                      -0.71501                       2.01730                      63.51655
                      -1.18651                       1.71806                      63.52013
                      -1.56879                       1.31097                      63.52304
                      -1.83782                       0.82159                      63.52509
                      -1.97670                       0.28068                      63.52615
                      -1.97670                      -0.27777                      63.52617
                      -1.83782                      -0.81868                      63.52513
                      -1.56879                      -1.30806                      63.52311
                      -1.18651                      -1.71515                      63.52022
                      -0.71501                      -2.01439                      63.51666
                      -0.18390                      -2.18696                      63.51264
                       0.37343                      -2.22202                      63.50842
                       0.92198                      -2.11738                      63.50426
                       1.42727                      -1.87960                      63.50043
                       1.85755                      -1.52363                      63.49716
                       2.18579                      -1.07183                      63.49466
                       2.39137                      -0.55259                      63.49309
                       2.44250                       0.00157                      67.87162
                       2.37419                       0.54237                      67.87216
                       2.17352                       1.04920                      67.87378
                       1.85313                       1.49020                      67.87637
                       1.43313                       1.83766                      67.87977
                       0.93992                       2.06976                      67.88377
                       0.40449                       2.17190                      67.88812
                      -0.13952                       2.13767                      67.89254
                      -0.65793                       1.96923                      67.89676
                      -1.11816                       1.67714                      67.90050
                      -1.49130                       1.27978                      67.90354
                      -1.75390                       0.80210                      67.90569
                      -1.88946                       0.27412                      67.90680
                      -1.88946                      -0.27099                      67.90682
                      -1.75390                      -0.79897                      67.90573
                      -1.49130                      -1.27665                      67.90361
                      -1.11816                      -1.67401                      67.90058
                      -0.65793                      -1.96609                      67.89685
                      -0.13952                      -2.13454                      67.89264
                       0.40449                      -2.16877                      67.88823
                       0.93992                      -2.06663                      67.88387
                       1.43313                      -1.83453                      67.87986
                       1.85313                      -1.48707                      67.87644
                       2.17353                      -1.04607                      67.87383
                       2.37419                      -0.53924                      67.87219
                       2.42588                       0.00166                      72.25092
                       2.35924                       0.52923                      72.25148
                       2.16349                       1.02365                      72.25315
                       1.85094                       1.45385                      72.25582
                       1.44123                       1.79280                      72.25933
                       0.96010                       2.01921                      72.26346
                       0.43778                       2.11885                      72.26794
                      -0.09291                       2.08546                      72.27250
                      -0.59862                       1.92114                      72.27684
                      -1.04758                       1.63621                      72.28070
                      -1.41158                       1.24858                      72.28384
                      -1.66775                       0.78260                      72.28605
                      -1.79998                       0.26754                      72.28719
                      -1.79998                      -0.26421                      72.28720
                      -1.66775                      -0.77927                      72.28608
                      -1.41158                      -1.24525                      72.28389
                      -1.04758                      -1.63288                      72.28077
                      -0.59862                      -1.91781                      72.27692
                      -0.09291                      -2.08213                      72.27259
                       0.43778                      -2.11552                      72.26803
                       0.96010                      -2.01588                      72.26355
                       1.44123                      -1.78947                      72.25941
                       1.85094                      -1.45052                      72.25589
                       2.16349                      -1.02032                      72.25319
                       2.35924                      -0.52590                      72.25150
                       2.41097                       0.00175                      76.63059
                       2.34599                       0.51607                      76.63115
                       2.15516                       0.99808                      76.63284
                       1.85046                       1.41748                      76.63554
                       1.45103                       1.74793                      76.63908
                       0.98198                       1.96866                      76.64325
                       0.47278                       2.06580                      76.64777
                      -0.04459                       2.03324                      76.65237
                      -0.53761                       1.87305                      76.65675
                      -0.97530                       1.59527                      76.66065
                      -1.33016                       1.21736                      76.66381
                      -1.57990                       0.76308                      76.66604
                      -1.70881                       0.26096                      76.66719
                      -1.70881                      -0.25745                      76.66720
                      -1.57990                      -0.75958                      76.66606
                      -1.33016                      -1.21386                      76.66385
                      -0.97530                      -1.59177                      76.66071
                      -0.53761                      -1.86954                      76.65682
                      -0.04459                      -2.02974                      76.65244
                       0.47278                      -2.06229                      76.64785
                       0.98198                      -1.96515                      76.64332
                       1.45103                      -1.74442                      76.63915
                       1.85046                      -1.41398                      76.63559
                       2.15516                      -0.99458                      76.63288
                       2.34599                      -0.51257                      76.63117
                       2.39685                       0.00183                      81.01079
                       2.33355                       0.50291                      81.01135
                       2.14763                       0.97250                      81.01300
                       1.85078                       1.38110                      81.01565
                       1.46164                       1.70304                      81.01912
                       1.00466                       1.91809                      81.02320
                       0.50857                       2.01273                      81.02763
                       0.00452                       1.98101                      81.03213
                      -0.47580                       1.82494                      81.03642
                      -0.90222                       1.55431                      81.04023
                      -1.24795                       1.18614                      81.04333
                      -1.49125                       0.74355                      81.04551
                      -1.61685                       0.25436                      81.04664
                      -1.61685                      -0.25070                      81.04665
                      -1.49125                      -0.73990                      81.04553
                      -1.24795                      -1.18249                      81.04337
                      -0.90222                      -1.55066                      81.04028
                      -0.47580                      -1.82129                      81.03648
                       0.00452                      -1.97736                      81.03219
                       0.50857                      -2.00907                      81.02769
                       1.00466                      -1.91443                      81.02326
                       1.46164                      -1.69939                      81.01917
                       1.85078                      -1.37745                      81.01569
                       2.14763                      -0.96885                      81.01304
                       2.33355                      -0.49925                      81.01137
                       2.38216                       0.00189                      85.39175
                       2.32054                       0.48973                      85.39228
                       2.13953                       0.94691                      85.39383
                       1.85052                       1.34472                      85.39631
                       1.47166                       1.65815                      85.39956
                       1.02676                       1.86751                      85.40338
                       0.54378                       1.95965                      85.40753
                       0.05305                       1.92877                      85.41175
                      -0.41458                       1.77682                      85.41578
                      -0.82973                       1.51335                      85.41935
                      -1.16632                       1.15491                      85.42225
                      -1.40319                       0.72401                      85.42429
                      -1.52547                       0.24775                      85.42535
                      -1.52547                      -0.24396                      85.42536
                      -1.40319                      -0.72023                      85.42431
                      -1.16632                      -1.15112                      85.42228
                      -0.82973                      -1.50957                      85.41939
                      -0.41458                      -1.77304                      85.41583
                       0.05305                      -1.92499                      85.41181
                       0.54378                      -1.95586                      85.40759
                       1.02677                      -1.86372                      85.40344
                       1.47166                      -1.65436                      85.39961
                       1.85052                      -1.34093                      85.39634
                       2.13953                      -0.94313                      85.39385
                       2.32054                      -0.48594                      85.39229
                       2.37402                       0.00192                      87.58259
                       2.31323                       0.48314                      87.58308
                       2.13468                       0.93412                      87.58455
                       1.84959                       1.32652                      87.58689
                       1.47587                       1.63570                      87.58997
                       1.03701                       1.84222                      87.59358
                       0.56058                       1.93311                      87.59751
                       0.07651                       1.90265                      87.60150
                      -0.38477                       1.75276                      87.60531
                      -0.79429                       1.49287                      87.60869
                      -1.12631                       1.13929                      87.61143
                      -1.35997                       0.71424                      87.61336
                      -1.48060                       0.24444                      87.61436
                      -1.48060                      -0.24060                      87.61437
                      -1.35997                      -0.71040                      87.61338
                      -1.12631                      -1.13544                      87.61146
                      -0.79429                      -1.48902                      87.60873
                      -0.38477                      -1.74892                      87.60536
                       0.07651                      -1.89880                      87.60156
                       0.56058                      -1.92926                      87.59756
                       1.03701                      -1.83837                      87.59364
                       1.47587                      -1.63185                      87.59001
                       1.84959                      -1.32268                      87.58693
                       2.13468                      -0.93027                      87.58457
                       2.31323                      -0.47929                      87.58309
                       3.00000                       0.00000                       0.00000
                       2.90575                       0.74607                       0.00000
                       2.62892                       1.44526                       0.00000
                       2.18691                       2.05364                       0.00000
                       1.60748                       2.53298                       0.00000
                       0.92705                       2.85317                       0.00000
                       0.18837                       2.99408                       0.00000
                      -0.56214                       2.94686                       0.00000
                      -1.27734                       2.71448                       0.00000
                      -1.91227                       2.31154                       0.00000
                      -2.42705                       1.76336                       0.00000
                      -2.78933                       1.10437                       0.00000
                      -2.97634                       0.37600                       0.00000
                      -2.97634                      -0.37600                       0.00000
                      -2.78933                      -1.10437                       0.00000
                      -2.42705                      -1.76336                       0.00000
                      -1.91227                      -2.31154                       0.00000
                      -1.27734                      -2.71448                       0.00000
                      -0.56214                      -2.94686                       0.00000
                       0.18837                      -2.99408                       0.00000
                       0.92705                      -2.85317                       0.00000
                       1.60748                      -2.53298                       0.00000
                       2.18691                      -2.05364                       0.00000
                       2.62892                      -1.44526                       0.00000
                       2.90575                      -0.74607                       0.00000
        </DataArray>
      </Points>
      <Polys>
        <DataArray type="Int32" Name="connectivity" format="ascii">
      0      1     26     25
      1      2     27     26
      2      3     28     27
      3      4     29     28
      4      5     30     29
      5      6     31     30
      6      7     32     31
      7      8     33     32
      8      9     34     33
      9     10     35     34
     10     11     36     35
     11     12     37     36
     12     13     38     37
     13     14     39     38
     14     15     40     39
     15     16     41     40
     16     17     42     41
     17     18     43     42
     18     19     44     43
     19     20     45     44
     20     21     46     45
     21     22     47     46
     22     23     48     47
     23     24     49     48
     24      0     25     49
     24     23     22     21     20     19     18     17     16     15     14     13     12     11     10      9      8      7      6      5      4      3      2      1      0
     25     26     27     28     29     30     31     32     33     34     35     36     37     38     39     40     41     42     43     44     45     46     47     48     49
     25     26     51     50
     26     27     52     51
     27     28     53     52
     28     29     54     53
     29     30     55     54
     30     31     56     55
     31     32     57     56
     32     33     58     57
     33     34     59     58
     34     35     60     59
     35     36     61     60
     36     37     62     61
     37     38     63     62
     38     39     64     63
     39     40     65     64
     40     41     66     65
     41     42     67     66
     42     43     68     67
     43     44     69     68
     44     45     70     69
     45     46     71     70
     46     47     72     71
     47     48     73     72
     48     49     74     73
     49     25     50     74
     49     48     47     46     45     44     43     42     41     40     39     38     37     36     35     34     33     32     31     30     29     28     27     26     25
     50     51     52     53     54     55     56     57     58     59     60     61     62     63     64     65     66     67     68     69     70     71     72     73     74
     50     51     76     75
     51     52     77     76
     52     53     78     77
     53     54     79     78
     54     55     80     79
     55     56     81     80
     56     57     82     81
     57     58     83     82
     58     59     84     83
     59     60     85     84
     60     61     86     85
     61     62     87     86
     62     63     88     87
     63     64     89     88
     64     65     90     89
     65     66     91     90
     66     67     92     91
     67     68     93     92
     68     69     94     93
     69     70     95     94
     70     71     96     95
     71     72     97     96
     72     73     98     97
     73     74     99     98
     74     50     75     99
     74     73     72     71     70     69     68     67     66     65     64     63     62     61     60     59     58     57     56     55     54     53     52     51     50
     75     76     77     78     79     80     81     82     83     84     85     86     87     88     89     90     91     92     93     94     95     96     97     98     99
     75     76    101    100
     76     77    102    101
     77     78    103    102
     78     79    104    103
     79     80    105    104
     80     81    106    105
     81     82    107    106
     82     83    108    107
     83     84    109    108
     84     85    110    109
     85     86    111    110
     86     87    112    111
     87     88    113    112
     88     89    114    113
     89     90    115    114
     90     91    116    115
     91     92    117    116
     92     93    118    117
     93     94    119    118
     94     95    120    119
     95     96    121    120
     96     97    122    121
     97     98    123    122
     98     99    124    123
     99     75    100    124
     99     98     97     96     95     94     93     92     91     90     89     88     87     86     85     84     83     82     81     80     79     78     77     76     75
    100    101    102    103    104    105    106    107    108    109    110    111    112    113    114    115    116    117    118    119    120    121    122    123    124
    100    101    126    125
    101    102    127    126
    102    103    128    127
    103    104    129    128
    104    105    130    129
    105    106    131    130
    106    107    132    131
    107    108    133    132
    108    109    134    133
    109    110    135    134
    110    111    136    135
    111    112    137    136
    112    113    138    137
    113    114    139    138
    114    115    140    139
    115    116    141    140
    116    117    142    141
    117    118    143    142
    118    119    144    143
    119    120    145    144
    120    121    146    145
    121    122    147    146
    122    123    148    147
    123    124    149    148
    124    100    125    149
    124    123    122    121    120    119    118    117    116    115    114    113    112    111    110    109    108    107    106    105    104    103    102    101    100
    125    126    127    128    129    130    131    132    133    134    135    136    137    138    139    140    141    142    143    144    145    146    147    148    149
    125    126    151    150
    126    127    152    151
    127    128    153    152
    128    129    154    153
    129    130    155    154
    130    131    156    155
    131    132    157    156
    132    133    158    157
    133    134    159    158
    134    135    160    159
    135    136    161    160
    136    137    162    161
    137    138    163    162
    138    139    164    163
    139    140    165    164
    140    141    166    165
    141    142    167    166
    142    143    168    167
    143    144    169    168
    144    145    170    169
    145    146    171    170
    146    147    172    171
    147    148    173    172
    148    149    174    173
    149    125    150    174
    149    148    147    146    145    144    143    142    141    140    139    138    137    136    135    134    133    132    131    130    129    128    127    126    125
    150    151    152    153    154    155    156    157    158    159    160    161    162    163    164    165    166    167    168    169    170    171    172    173    174
    150    151    176    175
    151    152    177    176
    152    153    178    177
    153    154    179    178
    154    155    180    179
    155    156    181    180
    156    157    182    181
    157    158    183    182
    158    159    184    183
    159    160    185    184
    160    161    186    185
    161    162    187    186
    162    163    188    187
    163    164    189    188
    164    165    190    189
    165    166    191    190
    166    167    192    191
    167    168    193    192
    168    169    194    193
    169    170    195    194
    170    171    196    195
    171    172    197    196
    172    173    198    197
    173    174    199    198
    174    150    175    199
    174    173    172    171    170    169    168    167    166    165    164    163    162    161    160    159    158    157    156    155    154    153    152    151    150
    175    176    177    178    179    180    181    182    183    184    185    186    187    188    189    190    191    192    193    194    195    196    197    198    199
    175    176    201    200
    176    177    202    201
    177    178    203    202
    178    179    204    203
    179    180    205    204
    180    181    206    205
    181    182    207    206
    182    183    208    207
    183    184    209    208
    184    185    210    209
    185    186    211    210
    186    187    212    211
    187    188    213    212
    188    189    214    213
    189    190    215    214
    190    191    216    215
    191    192    217    216
    192    193    218    217
    193    194    219    218
    194    195    220    219
    195    196    221    220
    196    197    222    221
    197    198    223    222
    198    199    224    223
    199    175    200    224
    199    198    197    196    195    194    193    192    191    190    189    188    187    186    185    184    183    182    181    180    179    178    177    176    175
    200    201    202    203    204    205    206    207    208    209    210    211    212    213    214    215    216    217    218    219    220    221    222    223    224
    200    201    226    225
    201    202    227    226
    202    203    228    227
    203    204    229    228
    204    205    230    229
    205    206    231    230
    206    207    232    231
    207    208    233    232
    208    209    234    233
    209    210    235    234
    210    211    236    235
    211    212    237    236
    212    213    238    237
    213    214    239    238
    214    215    240    239
    215    216    241    240
    216    217    242    241
    217    218    243    242
    218    219    244    243
    219    220    245    244
    220    221    246    245
    221    222    247    246
    222    223    248    247
    223    224    249    248
    224    200    225    249
    224    223    222    221    220    219    218    217    216    215    214    213    212    211    210    209    208    207    206    205    204    203    202    201    200
    225    226    227    228    229    230    231    232    233    234    235    236    237    238    239    240    241    242    243    244    245    246    247    248    249
    225    226    251    250
    226    227    252    251
    227    228    253    252
    228    229    254    253
    229    230    255    254
    230    231    256    255
    231    232    257    256
    232    233    258    257
    233    234    259    258
    234    235    260    259
    235    236    261    260
    236    237    262    261
    237    238    263    262
    238    239    264    263
    239    240    265    264
    240    241    266    265
    241    242    267    266
    242    243    268    267
    243    244    269    268
    244    245    270    269
    245    246    271    270
    246    247    272    271
    247    248    273    272
    248    249    274    273
    249    225    250    274
    249    248    247    246    245    244    243    242    241    240    239    238    237    236    235    234    233    232    231    230    229    228    227    226    225
    250    251    252    253    254    255    256    257    258    259    260    261    262    263    264    265    266    267    268    269    270    271    272    273    274
    250    251    276    275
    251    252    277    276
    252    253    278    277
    253    254    279    278
    254    255    280    279
    255    256    281    280
    256    257    282    281
    257    258    283    282
    258    259    284    283
    259    260    285    284
    260    261    286    285
    261    262    287    286
    262    263    288    287
    263    264    289    288
    264    265    290    289
    265    266    291    290
    266    267    292    291
    267    268    293    292
    268    269    294    293
    269    270    295    294
    270    271    296    295
    271    272    297    296
    272    273    298    297
    273    274    299    298
    274    250    275    299
    274    273    272    271    270    269    268    267    266    265    264    263    262    261    260    259    258    257    256    255    254    253    252    251    250
    275    276    277    278    279    280    281    282    283    284    285    286    287    288    289    290    291    292    293    294    295    296    297    298    299
    275    276    301    300
    276    277    302    301
    277    278    303    302
    278    279    304    303
    279    280    305    304
    280    281    306    305
    281    282    307    306
    282    283    308    307
    283    284    309    308
    284    285    310    309
    285    286    311    310
    286    287    312    311
    287    288    313    312
    288    289    314    313
    289    290    315    314
    290    291    316    315
    291    292    317    316
    292    293    318    317
    293    294    319    318
    294    295    320    319
    295    296    321    320
    296    297    322    321
    297    298    323    322
    298    299    324    323
    299    275    300    324
    299    298    297    296    295    294    293    292    291    290    289    288    287    286    285    284    283    282    281    280    279    278    277    276    275
    300    301    302    303    304    305    306    307    308    309    310    311    312    313    314    315    316    317    318    319    320    321    322    323    324
    300    301    326    325
    301    302    327    326
    302    303    328    327
    303    304    329    328
    304    305    330    329
    305    306    331    330
    306    307    332    331
    307    308    333    332
    308    309    334    333
    309    310    335    334
    310    311    336    335
    311    312    337    336
    312    313    338    337
    313    314    339    338
    314    315    340    339
    315    316    341    340
    316    317    342    341
    317    318    343    342
    318    319    344    343
    319    320    345    344
    320    321    346    345
    321    322    347    346
    322    323    348    347
    323    324    349    348
    324    300    325    349
    324    323    322    321    320    319    318    317    316    315    314    313    312    311    310    309    308    307    306    305    304    303    302    301    300
    325    326    327    328    329    330    331    332    333    334    335    336    337    338    339    340    341    342    343    344    345    346    347    348    349
    325    326    351    350
    326    327    352    351
    327    328    353    352
    328    329    354    353
    329    330    355    354
    330    331    356    355
    331    332    357    356
    332    333    358    357
    333    334    359    358
    334    335    360    359
    335    336    361    360
    336    337    362    361
    337    338    363    362
    338    339    364    363
    339    340    365    364
    340    341    366    365
    341    342    367    366
    342    343    368    367
    343    344    369    368
    344    345    370    369
    345    346    371    370
    346    347    372    371
    347    348    373    372
    348    349    374    373
    349    325    350    374
    349    348    347    346    345    344    343    342    341    340    339    338    337    336    335    334    333    332    331    330    329    328    327    326    325
    350    351    352    353    354    355    356    357    358    359    360    361    362    363    364    365    366    367    368    369    370    371    372    373    374
    350    351    376    375
    351    352    377    376
    352    353    378    377
    353    354    379    378
    354    355    380    379
    355    356    381    380
    356    357    382    381
    357    358    383    382
    358    359    384    383
    359    360    385    384
    360    361    386    385
    361    362    387    386
    362    363    388    387
    363    364    389    388
    364    365    390    389
    365    366    391    390
    366    367    392    391
    367    368    393    392
    368    369    394    393
    369    370    395    394
    370    371    396    395
    371    372    397    396
    372    373    398    397
    373    374    399    398
    374    350    375    399
    374    373    372    371    370    369    368    367    366    365    364    363    362    361    360    359    358    357    356    355    354    353    352    351    350
    375    376    377    378    379    380    381    382    383    384    385    386    387    388    389    390    391    392    393    394    395    396    397    398    399
    375    376    401    400
    376    377    402    401
    377    378    403    402
    378    379    404    403
    379    380    405    404
    380    381    406    405
    381    382    407    406
    382    383    408    407
    383    384    409    408
    384    385    410    409
    385    386    411    410
    386    387    412    411
    387    388    413    412
    388    389    414    413
    389    390    415    414
    390    391    416    415
    391    392    417    416
    392    393    418    417
    393    394    419    418
    394    395    420    419
    395    396    421    420
    396    397    422    421
    397    398    423    422
    398    399    424    423
    399    375    400    424
    399    398    397    396    395    394    393    392    391    390    389    388    387    386    385    384    383    382    381    380    379    378    377    376    375
    400    401    402    403    404    405    406    407    408    409    410    411    412    413    414    415    416    417    418    419    420    421    422    423    424
    400    401    426    425
    401    402    427    426
    402    403    428    427
    403    404    429    428
    404    405    430    429
    405    406    431    430
    406    407    432    431
    407    408    433    432
    408    409    434    433
    409    410    435    434
    410    411    436    435
    411    412    437    436
    412    413    438    437
    413    414    439    438
    414    415    440    439
    415    416    441    440
    416    417    442    441
    417    418    443    442
    418    419    444    443
    419    420    445    444
    420    421    446    445
    421    422    447    446
    422    423    448    447
    423    424    449    448
    424    400    425    449
    424    423    422    421    420    419    418    417    416    415    414    413    412    411    410    409    408    407    406    405    404    403    402    401    400
    425    426    427    428    429    430    431    432    433    434    435    436    437    438    439    440    441    442    443    444    445    446    447    448    449
    425    426    451    450
    426    427    452    451
    427    428    453    452
    428    429    454    453
    429    430    455    454
    430    431    456    455
    431    432    457    456
    432    433    458    457
    433    434    459    458
    434    435    460    459
    435    436    461    460
    436    437    462    461
    437    438    463    462
    438    439    464    463
    439    440    465    464
    440    441    466    465
    441    442    467    466
    442    443    468    467
    443    444    469    468
    444    445    470    469
    445    446    471    470
    446    447    472    471
    447    448    473    472
    448    449    474    473
    449    425    450    474
    449    448    447    446    445    444    443    442    441    440    439    438    437    436    435    434    433    432    431    430    429    428    427    426    425
    450    451    452    453    454    455    456    457    458    459    460    461    462    463    464    465    466    467    468    469    470    471    472    473    474
    450    451    476    475
    451    452    477    476
    452    453    478    477
    453    454    479    478
    454    455    480    479
    455    456    481    480
    456    457    482    481
    457    458    483    482
    458    459    484    483
    459    460    485    484
    460    461    486    485
    461    462    487    486
    462    463    488    487
    463    464    489    488
    464    465    490    489
    465    466    491    490
    466    467    492    491
    467    468    493    492
    468    469    494    493
    469    470    495    494
    470    471    496    495
    471    472    497    496
    472    473    498    497
    473    474    499    498
    474    450    475    499
    474    473    472    471    470    469    468    467    466    465    464    463    462    461    460    459    458    457    456    455    454    453    452    451    450
    475    476    477    478    479    480    481    482    483    484    485    486    487    488    489    490    491    492    493    494    495    496    497    498    499
    475    476    501    500
    476    477    502    501
    477    478    503    502
    478    479    504    503
    479    480    505    504
    480    481    506    505
    481    482    507    506
    482    483    508    507
    483    484    509    508
    484    485    510    509
    485    486    511    510
    486    487    512    511
    487    488    513    512
    488    489    514    513
    489    490    515    514
    490    491    516    515
    491    492    517    516
    492    493    518    517
    493    494    519    518
    494    495    520    519
    495    496    521    520
    496    497    522    521
    497    498    523    522
    498    499    524    523
    499    475    500    524
    499    498    497    496    495    494    493    492    491    490    489    488    487    486    485    484    483    482    481    480    479    478    477    476    475
    500    501    502    503    504    505    506    507    508    509    510    511    512    513    514    515    516    517    518    519    520    521    522    523    524
    525    526      1      0
    526    527      2      1
    527    528      3      2
    528    529      4      3
    529    530      5      4
    530    531      6      5
    531    532      7      6
    532    533      8      7
    533    534      9      8
    534    535     10      9
    535    536     11     10
    536    537     12     11
    537    538     13     12
    538    539     14     13
    539    540     15     14
    540    541     16     15
    541    542     17     16
    542    543     18     17
    543    544     19     18
    544    545     20     19
    545    546     21     20
    546    547     22     21
    547    548     23     22
    548    549     24     23
    549    525      0     24
    549    548    547    546    545    544    543    542    541    540    539    538    537    536    535    534    533    532    531    530    529    528    527    526    525
      0      1      2      3      4      5      6      7      8      9     10     11     12     13     14     15     16     17     18     19     20     21     22     23     24
        </DataArray>
        <DataArray type="Int32" Name="offsets" format="ascii">
      4
      8
     12
     16
     20
     24
     28
     32
     36
     40
     44
     48
     52
     56
     60
     64
     68
     72
     76
     80
     84
     88
     92
     96
    100
    125
    150
    154
    158
    162
    166
    170
    174
    178
    182
    186
    190
    194
    198
    202
    206
    210
    214
    218
    222
    226
    230
    234
    238
    242
    246
    250
    275
    300
    304
    308
    312
    316
    320
    324
    328
    332
    336
    340
    344
    348
    352
    356
    360
    364
    368
    372
    376
    380
    384
    388
    392
    396
    400
    425
    450
    454
    458
    462
    466
    470
    474
    478
    482
    486
    490
    494
    498
    502
    506
    510
    514
    518
    522
    526
    530
    534
    538
    542
    546
    550
    575
    600
    604
    608
    612
    616
    620
    624
    628
    632
    636
    640
    644
    648
    652
    656
    660
    664
    668
    672
    676
    680
    684
    688
    692
    696
    700
    725
    750
    754
    758
    762
    766
    770
    774
    778
    782
    786
    790
    794
    798
    802
    806
    810
    814
    818
    822
    826
    830
    834
    838
    842
    846
    850
    875
    900
    904
    908
    912
    916
    920
    924
    928
    932
    936
    940
    944
    948
    952
    956
    960
    964
    968
    972
    976
    980
    984
    988
    992
    996
   1000
   1025
   1050
   1054
   1058
   1062
   1066
   1070
   1074
   1078
   1082
   1086
   1090
   1094
   1098
   1102
   1106
   1110
   1114
   1118
   1122
   1126
   1130
   1134
   1138
   1142
   1146
   1150
   1175
   1200
   1204
   1208
   1212
   1216
   1220
   1224
   1228
   1232
   1236
   1240
   1244
   1248
   1252
   1256
   1260
   1264
   1268
   1272
   1276
   1280
   1284
   1288
   1292
   1296
   1300
   1325
   1350
   1354
   1358
   1362
   1366
   1370
   1374
   1378
   1382
   1386
   1390
   1394
   1398
   1402
   1406
   1410
   1414
   1418
   1422
   1426
   1430
   1434
   1438
   1442
   1446
   1450
   1475
   1500
   1504
   1508
   1512
   1516
   1520
   1524
   1528
   1532
   1536
   1540
   1544
   1548
   1552
   1556
   1560
   1564
   1568
   1572
   1576
   1580
   1584
   1588
   1592
   1596
   1600
   1625
   1650
   1654
   1658
   1662
   1666
   1670
   1674
   1678
   1682
   1686
   1690
   1694
   1698
   1702
   1706
   1710
   1714
   1718
   1722
   1726
   1730
   1734
   1738
   1742
   1746
   1750
   1775
   1800
   1804
   1808
   1812
   1816
   1820
   1824
   1828
   1832
   1836
   1840
   1844
   1848
   1852
   1856
   1860
   1864
   1868
   1872
   1876
   1880
   1884
   1888
   1892
   1896
   1900
   1925
   1950
   1954
   1958
   1962
   1966
   1970
   1974
   1978
   1982
   1986
   1990
   1994
   1998
   2002
   2006
   2010
   2014
   2018
   2022
   2026
   2030
   2034
   2038
   2042
   2046
   2050
   2075
   2100
   2104
   2108
   2112
   2116
   2120
   2124
   2128
   2132
   2136
   2140
   2144
   2148
   2152
   2156
   2160
   2164
   2168
   2172
   2176
   2180
   2184
   2188
   2192
   2196
   2200
   2225
   2250
   2254
   2258
   2262
   2266
   2270
   2274
   2278
   2282
   2286
   2290
   2294
   2298
   2302
   2306
   2310
   2314
   2318
   2322
   2326
   2330
   2334
   2338
   2342
   2346
   2350
   2375
   2400
   2404
   2408
   2412
   2416
   2420
   2424
   2428
   2432
   2436
   2440
   2444
   2448
   2452
   2456
   2460
   2464
   2468
   2472
   2476
   2480
   2484
   2488
   2492
   2496
   2500
   2525
   2550
   2554
   2558
   2562
   2566
   2570
   2574
   2578
   2582
   2586
   2590
   2594
   2598
   2602
   2606
   2610
   2614
   2618
   2622
   2626
   2630
   2634
   2638
   2642
   2646
   2650
   2675
   2700
   2704
   2708
   2712
   2716
   2720
   2724
   2728
   2732
   2736
   2740
   2744
   2748
   2752
   2756
   2760
   2764
   2768
   2772
   2776
   2780
   2784
   2788
   2792
   2796
   2800
   2825
   2850
   2854
   2858
   2862
   2866
   2870
   2874
   2878
   2882
   2886
   2890
   2894
   2898
   2902
   2906
   2910
   2914
   2918
   2922
   2926
   2930
   2934
   2938
   2942
   2946
   2950
   2975
   3000
   3004
   3008
   3012
   3016
   3020
   3024
   3028
   3032
   3036
   3040
   3044
   3048
   3052
   3056
   3060
   3064
   3068
   3072
   3076
   3080
   3084
   3088
   3092
   3096
   3100
   3125
   3150
        </DataArray>
      </Polys>
    </Piece>
  </PolyData>
</VTKFile>
