<?xml version="1.0"?>
<VTKFile type="PolyData" version="0.1" byte_order="LittleEndian">
  <PolyData>
    <Piece NumberOfPoints="     19" NumberOfVerts="  0" NumberOfLines="     18"
           NumberOfStrips="  0" NumberOfPolys="      0">
      <Points>
        <DataArray type="Float32" NumberOfComponents="3" format="ascii">
                      -5.03580                       0.43271                      88.59132
                      -5.21306                       0.83140                      87.29579
                      -5.58613                       1.71886                      84.73444
                      -5.96612                       2.64868                      82.18642
                      -6.44184                       3.83571                      79.00825
                      -6.95512                       5.12245                      75.14422
                      -7.43691                       6.28347                      71.23745
                      -7.91042                       7.44048                      67.32805
                      -8.37505                       8.59194                      63.41543
                      -8.83470                       9.73979                      59.50064
                      -9.29529                      10.88751                      55.58543
                      -9.76218                      12.03348                      51.67008
                     -10.24361                      13.17716                      47.75566
                     -10.74947                      14.31758                      43.84355
                     -11.28888                      15.45367                      39.93520
                     -11.77398                      16.39564                      36.68254
                     -12.18922                      17.13780                      34.08180
                     -12.62736                      17.82356                      31.46857
                     -12.86555                      18.20366                      30.17644
        </DataArray>
      </Points>
      <PointData>
        <DataArray type="Float32" Name="TranslationalVelocity" NumberOfComponents="3" format="ascii">
                       0.10932                       4.00560                       1.20878
                       0.20850                       7.65070                       2.31697
                       0.42788                      14.85951                       4.78276
                       0.65491                      22.02800                       7.36465
                       0.93907                      30.96169                      10.65814
                       1.23515                      41.79465                      14.22479
                       1.48643                      52.72398                      17.44010
                       1.72170                      63.64432                      20.64201
                       1.93984                      74.55801                      23.82666
                       2.14137                      85.46441                      26.99986
                       2.32808                      96.36166                      30.17161
                       2.50147                     107.25210                      33.33783
                       2.66437                     118.13648                      36.49736
                       2.82063                     129.01508                      39.64782
                       2.97524                     139.88747                      42.78628
                       3.10733                     148.94229                      45.38842
                       3.21613                     156.18776                      47.43851
                       3.31877                     163.47200                      49.33314
                       3.38350                     167.07852                      50.38273
        </DataArray>
        <DataArray type="Float32" Name="RotationalVelocity" NumberOfComponents="3" format="ascii">
                       2.77985                       0.00048                      -0.25115
                       2.77926                       0.00071                      -0.25100
                       2.77770                       0.00145                      -0.25057
                       2.77575                       0.00255                      -0.24999
                       2.77300                       0.00437                      -0.24911
                       2.76949                       0.00712                      -0.24788
                       2.76603                       0.01034                      -0.24656
                       2.76277                       0.01386                      -0.24527
                       2.75981                       0.01753                      -0.24409
                       2.75719                       0.02114                      -0.24311
                       2.75490                       0.02451                      -0.24240
                       2.75291                       0.02739                      -0.24202
                       2.75121                       0.02956                      -0.24201
                       2.74978                       0.03073                      -0.24237
                       2.74866                       0.03063                      -0.24311
                       2.74802                       0.02938                      -0.24397
                       2.74776                       0.02744                      -0.24480
                       2.74781                       0.02455                      -0.24573
                       2.74798                       0.02272                      -0.24622
        </DataArray>
        <DataArray type="Float32" Name="TranslationalAcceleration" NumberOfComponents="3" format="ascii">
                       1.00188                      -3.38511                      11.14404
                       1.21043                      -4.11117                      13.45386
                       3.44809                     -12.45763                      38.26116
                       5.49696                     -20.50320                      60.92132
                       7.88295                     -30.14665                      87.24268
                      10.62831                     -40.09250                     117.39014
                      13.34509                     -48.78601                     146.95793
                      16.09512                     -57.38965                     176.36465
                      18.93850                     -66.00807                     205.98968
                      21.91349                     -74.69532                     235.95084
                      25.04026                     -83.46086                     266.17997
                      28.32447                     -92.24104                     296.51125
                      31.75977                    -100.96834                     326.73871
                      35.33108                    -109.58204                     356.69250
                      39.01768                    -118.05250                     386.31246
                      42.16218                    -125.01106                     410.81950
                      44.71149                    -130.48616                     430.45594
                      47.29361                    -135.58092                     450.41181
                      48.58626                    -138.45193                     460.44487
        </DataArray>
        <DataArray type="Float32" Name="OrientationX" NumberOfComponents="3" format="ascii">
                       0.97062                       0.23262                      -0.06155
                       0.97064                       0.23257                      -0.06132
                       0.97069                       0.23258                      -0.06058
                       0.97073                       0.23272                      -0.05945
                       0.97075                       0.23311                      -0.05755
                       0.97676                       0.20443                      -0.06445
                       0.98038                       0.18502                      -0.06797
                       0.98295                       0.16994                      -0.07017
                       0.98509                       0.15603                      -0.07249
                       0.98668                       0.14435                      -0.07506
                       0.98751                       0.13708                      -0.07763
                       0.98774                       0.13351                      -0.08087
                       0.98718                       0.13529                      -0.08464
                       0.98553                       0.14446                      -0.08862
                       0.98319                       0.15617                      -0.09456
                       0.98077                       0.16674                      -0.10139
                       0.97849                       0.17565                      -0.10820
                       0.97548                       0.18744                      -0.11536
                       0.97359                       0.19492                      -0.11888
        </DataArray>
        <DataArray type="Float32" Name="OrientationY" NumberOfComponents="3" format="ascii">
                       0.20282                      -0.92854                      -0.31093
                       0.20286                      -0.92857                      -0.31082
                       0.20313                      -0.92862                      -0.31049
                       0.20364                      -0.92865                      -0.31006
                       0.20466                      -0.92865                      -0.30940
                       0.17556                      -0.93550                      -0.30663
                       0.15623                      -0.93964                      -0.30440
                       0.14137                      -0.94260                      -0.30253
                       0.12756                      -0.94510                      -0.30085
                       0.11577                      -0.94705                      -0.29948
                       0.10815                      -0.94823                      -0.29860
                       0.10385                      -0.94886                      -0.29812
                       0.10446                      -0.94878                      -0.29818
                       0.11203                      -0.94767                      -0.29895
                       0.12143                      -0.94618                      -0.30000
                       0.12951                      -0.94480                      -0.30097
                       0.13602                      -0.94361                      -0.30183
                       0.14514                      -0.94184                      -0.30309
                       0.15120                      -0.94061                      -0.30397
        </DataArray>
        <DataArray type="Float32" Name="OrientationZ" NumberOfComponents="3" format="ascii">
                      -0.12948                       0.28931                      -0.94844
                      -0.12923                       0.28925                      -0.94849
                      -0.12847                       0.28909                      -0.94864
                      -0.12736                       0.28888                      -0.94886
                      -0.12557                       0.28858                      -0.94919
                      -0.12298                       0.28819                      -0.94964
                      -0.12019                       0.28781                      -0.95011
                      -0.11755                       0.28745                      -0.95055
                      -0.11546                       0.28712                      -0.95091
                      -0.11432                       0.28680                      -0.95114
                      -0.11454                       0.28647                      -0.95122
                      -0.11653                       0.28607                      -0.95110
                      -0.12065                       0.28552                      -0.95075
                      -0.12717                       0.28470                      -0.95014
                      -0.13632                       0.28348                      -0.94924
                      -0.14598                       0.28206                      -0.94823
                      -0.15512                       0.28062                      -0.94720
                      -0.16546                       0.27892                      -0.94595
                      -0.17107                       0.27797                      -0.94524
        </DataArray>
        <DataArray type="Float32" Name="Force" NumberOfComponents="3" format="ascii">
                      -0.40074                     -14.72245                      -4.43627
                     139.29206                     -94.21194                     -47.71665
                     220.35860                    -298.63925                    -120.93129
                     229.34287                    -468.05014                    -173.53097
                    1213.83023                     264.05382                     -80.07119
                    1039.17345                     161.26884                     -85.42004
                     889.96446                      66.29269                     -92.38674
                    1461.66369                     136.19694                    -139.27977
                    1933.69559                     157.93268                    -186.69729
                    2154.77673                     136.71825                    -217.36197
                    3693.51121                     228.82257                    -375.11831
                    3884.36663                     203.79371                    -413.92601
                    2721.11838                      75.46768                    -322.37657
                    1201.85519                     -87.47778                    -187.59785
                     655.80904                    -128.94865                    -133.59694
                    -638.22892                    -269.04757                      16.13673
                   -2304.82672                    -427.35481                     247.17288
                   -3385.87796                    -487.75314                     443.78246
                  -18880.12188                    -714.48225                    3203.57005
        </DataArray>
        <DataArray type="Float32" Name="Moment" NumberOfComponents="3" format="ascii">
                       0.00000                       0.00000                       0.00000
                       0.00000                       0.00000                       0.00000
                       0.00000                       0.00000                       0.00000
                       0.00000                       0.00000                       0.00000
                     145.14917                    -334.54544                    1097.12933
                     267.74364                    -630.23945                    2067.36155
                     361.13605                    -869.98851                    2854.56967
                     597.76387                   -1472.63252                    4833.16223
                     872.45422                   -2188.73086                    7184.83234
                     986.01384                   -2498.63719                    8203.04650
                    1115.16606                   -2820.54373                    9259.67672
                    1207.47721                   -3001.91352                    9853.24182
                     944.60108                   -2268.24746                    7442.20332
                     971.61991                   -2213.08752                    7256.70582
                    1009.04505                   -2143.41334                    7022.10053
                    1014.68035                   -2012.02029                    6585.54323
                     948.92651                   -1769.98567                    5788.25349
                     505.54885                    -883.43821                    2886.15945
                     468.64255                    -791.78793                    2585.33758
        </DataArray>
      </PointData>
      <Lines>
        <DataArray type="Int32" Name="connectivity" format="ascii">
      0      1
      1      2
      2      3
      3      4
      4      5
      5      6
      6      7
      7      8
      8      9
      9     10
     10     11
     11     12
     12     13
     13     14
     14     15
     15     16
     16     17
     17     18
        </DataArray>
        <DataArray type="Int32" Name="offsets" format="ascii">
      2
      4
      6
      8
     10
     12
     14
     16
     18
     20
     22
     24
     26
     28
     30
     32
     34
     36
        </DataArray>
      </Lines>
    </Piece>
  </PolyData>
</VTKFile>
