<?xml version="1.0"?>
<VTKFile type="PolyData" version="0.1" byte_order="LittleEndian">
  <PolyData>
    <Piece NumberOfPoints="     19" NumberOfVerts="  0" NumberOfLines="     18"
           NumberOfStrips="  0" NumberOfPolys="      0">
      <Points>
        <DataArray type="Float32" NumberOfComponents="3" format="ascii">
                      -5.03137                       0.50951                      88.61701
                      -5.20659                       0.97824                      87.34486
                      -5.57513                       2.00410                      84.83506
                      -5.95041                       3.07148                      82.34082
                      -6.42019                       4.42991                      79.23114
                      -6.92713                       5.92475                      75.44187
                      -7.40334                       7.29593                      71.60309
                      -7.87144                       8.66297                      67.76140
                      -8.33081                      10.02437                      63.91614
                      -8.78530                      11.38206                      60.06846
                      -9.24070                      12.73948                      56.22030
                      -9.70228                      14.09507                      52.37185
                     -10.17813                      15.44830                      48.52415
                     -10.67794                      16.79826                      44.67852
                     -11.21061                      18.14389                      40.83632
                     -11.68934                      19.26049                      37.63843
                     -12.09893                      20.14249                      35.08081
                     -12.53107                      20.96901                      32.50764
                     -12.76578                      21.41881                      31.23748
        </DataArray>
      </Points>
      <PointData>
        <DataArray type="Float32" Name="TranslationalVelocity" NumberOfComponents="3" format="ascii">
                       0.12846                       3.93997                       1.42160
                       0.24527                       7.51720                       2.72359
                       0.49960                      14.57706                       5.57191
                       0.76156                      21.59058                       8.53367
                       1.08968                      30.32734                      12.29998
                       1.43998                      40.94503                      16.44022
                       1.74725                      51.67827                      20.23422
                       2.04012                      62.40364                      24.01353
                       2.31778                      73.12366                      27.77443
                       2.58090                      83.83737                      31.52273
                       2.83125                      94.54236                      35.26843
                       3.07007                     105.24114                      39.00771
                       3.29957                     115.93449                      42.73965
                       3.52260                     126.62277                      46.46212
                       3.74273                     137.30560                      50.17244
                       3.92695                     146.20317                      53.25126
                       4.07489                     153.32445                      55.68324
                       4.21353                     160.49266                      57.96264
                       4.29465                     164.03570                      59.20272
        </DataArray>
        <DataArray type="Float32" Name="RotationalVelocity" NumberOfComponents="3" format="ascii">
                       2.77799                       0.00045                      -0.25111
                       2.77740                       0.00066                      -0.25097
                       2.77586                       0.00134                      -0.25055
                       2.77393                       0.00236                      -0.24999
                       2.77120                       0.00404                      -0.24917
                       2.76769                       0.00657                      -0.24815
                       2.76421                       0.00953                      -0.24717
                       2.76092                       0.01277                      -0.24634
                       2.75791                       0.01611                      -0.24569
                       2.75525                       0.01939                      -0.24526
                       2.75292                       0.02244                      -0.24505
                       2.75091                       0.02508                      -0.24504
                       2.74920                       0.02711                      -0.24519
                       2.74779                       0.02835                      -0.24546
                       2.74668                       0.02859                      -0.24580
                       2.74603                       0.02794                      -0.24608
                       2.74576                       0.02673                      -0.24629
                       2.74575                       0.02487                      -0.24646
                       2.74587                       0.02368                      -0.24652
        </DataArray>
        <DataArray type="Float32" Name="TranslationalAcceleration" NumberOfComponents="3" format="ascii">
                       0.98740                      -3.97640                      10.93407
                       1.18939                      -4.82835                      13.19628
                       3.38070                     -14.49362                      37.48816
                       5.38422                     -23.74103                      59.65557
                       7.72281                     -34.77747                      85.38887
                      10.44102                     -46.31875                     114.92077
                      13.17181                     -56.57616                     143.93942
                      15.97866                     -66.73091                     172.79920
                      18.92075                     -76.90741                     201.87283
                      22.02683                     -87.16595                     231.27579
                      25.29709                     -97.51313                     260.94167
                      28.70523                    -107.87866                     290.71211
                      32.19894                    -118.18783                     320.39074
                      35.70152                    -128.37666                     349.81897
                      39.11325                    -138.42068                     378.94822
                      41.79453                    -146.70253                     403.08192
                      43.77830                    -153.25727                     422.44915
                      45.56949                    -159.47363                     442.18247
                      46.37786                    -162.91670                     452.09941
        </DataArray>
        <DataArray type="Float32" Name="OrientationX" NumberOfComponents="3" format="ascii">
                       0.97174                       0.23087                      -0.04910
                       0.97177                       0.23082                      -0.04888
                       0.97181                       0.23079                      -0.04815
                       0.97185                       0.23086                      -0.04703
                       0.97187                       0.23116                      -0.04515
                       0.97774                       0.20287                      -0.05362
                       0.98126                       0.18367                      -0.05823
                       0.98376                       0.16871                      -0.06128
                       0.98583                       0.15492                      -0.06439
                       0.98736                       0.14336                      -0.06760
                       0.98817                       0.13618                      -0.07056
                       0.98839                       0.13273                      -0.07396
                       0.98786                       0.13461                      -0.07757
                       0.98628                       0.14387                      -0.08095
                       0.98404                       0.15575                      -0.08611
                       0.98171                       0.16655                      -0.09219
                       0.97952                       0.17571                      -0.09835
                       0.97662                       0.18776                      -0.10468
                       0.97480                       0.19536                      -0.10769
        </DataArray>
        <DataArray type="Float32" Name="OrientationY" NumberOfComponents="3" format="ascii">
                       0.19832                      -0.91142                      -0.36053
                       0.19836                      -0.91146                      -0.36041
                       0.19863                      -0.91154                      -0.36006
                       0.19915                      -0.91161                      -0.35960
                       0.20017                      -0.91166                      -0.35891
                       0.17104                      -0.91853                      -0.35645
                       0.15168                      -0.92272                      -0.35439
                       0.13679                      -0.92571                      -0.35262
                       0.12295                      -0.92826                      -0.35103
                       0.11112                      -0.93024                      -0.34972
                       0.10346                      -0.93145                      -0.34885
                       0.09910                      -0.93210                      -0.34838
                       0.09965                      -0.93204                      -0.34840
                       0.10715                      -0.93095                      -0.34908
                       0.11649                      -0.92947                      -0.35002
                       0.12450                      -0.92810                      -0.35089
                       0.13097                      -0.92692                      -0.35167
                       0.14005                      -0.92515                      -0.35281
                       0.14610                      -0.92391                      -0.35361
        </DataArray>
        <DataArray type="Float32" Name="OrientationZ" NumberOfComponents="3" format="ascii">
                      -0.12799                       0.34061                      -0.93145
                      -0.12774                       0.34054                      -0.93151
                      -0.12699                       0.34035                      -0.93168
                      -0.12589                       0.34011                      -0.93192
                      -0.12412                       0.33977                      -0.93228
                      -0.12157                       0.33934                      -0.93277
                      -0.11882                       0.33891                      -0.93328
                      -0.11622                       0.33851                      -0.93376
                      -0.11415                       0.33814                      -0.93415
                      -0.11302                       0.33778                      -0.93441
                      -0.11323                       0.33742                      -0.93452
                      -0.11518                       0.33700                      -0.93443
                      -0.11920                       0.33644                      -0.93413
                      -0.12559                       0.33561                      -0.93359
                      -0.13455                       0.33440                      -0.93278
                      -0.14401                       0.33300                      -0.93187
                      -0.15295                       0.33159                      -0.93094
                      -0.16309                       0.32990                      -0.92982
                      -0.16858                       0.32897                      -0.92917
        </DataArray>
        <DataArray type="Float32" Name="Force" NumberOfComponents="3" format="ascii">
                      -0.45689                     -13.99639                      -5.05532
                     139.12213                     -90.58514                     -52.20224
                     220.69192                    -290.01826                    -136.12242
                     229.78376                    -457.06761                    -198.14601
                    1233.33248                     269.95560                     -65.54349
                    1078.42994                     169.85074                     -78.49867
                     944.51664                      77.59231                     -91.91903
                    1532.42892                     148.62228                    -136.47988
                    2010.30911                     169.40517                    -183.84045
                    2233.09577                     147.20273                    -216.40954
                    3766.09655                     237.40482                    -369.75243
                    3948.45431                     210.98621                    -409.76573
                    2780.59757                      82.91209                    -324.65520
                    1259.80832                     -80.34642                    -198.93286
                     651.73722                    -111.08910                    -134.73137
                    -577.56126                    -262.80499                      -6.89888
                   -2237.65489                    -422.56639                     213.26554
                   -3326.05576                    -486.15907                     406.04251
                  -18735.44004                    -776.19842                    3121.04011
        </DataArray>
        <DataArray type="Float32" Name="Moment" NumberOfComponents="3" format="ascii">
                       0.00000                       0.00000                       0.00000
                       0.00000                       0.00000                       0.00000
                       0.00000                       0.00000                       0.00000
                       0.00000                       0.00000                       0.00000
                     145.76898                    -400.16879                    1094.75120
                     268.17371                    -751.85914                    2057.39438
                     361.45202                   -1037.08910                    2838.66470
                     595.78320                   -1748.08653                    4785.98610
                     863.93466                   -2581.28704                    7068.58788
                     974.88928                   -2942.38283                    8058.30624
                    1100.94187                   -3316.93263                    9083.90944
                    1190.65766                   -3526.87821                    9657.06600
                     930.06179                   -2661.95187                    7285.94377
                     956.59107                   -2598.31424                    7107.35608
                     992.94853                   -2516.78547                    6878.34595
                     998.20800                   -2363.12421                    6452.43706
                     933.48030                   -2079.71491                    5673.62717
                     497.55807                   -1039.00904                    2831.67937
                     461.35417                    -931.67404                    2537.77885
        </DataArray>
      </PointData>
      <Lines>
        <DataArray type="Int32" Name="connectivity" format="ascii">
      0      1
      1      2
      2      3
      3      4
      4      5
      5      6
      6      7
      7      8
      8      9
      9     10
     10     11
     11     12
     12     13
     13     14
     14     15
     15     16
     16     17
     17     18
        </DataArray>
        <DataArray type="Int32" Name="offsets" format="ascii">
      2
      4
      6
      8
     10
     12
     14
     16
     18
     20
     22
     24
     26
     28
     30
     32
     34
     36
        </DataArray>
      </Lines>
    </Piece>
  </PolyData>
</VTKFile>
