<?xml version="1.0"?>
<VTKFile type="PolyData" version="0.1" byte_order="LittleEndian">
  <PolyData>
    <Piece NumberOfPoints="      8" NumberOfVerts="  0" NumberOfLines="      0"
           NumberOfStrips="  0" NumberOfPolys="      6">
      <Points>
        <DataArray type="Float32" NumberOfComponents="3" format="ascii">
                      -3.29174                       2.40171                      87.61332
                       3.70821                       2.40171                      87.58591
                       3.70821                      -2.39829                      87.58602
                      -3.29174                      -2.39829                      87.61343
                      -3.27294                      -2.39818                      92.41340
                       3.72700                      -2.39818                      92.38599
                       3.72700                       2.40182                      92.38588
                      -3.27294                       2.40182                      92.41329
        </DataArray>
      </Points>
      <Polys>
        <DataArray type="Int32" Name="connectivity" format="ascii">
      0      1      2      3
      4      5      6      7
      7      6      1      0
      6      5      2      1
      5      4      3      2
      4      7      0      3
        </DataArray>
        <DataArray type="Int32" Name="offsets" format="ascii">
      4
      8
     12
     16
     20
     24
        </DataArray>
      </Polys>
    </Piece>
  </PolyData>
</VTKFile>
