<?xml version="1.0"?>
<VTKFile type="PolyData" version="0.1" byte_order="LittleEndian">
  <PolyData>
    <Piece NumberOfPoints="     22" NumberOfVerts="  0" NumberOfLines="     21"
           NumberOfStrips="  0" NumberOfPolys="      0">
      <Points>
        <DataArray type="Float32" NumberOfComponents="3" format="ascii">
                       0.00010                      -0.00000                       2.19000
                       0.00105                      -0.00002                       6.57000
                       0.00313                      -0.00004                      10.95000
                       0.00645                      -0.00008                      15.33000
                       0.01103                      -0.00012                      19.71000
                       0.01684                      -0.00018                      24.08999
                       0.02384                      -0.00025                      28.46999
                       0.03199                      -0.00033                      32.84998
                       0.04127                      -0.00043                      37.22997
                       0.05167                      -0.00054                      41.60996
                       0.06323                      -0.00067                      45.98994
                       0.07601                      -0.00081                      50.36992
                       0.09006                      -0.00098                      54.74990
                       0.10544                      -0.00116                      59.12987
                       0.12219                      -0.00136                      63.50984
                       0.14025                      -0.00158                      67.88980
                       0.15949                      -0.00181                      72.26976
                       0.17964                      -0.00207                      76.64971
                       0.20021                      -0.00233                      81.02967
                       0.22049                      -0.00261                      85.40962
                       0.23021                      -0.00275                      87.59960
                       0.00000                       0.00000                       0.00000
        </DataArray>
      </Points>
      <PointData>
        <DataArray type="Float32" Name="TranslationalVelocity" NumberOfComponents="3" format="ascii">
                       0.00000                      -0.00001                      -0.00000
                       0.00000                      -0.00009                      -0.00000
                       0.00000                      -0.00023                      -0.00000
                      -0.00000                      -0.00044                       0.00000
                      -0.00003                      -0.00070                       0.00000
                      -0.00007                      -0.00102                       0.00000
                      -0.00013                      -0.00139                       0.00000
                      -0.00023                      -0.00183                       0.00000
                      -0.00038                      -0.00233                       0.00000
                      -0.00057                      -0.00289                       0.00000
                      -0.00083                      -0.00353                       0.00000
                      -0.00116                      -0.00424                       0.00000
                      -0.00157                      -0.00502                       0.00000
                      -0.00207                      -0.00587                       0.00001
                      -0.00266                      -0.00679                       0.00001
                      -0.00335                      -0.00778                       0.00001
                      -0.00413                      -0.00884                       0.00001
                      -0.00499                      -0.00994                       0.00002
                      -0.00591                      -0.01110                       0.00002
                      -0.00686                      -0.01228                       0.00003
                      -0.00733                      -0.01289                       0.00003
                       0.00000                      -0.00000                       0.00000
        </DataArray>
        <DataArray type="Float32" Name="RotationalVelocity" NumberOfComponents="3" format="ascii">
                       0.00001                       0.00000                       0.00000
                       0.00003                       0.00000                       0.00000
                       0.00004                      -0.00000                       0.00000
                       0.00005                      -0.00000                       0.00000
                       0.00007                      -0.00001                       0.00000
                       0.00008                      -0.00001                       0.00000
                       0.00009                      -0.00002                       0.00000
                       0.00011                      -0.00003                       0.00000
                       0.00012                      -0.00004                       0.00000
                       0.00014                      -0.00005                       0.00000
                       0.00015                      -0.00007                       0.00000
                       0.00017                      -0.00008                       0.00000
                       0.00019                      -0.00010                       0.00000
                       0.00020                      -0.00012                       0.00000
                       0.00022                      -0.00015                       0.00000
                       0.00023                      -0.00017                       0.00000
                       0.00025                      -0.00019                       0.00000
                       0.00026                      -0.00020                       0.00000
                       0.00027                      -0.00021                       0.00000
                       0.00027                      -0.00022                       0.00000
                       0.00028                      -0.00021                       0.00000
                       0.00000                      -0.00000                       0.00000
        </DataArray>
        <DataArray type="Float32" Name="TranslationalAcceleration" NumberOfComponents="3" format="ascii">
                      -0.00000                       0.00004                       0.00000
                      -0.00003                       0.00032                       0.00000
                      -0.00006                       0.00083                       0.00000
                      -0.00011                       0.00153                       0.00000
                      -0.00015                       0.00235                       0.00000
                      -0.00018                       0.00328                       0.00000
                      -0.00018                       0.00425                       0.00000
                      -0.00014                       0.00524                      -0.00000
                      -0.00003                       0.00618                      -0.00000
                       0.00016                       0.00704                      -0.00000
                       0.00044                       0.00776                      -0.00000
                       0.00085                       0.00827                      -0.00000
                       0.00139                       0.00853                      -0.00000
                       0.00209                       0.00848                      -0.00001
                       0.00294                       0.00808                      -0.00001
                       0.00395                       0.00729                      -0.00002
                       0.00512                       0.00610                      -0.00002
                       0.00643                       0.00452                      -0.00003
                       0.00785                       0.00257                      -0.00004
                       0.00933                       0.00035                      -0.00004
                       0.01007                      -0.00083                      -0.00005
                       0.00000                      -0.00000                       0.00000
        </DataArray>
        <DataArray type="Float32" Name="RotationalAcceleration" NumberOfComponents="3" format="ascii">
                      -0.00003                      -0.00000                       0.00000
                      -0.00009                      -0.00001                       0.00000
                      -0.00014                      -0.00001                       0.00000
                      -0.00017                      -0.00001                       0.00000
                      -0.00020                      -0.00001                       0.00000
                      -0.00022                      -0.00000                       0.00000
                      -0.00023                       0.00000                       0.00000
                      -0.00022                       0.00002                       0.00000
                      -0.00021                       0.00003                       0.00000
                      -0.00018                       0.00005                       0.00000
                      -0.00014                       0.00008                       0.00000
                      -0.00009                       0.00011                       0.00000
                      -0.00003                       0.00014                       0.00000
                       0.00005                       0.00018                       0.00000
                       0.00013                       0.00021                       0.00000
                       0.00023                       0.00025                       0.00000
                       0.00032                       0.00028                       0.00000
                       0.00040                       0.00031                       0.00000
                       0.00048                       0.00033                       0.00000
                       0.00053                       0.00034                       0.00000
                       0.00055                       0.00034                       0.00000
                       0.00000                      -0.00000                       0.00000
        </DataArray>
        <DataArray type="Float32" Name="OrientationX" NumberOfComponents="3" format="ascii">
                       1.00000                       0.00000                      -0.00010
                       1.00000                       0.00000                      -0.00034
                       1.00000                       0.00000                      -0.00062
                       1.00000                       0.00000                      -0.00090
                       1.00000                       0.00000                      -0.00119
                       1.00000                       0.00000                      -0.00146
                       1.00000                       0.00000                      -0.00173
                       1.00000                       0.00000                      -0.00199
                       1.00000                       0.00000                      -0.00225
                       1.00000                       0.00000                      -0.00251
                       1.00000                       0.00000                      -0.00278
                       1.00000                       0.00000                      -0.00306
                       0.99999                       0.00000                      -0.00336
                       0.99999                       0.00000                      -0.00367
                       0.99999                       0.00000                      -0.00398
                       0.99999                       0.00000                      -0.00427
                       0.99999                       0.00000                      -0.00451
                       0.99999                       0.00000                      -0.00467
                       0.99999                       0.00000                      -0.00470
                       0.99999                       0.00000                      -0.00452
                       0.99999                       0.00000                      -0.00434
                       1.00000                      -0.00000                       0.00000
        </DataArray>
        <DataArray type="Float32" Name="OrientationY" NumberOfComponents="3" format="ascii">
                       0.00000                       1.00000                       0.00000
                       0.00000                       1.00000                       0.00000
                       0.00000                       1.00000                       0.00001
                       0.00000                       1.00000                       0.00001
                       0.00000                       1.00000                       0.00001
                       0.00000                       1.00000                       0.00001
                       0.00000                       1.00000                       0.00002
                       0.00000                       1.00000                       0.00002
                       0.00000                       1.00000                       0.00002
                       0.00000                       1.00000                       0.00003
                       0.00000                       1.00000                       0.00003
                       0.00000                       1.00000                       0.00004
                       0.00000                       1.00000                       0.00004
                       0.00000                       1.00000                       0.00004
                       0.00000                       1.00000                       0.00005
                       0.00000                       1.00000                       0.00005
                       0.00000                       1.00000                       0.00006
                       0.00000                       1.00000                       0.00006
                       0.00000                       1.00000                       0.00006
                       0.00000                       1.00000                       0.00006
                       0.00000                       1.00000                       0.00006
                      -0.00000                       1.00000                      -0.00000
        </DataArray>
        <DataArray type="Float32" Name="OrientationZ" NumberOfComponents="3" format="ascii">
                       0.00010                      -0.00000                       1.00000
                       0.00034                      -0.00000                       1.00000
                       0.00062                      -0.00001                       1.00000
                       0.00090                      -0.00001                       1.00000
                       0.00119                      -0.00001                       1.00000
                       0.00146                      -0.00001                       1.00000
                       0.00173                      -0.00002                       1.00000
                       0.00199                      -0.00002                       1.00000
                       0.00225                      -0.00002                       1.00000
                       0.00251                      -0.00003                       1.00000
                       0.00278                      -0.00003                       1.00000
                       0.00306                      -0.00004                       1.00000
                       0.00336                      -0.00004                       0.99999
                       0.00367                      -0.00004                       0.99999
                       0.00398                      -0.00005                       0.99999
                       0.00427                      -0.00005                       0.99999
                       0.00451                      -0.00006                       0.99999
                       0.00467                      -0.00006                       0.99999
                       0.00470                      -0.00006                       0.99999
                       0.00452                      -0.00006                       0.99999
                       0.00434                      -0.00006                       0.99999
                       0.00000                      -0.00000                       1.00000
        </DataArray>
      </PointData>
      <Lines>
        <DataArray type="Int32" Name="connectivity" format="ascii">
      0      1
      1      2
      2      3
      3      4
      4      5
      5      6
      6      7
      7      8
      8      9
      9     10
     10     11
     11     12
     12     13
     13     14
     14     15
     15     16
     16     17
     17     18
     18     19
     19     20
     21      0
        </DataArray>
        <DataArray type="Int32" Name="offsets" format="ascii">
      2
      4
      6
      8
     10
     12
     14
     16
     18
     20
     22
     24
     26
     28
     30
     32
     34
     36
     38
     40
     42
        </DataArray>
      </Lines>
    </Piece>
  </PolyData>
</VTKFile>
