<?xml version="1.0"?>
<VTKFile type="PolyData" version="0.1" byte_order="LittleEndian">
  <PolyData>
    <Piece NumberOfPoints="     19" NumberOfVerts="  0" NumberOfLines="     18"
           NumberOfStrips="  0" NumberOfPolys="      0">
      <Points>
        <DataArray type="Float32" NumberOfComponents="3" format="ascii">
                      -4.81850                       1.13424                      90.99530
                      -4.79767                       2.16576                      91.89210
                      -4.77024                       4.16712                      93.75780
                      -4.74713                       6.14038                      95.65699
                      -4.71643                       8.59188                      98.04985
                      -4.62522                      11.63217                     100.80672
                      -4.50451                      14.76138                     103.45980
                      -4.37156                      17.89554                     106.10702
                      -4.22517                      21.03560                     108.74722
                      -4.06859                      24.17995                     111.38243
                      -3.90708                      27.32587                     114.01612
                      -3.74574                      30.47401                     116.64767
                      -3.59268                      33.62411                     119.27756
                      -3.45788                      36.77602                     121.90599
                      -3.35083                      39.92953                     124.53294
                      -3.29317                      42.55885                     126.72057
                      -3.27246                      44.66823                     128.46332
                      -3.27550                      46.81388                     130.16260
                      -3.29399                      47.86038                     131.04314
        </DataArray>
      </Points>
      <PointData>
        <DataArray type="Float32" Name="TranslationalVelocity" NumberOfComponents="3" format="ascii">
                       0.28580                      -2.72930                       3.15432
                       0.54527                      -5.22781                       6.02213
                       1.05043                     -10.42344                      11.58794
                       1.55120                     -15.71377                      17.07810
                       2.17810                     -22.38395                      23.90282
                       2.96347                     -30.08940                      32.37272
                       3.78259                     -37.51988                      41.09750
                       4.61711                     -44.94353                      49.84308
                       5.46979                     -52.35695                      58.61127
                       6.34278                     -59.76432                      67.39665
                       7.23778                     -67.17323                      76.19063
                       8.15712                     -74.57987                      84.99410
                       9.10253                     -81.98264                      93.80572
                      10.07541                     -89.37880                     102.62481
                      11.07663                     -96.76523                     111.45106
                      11.93350                    -102.90922                     118.81296
                      12.63400                    -107.79774                     124.72140
                      13.35468                    -112.55897                     130.73405
                      13.71370                    -115.02183                     133.66821
        </DataArray>
        <DataArray type="Float32" Name="RotationalVelocity" NumberOfComponents="3" format="ascii">
                       2.77976                       0.00032                      -0.25111
                       2.78016                       0.00045                      -0.25129
                       2.78124                       0.00091                      -0.25185
                       2.78259                       0.00156                      -0.25267
                       2.78450                       0.00259                      -0.25403
                       2.78689                       0.00409                      -0.25610
                       2.78921                       0.00594                      -0.25857
                       2.79133                       0.00825                      -0.26136
                       2.79319                       0.01117                      -0.26439
                       2.79479                       0.01487                      -0.26756
                       2.79614                       0.01944                      -0.27080
                       2.79731                       0.02492                      -0.27404
                       2.79835                       0.03124                      -0.27723
                       2.79930                       0.03816                      -0.28035
                       2.80020                       0.04527                      -0.28340
                       2.80089                       0.05090                      -0.28590
                       2.80139                       0.05485                      -0.28791
                       2.80180                       0.05795                      -0.28994
                       2.80196                       0.05907                      -0.29098
        </DataArray>
        <DataArray type="Float32" Name="TranslationalAcceleration" NumberOfComponents="3" format="ascii">
                      -0.67165                      -8.84115                      -7.57795
                      -0.82165                     -10.67347                      -9.20556
                      -2.40383                     -30.07530                     -26.89877
                      -3.88888                     -47.67766                     -43.47767
                      -5.64355                     -68.08897                     -63.05901
                      -7.56727                     -92.05113                     -84.54995
                      -9.36642                    -116.13867                    -104.71488
                     -11.14689                    -140.26081                    -124.78605
                     -12.92863                    -164.71535                    -145.00927
                     -14.72039                    -189.57717                    -165.47922
                     -16.52330                    -214.76636                    -186.17540
                     -18.33250                    -240.14269                    -206.97058
                     -20.14513                    -265.53216                    -227.71811
                     -21.96437                    -290.79433                    -248.29240
                     -23.80432                    -315.87990                    -268.64133
                     -25.37501                    -336.71975                    -285.46703
                     -26.67094                    -353.49441                    -298.87332
                     -28.00789                    -370.75587                    -312.06565
                     -28.71739                    -379.32140                    -318.99662
        </DataArray>
        <DataArray type="Float32" Name="OrientationX" NumberOfComponents="3" format="ascii">
                       0.98645                      -0.11832                       0.11367
                       0.98644                      -0.11854                       0.11351
                       0.98639                      -0.11933                       0.11312
                       0.98629                      -0.12057                       0.11263
                       0.98611                      -0.12272                       0.11195
                       0.99055                      -0.10573                       0.08731
                       0.99297                      -0.09551                       0.06993
                       0.99452                      -0.08827                       0.05599
                       0.99574                      -0.08148                       0.04309
                       0.99663                      -0.07546                       0.03230
                       0.99713                      -0.07126                       0.02555
                       0.99743                      -0.06801                       0.02249
                       0.99749                      -0.06643                       0.02461
                       0.99714                      -0.06757                       0.03375
                       0.99663                      -0.06783                       0.04615
                       0.99609                      -0.06652                       0.05814
                       0.99556                      -0.06427                       0.06883
                       0.99462                      -0.06262                       0.08249
                       0.99391                      -0.06237                       0.09084
        </DataArray>
        <DataArray type="Float32" Name="OrientationY" NumberOfComponents="3" format="ascii">
                       0.16336                       0.64365                      -0.74768
                       0.16338                       0.64347                      -0.74784
                       0.16359                       0.64294                      -0.74825
                       0.16401                       0.64221                      -0.74878
                       0.16488                       0.64109                      -0.74954
                       0.13509                       0.64321                      -0.75368
                       0.11521                       0.64391                      -0.75638
                       0.09986                       0.64411                      -0.75839
                       0.08561                       0.64427                      -0.75999
                       0.07345                       0.64438                      -0.76117
                       0.06557                       0.64431                      -0.76195
                       0.06111                       0.64418                      -0.76243
                       0.06170                       0.64386                      -0.76266
                       0.06939                       0.64319                      -0.76256
                       0.07903                       0.64249                      -0.76221
                       0.08734                       0.64195                      -0.76175
                       0.09405                       0.64158                      -0.76127
                       0.10343                       0.64112                      -0.76044
                       0.10966                       0.64084                      -0.75981
        </DataArray>
        <DataArray type="Float32" Name="OrientationZ" NumberOfComponents="3" format="ascii">
                       0.01530                       0.75612                       0.65425
                       0.01561                       0.75624                       0.65411
                       0.01656                       0.75657                       0.65371
                       0.01795                       0.75699                       0.65318
                       0.02021                       0.75759                       0.65242
                       0.02353                       0.75836                       0.65141
                       0.02721                       0.75912                       0.65038
                       0.03088                       0.75982                       0.64940
                       0.03416                       0.76044                       0.64850
                       0.03662                       0.76098                       0.64774
                       0.03784                       0.76143                       0.64714
                       0.03737                       0.76185                       0.64668
                       0.03482                       0.76226                       0.64634
                       0.02982                       0.76272                       0.64604
                       0.02205                       0.76329                       0.64568
                       0.01335                       0.76385                       0.64525
                       0.00477                       0.76436                       0.64477
                      -0.00526                       0.76488                       0.64415
                      -0.01083                       0.76514                       0.64377
        </DataArray>
        <DataArray type="Float32" Name="Force" NumberOfComponents="3" format="ascii">
                      -0.83488                       8.01405                      -9.24228
                     174.61890                      77.15939                     -93.34563
                     248.83434                     226.70184                    -268.35994
                     240.92334                     342.34421                    -402.43640
                    1570.85691                    -199.26994                     181.57638
                    1546.70381                    -137.03680                     102.39911
                    1482.34461                     -78.28815                      28.29109
                    2205.22969                    -116.62226                      29.67564
                    2627.77757                    -106.31573                     -15.87318
                    2892.75707                     -86.50358                     -63.98807
                    4424.16892                    -109.76272                    -132.50247
                    4622.63445                     -80.94037                    -174.55413
                    3602.31226                     -19.03252                    -173.21336
                    1971.39884                      70.98481                    -174.08779
                     971.41911                      76.46962                    -122.27197
                      28.41008                     145.91100                    -169.21546
                   -1718.42683                     164.16869                    -174.67019
                   -2971.70997                     119.44373                    -157.12907
                  -19471.56584                    -843.02869                     679.93526
        </DataArray>
        <DataArray type="Float32" Name="Moment" NumberOfComponents="3" format="ascii">
                       0.00000                       0.00000                       0.00000
                       0.00000                       0.00000                       0.00000
                       0.00000                       0.00000                       0.00000
                       0.00000                       0.00000                       0.00000
                     -26.08735                    -969.58175                    -838.37448
                     -55.21192                   -1759.44265                   -1520.63742
                     -86.55183                   -2382.55572                   -2058.11205
                    -163.19746                   -3954.77151                   -3414.46762
                    -264.44972                   -5790.28371                   -4996.90655
                    -323.63465                   -6606.66116                   -5699.44675
                    -376.76224                   -7439.66547                   -6416.95139
                    -397.38735                   -7934.83659                   -6844.45457
                    -281.75781                   -6023.79117                   -5197.81899
                    -238.40170                   -5924.04940                   -5115.24867
                    -170.64326                   -5672.84100                   -4903.54490
                    -100.95018                   -5399.87920                   -4673.15337
                     -35.50220                   -4755.55779                   -4120.36990
                      13.49079                   -2374.39336                   -2060.07148
                      27.46892                   -2116.96752                   -1838.11843
        </DataArray>
      </PointData>
      <Lines>
        <DataArray type="Int32" Name="connectivity" format="ascii">
      0      1
      1      2
      2      3
      3      4
      4      5
      5      6
      6      7
      7      8
      8      9
      9     10
     10     11
     11     12
     12     13
     13     14
     14     15
     15     16
     16     17
     17     18
        </DataArray>
        <DataArray type="Int32" Name="offsets" format="ascii">
      2
      4
      6
      8
     10
     12
     14
     16
     18
     20
     22
     24
     26
     28
     30
     32
     34
     36
        </DataArray>
      </Lines>
    </Piece>
  </PolyData>
</VTKFile>
