<?xml version="1.0"?>
<VTKFile type="PolyData" version="0.1" byte_order="LittleEndian">
  <PolyData>
    <Piece NumberOfPoints="     19" NumberOfVerts="  0" NumberOfLines="     18"
           NumberOfStrips="  0" NumberOfPolys="      0">
      <Points>
        <DataArray type="Float32" NumberOfComponents="3" format="ascii">
                      -4.98304                      -1.24349                      89.18164
                      -5.11199                      -2.37145                      88.42015
                      -5.39747                      -4.57296                      86.82047
                      -5.69358                      -6.74838                      85.18322
                      -6.06566                      -9.45153                      83.11239
                      -6.43752                     -12.77612                      80.73469
                      -6.76119                     -16.17312                      78.45597
                      -7.07169                     -19.56999                      76.17429
                      -7.36721                     -22.96792                      73.89118
                      -7.65079                     -26.36603                      71.60575
                      -7.92761                     -29.76248                      69.31603
                      -8.20181                     -33.15840                      67.02440
                      -8.48061                     -36.55407                      64.73252
                      -8.77299                     -39.94971                      62.44245
                      -9.08725                     -43.34538                      60.15615
                      -9.37509                     -46.17524                      58.25582
                      -9.62558                     -48.44354                      56.74626
                      -9.88796                     -50.74288                      55.28530
                     -10.04012                     -51.86896                      54.52421
        </DataArray>
      </Points>
      <PointData>
        <DataArray type="Float32" Name="TranslationalVelocity" NumberOfComponents="3" format="ascii">
                      -0.31270                       2.34388                      -3.44895
                      -0.59574                       4.49290                      -6.58429
                      -1.14910                       9.00975                     -12.70192
                      -1.69753                      13.63165                     -18.74430
                      -2.38213                      19.47361                     -26.24805
                      -3.22975                      26.16241                     -35.46987
                      -4.10363                      32.55954                     -44.88431
                      -4.98760                      38.95682                     -54.28987
                      -5.88386                      45.34993                     -63.69031
                      -6.79402                      51.74259                     -73.08371
                      -7.71931                      58.14204                     -82.46565
                      -8.66146                      64.54339                     -91.83989
                      -9.62170                      70.94446                    -101.20765
                     -10.60087                      77.34241                    -110.56984
                     -11.59932                      83.73441                    -119.92647
                     -12.44638                      89.05343                    -127.71922
                     -13.13414                      93.28394                    -133.96222
                     -13.83749                      97.38289                    -140.28750
                     -14.18605                      99.52224                    -143.38332
        </DataArray>
        <DataArray type="Float32" Name="RotationalVelocity" NumberOfComponents="3" format="ascii">
                       2.78001                      -0.00035                      -0.25110
                       2.77964                      -0.00025                      -0.25119
                       2.77863                       0.00005                      -0.25151
                       2.77734                       0.00047                      -0.25203
                       2.77551                       0.00116                      -0.25293
                       2.77316                       0.00218                      -0.25437
                       2.77082                       0.00341                      -0.25620
                       2.76859                       0.00486                      -0.25839
                       2.76654                       0.00657                      -0.26095
                       2.76467                       0.00854                      -0.26386
                       2.76296                       0.01079                      -0.26709
                       2.76139                       0.01331                      -0.27060
                       2.75991                       0.01606                      -0.27431
                       2.75849                       0.01894                      -0.27812
                       2.75712                       0.02182                      -0.28187
                       2.75603                       0.02409                      -0.28484
                       2.75523                       0.02569                      -0.28701
                       2.75452                       0.02701                      -0.28890
                       2.75422                       0.02752                      -0.28971
        </DataArray>
        <DataArray type="Float32" Name="TranslationalAcceleration" NumberOfComponents="3" format="ascii">
                       0.63346                       9.65669                       6.56355
                       0.72650                      11.66182                       7.93489
                       2.12792                      32.92952                      23.31715
                       3.43976                      52.21813                      37.80382
                       4.98557                      74.51218                      54.97286
                       6.66208                     100.35303                      73.68184
                       8.22085                     126.00119                      91.11923
                       9.77544                     151.51072                     108.51083
                      11.34555                     177.22088                     126.06101
                      12.93574                     203.23517                     143.84689
                      14.53707                     229.49122                     161.84837
                      16.12626                     255.85383                     179.94898
                      17.67229                     282.14789                     198.02116
                      19.13864                     308.22751                     215.96089
                      20.48653                     334.03752                     233.73358
                      21.48825                     355.40427                     248.46591
                      22.19334                     372.54663                     260.23012
                      22.77292                     390.10096                     271.79297
                      23.05183                     398.82043                     277.92740
        </DataArray>
        <DataArray type="Float32" Name="OrientationX" NumberOfComponents="3" format="ascii">
                       0.94900                       0.09415                      -0.30089
                       0.94902                       0.09446                      -0.30071
                       0.94905                       0.09550                      -0.30029
                       0.94905                       0.09707                      -0.29980
                       0.94898                       0.09969                      -0.29916
                       0.95793                       0.08601                      -0.27381
                       0.96351                       0.07823                      -0.25599
                       0.96760                       0.07304                      -0.24171
                       0.97118                       0.06815                      -0.22840
                       0.97406                       0.06382                      -0.21709
                       0.97586                       0.06092                      -0.20971
                       0.97683                       0.05864                      -0.20580
                       0.97667                       0.05757                      -0.20690
                       0.97488                       0.05863                      -0.21486
                       0.97242                       0.05865                      -0.22574
                       0.97002                       0.05711                      -0.23621
                       0.96785                       0.05468                      -0.24553
                       0.96476                       0.05266                      -0.25782
                       0.96270                       0.05212                      -0.26551
        </DataArray>
        <DataArray type="Float32" Name="OrientationY" NumberOfComponents="3" format="ascii">
                       0.30097                      -0.55480                       0.77564
                       0.30098                      -0.55489                       0.77557
                       0.30119                      -0.55505                       0.77537
                       0.30163                      -0.55519                       0.77510
                       0.30254                      -0.55530                       0.77467
                       0.27396                      -0.55829                       0.78311
                       0.25489                      -0.56013                       0.78821
                       0.24019                      -0.56148                       0.79186
                       0.22647                      -0.56268                       0.79505
                       0.21469                      -0.56371                       0.79758
                       0.20696                      -0.56446                       0.79909
                       0.20243                      -0.56503                       0.79985
                       0.20271                      -0.56533                       0.79957
                       0.20982                      -0.56525                       0.79779
                       0.21876                      -0.56506                       0.79552
                       0.22647                      -0.56490                       0.79347
                       0.23276                      -0.56477                       0.79174
                       0.24172                      -0.56451                       0.78924
                       0.24774                      -0.56432                       0.78751
        </DataArray>
        <DataArray type="Float32" Name="OrientationZ" NumberOfComponents="3" format="ascii">
                      -0.09391                      -0.82664                      -0.55484
                      -0.09360                      -0.82655                      -0.55503
                      -0.09263                      -0.82631                      -0.55554
                      -0.09121                      -0.82604                      -0.55619
                      -0.08890                      -0.82565                      -0.55713
                      -0.08551                      -0.82517                      -0.55837
                      -0.08173                      -0.82470                      -0.55963
                      -0.07788                      -0.82426                      -0.56083
                      -0.07433                      -0.82386                      -0.56190
                      -0.07147                      -0.82350                      -0.56279
                      -0.06969                      -0.82321                      -0.56345
                      -0.06939                      -0.82298                      -0.56381
                      -0.07093                      -0.82285                      -0.56381
                      -0.07467                      -0.82283                      -0.56335
                      -0.08090                      -0.82296                      -0.56231
                      -0.08812                      -0.82318                      -0.56090
                      -0.09538                      -0.82344                      -0.55934
                      -0.10398                      -0.82374                      -0.55735
                      -0.10879                      -0.82391                      -0.55618
        </DataArray>
        <DataArray type="Float32" Name="Force" NumberOfComponents="3" format="ascii">
                       2.10000                     -15.84230                      23.24736
                     189.18443                     -88.23427                      99.54237
                     313.57170                    -241.72854                     307.75636
                     331.49861                    -342.86410                     456.17955
                    1519.96848                     142.53363                    -455.03380
                    1374.92806                      87.44457                    -341.05328
                    1244.48370                      35.05664                    -234.28105
                    1897.35423                      64.19940                    -359.54426
                    2336.92340                      61.16315                    -400.80304
                    2584.13826                      46.56757                    -398.18038
                    4184.10201                      70.20168                    -623.10235
                    4449.80085                      51.75094                    -625.94863
                    3581.40949                       8.14048                    -464.01362
                    2113.61458                     -62.21337                    -188.71084
                     351.73216                    -122.22143                     130.89421
                     246.19913                    -141.20438                     171.33012
                   -1008.48248                    -137.60114                     377.63442
                   -2300.54432                     -98.57270                     577.64475
                  -19064.57778                     786.54102                    2564.73876
        </DataArray>
        <DataArray type="Float32" Name="Moment" NumberOfComponents="3" format="ascii">
                       0.00000                       0.00000                       0.00000
                       0.00000                       0.00000                       0.00000
                       0.00000                       0.00000                       0.00000
                       0.00000                       0.00000                       0.00000
                     119.43985                    1112.78267                     747.53514
                     204.76672                    1985.54320                    1334.58467
                     260.73241                    2648.47635                    1781.29608
                     411.41733                    4390.96939                    2955.13548
                     578.27822                    6474.14010                    4359.67420
                     630.41251                    7348.31617                    4950.68674
                     689.66174                    8251.27844                    5560.67342
                     729.48268                    8770.52462                    5910.92533
                     563.71991                    6630.13101                    4467.29192
                     583.45607                    6514.98454                    4387.04060
                     600.05226                    6176.68587                    4155.00210
                     626.53943                    5912.68091                    3972.69883
                     599.24076                    5217.50211                    3501.42351
                     326.08046                    2599.95804                    1742.32940
                     304.08636                    2315.30203                    1550.33256
        </DataArray>
      </PointData>
      <Lines>
        <DataArray type="Int32" Name="connectivity" format="ascii">
      0      1
      1      2
      2      3
      3      4
      4      5
      5      6
      6      7
      7      8
      8      9
      9     10
     10     11
     11     12
     12     13
     13     14
     14     15
     15     16
     16     17
     17     18
        </DataArray>
        <DataArray type="Int32" Name="offsets" format="ascii">
      2
      4
      6
      8
     10
     12
     14
     16
     18
     20
     22
     24
     26
     28
     30
     32
     34
     36
        </DataArray>
      </Lines>
    </Piece>
  </PolyData>
</VTKFile>
