<?xml version="1.0"?>
<VTKFile type="PolyData" version="0.1" byte_order="LittleEndian">
  <PolyData>
    <Piece NumberOfPoints="      8" NumberOfVerts="  0" NumberOfLines="      0"
           NumberOfStrips="  0" NumberOfPolys="      6">
      <Points>
        <DataArray type="Float32" NumberOfComponents="3" format="ascii">
                      -3.34877                       2.39518                      87.60995
                       3.65120                       2.39518                      87.59021
                       3.65120                      -2.40483                      87.58971
                      -3.34877                      -2.40483                      87.60945
                      -3.33524                      -2.40533                      92.40943
                       3.66474                      -2.40533                      92.38970
                       3.66474                       2.39468                      92.39020
                      -3.33524                       2.39468                      92.40993
        </DataArray>
      </Points>
      <Polys>
        <DataArray type="Int32" Name="connectivity" format="ascii">
      0      1      2      3
      4      5      6      7
      7      6      1      0
      6      5      2      1
      5      4      3      2
      4      7      0      3
        </DataArray>
        <DataArray type="Int32" Name="offsets" format="ascii">
      4
      8
     12
     16
     20
     24
        </DataArray>
      </Polys>
    </Piece>
  </PolyData>
</VTKFile>
