<?xml version="1.0"?>
<VTKFile type="PolyData" version="0.1" byte_order="LittleEndian">
  <PolyData>
    <Piece NumberOfPoints="     19" NumberOfVerts="  0" NumberOfLines="     18"
           NumberOfStrips="  0" NumberOfPolys="      0">
      <Points>
        <DataArray type="Float32" NumberOfComponents="3" format="ascii">
                      -4.94707                      -1.43175                      89.57566
                      -5.04367                      -2.73440                      89.17251
                      -5.26547                      -5.31043                      88.27701
                      -5.49825                      -7.87251                      87.33778
                      -5.79119                     -11.06657                      86.13544
                      -6.06582                     -14.94368                      84.81770
                      -6.28993                     -18.86013                      83.61461
                      -6.49983                     -22.77675                      82.40778
                      -6.69351                     -26.69422                      81.19903
                      -6.87383                     -30.61205                      79.98730
                      -7.04587                     -34.52920                      78.77027
                      -7.21364                     -38.44620                      77.55060
                      -7.38430                     -42.36306                      76.33004
                      -7.56679                     -46.27969                      75.11071
                      -7.76950                     -50.19583                      73.89456
                      -7.96317                     -53.45872                      72.88555
                      -8.13758                     -56.07077                      72.08967
                      -8.32273                     -58.69895                      71.34905
                      -8.43661                     -59.99983                      70.94261
        </DataArray>
      </Points>
      <PointData>
        <DataArray type="Float32" Name="TranslationalVelocity" NumberOfComponents="3" format="ascii">
                      -0.36273                       1.24676                      -3.97934
                      -0.68998                       2.39176                      -7.60072
                      -1.33801                       4.93650                     -14.76089
                      -1.98404                       7.60490                     -21.88041
                      -2.79228                      11.01850                     -30.75298
                      -3.77858                      14.74643                     -41.51800
                      -4.78205                      18.14170                     -52.38633
                      -5.79450                      21.54231                     -63.24889
                      -6.81760                      24.94269                     -74.10763
                      -7.85260                      28.34660                     -84.96130
                      -8.90038                      31.76184                     -95.80728
                      -9.96191                      35.18223                    -106.64740
                     -11.03765                      38.60497                    -117.48202
                     -12.12755                      42.02680                    -128.31125
                     -13.23102                      45.44486                    -139.13463
                     -14.16030                      48.28747                    -148.14913
                     -14.90956                      50.53554                    -155.36345
                     -15.66719                      52.63385                    -162.62050
                     -16.04390                      53.78881                    -166.21168
        </DataArray>
        <DataArray type="Float32" Name="RotationalVelocity" NumberOfComponents="3" format="ascii">
                       2.78017                      -0.00039                      -0.25128
                       2.77996                      -0.00035                      -0.25139
                       2.77938                      -0.00021                      -0.25178
                       2.77862                      -0.00003                      -0.25237
                       2.77751                       0.00025                      -0.25337
                       2.77605                       0.00063                      -0.25492
                       2.77454                       0.00106                      -0.25684
                       2.77303                       0.00156                      -0.25911
                       2.77158                       0.00214                      -0.26170
                       2.77018                       0.00283                      -0.26458
                       2.76883                       0.00363                      -0.26772
                       2.76754                       0.00456                      -0.27103
                       2.76629                       0.00557                      -0.27443
                       2.76511                       0.00661                      -0.27779
                       2.76402                       0.00757                      -0.28092
                       2.76322                       0.00821                      -0.28321
                       2.76270                       0.00853                      -0.28471
                       2.76231                       0.00860                      -0.28581
                       2.76218                       0.00852                      -0.28619
        </DataArray>
        <DataArray type="Float32" Name="TranslationalAcceleration" NumberOfComponents="3" format="ascii">
                       0.30238                      11.13378                       3.43018
                       0.38299                      13.46835                       4.20483
                       1.16214                      38.30302                      12.75669
                       1.91703                      60.99207                      21.04214
                       2.82665                      87.35275                      31.04878
                       3.77205                     117.57716                      41.53845
                       4.59931                     147.26303                      50.89527
                       5.40615                     176.81511                      60.27534
                       6.19443                     206.61428                      69.77436
                       6.96238                     236.77884                      79.43451
                       7.70641                     267.24031                      89.25222
                       8.41973                     297.83308                      99.15134
                       9.09988                     328.35090                     109.05471
                       9.75093                     358.62326                     118.89673
                      10.38679                     388.58773                     128.64880
                      10.92435                     413.40016                     136.72380
                      11.37042                     433.29252                     143.12966
                      11.81619                     453.52602                     149.19802
                      12.08645                     463.68991                     152.57638
        </DataArray>
        <DataArray type="Float32" Name="OrientationX" NumberOfComponents="3" format="ascii">
                       0.94736                       0.02802                      -0.31896
                       0.94737                       0.02839                      -0.31887
                       0.94738                       0.02958                      -0.31875
                       0.94734                       0.03131                      -0.31870
                       0.94720                       0.03415                      -0.31881
                       0.95642                       0.02882                      -0.29057
                       0.96214                       0.02692                      -0.27123
                       0.96631                       0.02647                      -0.25600
                       0.96998                       0.02606                      -0.24179
                       0.97294                       0.02562                      -0.22962
                       0.97480                       0.02540                      -0.22161
                       0.97584                       0.02478                      -0.21709
                       0.97573                       0.02388                      -0.21769
                       0.97398                       0.02298                      -0.22546
                       0.97160                       0.02020                      -0.23575
                       0.96933                       0.01594                      -0.24523
                       0.96730                       0.01107                      -0.25340
                       0.96435                       0.00567                      -0.26456
                       0.96236                       0.00293                      -0.27177
        </DataArray>
        <DataArray type="Float32" Name="OrientationY" NumberOfComponents="3" format="ascii">
                       0.31239                      -0.29935                       0.90156
                       0.31241                      -0.29947                       0.90151
                       0.31262                      -0.29974                       0.90135
                       0.31306                      -0.30002                       0.90110
                       0.31398                      -0.30032                       0.90068
                       0.28546                      -0.30164                       0.90968
                       0.26645                      -0.30256                       0.91513
                       0.25178                      -0.30331                       0.91903
                       0.23810                      -0.30402                       0.92243
                       0.22636                      -0.30467                       0.92517
                       0.21866                      -0.30524                       0.92683
                       0.21415                      -0.30575                       0.92772
                       0.21442                      -0.30616                       0.92752
                       0.22153                      -0.30642                       0.92576
                       0.23046                      -0.30666                       0.92350
                       0.23817                      -0.30689                       0.92146
                       0.24446                      -0.30709                       0.91975
                       0.25344                      -0.30730                       0.91724
                       0.25948                      -0.30744                       0.91551
        </DataArray>
        <DataArray type="Float32" Name="OrientationZ" NumberOfComponents="3" format="ascii">
                      -0.07022                      -0.95373                      -0.29234
                      -0.06989                      -0.95368                      -0.29258
                      -0.06888                      -0.95356                      -0.29322
                      -0.06740                      -0.95342                      -0.29402
                      -0.06499                      -0.95323                      -0.29519
                      -0.06143                      -0.95299                      -0.29672
                      -0.05742                      -0.95275                      -0.29828
                      -0.05332                      -0.95252                      -0.29976
                      -0.04947                      -0.95231                      -0.30110
                      -0.04626                      -0.95211                      -0.30223
                      -0.04410                      -0.95194                      -0.30311
                      -0.04338                      -0.95179                      -0.30367
                      -0.04450                      -0.95168                      -0.30385
                      -0.04781                      -0.95162                      -0.30354
                      -0.05365                      -0.95160                      -0.30261
                      -0.06057                      -0.95161                      -0.30128
                      -0.06763                      -0.95162                      -0.29975
                      -0.07610                      -0.95160                      -0.29778
                      -0.08087                      -0.95156                      -0.29663
        </DataArray>
        <DataArray type="Float32" Name="Force" NumberOfComponents="3" format="ascii">
                       2.53610                      -8.78755                      28.05943
                     202.96004                     -51.48996                     119.45690
                     322.99368                    -133.43419                     359.13137
                     342.61673                    -188.17596                     534.58297
                    1534.72146                      46.54293                    -491.00440
                    1402.67289                      22.88364                    -366.73574
                    1295.02405                       0.69368                    -253.63171
                    1984.53924                      11.25136                    -392.80996
                    2438.21588                       8.97859                    -433.67356
                    2715.22255                       3.86213                    -432.33845
                    4346.20593                       8.06769                    -664.89897
                    4645.11224                      -0.83572                    -667.86633
                    3811.62847                     -18.81581                    -503.64003
                    2346.86918                     -49.59112                    -213.68965
                     464.05065                     -71.07011                     147.20875
                     389.29362                     -81.04802                     184.16281
                    -714.13907                     -58.08960                     352.75159
                   -2071.07201                      -3.96545                     549.15764
                  -19260.81530                     920.54752                    2301.84431
        </DataArray>
        <DataArray type="Float32" Name="Moment" NumberOfComponents="3" format="ascii">
                       0.00000                       0.00000                       0.00000
                       0.00000                       0.00000                       0.00000
                       0.00000                       0.00000                       0.00000
                       0.00000                       0.00000                       0.00000
                      87.46238                    1288.01895                     395.47216
                     147.78391                    2307.19218                     709.20123
                     184.16486                    3082.63238                     948.76266
                     282.79921                    5111.20399                    1575.14877
                     385.37242                    7527.14574                    2322.49410
                     408.02862                    8543.90924                    2638.87281
                     435.66236                    9590.47986                    2964.13653
                     455.01106                   10195.65108                    3151.91315
                     353.13472                    7715.31721                    2384.33874
                     373.70942                    7589.36387                    2343.03350
                     397.89291                    7183.19318                    2213.64460
                     431.45732                    6879.09062                    2115.37316
                     426.56181                    6074.84992                    1863.94633
                     239.62076                    3024.47267                     925.53613
                     226.49197                    2686.40039                     820.84645
        </DataArray>
      </PointData>
      <Lines>
        <DataArray type="Int32" Name="connectivity" format="ascii">
      0      1
      1      2
      2      3
      3      4
      4      5
      5      6
      6      7
      7      8
      8      9
      9     10
     10     11
     11     12
     12     13
     13     14
     14     15
     15     16
     16     17
     17     18
        </DataArray>
        <DataArray type="Int32" Name="offsets" format="ascii">
      2
      4
      6
      8
     10
     12
     14
     16
     18
     20
     22
     24
     26
     28
     30
     32
     34
     36
        </DataArray>
      </Lines>
    </Piece>
  </PolyData>
</VTKFile>
