<?xml version="1.0"?>
<VTKFile type="PolyData" version="0.1" byte_order="LittleEndian">
  <PolyData>
    <Piece NumberOfPoints="     19" NumberOfVerts="  0" NumberOfLines="     18"
           NumberOfStrips="  0" NumberOfPolys="      0">
      <Points>
        <DataArray type="Float32" NumberOfComponents="3" format="ascii">
                      -4.86430                       1.41786                      90.49242
                      -4.88483                       2.71227                      90.93150
                      -4.93872                       5.27095                      91.89965
                      -4.99652                       7.81635                      92.90913
                      -5.06715                      10.99160                      94.19361
                      -5.10120                      14.85172                      95.59047
                      -5.10954                      18.75602                      96.85648
                      -5.10758                      22.66337                      98.11424
                      -5.09454                      26.57422                      99.36242
                      -5.07400                      30.48772                     100.60364
                      -5.05157                      34.40243                     101.84230
                      -5.03272                      38.31851                     103.07774
                      -5.02590                      42.23555                     104.31060
                      -5.04138                      46.15304                     105.54125
                      -5.08884                      50.07036                     106.76975
                      -5.16337                      53.33425                     107.79146
                      -5.25069                      55.94699                     108.59963
                      -5.36455                      58.57572                     109.35363
                      -5.43853                      59.87681                     109.76915
        </DataArray>
      </Points>
      <PointData>
        <DataArray type="Float32" Name="TranslationalVelocity" NumberOfComponents="3" format="ascii">
                       0.35699                      -1.33392                       3.95055
                       0.68191                      -2.54951                       7.54919
                       1.32547                      -5.22802                      14.66363
                       1.96750                      -8.02113                      21.74258
                       2.77149                     -11.57686                      30.57557
                       3.75452                     -15.45594                      41.31735
                       4.75703                     -18.97867                      52.18600
                       5.77165                     -22.48219                      63.06682
                       6.80167                     -25.96289                      73.96046
                       7.85033                     -29.42701                      84.86394
                       8.92074                     -32.88515                      95.77268
                      10.01628                     -36.33376                     106.68658
                      11.13986                     -39.77210                     117.60423
                      12.29389                     -43.19795                     128.52431
                      13.48011                     -46.60840                     139.44555
                      14.49447                     -49.43423                     148.54705
                      15.32247                     -51.66088                     155.83461
                      16.16822                     -53.72833                     163.16891
                      16.59354                     -54.86423                     166.80027
        </DataArray>
        <DataArray type="Float32" Name="RotationalVelocity" NumberOfComponents="3" format="ascii">
                       2.77993                      -0.00017                      -0.25107
                       2.78010                      -0.00012                      -0.25121
                       2.78058                       0.00005                      -0.25166
                       2.78118                       0.00030                      -0.25230
                       2.78203                       0.00074                      -0.25336
                       2.78307                       0.00147                      -0.25502
                       2.78403                       0.00247                      -0.25718
                       2.78485                       0.00380                      -0.25992
                       2.78552                       0.00553                      -0.26333
                       2.78603                       0.00769                      -0.26749
                       2.78643                       0.01031                      -0.27246
                       2.78675                       0.01338                      -0.27821
                       2.78703                       0.01686                      -0.28466
                       2.78732                       0.02063                      -0.29161
                       2.78766                       0.02454                      -0.29874
                       2.78798                       0.02774                      -0.30450
                       2.78827                       0.03012                      -0.30873
                       2.78856                       0.03223                      -0.31237
                       2.78870                       0.03315                      -0.31389
        </DataArray>
        <DataArray type="Float32" Name="TranslationalAcceleration" NumberOfComponents="3" format="ascii">
                      -0.34540                     -11.07313                      -3.68015
                      -0.40830                     -13.38833                      -4.47256
                      -1.22578                     -38.08592                     -13.48100
                      -2.00295                     -60.68475                     -22.12828
                      -2.91887                     -87.01019                     -32.46669
                      -3.84498                    -117.31783                     -43.19617
                      -4.62826                    -147.20554                     -52.63122
                      -5.37354                    -177.06200                     -61.94589
                      -6.09276                    -207.25903                     -71.25575
                      -6.79545                    -237.90541                     -80.62085
                      -7.48994                    -268.92337                     -90.05346
                      -8.18130                    -300.13859                     -99.49037
                      -8.87815                    -331.33776                    -108.86381
                      -9.59424                    -362.34582                    -118.11357
                     -10.35119                    -393.09933                    -127.21316
                     -11.03728                    -418.61323                    -134.69540
                     -11.63229                    -439.09571                    -140.59239
                     -12.25226                    -459.94195                    -146.11112
                     -12.62069                    -470.43164                    -149.20490
        </DataArray>
        <DataArray type="Float32" Name="OrientationX" NumberOfComponents="3" format="ascii">
                       0.98913                      -0.03263                       0.14338
                       0.98913                      -0.03286                       0.14333
                       0.98911                      -0.03364                       0.14330
                       0.98906                      -0.03484                       0.14336
                       0.98895                      -0.03687                       0.14362
                       0.99297                      -0.03003                       0.11447
                       0.99515                      -0.02669                       0.09464
                       0.99655                      -0.02479                       0.07915
                       0.99763                      -0.02284                       0.06485
                       0.99839                      -0.02073                       0.05285
                       0.99880                      -0.01870                       0.04534
                       0.99900                      -0.01607                       0.04166
                       0.99897                      -0.01294                       0.04346
                       0.99856                      -0.00961                       0.05284
                       0.99788                      -0.00421                       0.06491
                       0.99711                       0.00230                       0.07591
                       0.99632                       0.00900                       0.08523
                       0.99510                       0.01620                       0.09749
                       0.99425                       0.01980                       0.10522
        </DataArray>
        <DataArray type="Float32" Name="OrientationY" NumberOfComponents="3" format="ascii">
                       0.14628                       0.31770                      -0.93684
                       0.14631                       0.31744                      -0.93692
                       0.14654                       0.31671                      -0.93713
                       0.14699                       0.31575                      -0.93739
                       0.14790                       0.31431                      -0.93773
                       0.11810                       0.31348                      -0.94222
                       0.09823                       0.31223                      -0.94491
                       0.08294                       0.31096                      -0.94680
                       0.06874                       0.30986                      -0.94829
                       0.05667                       0.30896                      -0.94938
                       0.04890                       0.30825                      -0.95005
                       0.04458                       0.30772                      -0.95043
                       0.04534                       0.30732                      -0.95053
                       0.05323                       0.30701                      -0.95021
                       0.06307                       0.30687                      -0.94966
                       0.07154                       0.30687                      -0.94906
                       0.07837                       0.30698                      -0.94848
                       0.08783                       0.30726                      -0.94756
                       0.09408                       0.30751                      -0.94688
        </DataArray>
        <DataArray type="Float32" Name="OrientationZ" NumberOfComponents="3" format="ascii">
                      -0.01499                       0.94763                       0.31902
                      -0.01471                       0.94771                       0.31880
                      -0.01386                       0.94793                       0.31819
                      -0.01261                       0.94820                       0.31741
                      -0.01057                       0.94860                       0.31629
                      -0.00759                       0.94912                       0.31482
                      -0.00432                       0.94963                       0.31334
                      -0.00114                       0.95010                       0.31194
                       0.00156                       0.95051                       0.31070
                       0.00335                       0.95085                       0.30964
                       0.00379                       0.95112                       0.30879
                       0.00245                       0.95134                       0.30813
                      -0.00106                       0.95152                       0.30759
                      -0.00709                       0.95166                       0.30708
                      -0.01592                       0.95174                       0.30648
                      -0.02548                       0.95175                       0.30582
                      -0.03470                       0.95167                       0.30515
                      -0.04530                       0.95149                       0.30434
                      -0.05111                       0.95134                       0.30388
        </DataArray>
        <DataArray type="Float32" Name="Force" NumberOfComponents="3" format="ascii">
                      -0.92418                       3.42986                     -10.23158
                     170.49425                      40.59442                    -112.73884
                     239.30045                     113.90074                    -328.09904
                     228.38736                     169.49718                    -494.89699
                    1529.89284                     -59.24545                     225.93947
                    1501.49357                     -32.36263                     130.61198
                    1411.84625                      -7.50899                      39.65661
                    2100.46862                     -15.65461                      50.70334
                    2528.86732                      -8.10582                       6.79381
                    2772.72593                       3.14911                     -44.80908
                    4287.46780                      14.36897                    -104.53552
                    4451.76874                      35.82134                    -153.06909
                    3319.27993                      58.06635                    -171.61108
                    1647.00563                      76.85273                    -197.29766
                     789.57258                      61.17677                    -145.05480
                    -448.34931                      59.19826                    -209.40627
                   -2239.10385                      -6.43806                    -214.16451
                   -3414.52223                     -98.12938                    -176.98677
                  -19504.18820                   -1368.72654                    1019.05184
        </DataArray>
        <DataArray type="Float32" Name="Moment" NumberOfComponents="3" format="ascii">
                       0.00000                       0.00000                       0.00000
                       0.00000                       0.00000                       0.00000
                       0.00000                       0.00000                       0.00000
                       0.00000                       0.00000                       0.00000
                      13.17569                   -1205.76420                    -405.38931
                      16.74737                   -2184.35741                    -733.75831
                      12.15391                   -2958.77609                    -992.94590
                       3.15220                   -4921.91735                   -1650.22177
                     -16.61404                   -7206.89558                   -2414.41229
                     -35.15992                   -8223.71405                   -2753.59745
                     -44.58012                   -9265.73280                   -3102.05460
                     -34.26098                   -9876.51528                   -3307.73467
                       1.20880                   -7486.16152                   -2509.63837
                      47.24957                   -7341.92450                   -2465.44559
                     111.43265                   -7126.37289                   -2398.98530
                     171.26202                   -6686.33862                   -2256.88013
                     207.53164                   -5888.60430                   -1992.73781
                     136.31435                   -2942.15176                    -998.58805
                     137.68251                   -2626.82589                    -893.00732
        </DataArray>
      </PointData>
      <Lines>
        <DataArray type="Int32" Name="connectivity" format="ascii">
      0      1
      1      2
      2      3
      3      4
      4      5
      5      6
      6      7
      7      8
      8      9
      9     10
     10     11
     11     12
     12     13
     13     14
     14     15
     15     16
     16     17
     17     18
        </DataArray>
        <DataArray type="Int32" Name="offsets" format="ascii">
      2
      4
      6
      8
     10
     12
     14
     16
     18
     20
     22
     24
     26
     28
     30
     32
     34
     36
        </DataArray>
      </Lines>
    </Piece>
  </PolyData>
</VTKFile>
