<?xml version="1.0"?>
<VTKFile type="PolyData" version="0.1" byte_order="LittleEndian">
  <PolyData>
    <Piece NumberOfPoints="      8" NumberOfVerts="  0" NumberOfLines="      0"
           NumberOfStrips="  0" NumberOfPolys="      6">
      <Points>
        <DataArray type="Float32" NumberOfComponents="3" format="ascii">
                      -3.34856                       2.39694                      87.61008
                       3.65141                       2.39694                      87.58991
                       3.65141                      -2.40307                      87.58957
                      -3.34856                      -2.40307                      87.60974
                      -3.33473                      -2.40341                      92.40973
                       3.66524                      -2.40341                      92.38956
                       3.66524                       2.39660                      92.38990
                      -3.33473                       2.39660                      92.41006
        </DataArray>
      </Points>
      <Polys>
        <DataArray type="Int32" Name="connectivity" format="ascii">
      0      1      2      3
      4      5      6      7
      7      6      1      0
      6      5      2      1
      5      4      3      2
      4      7      0      3
        </DataArray>
        <DataArray type="Int32" Name="offsets" format="ascii">
      4
      8
     12
     16
     20
     24
        </DataArray>
      </Polys>
    </Piece>
  </PolyData>
</VTKFile>
