<?xml version="1.0"?>
<VTKFile type="PolyData" version="0.1" byte_order="LittleEndian">
  <PolyData>
    <Piece NumberOfPoints="     19" NumberOfVerts="  0" NumberOfLines="     18"
           NumberOfStrips="  0" NumberOfPolys="      0">
      <Points>
        <DataArray type="Float32" NumberOfComponents="3" format="ascii">
                      -4.98658                       1.12083                      89.03652
                      -5.12736                       2.14945                      88.14719
                      -5.42357                       4.26803                      86.44100
                      -5.72494                       6.41538                      84.76781
                      -6.10147                       9.11618                      82.69401
                      -6.50197                      12.26253                      80.08785
                      -6.87678                      15.32136                      77.37708
                      -7.24385                      18.37614                      74.66010
                      -7.60258                      21.42594                      71.93577
                      -7.95670                      24.47223                      69.20623
                      -8.31180                      27.51753                      66.47508
                      -8.67309                      30.56080                      63.74199
                      -9.04853                      33.60164                      61.00792
                      -9.44769                      36.63922                      58.27384
                      -9.87926                      39.67248                      55.54067
                     -10.27326                      42.19549                      53.26432
                     -10.61498                      44.20473                      51.43859
                     -10.98088                      46.17353                      49.57284
                     -11.18075                      47.18299                      48.67189
        </DataArray>
      </Points>
      <PointData>
        <DataArray type="Float32" Name="TranslationalVelocity" NumberOfComponents="3" format="ascii">
                       0.27851                       2.76264                       3.11956
                       0.53719                       5.26218                       5.96973
                       1.07029                      10.06277                      11.83817
                       1.61161                      14.77128                      17.78330
                       2.29459                      20.60481                      25.25575
                       3.09424                      27.91247                      33.95350
                       3.87619                      35.49668                      42.40158
                       4.66065                      43.08973                      50.83114
                       5.44605                      50.69509                      59.24041
                       6.23095                      58.30845                      67.63437
                       7.01382                      65.92197                      76.02105
                       7.79199                      73.53860                      84.39873
                       8.56288                      81.15835                      92.76735
                       9.32382                      88.78133                     101.12550
                      10.07224                      96.40734                     109.47086
                      10.68428                     102.76518                     116.41187
                      11.16450                     107.86931                     121.93905
                      11.62851                     113.08797                     127.35439
                      11.86351                     115.61280                     130.13069
        </DataArray>
        <DataArray type="Float32" Name="RotationalVelocity" NumberOfComponents="3" format="ascii">
                       2.77133                      -0.00036                      -0.25099
                       2.77093                      -0.00044                      -0.25102
                       2.76988                      -0.00071                      -0.25118
                       2.76855                      -0.00110                      -0.25145
                       2.76666                      -0.00169                      -0.25189
                       2.76425                      -0.00247                      -0.25251
                       2.76188                      -0.00325                      -0.25309
                       2.75971                      -0.00397                      -0.25346
                       2.75781                      -0.00459                      -0.25347
                       2.75622                      -0.00507                      -0.25296
                       2.75494                      -0.00539                      -0.25182
                       2.75396                      -0.00555                      -0.24996
                       2.75323                      -0.00554                      -0.24739
                       2.75269                      -0.00537                      -0.24417
                       2.75230                      -0.00503                      -0.24046
                       2.75206                      -0.00463                      -0.23720
                       2.75190                      -0.00422                      -0.23462
                       2.75179                      -0.00372                      -0.23225
                       2.75175                      -0.00344                      -0.23119
        </DataArray>
        <DataArray type="Float32" Name="TranslationalAcceleration" NumberOfComponents="3" format="ascii">
                       0.68654                      -8.71270                       7.59154
                       0.83728                     -10.55674                       9.19188
                       2.34856                     -30.67058                      25.75668
                       3.71812                     -49.40241                      40.69060
                       5.31992                     -71.41582                      57.91539
                       7.26341                     -95.70259                      78.26511
                       9.30312                    -118.62259                      98.82443
                      11.43860                    -141.37749                     119.33736
                      13.70751                    -164.25514                     140.06748
                      16.11821                    -187.36443                     161.08461
                      18.65081                    -210.68069                     182.32519
                      21.26036                    -234.06822                     203.68156
                      23.87395                    -257.36943                     225.01429
                      26.39162                    -280.45445                     246.21099
                      28.68645                    -303.28086                     267.23517
                      30.30992                    -322.16864                     284.68450
                      31.35604                    -337.25260                     298.73286
                      32.12542                    -352.21970                     313.26151
                      32.37037                    -360.02587                     320.40865
        </DataArray>
        <DataArray type="Float32" Name="OrientationX" NumberOfComponents="3" format="ascii">
                       0.98134                       0.18374                       0.05674
                       0.98135                       0.18360                       0.05690
                       0.98138                       0.18326                       0.05749
                       0.98140                       0.18284                       0.05845
                       0.98141                       0.18225                       0.06016
                       0.98613                       0.16131                       0.03899
                       0.98887                       0.14655                       0.02559
                       0.99075                       0.13480                       0.01561
                       0.99225                       0.12408                       0.00615
                       0.99332                       0.11538                      -0.00232
                       0.99385                       0.11041                      -0.00843
                       0.99396                       0.10891                      -0.01312
                       0.99356                       0.11222                      -0.01541
                       0.99244                       0.12191                      -0.01394
                       0.99080                       0.13473                      -0.01274
                       0.98905                       0.14703                      -0.01287
                       0.98736                       0.15792                      -0.01385
                       0.98510                       0.17142                      -0.01360
                       0.98368                       0.17948                      -0.01260
        </DataArray>
        <DataArray type="Float32" Name="OrientationY" NumberOfComponents="3" format="ascii">
                       0.16247                      -0.63432                      -0.75580
                       0.16252                      -0.63448                      -0.75566
                       0.16280                      -0.63490                      -0.75524
                       0.16333                      -0.63542                      -0.75469
                       0.16435                      -0.63615                      -0.75386
                       0.13492                      -0.64249                      -0.75432
                       0.11535                      -0.64671                      -0.75396
                       0.10029                      -0.64991                      -0.75337
                       0.08628                      -0.65264                      -0.75274
                       0.07430                      -0.65478                      -0.75216
                       0.06652                      -0.65617                      -0.75167
                       0.06207                      -0.65699                      -0.75134
                       0.06257                      -0.65712                      -0.75119
                       0.07007                      -0.65631                      -0.75123
                       0.07941                      -0.65509                      -0.75136
                       0.08743                      -0.65391                      -0.75151
                       0.09387                      -0.65284                      -0.75166
                       0.10293                      -0.65120                      -0.75190
                       0.10897                      -0.65002                      -0.75207
        </DataArray>
        <DataArray type="Float32" Name="OrientationZ" NumberOfComponents="3" format="ascii">
                      -0.10288                       0.75092                      -0.65233
                      -0.10264                       0.75081                      -0.65249
                      -0.10191                       0.75054                      -0.65292
                      -0.10084                       0.75020                      -0.65347
                      -0.09912                       0.74973                      -0.65428
                      -0.09663                       0.74912                      -0.65534
                      -0.09394                       0.74853                      -0.65642
                      -0.09140                       0.74796                      -0.65742
                      -0.08939                       0.74744                      -0.65829
                      -0.08830                       0.74696                      -0.65898
                      -0.08853                       0.74649                      -0.65948
                      -0.09045                       0.74599                      -0.65978
                      -0.09443                       0.74539                      -0.65991
                      -0.10073                       0.74458                      -0.65989
                      -0.10958                       0.74344                      -0.65976
                      -0.11891                       0.74215                      -0.65960
                      -0.12774                       0.74085                      -0.65941
                      -0.13775                       0.73930                      -0.65914
                      -0.14317                       0.73842                      -0.65897
        </DataArray>
        <DataArray type="Float32" Name="Force" NumberOfComponents="3" format="ascii">
                      -0.80437                      -7.82738                      -8.88340
                     148.08041                     -56.97105                     -88.87423
                     228.92098                    -194.89698                    -260.05992
                     229.42785                    -314.95162                    -397.86618
                    1403.23206                     256.01302                      81.76171
                    1351.89914                     187.33065                      15.84948
                    1215.06903                     111.84068                     -45.61268
                    1793.35874                     161.72047                     -63.98943
                    2189.24062                     165.14711                    -108.21971
                    2345.13944                     141.58252                    -152.37427
                    3790.03641                     215.43247                    -262.68047
                    3906.74561                     197.20213                    -310.68183
                    2812.42507                     103.79948                    -284.58423
                    1272.30173                     -32.89911                    -232.95070
                     561.65304                     -59.30419                    -162.13633
                    -645.28731                    -208.65054                    -123.54742
                   -2271.17070                    -374.95256                      10.56998
                   -3328.90883                    -469.14091                     159.91586
                  -18406.09853                   -1315.41082                    2519.15587
        </DataArray>
        <DataArray type="Float32" Name="Moment" NumberOfComponents="3" format="ascii">
                       0.00000                       0.00000                       0.00000
                       0.00000                       0.00000                       0.00000
                       0.00000                       0.00000                       0.00000
                       0.00000                       0.00000                       0.00000
                     126.69754                    -961.28343                     835.53798
                     222.72463                   -1734.95855                    1508.54687
                     291.03035                   -2333.89035                    2030.09528
                     466.21230                   -3845.82862                    3346.43846
                     665.18097                   -5615.15334                    4887.41725
                     747.16311                   -6389.53752                    5562.32265
                     843.16602                   -7195.75103                    6264.00409
                     917.07872                   -7662.34450                    6668.43829
                     722.76660                   -5785.73109                    5032.50319
                     755.61105                   -5670.14884                    4927.68687
                     797.52389                   -5500.84855                    4774.71715
                     813.88122                   -5171.68869                    4483.20528
                     770.92252                   -4558.39023                    3946.70293
                     416.20505                   -2281.03100                    1972.18532
                     388.18845                   -2046.21700                    1767.82185
        </DataArray>
      </PointData>
      <Lines>
        <DataArray type="Int32" Name="connectivity" format="ascii">
      0      1
      1      2
      2      3
      3      4
      4      5
      5      6
      6      7
      7      8
      8      9
      9     10
     10     11
     11     12
     12     13
     13     14
     14     15
     15     16
     16     17
     17     18
        </DataArray>
        <DataArray type="Int32" Name="offsets" format="ascii">
      2
      4
      6
      8
     10
     12
     14
     16
     18
     20
     22
     24
     26
     28
     30
     32
     34
     36
        </DataArray>
      </Lines>
    </Piece>
  </PolyData>
</VTKFile>
