<?xml version="1.0"?>
<VTKFile type="PolyData" version="0.1" byte_order="LittleEndian">
  <PolyData>
    <Piece NumberOfPoints="     19" NumberOfVerts="  0" NumberOfLines="     18"
           NumberOfStrips="  0" NumberOfPolys="      0">
      <Points>
        <DataArray type="Float32" NumberOfComponents="3" format="ascii">
                      -5.04130                      -0.12380                      88.53168
                      -5.22352                      -0.22558                      87.18067
                      -5.60941                      -0.33458                      84.47393
                      -6.00337                      -0.39878                      81.76433
                      -6.49681                      -0.45233                      78.37478
                      -7.02560                      -0.65937                      74.30958
                      -7.51714                      -0.99599                      70.24927
                      -7.99848                      -1.33506                      66.18749
                      -8.46860                      -1.67833                      62.12422
                      -8.93116                      -2.02393                      58.05975
                      -9.39189                      -2.36839                      53.99447
                      -9.85590                      -2.71353                      49.92922
                     -10.33128                      -3.05995                      45.86523
                     -10.82791                      -3.40853                      41.80411
                     -11.35500                      -3.76017                      37.74762
                     -11.82761                      -4.05671                      34.37257
                     -12.23139                      -4.30464                      31.67768
                     -12.65535                      -4.61002                      28.99103
                     -12.88753                      -4.72324                      27.64787
        </DataArray>
      </Points>
      <PointData>
        <DataArray type="Float32" Name="TranslationalVelocity" NumberOfComponents="3" format="ascii">
                      -0.02886                       4.16402                      -0.32160
                      -0.05427                       7.96454                      -0.60448
                      -0.08261                      15.58053                      -0.90718
                      -0.10136                      23.20108                      -1.08530
                      -0.12079                      32.72547                      -1.23375
                      -0.18463                      44.11939                      -1.80731
                      -0.28794                      55.47587                      -2.73801
                      -0.40173                      66.81959                      -3.67293
                      -0.52973                      78.15146                      -4.61668
                      -0.67527                      89.47305                      -5.56380
                      -0.84162                     100.78621                      -6.50437
                      -1.03356                     112.09143                      -7.44286
                      -1.25566                     123.38861                      -8.38015
                      -1.51253                     134.67647                      -9.31760
                      -1.80862                     145.95259                     -10.25637
                      -2.08932                     155.33717                     -11.04148
                      -2.33852                     162.83287                     -11.69388
                      -2.62239                     170.30632                     -12.49929
                      -2.76307                     174.04548                     -12.79082
        </DataArray>
        <DataArray type="Float32" Name="RotationalVelocity" NumberOfComponents="3" format="ascii">
                       2.77988                      -0.00008                      -0.25106
                       2.77928                       0.00006                      -0.25100
                       2.77769                       0.00049                      -0.25086
                       2.77569                       0.00111                      -0.25072
                       2.77285                       0.00211                      -0.25060
                       2.76924                       0.00369                      -0.25060
                       2.76569                       0.00575                      -0.25074
                       2.76240                       0.00843                      -0.25095
                       2.75946                       0.01193                      -0.25112
                       2.75689                       0.01642                      -0.25113
                       2.75466                       0.02203                      -0.25088
                       2.75270                       0.02887                      -0.25028
                       2.75092                       0.03694                      -0.24928
                       2.74924                       0.04611                      -0.24792
                       2.74759                       0.05614                      -0.24631
                       2.74621                       0.06484                      -0.24494
                       2.74511                       0.07178                      -0.24396
                       2.74402                       0.07846                      -0.24324
                       2.74350                       0.08161                      -0.24302
        </DataArray>
        <DataArray type="Float32" Name="TranslationalAcceleration" NumberOfComponents="3" format="ascii">
                       1.04175                       0.92276                      11.60831
                       1.26059                       1.06926                      14.02335
                       3.61213                       2.31409                      40.15817
                       5.77338                       3.03916                      64.18380
                       8.28424                       3.57376                      92.20038
                      11.09844                       5.16796                     123.90069
                      13.78297                       7.67802                     154.62344
                      16.39776                      10.17652                     185.18122
                      18.97057                      12.70949                     215.96942
                      21.51067                      15.27475                     247.12078
                      24.01696                      17.84335                     278.57756
                      26.48581                      20.41797                     310.16273
                      28.91954                      22.98837                     341.65822
                      31.33463                      25.54883                     372.87909
                      33.77019                      28.10189                     403.74916
                      35.86739                      30.23869                     429.27296
                      37.62648                      32.02783                     449.67996
                      39.48647                      34.26698                     470.23807
                      40.48984                      35.09602                     480.67483
        </DataArray>
        <DataArray type="Float32" Name="OrientationX" NumberOfComponents="3" format="ascii">
                       0.96287                       0.22625                      -0.14727
                       0.96290                       0.22629                      -0.14699
                       0.96296                       0.22658                      -0.14617
                       0.96301                       0.22714                      -0.14498
                       0.96304                       0.22822                      -0.14307
                       0.97007                       0.19923                      -0.13880
                       0.97440                       0.18003                      -0.13466
                       0.97753                       0.16531                      -0.13077
                       0.98020                       0.15163                      -0.12735
                       0.98225                       0.13993                      -0.12490
                       0.98342                       0.13233                      -0.12398
                       0.98388                       0.12794                      -0.12495
                       0.98339                       0.12835                      -0.12831
                       0.98159                       0.13558                      -0.13452
                       0.97904                       0.14450                      -0.14353
                       0.97643                       0.15204                      -0.15318
                       0.97398                       0.15805                      -0.16242
                       0.97070                       0.16663                      -0.17313
                       0.96861                       0.17241                      -0.17905
        </DataArray>
        <DataArray type="Float32" Name="OrientationY" NumberOfComponents="3" format="ascii">
                       0.23489                      -0.97102                       0.04402
                       0.23492                      -0.97101                       0.04406
                       0.23517                      -0.97095                       0.04419
                       0.23566                      -0.97082                       0.04437
                       0.23663                      -0.97057                       0.04465
                       0.20771                      -0.97694                       0.04945
                       0.18847                      -0.98066                       0.05272
                       0.17367                      -0.98325                       0.05524
                       0.15990                      -0.98546                       0.05744
                       0.14816                      -0.98719                       0.05920
                       0.14057                      -0.98824                       0.06026
                       0.13630                      -0.98880                       0.06076
                       0.13694                      -0.98873                       0.06054
                       0.14455                      -0.98772                       0.05930
                       0.15403                      -0.98638                       0.05767
                       0.16221                      -0.98516                       0.05616
                       0.16885                      -0.98411                       0.05486
                       0.17812                      -0.98258                       0.05300
                       0.18427                      -0.98151                       0.05172
        </DataArray>
        <DataArray type="Float32" Name="OrientationZ" NumberOfComponents="3" format="ascii">
                      -0.13304                      -0.07698                      -0.98812
                      -0.13276                      -0.07696                      -0.98816
                      -0.13191                      -0.07693                      -0.98827
                      -0.13067                      -0.07690                      -0.98844
                      -0.12867                      -0.07685                      -0.98871
                      -0.12575                      -0.07680                      -0.98908
                      -0.12256                      -0.07675                      -0.98949
                      -0.11944                      -0.07671                      -0.98987
                      -0.11679                      -0.07667                      -0.99019
                      -0.11502                      -0.07666                      -0.99040
                      -0.11455                      -0.07669                      -0.99045
                      -0.11578                      -0.07681                      -0.99030
                      -0.11910                      -0.07710                      -0.98988
                      -0.12483                      -0.07765                      -0.98913
                      -0.13325                      -0.07857                      -0.98796
                      -0.14237                      -0.07968                      -0.98660
                      -0.15116                      -0.08086                      -0.98520
                      -0.16128                      -0.08228                      -0.98347
                      -0.16683                      -0.08309                      -0.98248
        </DataArray>
        <DataArray type="Float32" Name="Force" NumberOfComponents="3" format="ascii">
                       0.13889                     -19.93722                       1.53446
                     146.34194                    -116.92088                     -10.55330
                     233.75172                    -354.01798                      -3.62392
                     242.75599                    -537.38372                       9.76216
                    1285.10137                     246.62449                    -186.44387
                    1088.24859                     149.70180                    -150.01131
                     906.59784                      47.97328                    -116.02433
                    1446.69664                     103.94855                    -182.65013
                    1853.08653                     110.18314                    -227.13234
                    1996.52600                      77.93601                    -237.91209
                    3474.44536                     144.45364                    -413.01479
                    3597.46116                     110.60611                    -429.13892
                    2568.76248                       7.18746                    -309.57100
                    1074.24047                    -137.36535                    -124.85407
                     410.43601                    -167.41705                     -42.29878
                    -911.55177                    -298.96301                     154.80668
                   -2528.81291                    -411.13794                     419.95013
                   -3530.86155                    -422.07853                     611.75395
                  -19179.68300                    -149.94568                    3266.92559
        </DataArray>
        <DataArray type="Float32" Name="Moment" NumberOfComponents="3" format="ascii">
                       0.00000                       0.00000                       0.00000
                       0.00000                       0.00000                       0.00000
                       0.00000                       0.00000                       0.00000
                       0.00000                       0.00000                       0.00000
                     148.84844                      89.06762                    1143.78441
                     271.93433                     166.51375                    2138.90251
                     361.85606                     227.37276                    2921.50559
                     598.09961                     385.66274                    4956.78699
                     881.46467                     581.33759                    7473.54562
                     989.39778                     662.62591                    8519.95693
                    1110.83309                     747.06314                    9606.06001
                    1195.77834                     795.61781                   10229.24297
                     925.98247                     598.88689                    7697.53456
                     951.73994                     587.15342                    7542.74981
                     985.29839                     569.27608                    7307.43139
                     990.87926                     535.56359                    6868.89906
                     927.64967                     471.94862                    6048.07156
                     495.70533                     236.19567                    3024.02624
                     459.59206                     211.61488                    2707.91622
        </DataArray>
      </PointData>
      <Lines>
        <DataArray type="Int32" Name="connectivity" format="ascii">
      0      1
      1      2
      2      3
      3      4
      4      5
      5      6
      6      7
      7      8
      8      9
      9     10
     10     11
     11     12
     12     13
     13     14
     14     15
     15     16
     16     17
     17     18
        </DataArray>
        <DataArray type="Int32" Name="offsets" format="ascii">
      2
      4
      6
      8
     10
     12
     14
     16
     18
     20
     22
     24
     26
     28
     30
     32
     34
     36
        </DataArray>
      </Lines>
    </Piece>
  </PolyData>
</VTKFile>
