<?xml version="1.0"?>
<VTKFile type="PolyData" version="0.1" byte_order="LittleEndian">
  <PolyData>
    <Piece NumberOfPoints="     22" NumberOfVerts="  0" NumberOfLines="     21"
           NumberOfStrips="  0" NumberOfPolys="      0">
      <Points>
        <DataArray type="Float32" NumberOfComponents="3" format="ascii">
                       0.00007                      -0.00000                       2.19000
                       0.00071                      -0.00001                       6.57000
                       0.00211                      -0.00003                      10.95000
                       0.00435                      -0.00005                      15.33000
                       0.00742                      -0.00009                      19.71000
                       0.01132                      -0.00013                      24.09000
                       0.01600                      -0.00018                      28.46999
                       0.02145                      -0.00025                      32.84999
                       0.02763                      -0.00032                      37.22999
                       0.03454                      -0.00041                      41.60998
                       0.04221                      -0.00052                      45.98997
                       0.05066                      -0.00064                      50.36997
                       0.05992                      -0.00077                      54.74996
                       0.07004                      -0.00093                      59.12994
                       0.08103                      -0.00110                      63.50993
                       0.09286                      -0.00130                      67.88991
                       0.10544                      -0.00151                      72.26990
                       0.11860                      -0.00173                      76.64988
                       0.13201                      -0.00197                      81.02986
                       0.14520                      -0.00222                      85.40984
                       0.15152                      -0.00235                      87.59983
                       0.00000                       0.00000                       0.00000
        </DataArray>
      </Points>
      <PointData>
        <DataArray type="Float32" Name="TranslationalVelocity" NumberOfComponents="3" format="ascii">
                      -0.00002                      -0.00001                       0.00000
                      -0.00018                      -0.00005                       0.00000
                      -0.00051                      -0.00014                       0.00000
                      -0.00098                      -0.00025                       0.00000
                      -0.00159                      -0.00040                       0.00000
                      -0.00230                      -0.00057                       0.00000
                      -0.00307                      -0.00077                       0.00000
                      -0.00385                      -0.00099                       0.00000
                      -0.00461                      -0.00123                       0.00000
                      -0.00528                      -0.00149                       0.00001
                      -0.00583                      -0.00176                       0.00001
                      -0.00622                      -0.00205                       0.00001
                      -0.00641                      -0.00235                       0.00001
                      -0.00637                      -0.00266                       0.00001
                      -0.00608                      -0.00297                       0.00001
                      -0.00553                      -0.00328                       0.00001
                      -0.00472                      -0.00359                       0.00000
                      -0.00366                      -0.00389                      -0.00000
                      -0.00238                      -0.00419                      -0.00000
                      -0.00092                      -0.00449                      -0.00001
                      -0.00014                      -0.00463                      -0.00001
                       0.00000                      -0.00000                       0.00000
        </DataArray>
        <DataArray type="Float32" Name="RotationalVelocity" NumberOfComponents="3" format="ascii">
                       0.00001                      -0.00002                       0.00000
                       0.00002                      -0.00006                       0.00000
                       0.00002                      -0.00009                       0.00000
                       0.00003                      -0.00013                       0.00000
                       0.00004                      -0.00015                       0.00000
                       0.00004                      -0.00017                       0.00000
                       0.00005                      -0.00018                       0.00000
                       0.00005                      -0.00018                       0.00000
                       0.00006                      -0.00016                       0.00000
                       0.00006                      -0.00014                       0.00000
                       0.00006                      -0.00011                       0.00000
                       0.00007                      -0.00007                       0.00000
                       0.00007                      -0.00002                       0.00000
                       0.00007                       0.00004                       0.00000
                       0.00007                       0.00010                       0.00000
                       0.00007                       0.00016                       0.00000
                       0.00007                       0.00021                       0.00000
                       0.00007                       0.00027                       0.00000
                       0.00007                       0.00031                       0.00000
                       0.00007                       0.00035                       0.00000
                       0.00007                       0.00036                       0.00000
                       0.00000                      -0.00000                       0.00000
        </DataArray>
        <DataArray type="Float32" Name="TranslationalAcceleration" NumberOfComponents="3" format="ascii">
                      -0.00024                      -0.00005                       0.00000
                      -0.00219                      -0.00038                       0.00000
                      -0.00613                      -0.00099                       0.00000
                      -0.01194                      -0.00181                       0.00000
                      -0.01933                      -0.00280                       0.00001
                      -0.02793                      -0.00391                       0.00002
                      -0.03725                      -0.00509                       0.00003
                      -0.04677                      -0.00628                       0.00004
                      -0.05592                      -0.00745                       0.00005
                      -0.06415                      -0.00853                       0.00006
                      -0.07092                      -0.00945                       0.00008
                      -0.07571                      -0.01016                       0.00008
                      -0.07811                      -0.01059                       0.00009
                      -0.07776                      -0.01068                       0.00009
                      -0.07441                      -0.01039                       0.00008
                      -0.06793                      -0.00966                       0.00006
                      -0.05832                      -0.00849                       0.00003
                      -0.04572                      -0.00688                      -0.00000
                      -0.03045                      -0.00486                      -0.00005
                      -0.01298                      -0.00253                      -0.00010
                      -0.00362                      -0.00129                      -0.00013
                       0.00000                      -0.00000                       0.00000
        </DataArray>
        <DataArray type="Float32" Name="RotationalAcceleration" NumberOfComponents="3" format="ascii">
                       0.00004                      -0.00022                       0.00000
                       0.00011                      -0.00067                       0.00000
                       0.00017                      -0.00112                       0.00000
                       0.00021                      -0.00152                       0.00000
                       0.00024                      -0.00184                       0.00000
                       0.00026                      -0.00206                       0.00000
                       0.00027                      -0.00217                       0.00000
                       0.00027                      -0.00215                       0.00000
                       0.00026                      -0.00201                       0.00000
                       0.00023                      -0.00173                       0.00000
                       0.00019                      -0.00134                       0.00000
                       0.00013                      -0.00084                       0.00000
                       0.00006                      -0.00025                       0.00000
                      -0.00002                       0.00042                       0.00000
                      -0.00012                       0.00112                       0.00000
                      -0.00022                       0.00184                       0.00000
                      -0.00032                       0.00254                       0.00000
                      -0.00042                       0.00320                       0.00000
                      -0.00050                       0.00376                       0.00000
                      -0.00056                       0.00419                       0.00000
                      -0.00057                       0.00435                       0.00000
                       0.00000                      -0.00000                       0.00000
        </DataArray>
        <DataArray type="Float32" Name="OrientationX" NumberOfComponents="3" format="ascii">
                       1.00000                       0.00000                      -0.00007
                       1.00000                       0.00000                      -0.00023
                       1.00000                       0.00000                      -0.00041
                       1.00000                       0.00000                      -0.00061
                       1.00000                       0.00000                      -0.00080
                       1.00000                       0.00000                      -0.00098
                       1.00000                       0.00000                      -0.00116
                       1.00000                       0.00000                      -0.00133
                       1.00000                       0.00000                      -0.00149
                       1.00000                       0.00000                      -0.00166
                       1.00000                       0.00000                      -0.00184
                       1.00000                       0.00000                      -0.00202
                       1.00000                       0.00000                      -0.00221
                       1.00000                       0.00000                      -0.00241
                       1.00000                       0.00000                      -0.00261
                       1.00000                       0.00000                      -0.00279
                       1.00000                       0.00000                      -0.00295
                       1.00000                       0.00000                      -0.00305
                       1.00000                       0.00000                      -0.00306
                       1.00000                       0.00000                      -0.00294
                       1.00000                       0.00000                      -0.00282
                       1.00000                      -0.00000                       0.00000
        </DataArray>
        <DataArray type="Float32" Name="OrientationY" NumberOfComponents="3" format="ascii">
                       0.00000                       1.00000                       0.00000
                       0.00000                       1.00000                       0.00000
                       0.00000                       1.00000                       0.00001
                       0.00000                       1.00000                       0.00001
                       0.00000                       1.00000                       0.00001
                       0.00000                       1.00000                       0.00001
                       0.00000                       1.00000                       0.00001
                       0.00000                       1.00000                       0.00002
                       0.00000                       1.00000                       0.00002
                       0.00000                       1.00000                       0.00002
                       0.00000                       1.00000                       0.00003
                       0.00000                       1.00000                       0.00003
                       0.00000                       1.00000                       0.00003
                       0.00000                       1.00000                       0.00004
                       0.00000                       1.00000                       0.00004
                       0.00000                       1.00000                       0.00005
                       0.00000                       1.00000                       0.00005
                       0.00000                       1.00000                       0.00005
                       0.00000                       1.00000                       0.00006
                       0.00000                       1.00000                       0.00006
                       0.00000                       1.00000                       0.00006
                      -0.00000                       1.00000                      -0.00000
        </DataArray>
        <DataArray type="Float32" Name="OrientationZ" NumberOfComponents="3" format="ascii">
                       0.00007                      -0.00000                       1.00000
                       0.00023                      -0.00000                       1.00000
                       0.00041                      -0.00001                       1.00000
                       0.00061                      -0.00001                       1.00000
                       0.00080                      -0.00001                       1.00000
                       0.00098                      -0.00001                       1.00000
                       0.00116                      -0.00001                       1.00000
                       0.00133                      -0.00002                       1.00000
                       0.00149                      -0.00002                       1.00000
                       0.00166                      -0.00002                       1.00000
                       0.00184                      -0.00003                       1.00000
                       0.00202                      -0.00003                       1.00000
                       0.00221                      -0.00003                       1.00000
                       0.00241                      -0.00004                       1.00000
                       0.00261                      -0.00004                       1.00000
                       0.00279                      -0.00005                       1.00000
                       0.00295                      -0.00005                       1.00000
                       0.00305                      -0.00005                       1.00000
                       0.00306                      -0.00006                       1.00000
                       0.00294                      -0.00006                       1.00000
                       0.00282                      -0.00006                       1.00000
                       0.00000                      -0.00000                       1.00000
        </DataArray>
      </PointData>
      <Lines>
        <DataArray type="Int32" Name="connectivity" format="ascii">
      0      1
      1      2
      2      3
      3      4
      4      5
      5      6
      6      7
      7      8
      8      9
      9     10
     10     11
     11     12
     12     13
     13     14
     14     15
     15     16
     16     17
     17     18
     18     19
     19     20
     21      0
        </DataArray>
        <DataArray type="Int32" Name="offsets" format="ascii">
      2
      4
      6
      8
     10
     12
     14
     16
     18
     20
     22
     24
     26
     28
     30
     32
     34
     36
     38
     40
     42
        </DataArray>
      </Lines>
    </Piece>
  </PolyData>
</VTKFile>
