<?xml version="1.0"?>
<VTKFile type="PolyData" version="0.1" byte_order="LittleEndian">
  <PolyData>
    <Piece NumberOfPoints="     19" NumberOfVerts="  0" NumberOfLines="     18"
           NumberOfStrips="  0" NumberOfPolys="      0">
      <Points>
        <DataArray type="Float32" NumberOfComponents="3" format="ascii">
                      -4.98150                      -0.91225                      88.83173
                      -5.14012                      -1.73218                      87.74945
                      -5.48284                      -3.29543                      85.53002
                      -5.83503                      -4.82204                      83.28366
                      -6.27626                      -6.70788                      80.45823
                      -6.73326                      -9.08492                      77.14364
                      -7.14367                     -11.56467                      73.90006
                      -7.53962                     -14.04472                      70.65433
                      -7.91896                     -16.52667                      67.40740
                      -8.28422                     -19.00917                      64.15857
                      -8.63992                     -21.48953                      60.90642
                      -8.98961                     -23.96929                      57.65261
                      -9.33976                     -26.44885                      54.39841
                      -9.69848                     -28.92864                      51.14541
                     -10.07315                     -31.40892                      47.89515
                     -10.40591                     -33.47659                      45.19032
                     -10.68868                     -35.13758                      43.03450
                     -10.98092                     -36.84295                      40.91416
                     -11.14539                     -37.66287                      39.83213
        </DataArray>
      </Points>
      <PointData>
        <DataArray type="Float32" Name="TranslationalVelocity" NumberOfComponents="3" format="ascii">
                      -0.23098                       3.30580                      -2.48165
                      -0.43556                       6.31771                      -4.73352
                      -0.82659                      12.49621                      -9.02507
                      -1.21003                      18.74735                     -13.21353
                      -1.68655                      26.60347                     -18.38361
                      -2.29200                      35.79548                     -24.89390
                      -2.93047                      44.77155                     -31.67739
                      -3.57873                      53.74030                     -38.45311
                      -4.23959                      62.69907                     -45.22559
                      -4.91530                      71.65103                     -51.99140
                      -5.60776                      80.60202                     -58.74367
                      -6.31984                      89.54923                     -65.48692
                      -7.05398                      98.49173                     -72.22247
                      -7.81232                     107.42792                     -78.95152
                      -8.59662                     116.35602                     -85.67447
                      -9.27156                     123.78764                     -91.27267
                      -9.82661                     129.71309                     -95.76549
                     -10.40450                     135.54228                    -100.37478
                     -10.69025                     138.52013                    -102.58819
        </DataArray>
        <DataArray type="Float32" Name="RotationalVelocity" NumberOfComponents="3" format="ascii">
                       2.74683                      -0.00027                      -0.24985
                       2.74634                      -0.00015                      -0.24988
                       2.74503                       0.00024                      -0.25003
                       2.74336                       0.00081                      -0.25029
                       2.74097                       0.00171                      -0.25081
                       2.73789                       0.00306                      -0.25171
                       2.73479                       0.00474                      -0.25293
                       2.73181                       0.00683                      -0.25445
                       2.72903                       0.00944                      -0.25622
                       2.72646                       0.01269                      -0.25820
                       2.72409                       0.01665                      -0.26036
                       2.72189                       0.02135                      -0.26264
                       2.71981                       0.02675                      -0.26501
                       2.71781                       0.03271                      -0.26744
                       2.71591                       0.03895                      -0.26993
                       2.71441                       0.04408                      -0.27206
                       2.71332                       0.04791                      -0.27381
                       2.71236                       0.05125                      -0.27564
                       2.71196                       0.05266                      -0.27659
        </DataArray>
        <DataArray type="Float32" Name="TranslationalAcceleration" NumberOfComponents="3" format="ascii">
                       0.83228                       6.88364                       9.04149
                       1.00336                       8.29220                      10.96299
                       2.90427                      23.12863                      31.79692
                       4.66172                      36.41841                      51.18436
                       6.70747                      51.65179                      73.97676
                       8.94694                      69.68933                      99.27622
                      11.04614                      87.95133                     123.31661
                      13.11986                     106.10159                     147.24644
                      15.20688                     124.38557                     171.36090
                      17.32738                     142.87024                     195.76560
                      19.48481                     161.49991                     220.42550
                      21.66569                     180.18222                     245.19419
                      23.84514                     198.79281                     269.90242
                      25.98906                     217.22891                     294.41117
                      28.05717                     235.45236                     318.67272
                      29.68830                     250.52363                     338.76731
                      30.91140                     262.63065                     354.83342
                      32.02158                     275.18153                     370.83735
                      32.56495                     281.29708                     379.14361
        </DataArray>
        <DataArray type="Float32" Name="OrientationX" NumberOfComponents="3" format="ascii">
                       0.95259                       0.15816                      -0.25992
                       0.95262                       0.15840                      -0.25965
                       0.95269                       0.15925                      -0.25890
                       0.95274                       0.16058                      -0.25789
                       0.95276                       0.16286                      -0.25637
                       0.96123                       0.14155                      -0.23664
                       0.96655                       0.12835                      -0.22207
                       0.97048                       0.11878                      -0.20990
                       0.97394                       0.10985                      -0.19844
                       0.97675                       0.10212                      -0.18851
                       0.97856                       0.09706                      -0.18166
                       0.97961                       0.09374                      -0.17768
                       0.97964                       0.09324                      -0.17780
                       0.97822                       0.09702                      -0.18351
                       0.97619                       0.10079                      -0.19209
                       0.97419                       0.10294                      -0.20090
                       0.97235                       0.10385                      -0.20915
                       0.96970                       0.10612                      -0.22003
                       0.96792                       0.10821                      -0.22678
        </DataArray>
        <DataArray type="Float32" Name="OrientationY" NumberOfComponents="3" format="ascii">
                       0.28142                      -0.78274                       0.55508
                       0.28144                      -0.78277                       0.55504
                       0.28165                      -0.78278                       0.55492
                       0.28209                      -0.78273                       0.55477
                       0.28299                      -0.78256                       0.55455
                       0.25427                      -0.78707                       0.56202
                       0.23506                      -0.78970                       0.56668
                       0.22018                      -0.79154                       0.57007
                       0.20622                      -0.79314                       0.57306
                       0.19413                      -0.79445                       0.57547
                       0.18599                      -0.79531                       0.57696
                       0.18095                      -0.79588                       0.57778
                       0.18061                      -0.79603                       0.57768
                       0.18701                      -0.79556                       0.57630
                       0.19512                      -0.79491                       0.57450
                       0.20208                      -0.79434                       0.57288
                       0.20772                      -0.79387                       0.57151
                       0.21601                      -0.79311                       0.56948
                       0.22170                      -0.79257                       0.56805
        </DataArray>
        <DataArray type="Float32" Name="OrientationZ" NumberOfComponents="3" format="ascii">
                      -0.11566                      -0.60191                      -0.79014
                      -0.11533                      -0.60182                      -0.79026
                      -0.11429                      -0.60158                      -0.79060
                      -0.11277                      -0.60129                      -0.79103
                      -0.11031                      -0.60090                      -0.79168
                      -0.10670                      -0.60040                      -0.79255
                      -0.10263                      -0.59992                      -0.79345
                      -0.09843                      -0.59946                      -0.79433
                      -0.09444                      -0.59905                      -0.79513
                      -0.09100                      -0.59868                      -0.79580
                      -0.08848                      -0.59838                      -0.79631
                      -0.08725                      -0.59815                      -0.79662
                      -0.08767                      -0.59803                      -0.79666
                      -0.09008                      -0.59806                      -0.79637
                      -0.09479                      -0.59830                      -0.79565
                      -0.10061                      -0.59869                      -0.79464
                      -0.10669                      -0.59915                      -0.79349
                      -0.11407                      -0.59976                      -0.79201
                      -0.11827                      -0.60010                      -0.79113
        </DataArray>
        <DataArray type="Float32" Name="Force" NumberOfComponents="3" format="ascii">
                       1.42349                     -20.81246                      15.64604
                     170.65051                    -116.18303                      63.59685
                     289.92315                    -326.65169                     206.87783
                     307.83051                    -469.63533                     313.73934
                    1513.79096                     235.30065                    -390.14156
                    1373.50633                     153.84900                    -302.07919
                    1239.66281                      74.64957                    -217.22818
                    1871.29630                     121.53029                    -324.43924
                    2288.02167                     118.03036                    -361.61610
                    2521.78898                      96.51752                    -361.84740
                    4077.03575                     144.62410                    -563.08142
                    4352.04253                     123.12328                    -570.39931
                    3593.29465                      63.44741                    -443.82028
                    2245.96696                     -41.85836                    -222.40316
                     544.07548                    -156.07564                      53.74381
                     439.58957                    -158.14223                      64.55955
                    -384.82976                    -194.94863                     200.12329
                   -1670.90169                    -194.59545                     388.99048
                  -17104.68779                     320.14499                    2314.13798
        </DataArray>
        <DataArray type="Float32" Name="Moment" NumberOfComponents="3" format="ascii">
                       0.00000                       0.00000                       0.00000
                       0.00000                       0.00000                       0.00000
                       0.00000                       0.00000                       0.00000
                       0.00000                       0.00000                       0.00000
                     144.60515                     789.77784                    1037.41116
                     249.58297                    1410.05366                    1852.95499
                     319.47075                    1877.43132                    2468.30525
                     506.99948                    3108.33816                    4088.60375
                     716.35531                    4580.25827                    6027.51377
                     782.84620                    5197.17127                    6842.08591
                     854.19317                    5834.53404                    7683.41866
                     895.09740                    6201.69205                    8168.09306
                     680.49696                    4692.70471                    6180.35314
                     688.09305                    4617.57583                    6079.72514
                     686.54636                    4376.36493                    5759.00560
                     698.21312                    4190.51200                    5510.72142
                     655.16963                    3705.72801                    4869.77486
                     349.17686                    1845.47721                    2423.09700
                     326.79059                    1665.02210                    2185.09121
        </DataArray>
      </PointData>
      <Lines>
        <DataArray type="Int32" Name="connectivity" format="ascii">
      0      1
      1      2
      2      3
      3      4
      4      5
      5      6
      6      7
      7      8
      8      9
      9     10
     10     11
     11     12
     12     13
     13     14
     14     15
     15     16
     16     17
     17     18
        </DataArray>
        <DataArray type="Int32" Name="offsets" format="ascii">
      2
      4
      6
      8
     10
     12
     14
     16
     18
     20
     22
     24
     26
     28
     30
     32
     34
     36
        </DataArray>
      </Lines>
    </Piece>
  </PolyData>
</VTKFile>
