<?xml version="1.0"?>
<VTKFile type="PolyData" version="0.1" byte_order="LittleEndian">
  <PolyData>
    <Piece NumberOfPoints="     19" NumberOfVerts="  0" NumberOfLines="     18"
           NumberOfStrips="  0" NumberOfPolys="      0">
      <Points>
        <DataArray type="Float32" NumberOfComponents="3" format="ascii">
                      -4.84210                       1.30727                      90.73243
                      -4.84290                       2.50572                      91.39003
                      -4.85783                       4.85743                      92.78868
                      -4.87680                       7.18885                      94.22586
                      -4.89878                      10.09263                      96.04366
                      -4.87304                      13.65040                      98.09163
                      -4.82009                      17.27385                     100.01874
                      -4.75596                      20.90141                     101.93858
                      -4.67964                      24.53372                     103.84985
                      -4.59453                      28.16959                     105.75495
                      -4.50601                      31.80694                     107.65793
                      -4.41936                      35.44615                     109.55814
                      -4.34281                      39.08687                     111.45612
                      -4.28646                      42.72874                     113.35218
                      -4.25989                      46.37134                     115.24631
                      -4.27093                      49.40725                     116.82286
                      -4.30628                      51.83967                     118.07554
                      -4.36688                      54.29777                     119.27788
                      -4.41407                      55.50732                     119.91479
        </DataArray>
      </Points>
      <PointData>
        <DataArray type="Float32" Name="TranslationalVelocity" NumberOfComponents="3" format="ascii">
                       0.33037                      -1.99871                       3.65939
                       0.63133                      -3.82650                       6.99078
                       1.22347                      -7.71166                      13.52943
                       1.81286                     -11.70433                      20.01374
                       2.55110                     -16.75726                      28.09331
                       3.46277                     -22.46609                      37.99764
                       4.40111                     -27.84867                      48.09059
                       5.35337                     -33.21691                      58.20051
                       6.32241                     -38.56730                      68.32860
                       7.31077                     -43.90537                      78.47073
                       8.32079                     -49.24065                      88.62041
                       9.35528                     -54.56953                      98.77803
                      10.41668                     -59.89098                     108.94222
                      11.50713                     -65.20261                     119.11198
                      12.62833                     -70.50143                     129.28649
                      13.58766                     -74.90307                     137.76925
                      14.37176                     -78.39323                     144.56816
                      15.17620                     -81.73588                     151.44149
                      15.57920                     -83.50226                     154.82516
        </DataArray>
        <DataArray type="Float32" Name="RotationalVelocity" NumberOfComponents="3" format="ascii">
                       2.77945                      -0.00002                      -0.25106
                       2.77973                       0.00008                      -0.25123
                       2.78049                       0.00038                      -0.25178
                       2.78144                       0.00082                      -0.25258
                       2.78277                       0.00154                      -0.25388
                       2.78443                       0.00265                      -0.25584
                       2.78601                       0.00406                      -0.25824
                       2.78742                       0.00581                      -0.26111
                       2.78865                       0.00795                      -0.26449
                       2.78968                       0.01052                      -0.26844
                       2.79055                       0.01356                      -0.27299
                       2.79131                       0.01707                      -0.27813
                       2.79200                       0.02099                      -0.28381
                       2.79268                       0.02524                      -0.28988
                       2.79337                       0.02966                      -0.29613
                       2.79395                       0.03329                      -0.30125
                       2.79440                       0.03603                      -0.30508
                       2.79483                       0.03850                      -0.30852
                       2.79502                       0.03959                      -0.31002
        </DataArray>
        <DataArray type="Float32" Name="TranslationalAcceleration" NumberOfComponents="3" format="ascii">
                      -0.49655                     -10.22528                      -5.53460
                      -0.60354                     -12.38509                      -6.72861
                      -1.77918                     -35.10547                     -19.89129
                      -2.88145                     -55.83234                     -32.33999
                      -4.17250                     -79.94081                     -47.11299
                      -5.53127                    -107.91576                     -62.98133
                      -6.74753                    -135.71712                     -77.51696
                      -7.93805                    -163.51853                     -91.94301
                      -9.12818                    -191.66405                    -106.43691
                     -10.33488                    -220.24908                    -121.07544
                     -11.56723                    -249.19425                    -135.85569
                     -12.82354                    -278.33890                    -150.68329
                     -14.09706                    -307.48505                    -165.45237
                     -15.37665                    -336.47129                    -180.07086
                     -16.64863                    -365.24017                    -194.49894
                     -17.69118                    -389.12522                    -206.40249
                     -18.50188                    -408.32302                    -215.84811
                     -19.25424                    -427.95041                    -224.98038
                     -19.65049                    -437.77092                    -229.88708
        </DataArray>
        <DataArray type="Float32" Name="OrientationX" NumberOfComponents="3" format="ascii">
                       0.98830                      -0.07260                       0.13415
                       0.98829                      -0.07283                       0.13405
                       0.98826                      -0.07363                       0.13387
                       0.98819                      -0.07487                       0.13369
                       0.98805                      -0.07700                       0.13354
                       0.99222                      -0.06538                       0.10594
                       0.99448                      -0.05883                       0.08689
                       0.99593                      -0.05446                       0.07184
                       0.99705                      -0.05029                       0.05794
                       0.99785                      -0.04639                       0.04629
                       0.99830                      -0.04340                       0.03901
                       0.99855                      -0.04052                       0.03557
                       0.99856                      -0.03815                       0.03759
                       0.99821                      -0.03693                       0.04706
                       0.99764                      -0.03415                       0.05955
                       0.99701                      -0.03000                       0.07123
                       0.99636                      -0.02529                       0.08136
                       0.99531                      -0.02055                       0.09450
                       0.99455                      -0.01844                       0.10266
        </DataArray>
        <DataArray type="Float32" Name="OrientationY" NumberOfComponents="3" format="ascii">
                       0.15254                       0.47348                      -0.86749
                       0.15256                       0.47325                      -0.86762
                       0.15278                       0.47260                      -0.86793
                       0.15321                       0.47173                      -0.86833
                       0.15410                       0.47041                      -0.86889
                       0.12428                       0.47091                      -0.87338
                       0.10439                       0.47054                      -0.87618
                       0.08905                       0.46992                      -0.87821
                       0.07480                       0.46938                      -0.87982
                       0.06267                       0.46892                      -0.88101
                       0.05483                       0.46849                      -0.88177
                       0.05043                       0.46813                      -0.88222
                       0.05109                       0.46775                      -0.88238
                       0.05888                       0.46726                      -0.88216
                       0.06861                       0.46685                      -0.88167
                       0.07699                       0.46660                      -0.88111
                       0.08375                       0.46648                      -0.88056
                       0.09315                       0.46641                      -0.87965
                       0.09938                       0.46642                      -0.87897
        </DataArray>
        <DataArray type="Float32" Name="OrientationZ" NumberOfComponents="3" format="ascii">
                      -0.00054                       0.87781                       0.47901
                      -0.00026                       0.87791                       0.47882
                       0.00064                       0.87820                       0.47830
                       0.00195                       0.87856                       0.47763
                       0.00408                       0.87908                       0.47665
                       0.00721                       0.87975                       0.47538
                       0.01066                       0.88042                       0.47408
                       0.01407                       0.88103                       0.47286
                       0.01705                       0.88156                       0.47176
                       0.01917                       0.88202                       0.47082
                       0.01999                       0.88240                       0.47007
                       0.01910                       0.88273                       0.46949
                       0.01608                       0.88304                       0.46903
                       0.01059                       0.88335                       0.46860
                       0.00231                       0.88368                       0.46809
                      -0.00680                       0.88396                       0.46751
                      -0.01569                       0.88417                       0.46690
                      -0.02600                       0.88433                       0.46614
                      -0.03168                       0.88437                       0.46570
        </DataArray>
        <DataArray type="Float32" Name="Force" NumberOfComponents="3" format="ascii">
                      -0.89605                       5.41213                      -9.91889
                     172.12888                      57.64929                    -105.56339
                     242.99433                     166.88137                    -306.23796
                     233.20742                     250.96573                    -461.12818
                    1550.10285                    -123.97012                     213.57735
                    1525.41245                     -80.42713                     123.75001
                    1450.38199                     -39.43475                      38.98585
                    2158.71229                     -61.46732                      47.36776
                    2588.42690                     -53.08268                       2.37249
                    2845.66171                     -37.79514                     -48.23043
                    4372.23712                     -42.69990                    -110.48510
                    4555.59435                     -17.55681                    -156.64543
                    3480.32242                      24.48835                    -167.75888
                    1827.86063                      77.42890                    -185.87987
                     890.61367                      67.43828                    -129.70406
                    -185.30969                     105.43971                    -195.25949
                   -1952.15693                      79.62055                    -204.69582
                   -3170.70934                       8.63588                    -178.96092
                  -19428.94496                   -1132.19420                     836.88379
        </DataArray>
        <DataArray type="Float32" Name="Moment" NumberOfComponents="3" format="ascii">
                       0.00000                       0.00000                       0.00000
                       0.00000                       0.00000                       0.00000
                       0.00000                       0.00000                       0.00000
                       0.00000                       0.00000                       0.00000
                      -5.44019                   -1120.25139                    -610.76161
                     -17.31378                   -2031.65958                   -1106.98901
                     -34.55118                   -2752.40774                   -1498.70027
                     -75.62361                   -4573.79661                   -2488.81104
                    -133.94272                   -6694.04516                   -3640.43333
                    -171.81111                   -7637.70147                   -4151.90826
                    -202.16837                   -8602.67783                   -4675.69477
                    -206.79127                   -9172.04148                   -4985.94428
                    -133.46490                   -6958.10818                   -3784.55963
                     -88.90325                   -6834.73388                   -3721.26738
                     -24.60067                   -6659.37453                   -3631.39339
                      40.91119                   -6227.39383                   -3401.60599
                      90.95348                   -5484.13661                   -3000.57643
                      77.27891                   -2738.72103                   -1501.33475
                      84.64659                   -2443.89737                   -1341.13298
        </DataArray>
      </PointData>
      <Lines>
        <DataArray type="Int32" Name="connectivity" format="ascii">
      0      1
      1      2
      2      3
      3      4
      4      5
      5      6
      6      7
      7      8
      8      9
      9     10
     10     11
     11     12
     12     13
     13     14
     14     15
     15     16
     16     17
     17     18
        </DataArray>
        <DataArray type="Int32" Name="offsets" format="ascii">
      2
      4
      6
      8
     10
     12
     14
     16
     18
     20
     22
     24
     26
     28
     30
     32
     34
     36
        </DataArray>
      </Lines>
    </Piece>
  </PolyData>
</VTKFile>
