<?xml version="1.0"?>
<VTKFile type="PolyData" version="0.1" byte_order="LittleEndian">
  <PolyData>
    <Piece NumberOfPoints="     22" NumberOfVerts="  0" NumberOfLines="     21"
           NumberOfStrips="  0" NumberOfPolys="      0">
      <Points>
        <DataArray type="Float32" NumberOfComponents="3" format="ascii">
                       0.00007                      -0.00000                       2.19000
                       0.00070                      -0.00001                       6.57000
                       0.00210                      -0.00002                      10.95000
                       0.00433                      -0.00003                      15.33000
                       0.00740                      -0.00006                      19.71000
                       0.01129                      -0.00008                      24.09000
                       0.01596                      -0.00011                      28.46999
                       0.02139                      -0.00015                      32.84999
                       0.02756                      -0.00020                      37.22999
                       0.03447                      -0.00025                      41.60998
                       0.04213                      -0.00031                      45.98997
                       0.05057                      -0.00038                      50.36997
                       0.05983                      -0.00046                      54.74996
                       0.06996                      -0.00055                      59.12994
                       0.08095                      -0.00065                      63.50993
                       0.09279                      -0.00076                      67.88991
                       0.10538                      -0.00088                      72.26990
                       0.11855                      -0.00101                      76.64988
                       0.13198                      -0.00115                      81.02986
                       0.14520                      -0.00129                      85.40984
                       0.15152                      -0.00136                      87.59983
                       0.00000                       0.00000                       0.00000
        </DataArray>
      </Points>
      <PointData>
        <DataArray type="Float32" Name="TranslationalVelocity" NumberOfComponents="3" format="ascii">
                      -0.00000                       0.00000                       0.00000
                      -0.00004                       0.00003                       0.00000
                      -0.00012                       0.00008                       0.00000
                      -0.00024                       0.00016                       0.00000
                      -0.00038                       0.00025                       0.00000
                      -0.00053                       0.00038                       0.00000
                      -0.00070                       0.00053                       0.00000
                      -0.00086                       0.00072                       0.00000
                      -0.00099                       0.00094                       0.00000
                      -0.00110                       0.00121                       0.00000
                      -0.00115                       0.00152                       0.00000
                      -0.00115                       0.00188                       0.00000
                      -0.00107                       0.00230                       0.00000
                      -0.00091                       0.00277                       0.00000
                      -0.00066                       0.00330                       0.00000
                      -0.00032                       0.00389                      -0.00000
                       0.00011                       0.00454                      -0.00000
                       0.00062                       0.00524                      -0.00000
                       0.00121                       0.00598                      -0.00001
                       0.00184                       0.00676                      -0.00001
                       0.00217                       0.00716                      -0.00001
                       0.00000                      -0.00000                       0.00000
        </DataArray>
        <DataArray type="Float32" Name="RotationalVelocity" NumberOfComponents="3" format="ascii">
                      -0.00000                      -0.00000                       0.00000
                      -0.00001                      -0.00001                       0.00000
                      -0.00001                      -0.00002                       0.00000
                      -0.00002                      -0.00003                       0.00000
                      -0.00003                      -0.00003                       0.00000
                      -0.00003                      -0.00004                       0.00000
                      -0.00004                      -0.00004                       0.00000
                      -0.00005                      -0.00003                       0.00000
                      -0.00006                      -0.00003                       0.00000
                      -0.00007                      -0.00002                       0.00000
                      -0.00008                      -0.00001                       0.00000
                      -0.00009                       0.00001                       0.00000
                      -0.00010                       0.00003                       0.00000
                      -0.00011                       0.00005                       0.00000
                      -0.00013                       0.00007                       0.00000
                      -0.00014                       0.00009                       0.00000
                      -0.00015                       0.00011                       0.00000
                      -0.00017                       0.00013                       0.00000
                      -0.00017                       0.00014                       0.00000
                      -0.00018                       0.00015                       0.00000
                      -0.00018                       0.00015                       0.00000
                       0.00000                      -0.00000                       0.00000
        </DataArray>
        <DataArray type="Float32" Name="TranslationalAcceleration" NumberOfComponents="3" format="ascii">
                       0.00010                       0.00005                      -0.00000
                       0.00092                       0.00039                      -0.00000
                       0.00257                       0.00101                      -0.00000
                       0.00499                       0.00183                      -0.00000
                       0.00806                       0.00280                      -0.00000
                       0.01163                       0.00383                      -0.00001
                       0.01547                       0.00488                      -0.00001
                       0.01938                       0.00587                      -0.00002
                       0.02309                       0.00671                      -0.00002
                       0.02639                       0.00733                      -0.00003
                       0.02902                       0.00763                      -0.00003
                       0.03077                       0.00753                      -0.00003
                       0.03146                       0.00693                      -0.00004
                       0.03092                       0.00576                      -0.00003
                       0.02907                       0.00394                      -0.00003
                       0.02582                       0.00143                      -0.00002
                       0.02120                      -0.00180                      -0.00001
                       0.01527                      -0.00571                       0.00001
                       0.00818                      -0.01024                       0.00003
                       0.00014                      -0.01526                       0.00005
                      -0.00414                      -0.01789                       0.00007
                       0.00000                      -0.00000                       0.00000
        </DataArray>
        <DataArray type="Float32" Name="RotationalAcceleration" NumberOfComponents="3" format="ascii">
                      -0.00004                       0.00009                       0.00000
                      -0.00011                       0.00028                       0.00000
                      -0.00017                       0.00047                       0.00000
                      -0.00021                       0.00063                       0.00000
                      -0.00023                       0.00077                       0.00000
                      -0.00024                       0.00085                       0.00000
                      -0.00023                       0.00089                       0.00000
                      -0.00021                       0.00088                       0.00000
                      -0.00017                       0.00081                       0.00000
                      -0.00011                       0.00068                       0.00000
                      -0.00003                       0.00051                       0.00000
                       0.00008                       0.00029                       0.00000
                       0.00020                       0.00002                       0.00000
                       0.00034                      -0.00027                       0.00000
                       0.00049                      -0.00058                       0.00000
                       0.00065                      -0.00090                       0.00000
                       0.00082                      -0.00121                       0.00000
                       0.00097                      -0.00149                       0.00000
                       0.00110                      -0.00174                       0.00000
                       0.00119                      -0.00192                       0.00000
                       0.00121                      -0.00198                       0.00000
                       0.00000                      -0.00000                       0.00000
        </DataArray>
        <DataArray type="Float32" Name="OrientationX" NumberOfComponents="3" format="ascii">
                       1.00000                       0.00000                      -0.00007
                       1.00000                       0.00000                      -0.00023
                       1.00000                       0.00000                      -0.00041
                       1.00000                       0.00000                      -0.00060
                       1.00000                       0.00000                      -0.00080
                       1.00000                       0.00000                      -0.00098
                       1.00000                       0.00000                      -0.00115
                       1.00000                       0.00000                      -0.00132
                       1.00000                       0.00000                      -0.00149
                       1.00000                       0.00000                      -0.00166
                       1.00000                       0.00000                      -0.00184
                       1.00000                       0.00000                      -0.00202
                       1.00000                       0.00000                      -0.00221
                       1.00000                       0.00000                      -0.00241
                       1.00000                       0.00000                      -0.00261
                       1.00000                       0.00000                      -0.00279
                       1.00000                       0.00000                      -0.00295
                       1.00000                       0.00000                      -0.00305
                       1.00000                       0.00000                      -0.00306
                       1.00000                       0.00000                      -0.00295
                       1.00000                       0.00000                      -0.00282
                       1.00000                      -0.00000                       0.00000
        </DataArray>
        <DataArray type="Float32" Name="OrientationY" NumberOfComponents="3" format="ascii">
                       0.00000                       1.00000                       0.00000
                       0.00000                       1.00000                       0.00000
                       0.00000                       1.00000                       0.00000
                       0.00000                       1.00000                       0.00000
                       0.00000                       1.00000                       0.00001
                       0.00000                       1.00000                       0.00001
                       0.00000                       1.00000                       0.00001
                       0.00000                       1.00000                       0.00001
                       0.00000                       1.00000                       0.00001
                       0.00000                       1.00000                       0.00001
                       0.00000                       1.00000                       0.00002
                       0.00000                       1.00000                       0.00002
                       0.00000                       1.00000                       0.00002
                       0.00000                       1.00000                       0.00002
                       0.00000                       1.00000                       0.00002
                       0.00000                       1.00000                       0.00003
                       0.00000                       1.00000                       0.00003
                       0.00000                       1.00000                       0.00003
                       0.00000                       1.00000                       0.00003
                       0.00000                       1.00000                       0.00003
                       0.00000                       1.00000                       0.00003
                      -0.00000                       1.00000                      -0.00000
        </DataArray>
        <DataArray type="Float32" Name="OrientationZ" NumberOfComponents="3" format="ascii">
                       0.00007                      -0.00000                       1.00000
                       0.00023                      -0.00000                       1.00000
                       0.00041                      -0.00000                       1.00000
                       0.00060                      -0.00000                       1.00000
                       0.00080                      -0.00001                       1.00000
                       0.00098                      -0.00001                       1.00000
                       0.00115                      -0.00001                       1.00000
                       0.00132                      -0.00001                       1.00000
                       0.00149                      -0.00001                       1.00000
                       0.00166                      -0.00001                       1.00000
                       0.00184                      -0.00002                       1.00000
                       0.00202                      -0.00002                       1.00000
                       0.00221                      -0.00002                       1.00000
                       0.00241                      -0.00002                       1.00000
                       0.00261                      -0.00002                       1.00000
                       0.00279                      -0.00003                       1.00000
                       0.00295                      -0.00003                       1.00000
                       0.00305                      -0.00003                       1.00000
                       0.00306                      -0.00003                       1.00000
                       0.00295                      -0.00003                       1.00000
                       0.00282                      -0.00003                       1.00000
                       0.00000                      -0.00000                       1.00000
        </DataArray>
      </PointData>
      <Lines>
        <DataArray type="Int32" Name="connectivity" format="ascii">
      0      1
      1      2
      2      3
      3      4
      4      5
      5      6
      6      7
      7      8
      8      9
      9     10
     10     11
     11     12
     12     13
     13     14
     14     15
     15     16
     16     17
     17     18
     18     19
     19     20
     21      0
        </DataArray>
        <DataArray type="Int32" Name="offsets" format="ascii">
      2
      4
      6
      8
     10
     12
     14
     16
     18
     20
     22
     24
     26
     28
     30
     32
     34
     36
     38
     40
     42
        </DataArray>
      </Lines>
    </Piece>
  </PolyData>
</VTKFile>
