<?xml version="1.0"?>
<VTKFile type="PolyData" version="0.1" byte_order="LittleEndian">
  <PolyData>
    <Piece NumberOfPoints="      8" NumberOfVerts="  0" NumberOfLines="      0"
           NumberOfStrips="  0" NumberOfPolys="      6">
      <Points>
        <DataArray type="Float32" NumberOfComponents="3" format="ascii">
                      -3.07332                       2.39289                      87.62722
                       3.92645                       2.39290                      87.57082
                       3.92645                      -2.40711                      87.57001
                      -3.07332                      -2.40711                      87.62641
                      -3.03465                      -2.40792                      92.42626
                       3.96512                      -2.40792                      92.36986
                       3.96513                       2.39209                      92.37067
                      -3.03465                       2.39208                      92.42707
        </DataArray>
      </Points>
      <Polys>
        <DataArray type="Int32" Name="connectivity" format="ascii">
      0      1      2      3
      4      5      6      7
      7      6      1      0
      6      5      2      1
      5      4      3      2
      4      7      0      3
        </DataArray>
        <DataArray type="Int32" Name="offsets" format="ascii">
      4
      8
     12
     16
     20
     24
        </DataArray>
      </Polys>
    </Piece>
  </PolyData>
</VTKFile>
