<?xml version="1.0"?>
<VTKFile type="PolyData" version="0.1" byte_order="LittleEndian">
  <PolyData>
    <Piece NumberOfPoints="     19" NumberOfVerts="  0" NumberOfLines="     18"
           NumberOfStrips="  0" NumberOfPolys="      0">
      <Points>
        <DataArray type="Float32" NumberOfComponents="3" format="ascii">
                      -4.81008                       1.03397                      91.09232
                      -4.78128                       1.98141                      92.07733
                      -4.73839                       3.80847                      94.11375
                      -4.69998                       5.60449                      96.18112
                      -4.65014                       7.83262                      98.78292
                      -4.53487                      10.61394                     101.79996
                      -4.38900                      13.49254                     104.72182
                      -4.23041                      16.37622                     107.63856
                      -4.05781                      19.26600                     110.54907
                      -3.87439                      22.16018                     113.45520
                      -3.68535                      25.05581                     116.36012
                      -3.49572                      27.95365                     119.26326
                      -3.31356                      30.85353                     122.16504
                      -3.14880                      33.75536                     125.06565
                      -3.01089                      36.65907                     127.96503
                      -2.92680                      39.08054                     130.37995
                      -2.88448                      41.02444                     132.30517
                      -2.86525                      43.00853                     134.19046
                      -2.87266                      43.97170                     135.16158
        </DataArray>
      </Points>
      <PointData>
        <DataArray type="Float32" Name="TranslationalVelocity" NumberOfComponents="3" format="ascii">
                       0.26327                      -3.00583                       2.89929
                       0.50184                      -5.75172                       5.53347
                       0.96361                     -11.42656                      10.61502
                       1.42020                     -17.18960                      15.61278
                       1.99141                     -24.44811                      21.81695
                       2.71228                     -32.88750                      29.56768
                       3.46899                     -41.07769                      37.59689
                       4.24110                     -49.26479                      45.64745
                       5.03138                     -57.44546                      53.72149
                       5.84188                     -65.62330                      61.81323
                       6.67427                     -73.80496                      69.91345
                       7.53095                     -81.98662                      78.02341
                       8.41380                     -90.16649                      86.14194
                       9.32438                     -98.34175                      94.26868
                      10.26386                    -106.50929                     102.40364
                      11.06997                    -113.30601                     109.19069
                      11.73062                    -118.71932                     114.64178
                      12.41316                    -124.01597                     120.20843
                      12.75262                    -126.74016                     122.91250
        </DataArray>
        <DataArray type="Float32" Name="RotationalVelocity" NumberOfComponents="3" format="ascii">
                       2.77986                       0.00049                      -0.25113
                       2.78031                       0.00065                      -0.25128
                       2.78153                       0.00115                      -0.25178
                       2.78306                       0.00189                      -0.25250
                       2.78522                       0.00311                      -0.25364
                       2.78795                       0.00501                      -0.25532
                       2.79061                       0.00740                      -0.25727
                       2.79305                       0.01032                      -0.25946
                       2.79522                       0.01384                      -0.26187
                       2.79710                       0.01801                      -0.26450
                       2.79872                       0.02286                      -0.26735
                       2.80012                       0.02837                      -0.27039
                       2.80138                       0.03445                      -0.27359
                       2.80253                       0.04092                      -0.27691
                       2.80362                       0.04752                      -0.28025
                       2.80447                       0.05284                      -0.28297
                       2.80509                       0.05676                      -0.28502
                       2.80563                       0.06016                      -0.28691
                       2.80585                       0.06161                      -0.28776
        </DataArray>
        <DataArray type="Float32" Name="TranslationalAcceleration" NumberOfComponents="3" format="ascii">
                      -0.74681                      -8.09733                      -8.33952
                      -0.90696                      -9.79944                     -10.11866
                      -2.64165                     -27.53113                     -29.46907
                      -4.26324                     -43.57479                     -47.55308
                      -6.17628                     -62.14755                     -68.88640
                      -8.28971                     -84.08310                     -92.45371
                     -10.28992                    -106.25737                    -114.72783
                     -12.28744                    -128.46795                    -136.92779
                     -14.30672                    -150.99096                    -159.32252
                     -16.35481                    -173.89552                    -182.00956
                     -18.42455                    -197.10772                    -204.95757
                     -20.49575                    -220.50328                    -228.02372
                     -22.54275                    -243.92524                    -251.04381
                     -24.53839                    -267.24664                    -273.87918
                     -26.45903                    -290.42326                    -296.47384
                     -27.98902                    -309.69067                    -315.16772
                     -29.15933                    -325.21449                    -330.08094
                     -30.24229                    -341.24592                    -344.82811
                     -30.80642                    -349.16182                    -352.53398
        </DataArray>
        <DataArray type="Float32" Name="OrientationX" NumberOfComponents="3" format="ascii">
                       0.98543                      -0.13587                       0.10234
                       0.98542                      -0.13608                       0.10215
                       0.98536                      -0.13685                       0.10167
                       0.98525                      -0.13808                       0.10104
                       0.98505                      -0.14020                       0.10013
                       0.98964                      -0.12118                       0.07703
                       0.99214                      -0.10954                       0.06056
                       0.99375                      -0.10118                       0.04722
                       0.99502                      -0.09335                       0.03487
                       0.99595                      -0.08648                       0.02453
                       0.99649                      -0.08179                       0.01802
                       0.99681                      -0.07836                       0.01508
                       0.99688                      -0.07706                       0.01712
                       0.99653                      -0.07909                       0.02589
                       0.99603                      -0.08054                       0.03799
                       0.99552                      -0.08037                       0.04987
                       0.99502                      -0.07914                       0.06059
                       0.99412                      -0.07877                       0.07424
                       0.99343                      -0.07929                       0.08254
        </DataArray>
        <DataArray type="Float32" Name="OrientationY" NumberOfComponents="3" format="ascii">
                       0.16878                       0.70628                      -0.68752
                       0.16880                       0.70612                      -0.68768
                       0.16901                       0.70565                      -0.68811
                       0.16943                       0.70501                      -0.68867
                       0.17028                       0.70400                      -0.68948
                       0.14052                       0.70678                      -0.69334
                       0.12064                       0.70794                      -0.69589
                       0.10530                       0.70850                      -0.69781
                       0.09102                       0.70897                      -0.69934
                       0.07884                       0.70933                      -0.70045
                       0.07091                       0.70944                      -0.70119
                       0.06638                       0.70942                      -0.70165
                       0.06687                       0.70914                      -0.70189
                       0.07446                       0.70842                      -0.70185
                       0.08398                       0.70763                      -0.70157
                       0.09220                       0.70700                      -0.70118
                       0.09886                       0.70654                      -0.70074
                       0.10820                       0.70592                      -0.69998
                       0.11442                       0.70553                      -0.69938
        </DataArray>
        <DataArray type="Float32" Name="OrientationZ" NumberOfComponents="3" format="ascii">
                       0.02114                       0.69478                       0.71892
                       0.02145                       0.69489                       0.71879
                       0.02243                       0.69522                       0.71845
                       0.02385                       0.69563                       0.71800
                       0.02617                       0.69622                       0.71735
                       0.02958                       0.69698                       0.71648
                       0.03335                       0.69773                       0.71559
                       0.03715                       0.69842                       0.71473
                       0.04056                       0.69903                       0.71394
                       0.04318                       0.69955                       0.71328
                       0.04456                       0.70000                       0.71275
                       0.04429                       0.70042                       0.71236
                       0.04195                       0.70084                       0.71208
                       0.03716                       0.70134                       0.71185
                       0.02962                       0.70197                       0.71159
                       0.02109                       0.70263                       0.71124
                       0.01265                       0.70324                       0.71084
                       0.00273                       0.70390                       0.71030
                      -0.00278                       0.70423                       0.70996
        </DataArray>
        <DataArray type="Float32" Name="Force" NumberOfComponents="3" format="ascii">
                      -0.79945                       9.17985                      -8.84808
                     175.84068                      84.77425                     -87.17990
                     251.71035                     249.62506                    -249.14750
                     244.72083                     377.05403                    -372.66391
                    1579.50662                    -228.66764                     163.35764
                    1554.25563                    -159.21663                      89.68399
                    1493.75890                     -93.86877                      21.01326
                    2223.00978                    -138.73952                      18.46378
                    2644.99492                    -127.72545                     -26.95157
                    2916.04677                    -106.46995                     -73.78962
                    4455.47334                    -137.28592                    -146.18330
                    4665.92807                    -107.53082                    -186.64573
                    3669.43192                     -38.84893                    -179.26885
                    2055.97407                      64.46645                    -170.34912
                    1036.87099                      77.48158                    -118.55355
                     136.89575                     158.71060                    -157.53510
                   -1561.40444                     191.51279                    -155.85179
                   -2838.75198                     159.26135                    -139.54630
                  -19418.07799                    -716.38937                     639.00845
        </DataArray>
        <DataArray type="Float32" Name="Moment" NumberOfComponents="3" format="ascii">
                       0.00000                       0.00000                       0.00000
                       0.00000                       0.00000                       0.00000
                       0.00000                       0.00000                       0.00000
                       0.00000                       0.00000                       0.00000
                     -33.77849                    -893.04732                    -923.48102
                     -69.37378                   -1621.01683                   -1675.53033
                    -106.02474                   -2194.80193                   -2267.51856
                    -196.06883                   -3642.10881                   -3760.95790
                    -313.68958                   -5334.21592                   -5505.88488
                    -381.15805                   -6086.64128                   -6280.42721
                    -443.21053                   -6854.34566                   -7071.31082
                    -470.25218                   -7311.67276                   -7543.34256
                    -338.78817                   -5553.50298                   -5731.12661
                    -296.21798                   -5465.17571                   -5643.33373
                    -226.33289                   -5209.06665                   -5383.93591
                    -155.97663                   -4982.14197                   -5154.85933
                     -84.57013                   -4388.65349                   -4545.56918
                     -11.22206                   -2189.87533                   -2270.97289
                       5.35819                   -1953.45829                   -2027.18922
        </DataArray>
      </PointData>
      <Lines>
        <DataArray type="Int32" Name="connectivity" format="ascii">
      0      1
      1      2
      2      3
      3      4
      4      5
      5      6
      6      7
      7      8
      8      9
      9     10
     10     11
     11     12
     12     13
     13     14
     14     15
     15     16
     16     17
     17     18
        </DataArray>
        <DataArray type="Int32" Name="offsets" format="ascii">
      2
      4
      6
      8
     10
     12
     14
     16
     18
     20
     22
     24
     26
     28
     30
     32
     34
     36
        </DataArray>
      </Lines>
    </Piece>
  </PolyData>
</VTKFile>
