<?xml version="1.0"?>
<VTKFile type="PolyData" version="0.1" byte_order="LittleEndian">
  <PolyData>
    <Piece NumberOfPoints="    550" NumberOfVerts="  0" NumberOfLines="     21"
           NumberOfStrips="  0" NumberOfPolys="    567">
      <Points>
        <DataArray type="Float32" NumberOfComponents="3" format="ascii">
                       2.97353                       0.00000                       2.18957
                       2.88012                       0.73945                       2.18958
                       2.60574                       1.43244                       2.18962
                       2.16765                       2.03542                       2.18968
                       1.59337                       2.51051                       2.18976
                       0.91898                       2.82785                       2.18986
                       0.18685                       2.96751                       2.18997
                      -0.55700                       2.92071                       2.19007
                      -1.26585                       2.69039                       2.19018
                      -1.89515                       2.29103                       2.19027
                      -2.40536                       1.74771                       2.19035
                      -2.76442                       1.09457                       2.19040
                      -2.94978                       0.37266                       2.19043
                      -2.94978                      -0.37266                       2.19043
                      -2.76442                      -1.09457                       2.19040
                      -2.40536                      -1.74770                       2.19035
                      -1.89515                      -2.29102                       2.19028
                      -1.26585                      -2.69039                       2.19019
                      -0.55700                      -2.92071                       2.19009
                       0.18685                      -2.96751                       2.18998
                       0.91898                      -2.82785                       2.18987
                       1.59337                      -2.51050                       2.18977
                       2.16765                      -2.03541                       2.18969
                       2.60574                      -1.43243                       2.18962
                       2.88012                      -0.73945                       2.18958
                       2.92167                       0.00002                       6.56853
                       2.82993                       0.72623                       6.56858
                       2.56047                       1.40680                       6.56871
                       2.13023                       1.99898                       6.56892
                       1.56623                       2.46556                       6.56920
                       0.90391                       2.77722                       6.56953
                       0.18490                       2.91438                       6.56989
                      -0.54563                       2.86842                       6.57026
                      -1.24178                       2.64223                       6.57061
                      -1.85981                       2.25001                       6.57092
                      -2.36088                       1.71643                       6.57118
                      -2.71352                       1.07499                       6.57136
                      -2.89555                       0.36601                       6.57145
                      -2.89555                      -0.36597                       6.57146
                      -2.71352                      -1.07495                       6.57137
                      -2.36088                      -1.71639                       6.57120
                      -1.85981                      -2.24998                       6.57095
                      -1.24178                      -2.64219                       6.57064
                      -0.54563                      -2.86838                       6.57029
                       0.18490                      -2.91434                       6.56992
                       0.90391                      -2.77718                       6.56956
                       1.56623                      -2.46552                       6.56923
                       2.13022                      -1.99894                       6.56894
                       2.56047                      -1.40676                       6.56872
                       2.82993                      -0.72619                       6.56858
                       2.87150                       0.00005                      10.94739
                       2.78143                       0.71301                      10.94747
                       2.51688                       1.38118                      10.94771
                       2.09448                       1.96256                      10.94808
                       1.54077                       2.42063                      10.94858
                       0.89054                       2.72661                      10.94917
                       0.18463                       2.86127                      10.94981
                      -0.53258                       2.81615                      10.95046
                      -1.21603                       2.59408                      10.95108
                      -1.82279                       2.20902                      10.95164
                      -2.31473                       1.68516                      10.95209
                      -2.66093                       1.05542                      10.95241
                      -2.83965                       0.35937                      10.95258
                      -2.83965                      -0.35926                      10.95258
                      -2.66093                      -1.05532                      10.95243
                      -2.31473                      -1.68506                      10.95212
                      -1.82279                      -2.20891                      10.95168
                      -1.21603                      -2.59397                      10.95113
                      -0.53258                      -2.81604                      10.95051
                       0.18464                      -2.86117                      10.94986
                       0.89054                      -2.72651                      10.94922
                       1.54077                      -2.42053                      10.94862
                       2.09448                      -1.96246                      10.94812
                       2.51688                      -1.38108                      10.94773
                       2.78143                      -0.71291                      10.94748
                       2.82315                       0.00009                      15.32625
                       2.73475                       0.69981                      15.32636
                       2.47512                       1.35557                      15.32670
                       2.06057                       1.92615                      15.32724
                       1.51714                       2.37572                      15.32796
                       0.87898                       2.67601                      15.32881
                       0.18619                       2.80817                      15.32973
                      -0.51770                       2.76388                      15.33067
                      -1.18846                       2.54594                      15.33156
                      -1.78395                       2.16803                      15.33236
                      -2.26674                       1.65390                      15.33301
                      -2.60651                       1.03586                      15.33347
                      -2.78191                       0.35274                      15.33371
                      -2.78191                      -0.35255                      15.33372
                      -2.60651                      -1.03567                      15.33349
                      -2.26674                      -1.65371                      15.33304
                      -1.78394                      -2.16784                      15.33241
                      -1.18846                      -2.54575                      15.33162
                      -0.51770                      -2.76369                      15.33073
                       0.18619                      -2.80798                      15.32979
                       0.87898                      -2.67582                      15.32887
                       1.51714                      -2.37553                      15.32801
                       2.06057                      -1.92596                      15.32729
                       2.47512                      -1.35538                      15.32673
                       2.73475                      -0.69963                      15.32638
                       2.77665                       0.00015                      19.70516
                       2.68993                       0.68663                      19.70530
                       2.43521                       1.32997                      19.70574
                       2.02850                       1.88975                      19.70644
                       1.49536                       2.33081                      19.70737
                       0.86928                       2.62542                      19.70846
                       0.18960                       2.75508                      19.70965
                      -0.50096                       2.71163                      19.71086
                      -1.15903                       2.49781                      19.71202
                      -1.74325                       2.12705                      19.71304
                      -2.21691                       1.62266                      19.71388
                      -2.55025                       1.01631                      19.71447
                      -2.72233                       0.34611                      19.71478
                      -2.72233                      -0.34582                      19.71479
                      -2.55025                      -1.01601                      19.71450
                      -2.21691                      -1.62236                      19.71392
                      -1.74325                      -2.12676                      19.71310
                      -1.15903                      -2.49751                      19.71208
                      -0.50096                      -2.71133                      19.71093
                       0.18960                      -2.75478                      19.70972
                       0.86928                      -2.62512                      19.70853
                       1.49536                      -2.33051                      19.70743
                       2.02850                      -1.88946                      19.70649
                       2.43521                      -1.32967                      19.70577
                       2.68993                      -0.68633                      19.70532
                       2.73196                       0.00021                      24.08414
                       2.64691                       0.67344                      24.08432
                       2.39711                       1.30438                      24.08485
                       1.99825                       1.85336                      24.08570
                       1.47539                       2.28591                      24.08682
                       0.86139                       2.57484                      24.08814
                       0.19483                       2.70199                      24.08958
                      -0.48242                       2.65938                      24.09104
                      -1.12779                       2.44969                      24.09243
                      -1.70074                       2.08609                      24.09367
                      -2.16526                       1.59142                      24.09468
                      -2.49217                       0.99677                      24.09540
                      -2.66093                       0.33950                      24.09577
                      -2.66093                      -0.33908                      24.09578
                      -2.49217                      -0.99635                      24.09543
                      -2.16526                      -1.59100                      24.09473
                      -1.70074                      -2.08567                      24.09374
                      -1.12779                      -2.44927                      24.09250
                      -0.48242                      -2.65896                      24.09112
                       0.19483                      -2.70157                      24.08966
                       0.86139                      -2.57442                      24.08822
                       1.47539                      -2.28549                      24.08689
                       1.99825                      -1.85295                      24.08575
                       2.39711                      -1.30396                      24.08488
                       2.64691                      -0.67302                      24.08434
                       2.68902                       0.00028                      28.46321
                       2.60564                       0.66027                      28.46341
                       2.36075                       1.27879                      28.46403
                       1.96974                       1.81698                      28.46501
                       1.45716                       2.24102                      28.46631
                       0.85524                       2.52426                      28.46784
                       0.20179                       2.64892                      28.46950
                      -0.46213                       2.60715                      28.47119
                      -1.09481                       2.40158                      28.47281
                      -1.65649                       2.04512                      28.47425
                      -2.11187                       1.56019                      28.47541
                      -2.43235                       0.97723                      28.47624
                      -2.59779                       0.33290                      28.47667
                      -2.59779                      -0.33234                      28.47668
                      -2.43235                      -0.97668                      28.47627
                      -2.11187                      -1.55963                      28.47546
                      -1.65649                      -2.04457                      28.47431
                      -1.09481                      -2.40102                      28.47289
                      -0.46213                      -2.60659                      28.47128
                       0.20179                      -2.64836                      28.46959
                       0.85524                      -2.52371                      28.46792
                       1.45716                      -2.24046                      28.46638
                       1.96974                      -1.81642                      28.46507
                       2.36075                      -1.27824                      28.46407
                       2.60564                      -0.65971                      28.46343
                       2.64775                       0.00035                      32.84235
                       2.56605                       0.64710                      32.84257
                       2.32607                       1.25321                      32.84327
                       1.94290                       1.78060                      32.84438
                       1.44062                       2.19613                      32.84584
                       0.85077                       2.47369                      32.84756
                       0.21043                       2.59584                      32.84943
                      -0.44017                       2.55491                      32.85133
                      -1.06015                       2.35347                      32.85315
                      -1.61056                       2.00417                      32.85477
                      -2.05680                       1.52896                      32.85608
                      -2.37085                       0.95771                      32.85701
                      -2.53297                       0.32630                      32.85749
                      -2.53297                      -0.32559                      32.85751
                      -2.37085                      -0.95700                      32.85704
                      -2.05680                      -1.52826                      32.85613
                      -1.61055                      -2.00346                      32.85484
                      -1.06015                      -2.35276                      32.85323
                      -0.44017                      -2.55421                      32.85142
                       0.21043                      -2.59514                      32.84952
                       0.85077                      -2.47299                      32.84765
                       1.44062                      -2.19543                      32.84591
                       1.94290                      -1.77990                      32.84444
                       2.32607                      -1.25251                      32.84331
                       2.56605                      -0.64640                      32.84260
                       2.60813                       0.00043                      37.22153
                       2.52810                       0.63393                      37.22178
                       2.29304                       1.22764                      37.22255
                       1.91772                       1.74423                      37.22377
                       1.42571                       2.15125                      37.22539
                       0.84795                       2.42313                      37.22729
                       0.22072                       2.54278                      37.22936
                      -0.41656                       2.50268                      37.23146
                      -1.02384                       2.30536                      37.23347
                      -1.56298                       1.96321                      37.23525
                      -2.00009                       1.49774                      37.23670
                      -2.30771                       0.93818                      37.23773
                      -2.46650                       0.31970                      37.23826
                      -2.46650                      -0.31884                      37.23827
                      -2.30771                      -0.93732                      37.23776
                      -2.00009                      -1.49688                      37.23676
                      -1.56298                      -1.96236                      37.23532
                      -1.02384                      -2.30450                      37.23355
                      -0.41656                      -2.50183                      37.23155
                       0.22072                      -2.54192                      37.22945
                       0.84795                      -2.42227                      37.22738
                       1.42571                      -2.15039                      37.22547
                       1.91772                      -1.74337                      37.22384
                       2.29304                      -1.22678                      37.22259
                       2.52810                      -0.63308                      37.22180
                       2.57015                       0.00051                      41.60073
                       2.49180                       0.62077                      41.60101
                       2.26165                       1.20206                      41.60185
                       1.89417                       1.70785                      41.60319
                       1.41245                       2.10637                      41.60495
                       0.84677                       2.37256                      41.60703
                       0.23265                       2.48971                      41.60928
                      -0.39130                       2.45045                      41.61158
                      -0.98590                       2.25726                      41.61377
                      -1.51376                       1.92226                      41.61572
                      -1.94173                       1.46652                      41.61730
                      -2.24292                       0.91866                      41.61842
                      -2.39840                       0.31310                      41.61900
                      -2.39840                      -0.31209                      41.61901
                      -2.24292                      -0.91764                      41.61845
                      -1.94173                      -1.46550                      41.61735
                      -1.51376                      -1.92125                      41.61579
                      -0.98590                      -2.25624                      41.61385
                      -0.39130                      -2.44944                      41.61167
                       0.23265                      -2.48870                      41.60937
                       0.84677                      -2.37155                      41.60711
                       1.41245                      -2.10535                      41.60503
                       1.89417                      -1.70684                      41.60325
                       2.26165                      -1.20105                      41.60189
                       2.49180                      -0.61976                      41.60103
                       2.53386                       0.00059                      45.97994
                       2.45717                       0.60761                      45.98024
                       2.23194                       1.17649                      45.98115
                       1.87231                       1.67148                      45.98260
                       1.40088                       2.06149                      45.98451
                       0.84727                       2.32200                      45.98676
                       0.24627                       2.43665                      45.98920
                      -0.36437                       2.39823                      45.99169
                      -0.94626                       2.20916                      45.99406
                      -1.46286                       1.88131                      45.99617
                      -1.88169                       1.43530                      45.99788
                      -2.17645                       0.89913                      45.99909
                      -2.32860                       0.30651                      45.99972
                      -2.32860                      -0.30534                      45.99973
                      -2.17645                      -0.89796                      45.99912
                      -1.88169                      -1.43412                      45.99793
                      -1.46286                      -1.88014                      45.99624
                      -0.94626                      -2.20798                      45.99414
                      -0.36437                      -2.39705                      45.99178
                       0.24627                      -2.43547                      45.98929
                       0.84727                      -2.32082                      45.98684
                       1.40088                      -2.06031                      45.98459
                       1.87231                      -1.67031                      45.98266
                       2.23194                      -1.17531                      45.98119
                       2.45717                      -0.60643                      45.98026
                       2.49932                       0.00066                      50.35913
                       2.42431                       0.59444                      50.35946
                       2.20399                       1.15091                      50.36044
                       1.85221                       1.63511                      50.36201
                       1.39106                       2.01660                      50.36406
                       0.84953                       2.27143                      50.36649
                       0.26164                       2.38358                      50.36912
                      -0.33567                       2.34600                      50.37180
                      -0.90487                       2.16105                      50.37435
                      -1.41019                       1.84036                      50.37662
                      -1.81989                       1.40407                      50.37846
                      -2.10821                       0.87961                      50.37976
                      -2.25705                       0.29991                      50.38044
                      -2.25705                      -0.29858                      50.38045
                      -2.10821                      -0.87828                      50.37979
                      -1.81989                      -1.40275                      50.37851
                      -1.41019                      -1.83903                      50.37668
                      -0.90487                      -2.15972                      50.37442
                      -0.33567                      -2.34467                      50.37188
                       0.26164                      -2.38225                      50.36920
                       0.84953                      -2.27010                      50.36657
                       1.39106                      -2.01527                      50.36413
                       1.85221                      -1.63378                      50.36206
                       2.20399                      -1.14958                      50.36048
                       2.42431                      -0.59311                      50.35948
                       2.46663                       0.00074                      54.73832
                       2.39329                       0.58127                      54.73867
                       2.17789                       1.12533                      54.73972
                       1.83395                       1.59873                      54.74140
                       1.38309                       1.97172                      54.74361
                       0.85364                       2.22086                      54.74620
                       0.27886                       2.33051                      54.74903
                      -0.30513                       2.29376                      54.75190
                      -0.86163                       2.11294                      54.75463
                      -1.35568                       1.79940                      54.75706
                      -1.75624                       1.37285                      54.75904
                      -2.03814                       0.86008                      54.76043
                      -2.18365                       0.29331                      54.76116
                      -2.18365                      -0.29184                      54.76117
                      -2.03814                      -0.85860                      54.76046
                      -1.75624                      -1.37137                      54.75908
                      -1.35568                      -1.79793                      54.75712
                      -0.86163                      -2.11147                      54.75470
                      -0.30513                      -2.29229                      54.75197
                       0.27886                      -2.32903                      54.74910
                       0.85364                      -2.21939                      54.74628
                       1.38309                      -1.97024                      54.74367
                       1.83395                      -1.59725                      54.74145
                       2.17789                      -1.12386                      54.73975
                       2.39329                      -0.57980                      54.73869
                       2.43587                       0.00080                      59.11750
                       2.36420                       0.56810                      59.11788
                       2.15371                       1.09974                      59.11900
                       1.81762                       1.56234                      59.12079
                       1.37705                       1.92682                      59.12315
                       0.85967                       2.17028                      59.12592
                       0.29801                       2.27743                      59.12893
                      -0.27266                       2.24152                      59.13198
                      -0.81647                       2.06483                      59.13490
                      -1.29925                       1.75844                      59.13749
                      -1.69067                       1.34162                      59.13960
                      -1.96613                       0.84054                      59.14108
                      -2.10833                       0.28671                      59.14185
                      -2.10833                      -0.28510                      59.14186
                      -1.96613                      -0.83893                      59.14110
                      -1.69067                      -1.34001                      59.13964
                      -1.29925                      -1.75683                      59.13754
                      -0.81647                      -2.06322                      59.13496
                      -0.27266                      -2.23992                      59.13205
                       0.29801                      -2.27582                      59.12899
                       0.85967                      -2.16867                      59.12598
                       1.37705                      -1.92521                      59.12320
                       1.81762                      -1.56073                      59.12084
                       2.15371                      -1.09814                      59.11903
                       2.36420                      -0.56649                      59.11789
                       2.40707                       0.00086                      63.49672
                       2.33708                       0.55491                      63.49712
                       2.13150                       1.07415                      63.49831
                       1.80325                       1.52595                      63.50021
                       1.37297                       1.88192                      63.50270
                       0.86767                       2.11970                      63.50563
                       0.31912                       2.22434                      63.50882
                      -0.23822                       2.18928                      63.51205
                      -0.76934                       2.01670                      63.51514
                      -1.24085                       1.71747                      63.51788
                      -1.62313                       1.31038                      63.52010
                      -1.89216                       0.82100                      63.52167
                      -2.03104                       0.28009                      63.52248
                      -2.03104                      -0.27836                      63.52249
                      -1.89216                      -0.81927                      63.52169
                      -1.62313                      -1.30865                      63.52014
                      -1.24085                      -1.71574                      63.51792
                      -0.76934                      -2.01498                      63.51519
                      -0.23822                      -2.18755                      63.51211
                       0.31912                      -2.22262                      63.50887
                       0.86767                      -2.11797                      63.50569
                       1.37297                      -1.88019                      63.50275
                       1.80325                      -1.52422                      63.50025
                       2.13150                      -1.07242                      63.49834
                       2.33708                      -0.55319                      63.49714
                       2.38017                       0.00091                      67.87604
                       2.31185                       0.54172                      67.87646
                       2.11119                       1.04855                      67.87771
                       1.79079                       1.48955                      67.87970
                       1.37079                       1.83701                      67.88231
                       0.87757                       2.06910                      67.88538
                       0.34213                       2.17125                      67.88871
                      -0.20189                       2.13702                      67.89209
                      -0.72030                       1.96857                      67.89532
                      -1.18054                       1.67649                      67.89819
                      -1.55368                       1.27912                      67.90051
                      -1.81629                       0.80145                      67.90215
                      -1.95185                       0.27347                      67.90300
                      -1.95185                      -0.27164                      67.90301
                      -1.81629                      -0.79962                      67.90217
                      -1.55368                      -1.27730                      67.90054
                      -1.18054                      -1.67466                      67.89822
                      -0.72030                      -1.96675                      67.89536
                      -0.20189                      -2.13519                      67.89214
                       0.34213                      -2.16942                      67.88875
                       0.87757                      -2.06728                      67.88542
                       1.37079                      -1.83518                      67.88234
                       1.79079                      -1.48772                      67.87973
                       2.11119                      -1.04672                      67.87773
                       2.31185                      -0.53989                      67.87647
                       2.35498                       0.00095                      72.25554
                       2.28834                       0.52852                      72.25597
                       2.09259                       1.02293                      72.25726
                       1.78004                       1.45313                      72.25931
                       1.37032                       1.79209                      72.26200
                       0.88918                       2.01850                      72.26516
                       0.36685                       2.11814                      72.26860
                      -0.16384                       2.08475                      72.27209
                      -0.66956                       1.92043                      72.27541
                      -1.11853                       1.63550                      72.27837
                      -1.48254                       1.24786                      72.28076
                      -1.73871                       0.78188                      72.28245
                      -1.87095                       0.26683                      72.28333
                      -1.87095                      -0.26493                      72.28333
                      -1.73871                      -0.77998                      72.28246
                      -1.48254                      -1.24596                      72.28078
                      -1.11853                      -1.63360                      72.27839
                      -0.66956                      -1.91853                      72.27544
                      -0.16384                      -2.08285                      72.27212
                       0.36685                      -2.11624                      72.26863
                       0.88918                      -2.01660                      72.26519
                       1.37032                      -1.79019                      72.26203
                       1.78004                      -1.45123                      72.25933
                       2.09259                      -1.02103                      72.25727
                       2.28834                      -0.52661                      72.25598
                       2.33109                       0.00098                      76.63532
                       2.26612                       0.51530                      76.63576
                       2.07529                       0.99731                      76.63705
                       1.77058                       1.41671                      76.63912
                       1.37115                       1.74715                      76.64184
                       0.90209                       1.96788                      76.64503
                       0.39287                       2.06502                      76.64850
                      -0.12450                       2.03247                      76.65202
                      -0.61753                       1.87227                      76.65537
                      -1.05522                       1.59450                      76.65835
                      -1.41009                       1.21659                      76.66077
                      -1.65983                       0.76231                      76.66247
                      -1.78875                       0.26018                      76.66335
                      -1.78875                      -0.25823                      76.66335
                      -1.65983                      -0.76035                      76.66248
                      -1.41009                      -1.21463                      76.66078
                      -1.05522                      -1.59254                      76.65837
                      -0.61753                      -1.87032                      76.65539
                      -0.12450                      -2.03051                      76.65204
                       0.39287                      -2.06307                      76.64852
                       0.90209                      -1.96592                      76.64505
                       1.37115                      -1.74520                      76.64186
                       1.77058                      -1.41475                      76.63914
                       2.07529                      -0.99535                      76.63706
                       2.26612                      -0.51334                      76.63576
                       2.30781                       0.00100                      81.01551
                       2.24451                       0.50208                      81.01594
                       2.05859                       0.97167                      81.01721
                       1.76173                       1.38027                      81.01924
                       1.37258                       1.70221                      81.02190
                       0.91560                       1.91726                      81.02502
                       0.41950                       2.01190                      81.02842
                      -0.08456                       1.98018                      81.03186
                      -0.56489                       1.82411                      81.03515
                      -0.99131                       1.55348                      81.03807
                      -1.33705                       1.18531                      81.04043
                      -1.58035                       0.74272                      81.04210
                      -1.70596                       0.25353                      81.04296
                      -1.70596                      -0.25153                      81.04296
                      -1.58035                      -0.74073                      81.04210
                      -1.33704                      -1.18332                      81.04044
                      -0.99131                      -1.55149                      81.03808
                      -0.56489                      -1.82212                      81.03516
                      -0.08456                      -1.97819                      81.03188
                       0.41950                      -2.00990                      81.02843
                       0.91560                      -1.91526                      81.02504
                       1.37258                      -1.70022                      81.02191
                       1.76173                      -1.37828                      81.01925
                       2.05859                      -0.96968                      81.01722
                       2.24451                      -0.50008                      81.01594
                       2.28408                       0.00101                      85.39628
                       2.22246                       0.48884                      85.39668
                       2.04145                       0.94603                      85.39787
                       1.75243                       1.34383                      85.39978
                       1.37357                       1.65726                      85.40227
                       0.92866                       1.86662                      85.40520
                       0.44567                       1.95876                      85.40838
                      -0.04506                       1.92788                      85.41161
                      -0.51270                       1.77594                      85.41469
                      -0.92786                       1.51246                      85.41742
                      -1.26445                       1.15402                      85.41963
                      -1.50133                       0.72313                      85.42119
                      -1.62361                       0.24686                      85.42200
                      -1.62361                      -0.24485                      85.42200
                      -1.50133                      -0.72112                      85.42120
                      -1.26445                      -1.15201                      85.41964
                      -0.92786                      -1.51045                      85.41742
                      -0.51270                      -1.77393                      85.41469
                      -0.04506                      -1.92587                      85.41161
                       0.44567                      -1.95675                      85.40838
                       0.92867                      -1.86461                      85.40520
                       1.37357                      -1.65525                      85.40227
                       1.75243                      -1.34182                      85.39978
                       2.04145                      -0.94401                      85.39788
                       2.22246                      -0.48683                      85.39668
                       2.27160                       0.00101                      87.58693
                       2.21081                       0.48222                      87.58731
                       2.03226                       0.93320                      87.58844
                       1.74717                       1.32561                      87.59024
                       1.37344                       1.63478                      87.59260
                       0.93458                       1.84130                      87.59537
                       0.45814                       1.93219                      87.59837
                      -0.02593                       1.90173                      87.60143
                      -0.48723                       1.75185                      87.60434
                      -0.89675                       1.49195                      87.60692
                      -1.22878                       1.13837                      87.60902
                      -1.46244                       0.71333                      87.61050
                      -1.58306                       0.24353                      87.61126
                      -1.58306                      -0.24151                      87.61126
                      -1.46244                      -0.71131                      87.61050
                      -1.22878                      -1.13636                      87.60902
                      -0.89675                      -1.48994                      87.60693
                      -0.48723                      -1.74983                      87.60434
                      -0.02594                      -1.89972                      87.60143
                       0.45814                      -1.93017                      87.59838
                       0.93458                      -1.83929                      87.59537
                       1.37344                      -1.63277                      87.59260
                       1.74717                      -1.32359                      87.59024
                       2.03226                      -0.93119                      87.58844
                       2.21081                      -0.48021                      87.58732
                       3.00000                       0.00000                       0.00000
                       2.90575                       0.74607                       0.00000
                       2.62892                       1.44526                       0.00000
                       2.18691                       2.05364                       0.00000
                       1.60748                       2.53298                       0.00000
                       0.92705                       2.85317                       0.00000
                       0.18837                       2.99408                       0.00000
                      -0.56214                       2.94686                       0.00000
                      -1.27734                       2.71448                       0.00000
                      -1.91227                       2.31154                       0.00000
                      -2.42705                       1.76336                       0.00000
                      -2.78933                       1.10437                       0.00000
                      -2.97634                       0.37600                       0.00000
                      -2.97634                      -0.37600                       0.00000
                      -2.78933                      -1.10437                       0.00000
                      -2.42705                      -1.76336                       0.00000
                      -1.91227                      -2.31154                       0.00000
                      -1.27734                      -2.71448                       0.00000
                      -0.56214                      -2.94686                       0.00000
                       0.18837                      -2.99408                       0.00000
                       0.92705                      -2.85317                       0.00000
                       1.60748                      -2.53298                       0.00000
                       2.18691                      -2.05364                       0.00000
                       2.62892                      -1.44526                       0.00000
                       2.90575                      -0.74607                       0.00000
        </DataArray>
      </Points>
      <Polys>
        <DataArray type="Int32" Name="connectivity" format="ascii">
      0      1     26     25
      1      2     27     26
      2      3     28     27
      3      4     29     28
      4      5     30     29
      5      6     31     30
      6      7     32     31
      7      8     33     32
      8      9     34     33
      9     10     35     34
     10     11     36     35
     11     12     37     36
     12     13     38     37
     13     14     39     38
     14     15     40     39
     15     16     41     40
     16     17     42     41
     17     18     43     42
     18     19     44     43
     19     20     45     44
     20     21     46     45
     21     22     47     46
     22     23     48     47
     23     24     49     48
     24      0     25     49
     24     23     22     21     20     19     18     17     16     15     14     13     12     11     10      9      8      7      6      5      4      3      2      1      0
     25     26     27     28     29     30     31     32     33     34     35     36     37     38     39     40     41     42     43     44     45     46     47     48     49
     25     26     51     50
     26     27     52     51
     27     28     53     52
     28     29     54     53
     29     30     55     54
     30     31     56     55
     31     32     57     56
     32     33     58     57
     33     34     59     58
     34     35     60     59
     35     36     61     60
     36     37     62     61
     37     38     63     62
     38     39     64     63
     39     40     65     64
     40     41     66     65
     41     42     67     66
     42     43     68     67
     43     44     69     68
     44     45     70     69
     45     46     71     70
     46     47     72     71
     47     48     73     72
     48     49     74     73
     49     25     50     74
     49     48     47     46     45     44     43     42     41     40     39     38     37     36     35     34     33     32     31     30     29     28     27     26     25
     50     51     52     53     54     55     56     57     58     59     60     61     62     63     64     65     66     67     68     69     70     71     72     73     74
     50     51     76     75
     51     52     77     76
     52     53     78     77
     53     54     79     78
     54     55     80     79
     55     56     81     80
     56     57     82     81
     57     58     83     82
     58     59     84     83
     59     60     85     84
     60     61     86     85
     61     62     87     86
     62     63     88     87
     63     64     89     88
     64     65     90     89
     65     66     91     90
     66     67     92     91
     67     68     93     92
     68     69     94     93
     69     70     95     94
     70     71     96     95
     71     72     97     96
     72     73     98     97
     73     74     99     98
     74     50     75     99
     74     73     72     71     70     69     68     67     66     65     64     63     62     61     60     59     58     57     56     55     54     53     52     51     50
     75     76     77     78     79     80     81     82     83     84     85     86     87     88     89     90     91     92     93     94     95     96     97     98     99
     75     76    101    100
     76     77    102    101
     77     78    103    102
     78     79    104    103
     79     80    105    104
     80     81    106    105
     81     82    107    106
     82     83    108    107
     83     84    109    108
     84     85    110    109
     85     86    111    110
     86     87    112    111
     87     88    113    112
     88     89    114    113
     89     90    115    114
     90     91    116    115
     91     92    117    116
     92     93    118    117
     93     94    119    118
     94     95    120    119
     95     96    121    120
     96     97    122    121
     97     98    123    122
     98     99    124    123
     99     75    100    124
     99     98     97     96     95     94     93     92     91     90     89     88     87     86     85     84     83     82     81     80     79     78     77     76     75
    100    101    102    103    104    105    106    107    108    109    110    111    112    113    114    115    116    117    118    119    120    121    122    123    124
    100    101    126    125
    101    102    127    126
    102    103    128    127
    103    104    129    128
    104    105    130    129
    105    106    131    130
    106    107    132    131
    107    108    133    132
    108    109    134    133
    109    110    135    134
    110    111    136    135
    111    112    137    136
    112    113    138    137
    113    114    139    138
    114    115    140    139
    115    116    141    140
    116    117    142    141
    117    118    143    142
    118    119    144    143
    119    120    145    144
    120    121    146    145
    121    122    147    146
    122    123    148    147
    123    124    149    148
    124    100    125    149
    124    123    122    121    120    119    118    117    116    115    114    113    112    111    110    109    108    107    106    105    104    103    102    101    100
    125    126    127    128    129    130    131    132    133    134    135    136    137    138    139    140    141    142    143    144    145    146    147    148    149
    125    126    151    150
    126    127    152    151
    127    128    153    152
    128    129    154    153
    129    130    155    154
    130    131    156    155
    131    132    157    156
    132    133    158    157
    133    134    159    158
    134    135    160    159
    135    136    161    160
    136    137    162    161
    137    138    163    162
    138    139    164    163
    139    140    165    164
    140    141    166    165
    141    142    167    166
    142    143    168    167
    143    144    169    168
    144    145    170    169
    145    146    171    170
    146    147    172    171
    147    148    173    172
    148    149    174    173
    149    125    150    174
    149    148    147    146    145    144    143    142    141    140    139    138    137    136    135    134    133    132    131    130    129    128    127    126    125
    150    151    152    153    154    155    156    157    158    159    160    161    162    163    164    165    166    167    168    169    170    171    172    173    174
    150    151    176    175
    151    152    177    176
    152    153    178    177
    153    154    179    178
    154    155    180    179
    155    156    181    180
    156    157    182    181
    157    158    183    182
    158    159    184    183
    159    160    185    184
    160    161    186    185
    161    162    187    186
    162    163    188    187
    163    164    189    188
    164    165    190    189
    165    166    191    190
    166    167    192    191
    167    168    193    192
    168    169    194    193
    169    170    195    194
    170    171    196    195
    171    172    197    196
    172    173    198    197
    173    174    199    198
    174    150    175    199
    174    173    172    171    170    169    168    167    166    165    164    163    162    161    160    159    158    157    156    155    154    153    152    151    150
    175    176    177    178    179    180    181    182    183    184    185    186    187    188    189    190    191    192    193    194    195    196    197    198    199
    175    176    201    200
    176    177    202    201
    177    178    203    202
    178    179    204    203
    179    180    205    204
    180    181    206    205
    181    182    207    206
    182    183    208    207
    183    184    209    208
    184    185    210    209
    185    186    211    210
    186    187    212    211
    187    188    213    212
    188    189    214    213
    189    190    215    214
    190    191    216    215
    191    192    217    216
    192    193    218    217
    193    194    219    218
    194    195    220    219
    195    196    221    220
    196    197    222    221
    197    198    223    222
    198    199    224    223
    199    175    200    224
    199    198    197    196    195    194    193    192    191    190    189    188    187    186    185    184    183    182    181    180    179    178    177    176    175
    200    201    202    203    204    205    206    207    208    209    210    211    212    213    214    215    216    217    218    219    220    221    222    223    224
    200    201    226    225
    201    202    227    226
    202    203    228    227
    203    204    229    228
    204    205    230    229
    205    206    231    230
    206    207    232    231
    207    208    233    232
    208    209    234    233
    209    210    235    234
    210    211    236    235
    211    212    237    236
    212    213    238    237
    213    214    239    238
    214    215    240    239
    215    216    241    240
    216    217    242    241
    217    218    243    242
    218    219    244    243
    219    220    245    244
    220    221    246    245
    221    222    247    246
    222    223    248    247
    223    224    249    248
    224    200    225    249
    224    223    222    221    220    219    218    217    216    215    214    213    212    211    210    209    208    207    206    205    204    203    202    201    200
    225    226    227    228    229    230    231    232    233    234    235    236    237    238    239    240    241    242    243    244    245    246    247    248    249
    225    226    251    250
    226    227    252    251
    227    228    253    252
    228    229    254    253
    229    230    255    254
    230    231    256    255
    231    232    257    256
    232    233    258    257
    233    234    259    258
    234    235    260    259
    235    236    261    260
    236    237    262    261
    237    238    263    262
    238    239    264    263
    239    240    265    264
    240    241    266    265
    241    242    267    266
    242    243    268    267
    243    244    269    268
    244    245    270    269
    245    246    271    270
    246    247    272    271
    247    248    273    272
    248    249    274    273
    249    225    250    274
    249    248    247    246    245    244    243    242    241    240    239    238    237    236    235    234    233    232    231    230    229    228    227    226    225
    250    251    252    253    254    255    256    257    258    259    260    261    262    263    264    265    266    267    268    269    270    271    272    273    274
    250    251    276    275
    251    252    277    276
    252    253    278    277
    253    254    279    278
    254    255    280    279
    255    256    281    280
    256    257    282    281
    257    258    283    282
    258    259    284    283
    259    260    285    284
    260    261    286    285
    261    262    287    286
    262    263    288    287
    263    264    289    288
    264    265    290    289
    265    266    291    290
    266    267    292    291
    267    268    293    292
    268    269    294    293
    269    270    295    294
    270    271    296    295
    271    272    297    296
    272    273    298    297
    273    274    299    298
    274    250    275    299
    274    273    272    271    270    269    268    267    266    265    264    263    262    261    260    259    258    257    256    255    254    253    252    251    250
    275    276    277    278    279    280    281    282    283    284    285    286    287    288    289    290    291    292    293    294    295    296    297    298    299
    275    276    301    300
    276    277    302    301
    277    278    303    302
    278    279    304    303
    279    280    305    304
    280    281    306    305
    281    282    307    306
    282    283    308    307
    283    284    309    308
    284    285    310    309
    285    286    311    310
    286    287    312    311
    287    288    313    312
    288    289    314    313
    289    290    315    314
    290    291    316    315
    291    292    317    316
    292    293    318    317
    293    294    319    318
    294    295    320    319
    295    296    321    320
    296    297    322    321
    297    298    323    322
    298    299    324    323
    299    275    300    324
    299    298    297    296    295    294    293    292    291    290    289    288    287    286    285    284    283    282    281    280    279    278    277    276    275
    300    301    302    303    304    305    306    307    308    309    310    311    312    313    314    315    316    317    318    319    320    321    322    323    324
    300    301    326    325
    301    302    327    326
    302    303    328    327
    303    304    329    328
    304    305    330    329
    305    306    331    330
    306    307    332    331
    307    308    333    332
    308    309    334    333
    309    310    335    334
    310    311    336    335
    311    312    337    336
    312    313    338    337
    313    314    339    338
    314    315    340    339
    315    316    341    340
    316    317    342    341
    317    318    343    342
    318    319    344    343
    319    320    345    344
    320    321    346    345
    321    322    347    346
    322    323    348    347
    323    324    349    348
    324    300    325    349
    324    323    322    321    320    319    318    317    316    315    314    313    312    311    310    309    308    307    306    305    304    303    302    301    300
    325    326    327    328    329    330    331    332    333    334    335    336    337    338    339    340    341    342    343    344    345    346    347    348    349
    325    326    351    350
    326    327    352    351
    327    328    353    352
    328    329    354    353
    329    330    355    354
    330    331    356    355
    331    332    357    356
    332    333    358    357
    333    334    359    358
    334    335    360    359
    335    336    361    360
    336    337    362    361
    337    338    363    362
    338    339    364    363
    339    340    365    364
    340    341    366    365
    341    342    367    366
    342    343    368    367
    343    344    369    368
    344    345    370    369
    345    346    371    370
    346    347    372    371
    347    348    373    372
    348    349    374    373
    349    325    350    374
    349    348    347    346    345    344    343    342    341    340    339    338    337    336    335    334    333    332    331    330    329    328    327    326    325
    350    351    352    353    354    355    356    357    358    359    360    361    362    363    364    365    366    367    368    369    370    371    372    373    374
    350    351    376    375
    351    352    377    376
    352    353    378    377
    353    354    379    378
    354    355    380    379
    355    356    381    380
    356    357    382    381
    357    358    383    382
    358    359    384    383
    359    360    385    384
    360    361    386    385
    361    362    387    386
    362    363    388    387
    363    364    389    388
    364    365    390    389
    365    366    391    390
    366    367    392    391
    367    368    393    392
    368    369    394    393
    369    370    395    394
    370    371    396    395
    371    372    397    396
    372    373    398    397
    373    374    399    398
    374    350    375    399
    374    373    372    371    370    369    368    367    366    365    364    363    362    361    360    359    358    357    356    355    354    353    352    351    350
    375    376    377    378    379    380    381    382    383    384    385    386    387    388    389    390    391    392    393    394    395    396    397    398    399
    375    376    401    400
    376    377    402    401
    377    378    403    402
    378    379    404    403
    379    380    405    404
    380    381    406    405
    381    382    407    406
    382    383    408    407
    383    384    409    408
    384    385    410    409
    385    386    411    410
    386    387    412    411
    387    388    413    412
    388    389    414    413
    389    390    415    414
    390    391    416    415
    391    392    417    416
    392    393    418    417
    393    394    419    418
    394    395    420    419
    395    396    421    420
    396    397    422    421
    397    398    423    422
    398    399    424    423
    399    375    400    424
    399    398    397    396    395    394    393    392    391    390    389    388    387    386    385    384    383    382    381    380    379    378    377    376    375
    400    401    402    403    404    405    406    407    408    409    410    411    412    413    414    415    416    417    418    419    420    421    422    423    424
    400    401    426    425
    401    402    427    426
    402    403    428    427
    403    404    429    428
    404    405    430    429
    405    406    431    430
    406    407    432    431
    407    408    433    432
    408    409    434    433
    409    410    435    434
    410    411    436    435
    411    412    437    436
    412    413    438    437
    413    414    439    438
    414    415    440    439
    415    416    441    440
    416    417    442    441
    417    418    443    442
    418    419    444    443
    419    420    445    444
    420    421    446    445
    421    422    447    446
    422    423    448    447
    423    424    449    448
    424    400    425    449
    424    423    422    421    420    419    418    417    416    415    414    413    412    411    410    409    408    407    406    405    404    403    402    401    400
    425    426    427    428    429    430    431    432    433    434    435    436    437    438    439    440    441    442    443    444    445    446    447    448    449
    425    426    451    450
    426    427    452    451
    427    428    453    452
    428    429    454    453
    429    430    455    454
    430    431    456    455
    431    432    457    456
    432    433    458    457
    433    434    459    458
    434    435    460    459
    435    436    461    460
    436    437    462    461
    437    438    463    462
    438    439    464    463
    439    440    465    464
    440    441    466    465
    441    442    467    466
    442    443    468    467
    443    444    469    468
    444    445    470    469
    445    446    471    470
    446    447    472    471
    447    448    473    472
    448    449    474    473
    449    425    450    474
    449    448    447    446    445    444    443    442    441    440    439    438    437    436    435    434    433    432    431    430    429    428    427    426    425
    450    451    452    453    454    455    456    457    458    459    460    461    462    463    464    465    466    467    468    469    470    471    472    473    474
    450    451    476    475
    451    452    477    476
    452    453    478    477
    453    454    479    478
    454    455    480    479
    455    456    481    480
    456    457    482    481
    457    458    483    482
    458    459    484    483
    459    460    485    484
    460    461    486    485
    461    462    487    486
    462    463    488    487
    463    464    489    488
    464    465    490    489
    465    466    491    490
    466    467    492    491
    467    468    493    492
    468    469    494    493
    469    470    495    494
    470    471    496    495
    471    472    497    496
    472    473    498    497
    473    474    499    498
    474    450    475    499
    474    473    472    471    470    469    468    467    466    465    464    463    462    461    460    459    458    457    456    455    454    453    452    451    450
    475    476    477    478    479    480    481    482    483    484    485    486    487    488    489    490    491    492    493    494    495    496    497    498    499
    475    476    501    500
    476    477    502    501
    477    478    503    502
    478    479    504    503
    479    480    505    504
    480    481    506    505
    481    482    507    506
    482    483    508    507
    483    484    509    508
    484    485    510    509
    485    486    511    510
    486    487    512    511
    487    488    513    512
    488    489    514    513
    489    490    515    514
    490    491    516    515
    491    492    517    516
    492    493    518    517
    493    494    519    518
    494    495    520    519
    495    496    521    520
    496    497    522    521
    497    498    523    522
    498    499    524    523
    499    475    500    524
    499    498    497    496    495    494    493    492    491    490    489    488    487    486    485    484    483    482    481    480    479    478    477    476    475
    500    501    502    503    504    505    506    507    508    509    510    511    512    513    514    515    516    517    518    519    520    521    522    523    524
    525    526      1      0
    526    527      2      1
    527    528      3      2
    528    529      4      3
    529    530      5      4
    530    531      6      5
    531    532      7      6
    532    533      8      7
    533    534      9      8
    534    535     10      9
    535    536     11     10
    536    537     12     11
    537    538     13     12
    538    539     14     13
    539    540     15     14
    540    541     16     15
    541    542     17     16
    542    543     18     17
    543    544     19     18
    544    545     20     19
    545    546     21     20
    546    547     22     21
    547    548     23     22
    548    549     24     23
    549    525      0     24
    549    548    547    546    545    544    543    542    541    540    539    538    537    536    535    534    533    532    531    530    529    528    527    526    525
      0      1      2      3      4      5      6      7      8      9     10     11     12     13     14     15     16     17     18     19     20     21     22     23     24
        </DataArray>
        <DataArray type="Int32" Name="offsets" format="ascii">
      4
      8
     12
     16
     20
     24
     28
     32
     36
     40
     44
     48
     52
     56
     60
     64
     68
     72
     76
     80
     84
     88
     92
     96
    100
    125
    150
    154
    158
    162
    166
    170
    174
    178
    182
    186
    190
    194
    198
    202
    206
    210
    214
    218
    222
    226
    230
    234
    238
    242
    246
    250
    275
    300
    304
    308
    312
    316
    320
    324
    328
    332
    336
    340
    344
    348
    352
    356
    360
    364
    368
    372
    376
    380
    384
    388
    392
    396
    400
    425
    450
    454
    458
    462
    466
    470
    474
    478
    482
    486
    490
    494
    498
    502
    506
    510
    514
    518
    522
    526
    530
    534
    538
    542
    546
    550
    575
    600
    604
    608
    612
    616
    620
    624
    628
    632
    636
    640
    644
    648
    652
    656
    660
    664
    668
    672
    676
    680
    684
    688
    692
    696
    700
    725
    750
    754
    758
    762
    766
    770
    774
    778
    782
    786
    790
    794
    798
    802
    806
    810
    814
    818
    822
    826
    830
    834
    838
    842
    846
    850
    875
    900
    904
    908
    912
    916
    920
    924
    928
    932
    936
    940
    944
    948
    952
    956
    960
    964
    968
    972
    976
    980
    984
    988
    992
    996
   1000
   1025
   1050
   1054
   1058
   1062
   1066
   1070
   1074
   1078
   1082
   1086
   1090
   1094
   1098
   1102
   1106
   1110
   1114
   1118
   1122
   1126
   1130
   1134
   1138
   1142
   1146
   1150
   1175
   1200
   1204
   1208
   1212
   1216
   1220
   1224
   1228
   1232
   1236
   1240
   1244
   1248
   1252
   1256
   1260
   1264
   1268
   1272
   1276
   1280
   1284
   1288
   1292
   1296
   1300
   1325
   1350
   1354
   1358
   1362
   1366
   1370
   1374
   1378
   1382
   1386
   1390
   1394
   1398
   1402
   1406
   1410
   1414
   1418
   1422
   1426
   1430
   1434
   1438
   1442
   1446
   1450
   1475
   1500
   1504
   1508
   1512
   1516
   1520
   1524
   1528
   1532
   1536
   1540
   1544
   1548
   1552
   1556
   1560
   1564
   1568
   1572
   1576
   1580
   1584
   1588
   1592
   1596
   1600
   1625
   1650
   1654
   1658
   1662
   1666
   1670
   1674
   1678
   1682
   1686
   1690
   1694
   1698
   1702
   1706
   1710
   1714
   1718
   1722
   1726
   1730
   1734
   1738
   1742
   1746
   1750
   1775
   1800
   1804
   1808
   1812
   1816
   1820
   1824
   1828
   1832
   1836
   1840
   1844
   1848
   1852
   1856
   1860
   1864
   1868
   1872
   1876
   1880
   1884
   1888
   1892
   1896
   1900
   1925
   1950
   1954
   1958
   1962
   1966
   1970
   1974
   1978
   1982
   1986
   1990
   1994
   1998
   2002
   2006
   2010
   2014
   2018
   2022
   2026
   2030
   2034
   2038
   2042
   2046
   2050
   2075
   2100
   2104
   2108
   2112
   2116
   2120
   2124
   2128
   2132
   2136
   2140
   2144
   2148
   2152
   2156
   2160
   2164
   2168
   2172
   2176
   2180
   2184
   2188
   2192
   2196
   2200
   2225
   2250
   2254
   2258
   2262
   2266
   2270
   2274
   2278
   2282
   2286
   2290
   2294
   2298
   2302
   2306
   2310
   2314
   2318
   2322
   2326
   2330
   2334
   2338
   2342
   2346
   2350
   2375
   2400
   2404
   2408
   2412
   2416
   2420
   2424
   2428
   2432
   2436
   2440
   2444
   2448
   2452
   2456
   2460
   2464
   2468
   2472
   2476
   2480
   2484
   2488
   2492
   2496
   2500
   2525
   2550
   2554
   2558
   2562
   2566
   2570
   2574
   2578
   2582
   2586
   2590
   2594
   2598
   2602
   2606
   2610
   2614
   2618
   2622
   2626
   2630
   2634
   2638
   2642
   2646
   2650
   2675
   2700
   2704
   2708
   2712
   2716
   2720
   2724
   2728
   2732
   2736
   2740
   2744
   2748
   2752
   2756
   2760
   2764
   2768
   2772
   2776
   2780
   2784
   2788
   2792
   2796
   2800
   2825
   2850
   2854
   2858
   2862
   2866
   2870
   2874
   2878
   2882
   2886
   2890
   2894
   2898
   2902
   2906
   2910
   2914
   2918
   2922
   2926
   2930
   2934
   2938
   2942
   2946
   2950
   2975
   3000
   3004
   3008
   3012
   3016
   3020
   3024
   3028
   3032
   3036
   3040
   3044
   3048
   3052
   3056
   3060
   3064
   3068
   3072
   3076
   3080
   3084
   3088
   3092
   3096
   3100
   3125
   3150
        </DataArray>
      </Polys>
    </Piece>
  </PolyData>
</VTKFile>
