<?xml version="1.0"?>
<VTKFile type="PolyData" version="0.1" byte_order="LittleEndian">
  <PolyData>
    <Piece NumberOfPoints="     19" NumberOfVerts="  0" NumberOfLines="     18"
           NumberOfStrips="  0" NumberOfPolys="      0">
      <Points>
        <DataArray type="Float32" NumberOfComponents="3" format="ascii">
                      -4.87074                      -1.50144                      90.16934
                      -4.91854                      -2.86085                      90.30519
                      -5.04282                      -5.58843                      90.48343
                      -5.17783                      -8.32056                      90.61587
                      -5.34784                     -11.73900                      90.75172
                      -5.47279                     -15.83058                      91.04610
                      -5.54452                     -19.91211                      91.46040
                      -5.59925                     -23.99484                      91.87050
                      -5.63427                     -28.07859                      92.27828
                      -5.65169                     -32.16341                      92.68247
                      -5.65586                     -36.24942                      93.08048
                      -5.65000                     -40.33625                      93.47488
                      -5.64055                     -44.42354                      93.86721
                      -5.63578                     -48.51082                      94.25929
                      -5.64348                     -52.59754                      94.65268
                      -5.66823                     -56.00224                      94.98317
                      -5.70336                     -58.72431                      95.25784
                      -5.74538                     -61.44057                      95.58884
                      -5.78629                     -62.80160                      95.71565
        </DataArray>
      </Points>
      <PointData>
        <DataArray type="Float32" Name="TranslationalVelocity" NumberOfComponents="3" format="ascii">
                      -0.37805                      -0.41322                      -4.11391
                      -0.71867                      -0.77617                      -7.86544
                      -1.40301                      -1.23699                     -15.39278
                      -2.08969                      -1.56869                     -22.93292
                      -2.95086                      -1.90092                     -32.36746
                      -3.98503                      -2.68182                     -43.66034
                      -5.02135                      -3.80707                     -54.92606
                      -6.06413                      -4.92503                     -66.19558
                      -7.11494                      -6.04158                     -77.46830
                      -8.17564                      -7.15279                     -88.74409
                      -9.24836                      -8.25039                    -100.02299
                     -10.33520                      -9.34061                    -111.30351
                     -11.43843                     -10.42595                    -122.58412
                     -12.56035                     -11.50909                    -133.86284
                     -13.70327                     -12.59203                    -145.13733
                     -14.67380                     -13.49631                    -154.52744
                     -15.46214                     -14.24349                    -162.03261
                     -16.26082                     -15.14378                    -169.51940
                     -16.66559                     -15.48139                    -173.26977
        </DataArray>
        <DataArray type="Float32" Name="RotationalVelocity" NumberOfComponents="3" format="ascii">
                       2.75964                       0.00034                      -0.25059
                       2.75968                       0.00034                      -0.25069
                       2.75975                       0.00034                      -0.25100
                       2.75983                       0.00035                      -0.25144
                       2.75994                       0.00044                      -0.25215
                       2.76008                       0.00065                      -0.25323
                       2.76022                       0.00097                      -0.25459
                       2.76033                       0.00134                      -0.25627
                       2.76040                       0.00166                      -0.25835
                       2.76039                       0.00184                      -0.26091
                       2.76027                       0.00180                      -0.26401
                       2.76001                       0.00149                      -0.26771
                       2.75959                       0.00088                      -0.27199
                       2.75899                       0.00001                      -0.27683
                       2.75820                      -0.00100                      -0.28209
                       2.75740                      -0.00182                      -0.28666
                       2.75666                      -0.00234                      -0.29033
                       2.75585                      -0.00261                      -0.29389
                       2.75542                      -0.00261                      -0.29559
        </DataArray>
        <DataArray type="Float32" Name="TranslationalAcceleration" NumberOfComponents="3" format="ascii">
                      -0.14617                      11.47952                      -1.18351
                      -0.13884                      13.85988                      -1.35958
                      -0.33074                      39.72697                      -3.13843
                      -0.46601                      63.54727                      -4.32990
                      -0.58813                      91.38287                      -5.36281
                      -0.80603                     122.94227                      -7.43286
                      -1.09896                     153.60597                     -10.32020
                      -1.39088                     184.19300                     -13.12865
                      -1.69636                     215.08693                     -15.91463
                      -2.02640                     246.41017                     -18.68127
                      -2.38939                     278.09624                     -21.40104
                      -2.79558                     309.96147                     -24.07533
                      -3.25185                     341.78447                     -26.69176
                      -3.76223                     373.38105                     -29.24274
                      -4.32690                     404.67999                     -31.73007
                      -4.83709                     430.61046                     -33.76975
                      -5.27465                     451.37934                     -35.45707
                      -5.79330                     472.33581                     -37.57329
                      -6.00970                     482.99132                     -38.33690
        </DataArray>
        <DataArray type="Float32" Name="OrientationX" NumberOfComponents="3" format="ascii">
                       0.94790                      -0.06493                      -0.31188
                       0.94791                      -0.06451                      -0.31195
                       0.94787                      -0.06324                      -0.31231
                       0.94778                      -0.06143                      -0.31296
                       0.94755                      -0.05855                      -0.31419
                       0.95678                      -0.05166                      -0.28620
                       0.96244                      -0.04509                      -0.26771
                       0.96655                      -0.03868                      -0.25355
                       0.97015                      -0.03248                      -0.24030
                       0.97308                      -0.02695                      -0.22888
                       0.97494                      -0.02264                      -0.22131
                       0.97603                      -0.01988                      -0.21672
                       0.97606                      -0.01921                      -0.21667
                       0.97455                      -0.02121                      -0.22315
                       0.97257                      -0.02584                      -0.23117
                       0.97077                      -0.03183                      -0.23791
                       0.96920                      -0.03825                      -0.24328
                       0.96682                      -0.04646                      -0.25120
                       0.96514                      -0.05131                      -0.25666
        </DataArray>
        <DataArray type="Float32" Name="OrientationY" NumberOfComponents="3" format="ascii">
                       0.31669                       0.08599                       0.94462
                       0.31671                       0.08586                       0.94463
                       0.31693                       0.08554                       0.94458
                       0.31738                       0.08520                       0.94446
                       0.31831                       0.08478                       0.94419
                       0.28978                       0.08605                       0.95322
                       0.27074                       0.08664                       0.95874
                       0.25604                       0.08693                       0.96275
                       0.24226                       0.08713                       0.96629
                       0.23038                       0.08718                       0.96919
                       0.22245                       0.08705                       0.97105
                       0.21763                       0.08680                       0.97216
                       0.21752                       0.08642                       0.97222
                       0.22415                       0.08588                       0.97076
                       0.23255                       0.08525                       0.96884
                       0.23980                       0.08468                       0.96712
                       0.24572                       0.08418                       0.96568
                       0.25435                       0.08351                       0.96350
                       0.26023                       0.08305                       0.96197
        </DataArray>
        <DataArray type="Float32" Name="OrientationZ" NumberOfComponents="3" format="ascii">
                      -0.03451                      -0.99418                       0.10208
                      -0.03415                      -0.99422                       0.10181
                      -0.03302                      -0.99433                       0.10112
                      -0.03136                      -0.99447                       0.10025
                      -0.02864                      -0.99468                       0.09897
                      -0.02462                      -0.99495                       0.09730
                      -0.02003                      -0.99522                       0.09559
                      -0.01520                      -0.99546                       0.09393
                      -0.01045                      -0.99567                       0.09240
                      -0.00617                      -0.99583                       0.09104
                      -0.00272                      -0.99595                       0.08991
                      -0.00052                      -0.99603                       0.08905
                       0.00005                      -0.99607                       0.08853
                      -0.00142                      -0.99608                       0.08845
                      -0.00532                      -0.99602                       0.08892
                      -0.01063                      -0.99590                       0.08983
                      -0.01646                      -0.99572                       0.09099
                      -0.02379                      -0.99542                       0.09256
                      -0.02804                      -0.99522                       0.09351
        </DataArray>
        <DataArray type="Float32" Name="Force" NumberOfComponents="3" format="ascii">
                       2.67238                       2.92883                      29.42936
                     206.51073                       6.09303                     128.43945
                     323.81010                      27.40088                     371.90200
                     340.05127                      45.79966                     551.67152
                    1562.07052                     -95.15758                    -494.84930
                    1457.63284                     -73.91040                    -376.91378
                    1386.32643                     -54.80210                    -271.87102
                    2127.68627                     -73.68183                    -420.71423
                    2592.14894                     -71.56243                    -459.26515
                    2922.85304                     -62.60587                    -467.58616
                    4593.73617                     -78.70769                    -702.73338
                    4974.66630                     -69.45044                    -717.81735
                    4320.00588                     -54.15022                    -588.37981
                    3000.25530                     -33.40840                    -321.99477
                    1233.79833                      -3.49382                      19.10021
                     797.37910                      -4.83257                      29.32727
                     174.96548                      19.23285                     217.68514
                   -1136.04221                      63.54921                     366.90903
                  -18365.51902                     690.15769                    1823.50757
        </DataArray>
        <DataArray type="Float32" Name="Moment" NumberOfComponents="3" format="ascii">
                       0.00000                       0.00000                       0.00000
                       0.00000                       0.00000                       0.00000
                       0.00000                       0.00000                       0.00000
                       0.00000                       0.00000                       0.00000
                      37.64977                    1317.87516                    -134.57474
                      58.06805                    2379.94879                    -242.12719
                      62.75241                    3191.33468                    -323.30227
                      77.70917                    5290.74735                    -533.59552
                      76.47211                    7789.91738                    -782.20240
                      47.96305                    8849.62232                    -885.07619
                      18.70253                    9931.17813                    -990.05636
                      -4.16718                   10568.30397                   -1051.38687
                      -8.07989                    8020.60859                    -797.48308
                       3.56199                    7915.70422                    -788.10008
                      32.90220                    7514.36079                    -750.82237
                      70.40785                    7218.75032                    -724.80876
                      99.46052                    6348.83229                    -640.87206
                      73.18377                    3165.55699                    -321.68409
                      76.97814                    2804.29265                    -286.07536
        </DataArray>
      </PointData>
      <Lines>
        <DataArray type="Int32" Name="connectivity" format="ascii">
      0      1
      1      2
      2      3
      3      4
      4      5
      5      6
      6      7
      7      8
      8      9
      9     10
     10     11
     11     12
     12     13
     13     14
     14     15
     15     16
     16     17
     17     18
        </DataArray>
        <DataArray type="Int32" Name="offsets" format="ascii">
      2
      4
      6
      8
     10
     12
     14
     16
     18
     20
     22
     24
     26
     28
     30
     32
     34
     36
        </DataArray>
      </Lines>
    </Piece>
  </PolyData>
</VTKFile>
