<?xml version="1.0"?>
<VTKFile type="PolyData" version="0.1" byte_order="LittleEndian">
  <PolyData>
    <Piece NumberOfPoints="     19" NumberOfVerts="  0" NumberOfLines="     18"
           NumberOfStrips="  0" NumberOfPolys="      0">
      <Points>
        <DataArray type="Float32" NumberOfComponents="3" format="ascii">
                      -4.80096                       0.92075                      91.19258
                      -4.76391                       1.76303                      92.26864
                      -4.70510                       3.37343                      94.48000
                      -4.65097                       4.94974                      96.71908
                      -4.58147                       6.90133                      99.53381
                      -4.44125                       9.36015                     102.81798
                      -4.26906                      11.92486                     106.01755
                      -4.08356                      14.49475                     109.21271
                      -3.88336                      17.07097                     112.40245
                      -3.67157                      19.65168                     115.58841
                      -3.45331                      22.23371                     118.77341
                      -3.23353                      24.81797                     121.95695
                      -3.02018                      27.40432                     125.13939
                      -2.82316                      29.99279                     128.32095
                      -2.65186                      32.58340                     131.50157
                      -2.53904                      34.74429                     134.15113
                      -2.47310                      36.48056                     136.26490
                      -2.42938                      38.26105                     138.34317
                      -2.42462                      39.11980                     139.40774
        </DataArray>
      </Points>
      <PointData>
        <DataArray type="Float32" Name="TranslationalVelocity" NumberOfComponents="3" format="ascii">
                       0.23423                      -3.29392                       2.57957
                       0.44652                      -6.29517                       4.92145
                       0.85420                     -12.46100                       9.40068
                       1.25593                     -18.70649                      13.78743
                       1.75797                     -26.56411                      19.22223
                       2.39788                     -35.75630                      26.07529
                       3.07547                     -44.73042                      33.23043
                       3.76814                     -53.70503                      40.40686
                       4.47877                     -62.67701                      47.60708
                       5.20960                     -71.64933                      54.82503
                       5.96247                     -80.62761                      62.05091
                       6.74015                     -89.60813                      69.28640
                       7.54492                     -98.58894                      76.53053
                       8.37884                    -107.56720                      83.78321
                       9.24359                    -116.53982                      91.04475
                       9.98937                    -124.00924                      97.10470
                      10.60347                    -129.96366                     101.97633
                      11.24265                    -135.81451                     106.97474
                      11.55987                    -138.80750                     109.38718
        </DataArray>
        <DataArray type="Float32" Name="RotationalVelocity" NumberOfComponents="3" format="ascii">
                       2.77993                       0.00054                      -0.25117
                       2.78042                       0.00071                      -0.25132
                       2.78173                       0.00124                      -0.25180
                       2.78337                       0.00200                      -0.25249
                       2.78569                       0.00322                      -0.25360
                       2.78861                       0.00507                      -0.25525
                       2.79145                       0.00735                      -0.25722
                       2.79408                       0.01010                      -0.25949
                       2.79643                       0.01338                      -0.26206
                       2.79847                       0.01727                      -0.26493
                       2.80024                       0.02180                      -0.26813
                       2.80179                       0.02698                      -0.27162
                       2.80320                       0.03272                      -0.27540
                       2.80451                       0.03890                      -0.27940
                       2.80575                       0.04523                      -0.28352
                       2.80673                       0.05038                      -0.28694
                       2.80744                       0.05420                      -0.28960
                       2.80807                       0.05755                      -0.29210
                       2.80833                       0.05898                      -0.29326
        </DataArray>
        <DataArray type="Float32" Name="TranslationalAcceleration" NumberOfComponents="3" format="ascii">
                      -0.83271                      -7.21161                      -9.13382
                      -0.99943                      -8.71786                     -11.06482
                      -2.89736                     -24.38288                     -32.12339
                      -4.66434                     -38.49414                     -51.75163
                      -6.74980                     -54.78540                     -74.87301
                      -9.07892                     -74.19146                    -100.56234
                     -11.30762                     -93.96953                    -124.99087
                     -13.54443                    -113.79469                    -149.35127
                     -15.81110                    -133.91487                    -173.93944
                     -18.10974                    -154.38820                    -198.86034
                     -20.42836                    -175.14252                    -224.07671
                     -22.74279                    -196.06655                    -249.43539
                     -25.02636                    -217.01803                    -274.75907
                     -27.25501                    -237.88168                    -299.89913
                     -29.41344                    -258.61619                    -324.79784
                     -31.15577                    -275.85280                    -345.41978
                     -32.51447                    -289.74801                    -361.89621
                     -33.82006                    -304.15805                    -378.26989
                     -34.49919                    -311.22578                    -386.78045
        </DataArray>
        <DataArray type="Float32" Name="OrientationX" NumberOfComponents="3" format="ascii">
                       0.98409                      -0.15459                       0.08754
                       0.98408                      -0.15479                       0.08733
                       0.98402                      -0.15552                       0.08674
                       0.98390                      -0.15670                       0.08596
                       0.98367                      -0.15876                       0.08477
                       0.98844                      -0.13760                       0.06364
                       0.99105                      -0.12444                       0.04833
                       0.99274                      -0.11486                       0.03579
                       0.99408                      -0.10592                       0.02415
                       0.99507                      -0.09813                       0.01440
                       0.99564                      -0.09291                       0.00822
                       0.99599                      -0.08933                       0.00543
                       0.99606                      -0.08837                       0.00737
                       0.99569                      -0.09142                       0.01565
                       0.99518                      -0.09423                       0.02730
                       0.99468                      -0.09539                       0.03893
                       0.99421                      -0.09534                       0.04957
                       0.99334                      -0.09644                       0.06306
                       0.99265                      -0.09783                       0.07122
        </DataArray>
        <DataArray type="Float32" Name="OrientationY" NumberOfComponents="3" format="ascii">
                       0.17556                       0.77082                      -0.61239
                       0.17558                       0.77069                      -0.61255
                       0.17578                       0.77029                      -0.61299
                       0.17619                       0.76972                      -0.61358
                       0.17704                       0.76883                      -0.61445
                       0.14730                       0.77231                      -0.61794
                       0.12743                       0.77395                      -0.62029
                       0.11208                       0.77489                      -0.62209
                       0.09779                       0.77568                      -0.62351
                       0.08559                       0.77629                      -0.62454
                       0.07763                       0.77657                      -0.62523
                       0.07307                       0.77666                      -0.62567
                       0.07351                       0.77641                      -0.62592
                       0.08105                       0.77563                      -0.62596
                       0.09052                       0.77473                      -0.62578
                       0.09871                       0.77398                      -0.62546
                       0.10534                       0.77341                      -0.62509
                       0.11465                       0.77263                      -0.62442
                       0.12086                       0.77211                      -0.62389
        </DataArray>
        <DataArray type="Float32" Name="OrientationZ" NumberOfComponents="3" format="ascii">
                       0.02719                       0.61801                       0.78570
                       0.02751                       0.61813                       0.78560
                       0.02852                       0.61844                       0.78531
                       0.02999                       0.61885                       0.78494
                       0.03238                       0.61943                       0.78439
                       0.03588                       0.62017                       0.78365
                       0.03978                       0.62090                       0.78288
                       0.04372                       0.62158                       0.78213
                       0.04730                       0.62218                       0.78145
                       0.05011                       0.62269                       0.78086
                       0.05171                       0.62314                       0.78040
                       0.05167                       0.62356                       0.78007
                       0.04959                       0.62400                       0.77985
                       0.04509                       0.62453                       0.77970
                       0.03782                       0.62523                       0.77952
                       0.02953                       0.62598                       0.77928
                       0.02126                       0.62669                       0.77898
                       0.01149                       0.62749                       0.77854
                       0.00605                       0.62791                       0.77826
        </DataArray>
        <DataArray type="Float32" Name="Force" NumberOfComponents="3" format="ascii">
                      -0.74850                      10.56295                      -8.28270
                     177.37289                      92.98516                     -79.35527
                     255.29764                     273.99594                    -224.82851
                     249.44029                     413.69293                    -335.04750
                    1588.65067                    -260.16791                     139.10069
                    1562.34072                    -183.16682                      72.55837
                    1506.07813                    -110.98025                      10.74433
                    2242.81717                    -163.06303                       2.90457
                    2666.00009                    -151.44676                     -42.24772
                    2945.03084                    -128.92329                     -87.59456
                    4494.66376                    -168.20837                    -165.55013
                    4718.29955                    -137.79298                    -204.32883
                    3743.14680                     -62.15336                    -189.47408
                    2143.94509                      55.43242                    -168.02909
                    1092.92106                      78.60334                    -115.21198
                     181.71726                     176.78882                    -146.05814
                   -1424.77791                     220.07376                    -133.38658
                   -2732.32666                     201.90731                    -116.26958
                  -19374.87804                    -566.88401                     611.53464
        </DataArray>
        <DataArray type="Float32" Name="Moment" NumberOfComponents="3" format="ascii">
                       0.00000                       0.00000                       0.00000
                       0.00000                       0.00000                       0.00000
                       0.00000                       0.00000                       0.00000
                       0.00000                       0.00000                       0.00000
                     -41.84943                    -796.86017                   -1012.45600
                     -84.27835                   -1446.70226                   -1837.36708
                    -126.57636                   -1958.41836                   -2486.13755
                    -230.87221                   -3248.91665                   -4122.48834
                    -366.03024                   -4759.44105                   -6036.65000
                    -442.54698                   -5430.75297                   -6885.86113
                    -514.41211                   -6115.45481                   -7752.56881
                    -548.64804                   -6523.55856                   -8269.93074
                    -400.42529                   -4956.40463                   -6284.72993
                    -358.95688                   -4878.86378                   -6189.58934
                    -287.25054                   -4638.48566                   -5889.51454
                    -216.02216                   -4441.81130                   -5645.13206
                    -138.44409                   -3914.36718                   -4979.49184
                     -38.46171                   -1952.05952                   -2485.99097
                     -19.08241                   -1740.65893                   -2218.14253
        </DataArray>
      </PointData>
      <Lines>
        <DataArray type="Int32" Name="connectivity" format="ascii">
      0      1
      1      2
      2      3
      3      4
      4      5
      5      6
      6      7
      7      8
      8      9
      9     10
     10     11
     11     12
     12     13
     13     14
     14     15
     15     16
     16     17
     17     18
        </DataArray>
        <DataArray type="Int32" Name="offsets" format="ascii">
      2
      4
      6
      8
     10
     12
     14
     16
     18
     20
     22
     24
     26
     28
     30
     32
     34
     36
        </DataArray>
      </Lines>
    </Piece>
  </PolyData>
</VTKFile>
