<?xml version="1.0"?>
<VTKFile type="PolyData" version="0.1" byte_order="LittleEndian">
  <PolyData>
    <Piece NumberOfPoints="     22" NumberOfVerts="  0" NumberOfLines="     21"
           NumberOfStrips="  0" NumberOfPolys="      0">
      <Points>
        <DataArray type="Float32" NumberOfComponents="3" format="ascii">
                       0.00007                       0.00000                       2.19000
                       0.00070                       0.00001                       6.57000
                       0.00209                       0.00002                      10.95000
                       0.00432                       0.00004                      15.33000
                       0.00737                       0.00006                      19.71000
                       0.01125                       0.00008                      24.09000
                       0.01592                       0.00011                      28.46999
                       0.02135                       0.00013                      32.84999
                       0.02752                       0.00016                      37.22999
                       0.03444                       0.00018                      41.60998
                       0.04211                       0.00020                      45.98997
                       0.05058                       0.00021                      50.36997
                       0.05989                       0.00022                      54.74996
                       0.07006                       0.00022                      59.12994
                       0.08113                       0.00021                      63.50993
                       0.09305                       0.00020                      67.88991
                       0.10574                       0.00017                      72.26990
                       0.11902                       0.00013                      76.64988
                       0.13257                       0.00009                      81.02985
                       0.14592                       0.00004                      85.40983
                       0.15231                       0.00001                      87.59982
                       0.00000                       0.00000                       0.00000
        </DataArray>
      </Points>
      <PointData>
        <DataArray type="Float32" Name="TranslationalVelocity" NumberOfComponents="3" format="ascii">
                       0.00003                       0.00001                      -0.00000
                       0.00024                       0.00006                      -0.00000
                       0.00067                       0.00016                      -0.00000
                       0.00130                       0.00030                      -0.00000
                       0.00211                       0.00048                      -0.00000
                       0.00304                       0.00070                      -0.00000
                       0.00404                       0.00095                      -0.00000
                       0.00506                       0.00124                      -0.00000
                       0.00603                       0.00156                      -0.00001
                       0.00689                       0.00193                      -0.00001
                       0.00758                       0.00233                      -0.00001
                       0.00803                       0.00276                      -0.00001
                       0.00821                       0.00323                      -0.00001
                       0.00806                       0.00374                      -0.00001
                       0.00757                       0.00428                      -0.00001
                       0.00671                       0.00484                      -0.00001
                       0.00549                       0.00544                      -0.00000
                       0.00393                       0.00605                       0.00000
                       0.00206                       0.00668                       0.00001
                      -0.00005                       0.00732                       0.00002
                      -0.00117                       0.00764                       0.00002
                       0.00000                      -0.00000                       0.00000
        </DataArray>
        <DataArray type="Float32" Name="RotationalVelocity" NumberOfComponents="3" format="ascii">
                      -0.00001                       0.00002                       0.00000
                      -0.00002                       0.00007                       0.00000
                      -0.00003                       0.00012                       0.00000
                      -0.00004                       0.00017                       0.00000
                      -0.00005                       0.00020                       0.00000
                      -0.00005                       0.00022                       0.00000
                      -0.00006                       0.00023                       0.00000
                      -0.00007                       0.00023                       0.00000
                      -0.00008                       0.00021                       0.00000
                      -0.00009                       0.00018                       0.00000
                      -0.00010                       0.00013                       0.00000
                      -0.00010                       0.00007                       0.00000
                      -0.00011                       0.00000                       0.00000
                      -0.00012                      -0.00007                       0.00000
                      -0.00013                      -0.00015                       0.00000
                      -0.00013                      -0.00024                       0.00000
                      -0.00014                      -0.00032                       0.00000
                      -0.00014                      -0.00039                       0.00000
                      -0.00015                      -0.00046                       0.00000
                      -0.00015                      -0.00051                       0.00000
                      -0.00015                      -0.00052                       0.00000
                       0.00000                      -0.00000                       0.00000
        </DataArray>
        <DataArray type="Float32" Name="TranslationalAcceleration" NumberOfComponents="3" format="ascii">
                      -0.00014                      -0.00009                       0.00000
                      -0.00127                      -0.00078                       0.00000
                      -0.00354                      -0.00202                       0.00000
                      -0.00684                      -0.00372                       0.00000
                      -0.01101                      -0.00577                       0.00001
                      -0.01580                      -0.00810                       0.00001
                      -0.02090                      -0.01063                       0.00001
                      -0.02600                      -0.01327                       0.00002
                      -0.03073                      -0.01594                       0.00003
                      -0.03473                      -0.01852                       0.00003
                      -0.03766                      -0.02094                       0.00004
                      -0.03919                      -0.02306                       0.00004
                      -0.03904                      -0.02479                       0.00004
                      -0.03697                      -0.02602                       0.00004
                      -0.03283                      -0.02666                       0.00002
                      -0.02653                      -0.02663                       0.00001
                      -0.01809                      -0.02590                      -0.00002
                      -0.00764                      -0.02446                      -0.00005
                       0.00456                      -0.02239                      -0.00009
                       0.01814                      -0.01980                      -0.00013
                       0.02528                      -0.01839                      -0.00015
                       0.00000                      -0.00000                       0.00000
        </DataArray>
        <DataArray type="Float32" Name="RotationalAcceleration" NumberOfComponents="3" format="ascii">
                       0.00008                      -0.00013                       0.00000
                       0.00022                      -0.00039                       0.00000
                       0.00034                      -0.00064                       0.00000
                       0.00043                      -0.00086                       0.00000
                       0.00050                      -0.00103                       0.00000
                       0.00056                      -0.00114                       0.00000
                       0.00059                      -0.00118                       0.00000
                       0.00061                      -0.00114                       0.00000
                       0.00060                      -0.00101                       0.00000
                       0.00058                      -0.00080                       0.00000
                       0.00052                      -0.00052                       0.00000
                       0.00044                      -0.00017                       0.00000
                       0.00034                       0.00025                       0.00000
                       0.00022                       0.00070                       0.00000
                       0.00007                       0.00119                       0.00000
                      -0.00009                       0.00168                       0.00000
                      -0.00025                       0.00216                       0.00000
                      -0.00040                       0.00260                       0.00000
                      -0.00054                       0.00296                       0.00000
                      -0.00063                       0.00322                       0.00000
                      -0.00066                       0.00330                       0.00000
                       0.00000                      -0.00000                       0.00000
        </DataArray>
        <DataArray type="Float32" Name="OrientationX" NumberOfComponents="3" format="ascii">
                       1.00000                      -0.00000                      -0.00007
                       1.00000                      -0.00000                      -0.00023
                       1.00000                      -0.00000                      -0.00041
                       1.00000                      -0.00000                      -0.00060
                       1.00000                      -0.00000                      -0.00079
                       1.00000                      -0.00000                      -0.00098
                       1.00000                      -0.00000                      -0.00115
                       1.00000                      -0.00000                      -0.00132
                       1.00000                      -0.00000                      -0.00149
                       1.00000                      -0.00000                      -0.00166
                       1.00000                      -0.00000                      -0.00184
                       1.00000                      -0.00000                      -0.00203
                       1.00000                      -0.00000                      -0.00222
                       1.00000                       0.00000                      -0.00242
                       1.00000                       0.00000                      -0.00263
                       1.00000                       0.00000                      -0.00282
                       1.00000                       0.00000                      -0.00297
                       1.00000                       0.00000                      -0.00308
                       1.00000                       0.00000                      -0.00309
                       1.00000                       0.00000                      -0.00298
                       1.00000                       0.00000                      -0.00285
                       1.00000                      -0.00000                       0.00000
        </DataArray>
        <DataArray type="Float32" Name="OrientationY" NumberOfComponents="3" format="ascii">
                      -0.00000                       1.00000                      -0.00000
                      -0.00000                       1.00000                      -0.00000
                      -0.00000                       1.00000                      -0.00000
                      -0.00000                       1.00000                      -0.00000
                      -0.00000                       1.00000                      -0.00001
                      -0.00000                       1.00000                      -0.00001
                      -0.00000                       1.00000                      -0.00001
                      -0.00000                       1.00000                      -0.00001
                      -0.00000                       1.00000                      -0.00001
                      -0.00000                       1.00000                      -0.00000
                      -0.00000                       1.00000                      -0.00000
                      -0.00000                       1.00000                      -0.00000
                      -0.00000                       1.00000                      -0.00000
                       0.00000                       1.00000                       0.00000
                       0.00000                       1.00000                       0.00000
                       0.00000                       1.00000                       0.00000
                       0.00000                       1.00000                       0.00001
                       0.00000                       1.00000                       0.00001
                       0.00000                       1.00000                       0.00001
                       0.00000                       1.00000                       0.00001
                       0.00000                       1.00000                       0.00001
                      -0.00000                       1.00000                      -0.00000
        </DataArray>
        <DataArray type="Float32" Name="OrientationZ" NumberOfComponents="3" format="ascii">
                       0.00007                       0.00000                       1.00000
                       0.00023                       0.00000                       1.00000
                       0.00041                       0.00000                       1.00000
                       0.00060                       0.00000                       1.00000
                       0.00079                       0.00001                       1.00000
                       0.00098                       0.00001                       1.00000
                       0.00115                       0.00001                       1.00000
                       0.00132                       0.00001                       1.00000
                       0.00149                       0.00001                       1.00000
                       0.00166                       0.00000                       1.00000
                       0.00184                       0.00000                       1.00000
                       0.00203                       0.00000                       1.00000
                       0.00222                       0.00000                       1.00000
                       0.00242                      -0.00000                       1.00000
                       0.00263                      -0.00000                       1.00000
                       0.00282                      -0.00000                       1.00000
                       0.00297                      -0.00001                       1.00000
                       0.00308                      -0.00001                       1.00000
                       0.00309                      -0.00001                       1.00000
                       0.00298                      -0.00001                       1.00000
                       0.00285                      -0.00001                       1.00000
                       0.00000                      -0.00000                       1.00000
        </DataArray>
      </PointData>
      <Lines>
        <DataArray type="Int32" Name="connectivity" format="ascii">
      0      1
      1      2
      2      3
      3      4
      4      5
      5      6
      6      7
      7      8
      8      9
      9     10
     10     11
     11     12
     12     13
     13     14
     14     15
     15     16
     16     17
     17     18
     18     19
     19     20
     21      0
        </DataArray>
        <DataArray type="Int32" Name="offsets" format="ascii">
      2
      4
      6
      8
     10
     12
     14
     16
     18
     20
     22
     24
     26
     28
     30
     32
     34
     36
     38
     40
     42
        </DataArray>
      </Lines>
    </Piece>
  </PolyData>
</VTKFile>
