<?xml version="1.0"?>
<VTKFile type="PolyData" version="0.1" byte_order="LittleEndian">
  <PolyData>
    <Piece NumberOfPoints="    550" NumberOfVerts="  0" NumberOfLines="     21"
           NumberOfStrips="  0" NumberOfPolys="    567">
      <Points>
        <DataArray type="Float32" NumberOfComponents="3" format="ascii">
                       2.97345                      -0.00000                       2.18979
                       2.88003                       0.73945                       2.18980
                       2.60566                       1.43243                       2.18982
                       2.16757                       2.03541                       2.18985
                       1.59329                       2.51050                       2.18989
                       0.91890                       2.82785                       2.18994
                       0.18677                       2.96751                       2.18999
                      -0.55708                       2.92071                       2.19004
                      -1.26593                       2.69039                       2.19009
                      -1.89523                       2.29102                       2.19013
                      -2.40544                       1.74771                       2.19017
                      -2.76450                       1.09457                       2.19019
                      -2.94986                       0.37266                       2.19020
                      -2.94986                      -0.37266                       2.19020
                      -2.76450                      -1.09457                       2.19019
                      -2.40544                      -1.74771                       2.19017
                      -1.89523                      -2.29103                       2.19013
                      -1.26593                      -2.69039                       2.19009
                      -0.55708                      -2.92071                       2.19004
                       0.18677                      -2.96751                       2.18999
                       0.91890                      -2.82785                       2.18993
                       1.59329                      -2.51050                       2.18989
                       2.16757                      -2.03542                       2.18985
                       2.60566                      -1.43244                       2.18982
                       2.88003                      -0.73945                       2.18980
                       2.92086                      -0.00001                       6.56930
                       2.82912                       0.72620                       6.56933
                       2.55966                       1.40678                       6.56939
                       2.12941                       1.99896                       6.56950
                       1.56542                       2.46554                       6.56963
                       0.90310                       2.77720                       6.56979
                       0.18409                       2.91436                       6.56996
                      -0.54644                       2.86840                       6.57014
                      -1.24259                       2.64220                       6.57030
                      -1.86062                       2.24999                       6.57045
                      -2.36170                       1.71640                       6.57057
                      -2.71433                       1.07496                       6.57065
                      -2.89636                       0.36598                       6.57069
                      -2.89636                      -0.36599                       6.57069
                      -2.71433                      -1.07498                       6.57065
                      -2.36170                      -1.71641                       6.57056
                      -1.86062                      -2.25000                       6.57044
                      -1.24260                      -2.64221                       6.57029
                      -0.54644                      -2.86841                       6.57013
                       0.18409                      -2.91437                       6.56995
                       0.90310                      -2.77721                       6.56978
                       1.56541                      -2.46555                       6.56962
                       2.12941                      -1.99897                       6.56949
                       2.55966                      -1.40679                       6.56939
                       2.82912                      -0.72621                       6.56932
                       2.86907                      -0.00002                      10.94876
                       2.77900                       0.71295                      10.94880
                       2.51446                       1.38111                      10.94892
                       2.09206                       1.96250                      10.94910
                       1.53834                       2.42057                      10.94934
                       0.88811                       2.72654                      10.94963
                       0.18221                       2.86120                      10.94993
                      -0.53500                       2.81608                      10.95024
                      -1.21846                       2.59401                      10.95053
                      -1.82522                       2.20895                      10.95079
                      -2.31716                       1.68509                      10.95100
                      -2.66336                       1.05535                      10.95115
                      -2.84207                       0.35930                      10.95123
                      -2.84207                      -0.35933                      10.95123
                      -2.66336                      -1.05538                      10.95115
                      -2.31716                      -1.68512                      10.95100
                      -1.82522                      -2.20898                      10.95078
                      -1.21846                      -2.59404                      10.95052
                      -0.53500                      -2.81611                      10.95022
                       0.18221                      -2.86123                      10.94991
                       0.88811                      -2.72658                      10.94961
                       1.53834                      -2.42060                      10.94933
                       2.09206                      -1.96253                      10.94909
                       2.51446                      -1.38114                      10.94891
                       2.77900                      -0.71298                      10.94880
                       2.81815                      -0.00003                      15.32822
                       2.72975                       0.69969                      15.32828
                       2.47012                       1.35544                      15.32845
                       2.05557                       1.92603                      15.32871
                       1.51214                       2.37559                      15.32905
                       0.87398                       2.67589                      15.32946
                       0.18119                       2.80804                      15.32990
                      -0.52270                       2.76376                      15.33034
                      -1.19346                       2.54581                      15.33077
                      -1.78895                       2.16791                      15.33114
                      -2.27175                       1.65378                      15.33144
                      -2.61152                       1.03574                      15.33166
                      -2.78692                       0.35261                      15.33177
                      -2.78692                      -0.35267                      15.33176
                      -2.61152                      -1.03579                      15.33165
                      -2.27175                      -1.65384                      15.33143
                      -1.78895                      -2.16797                      15.33112
                      -1.19346                      -2.54587                      15.33075
                      -0.52270                      -2.76382                      15.33032
                       0.18119                      -2.80810                      15.32988
                       0.87398                      -2.67595                      15.32944
                       1.51214                      -2.37565                      15.32904
                       2.05557                      -1.92609                      15.32870
                       2.47012                      -1.35550                      15.32844
                       2.72975                      -0.69975                      15.32827
                       2.76810                      -0.00005                      19.70770
                       2.68138                       0.68643                      19.70778
                       2.42666                       1.32977                      19.70799
                       2.01996                       1.88956                      19.70833
                       1.48681                       2.33061                      19.70878
                       0.86073                       2.62522                      19.70930
                       0.18106                       2.75488                      19.70987
                      -0.50951                       2.71143                      19.71044
                      -1.16758                       2.49761                      19.71099
                      -1.75180                       2.12686                      19.71147
                      -2.22546                       1.62246                      19.71186
                      -2.55880                       1.01611                      19.71214
                      -2.73088                       0.34592                      19.71228
                      -2.73088                      -0.34601                      19.71227
                      -2.55880                      -1.01621                      19.71213
                      -2.22546                      -1.62256                      19.71185
                      -1.75180                      -2.12695                      19.71145
                      -1.16758                      -2.49771                      19.71096
                      -0.50951                      -2.71153                      19.71041
                       0.18106                      -2.75498                      19.70984
                       0.86073                      -2.62532                      19.70928
                       1.48681                      -2.33071                      19.70876
                       2.01996                      -1.88966                      19.70832
                       2.42666                      -1.32987                      19.70798
                       2.68138                      -0.68653                      19.70777
                       2.71892                      -0.00007                      24.08722
                       2.63387                       0.67316                      24.08731
                       2.38407                       1.30410                      24.08757
                       1.98520                       1.85308                      24.08799
                       1.46235                       2.28563                      24.08852
                       0.84834                       2.57456                      24.08915
                       0.18178                       2.70171                      24.08984
                      -0.49547                       2.65910                      24.09053
                      -1.14084                       2.44941                      24.09119
                      -1.71379                       2.08580                      24.09178
                      -2.17831                       1.59114                      24.09225
                      -2.50522                       0.99649                      24.09258
                      -2.67398                       0.33922                      24.09275
                      -2.67398                      -0.33936                      24.09274
                      -2.50522                      -0.99663                      24.09257
                      -2.17831                      -1.59128                      24.09223
                      -1.71379                      -2.08595                      24.09175
                      -1.14084                      -2.44955                      24.09116
                      -0.49547                      -2.65925                      24.09050
                       0.18178                      -2.70186                      24.08981
                       0.84834                      -2.57470                      24.08912
                       1.46235                      -2.28577                      24.08850
                       1.98520                      -1.85323                      24.08796
                       2.38407                      -1.30424                      24.08756
                       2.63387                      -0.67331                      24.08731
                       2.67056                      -0.00010                      28.46678
                       2.58719                       0.65989                      28.46689
                       2.34230                       1.27841                      28.46719
                       1.95128                       1.81660                      28.46767
                       1.43871                       2.24064                      28.46829
                       0.83678                       2.52388                      28.46902
                       0.18333                       2.64854                      28.46981
                      -0.48060                       2.60677                      28.47061
                      -1.11327                       2.40120                      28.47138
                      -1.67495                       2.04474                      28.47205
                      -2.13034                       1.55981                      28.47260
                      -2.45082                       0.97685                      28.47298
                      -2.61626                       0.33252                      28.47318
                      -2.61626                      -0.33272                      28.47318
                      -2.45082                      -0.97706                      28.47297
                      -2.13034                      -1.56001                      28.47258
                      -1.67495                      -2.04495                      28.47202
                      -1.11327                      -2.40140                      28.47134
                      -0.48060                      -2.60697                      28.47057
                       0.18333                      -2.64874                      28.46977
                       0.83678                      -2.52409                      28.46898
                       1.43871                      -2.24084                      28.46826
                       1.95128                      -1.81680                      28.46764
                       2.34230                      -1.27862                      28.46717
                       2.58719                      -0.66009                      28.46688
                       2.62301                      -0.00014                      32.84638
                       2.54130                       0.64661                      32.84650
                       2.30133                       1.25272                      32.84684
                       1.91816                       1.78011                      32.84737
                       1.41587                       2.19564                      32.84807
                       0.82602                       2.47320                      32.84890
                       0.18568                       2.59535                      32.84979
                      -0.46493                       2.55442                      32.85069
                      -1.08491                       2.35298                      32.85155
                      -1.63532                       2.00368                      32.85231
                      -2.08157                       1.52847                      32.85293
                      -2.39561                       0.95722                      32.85336
                      -2.55773                       0.32581                      32.85358
                      -2.55773                      -0.32608                      32.85357
                      -2.39561                      -0.95749                      32.85334
                      -2.08156                      -1.52875                      32.85290
                      -1.63532                      -2.00395                      32.85227
                      -1.08491                      -2.35325                      32.85151
                      -0.46493                      -2.55470                      32.85064
                       0.18568                      -2.59563                      32.84974
                       0.82602                      -2.47348                      32.84885
                       1.41587                      -2.19592                      32.84803
                       1.91815                      -1.78039                      32.84734
                       2.30133                      -1.25300                      32.84681
                       2.54130                      -0.64689                      32.84648
                       2.57623                      -0.00018                      37.22599
                       2.49620                       0.63332                      37.22613
                       2.26113                       1.22702                      37.22650
                       1.88581                       1.74362                      37.22710
                       1.39381                       2.15064                      37.22787
                       0.81604                       2.42251                      37.22878
                       0.18881                       2.54217                      37.22976
                      -0.44847                       2.50207                      37.23076
                      -1.05576                       2.30475                      37.23171
                      -1.59490                       1.96260                      37.23255
                      -2.03201                       1.49713                      37.23323
                      -2.33963                       0.93757                      37.23370
                      -2.49843                       0.31909                      37.23395
                      -2.49843                      -0.31945                      37.23394
                      -2.33963                      -0.93793                      37.23368
                      -2.03201                      -1.49749                      37.23320
                      -1.59490                      -1.96297                      37.23251
                      -1.05576                      -2.30512                      37.23166
                      -0.44848                      -2.50244                      37.23070
                       0.18881                      -2.54253                      37.22971
                       0.81604                      -2.42288                      37.22872
                       1.39380                      -2.15100                      37.22782
                       1.88581                      -1.74398                      37.22706
                       2.26113                      -1.22739                      37.22647
                       2.49620                      -0.63369                      37.22611
                       2.53023                      -0.00024                      41.60562
                       2.45187                       0.62003                      41.60577
                       2.22172                       1.20132                      41.60618
                       1.85424                       1.70711                      41.60683
                       1.37252                       2.10562                      41.60767
                       0.80683                       2.37182                      41.60866
                       0.19271                       2.48897                      41.60974
                      -0.43124                       2.44971                      41.61083
                      -1.02584                       2.25652                      41.61186
                      -1.55370                       1.92152                      41.61278
                      -1.98168                       1.46577                      41.61352
                      -2.28287                       0.91791                      41.61404
                      -2.43835                       0.31236                      41.61430
                      -2.43835                      -0.31283                      41.61430
                      -2.28287                      -0.91838                      41.61402
                      -1.98168                      -1.46625                      41.61348
                      -1.55370                      -1.92199                      41.61273
                      -1.02584                      -2.25699                      41.61180
                      -0.43124                      -2.45018                      41.61076
                       0.19271                      -2.48944                      41.60967
                       0.80683                      -2.37229                      41.60860
                       1.37252                      -2.10609                      41.60762
                       1.85424                      -1.70758                      41.60678
                       2.22172                      -1.20179                      41.60615
                       2.45187                      -0.62050                      41.60575
                       2.48503                      -0.00030                      45.98526
                       2.40835                       0.60672                      45.98541
                       2.18311                       1.17560                      45.98586
                       1.82348                       1.67060                      45.98656
                       1.35204                       2.06060                      45.98748
                       0.79843                       2.32111                      45.98855
                       0.19742                       2.43576                      45.98971
                      -0.41321                       2.39734                      45.99089
                      -0.99511                       2.20827                      45.99201
                      -1.51171                       1.88043                      45.99301
                      -1.93055                       1.43441                      45.99381
                      -2.22530                       0.89825                      45.99437
                      -2.37746                       0.30562                      45.99465
                      -2.37746                      -0.30622                      45.99465
                      -2.22530                      -0.89884                      45.99434
                      -1.93055                      -1.43501                      45.99376
                      -1.51171                      -1.88102                      45.99295
                      -0.99511                      -2.20887                      45.99195
                      -0.41321                      -2.39794                      45.99082
                       0.19742                      -2.43636                      45.98964
                       0.79843                      -2.32171                      45.98848
                       1.35204                      -2.06120                      45.98741
                       1.82348                      -1.67119                      45.98651
                       2.18311                      -1.17620                      45.98582
                       2.40835                      -0.60732                      45.98539
                       2.44067                      -0.00037                      50.36488
                       2.36566                       0.59341                      50.36505
                       2.14533                       1.14988                      50.36553
                       1.79355                       1.63407                      50.36629
                       1.33240                       2.01557                      50.36728
                       0.79086                       2.27040                      50.36843
                       0.20297                       2.38254                      50.36969
                      -0.39435                       2.34496                      50.37096
                      -0.96355                       2.16002                      50.37216
                      -1.46888                       1.83933                      50.37323
                      -1.87858                       1.40304                      50.37410
                      -2.16691                       0.87857                      50.37470
                      -2.31575                       0.29888                      50.37501
                      -2.31575                      -0.29962                      50.37500
                      -2.16691                      -0.87931                      50.37467
                      -1.87858                      -1.40378                      50.37405
                      -1.46888                      -1.84007                      50.37317
                      -0.96355                      -2.16076                      50.37209
                      -0.39435                      -2.34570                      50.37087
                       0.20297                      -2.38328                      50.36960
                       0.79086                      -2.27114                      50.36835
                       1.33240                      -2.01631                      50.36720
                       1.79355                      -1.63481                      50.36623
                       2.14533                      -1.15062                      50.36549
                       2.36566                      -0.59415                      50.36503
                       2.39718                      -0.00046                      54.74451
                       2.32384                       0.58008                      54.74469
                       2.10843                       1.12414                      54.74520
                       1.76449                       1.59753                      54.74602
                       1.31363                       1.97052                      54.74707
                       0.78417                       2.21967                      54.74831
                       0.20939                       2.32931                      54.74966
                      -0.37461                       2.29257                      54.75102
                      -0.93111                       2.11175                      54.75231
                      -1.42517                       1.79821                      54.75346
                      -1.82573                       1.37166                      54.75438
                      -2.10763                       0.85888                      54.75503
                      -2.25315                       0.29212                      54.75536
                      -2.25315                      -0.29303                      54.75535
                      -2.10763                      -0.85980                      54.75500
                      -1.82573                      -1.37257                      54.75433
                      -1.42517                      -1.79912                      54.75338
                      -0.93112                      -2.11266                      54.75223
                      -0.37461                      -2.29348                      54.75092
                       0.20939                      -2.33022                      54.74956
                       0.78417                      -2.22058                      54.74822
                       1.31363                      -1.97143                      54.74699
                       1.76449                      -1.59845                      54.74595
                       2.10843                      -1.12505                      54.74516
                       2.32384                      -0.58099                      54.74467
                       2.35461                      -0.00055                      59.12413
                       2.28294                       0.56674                      59.12433
                       2.07245                       1.09839                      59.12488
                       1.73635                       1.56099                      59.12574
                       1.29577                       1.92547                      59.12687
                       0.77839                       2.16893                      59.12820
                       0.21672                       2.27607                      59.12963
                      -0.35395                       2.24017                      59.13108
                      -0.89776                       2.06347                      59.13246
                      -1.38055                       1.75708                      59.13368
                      -1.77197                       1.34026                      59.13467
                      -2.04744                       0.83919                      59.13535
                      -2.18964                       0.28535                      59.13570
                      -2.18964                      -0.28645                      59.13569
                      -2.04744                      -0.84029                      59.13532
                      -1.77197                      -1.34136                      59.13460
                      -1.38055                      -1.75819                      59.13360
                      -0.89776                      -2.06458                      59.13236
                      -0.35395                      -2.24127                      59.13097
                       0.21672                      -2.27718                      59.12952
                       0.77839                      -2.17003                      59.12809
                       1.29577                      -1.92657                      59.12678
                       1.73635                      -1.56209                      59.12567
                       2.07245                      -1.09949                      59.12483
                       2.28294                      -0.56785                      59.12430
                       2.31297                      -0.00066                      63.50378
                       2.24297                       0.55339                      63.50399
                       2.03739                       1.07263                      63.50457
                       1.70915                       1.52442                      63.50549
                       1.27885                       1.88040                      63.50668
                       0.77355                       2.11817                      63.50808
                       0.22499                       2.22282                      63.50960
                      -0.33236                       2.18775                      63.51113
                      -0.86348                       2.01518                      63.51259
                      -1.33500                       1.71595                      63.51388
                      -1.71728                       1.30885                      63.51492
                      -1.98632                       0.81947                      63.51565
                      -2.12520                       0.27856                      63.51602
                      -2.12520                      -0.27989                      63.51601
                      -1.98632                      -0.82080                      63.51561
                      -1.71728                      -1.31017                      63.51486
                      -1.33499                      -1.71727                      63.51379
                      -0.86348                      -2.01650                      63.51248
                      -0.33236                      -2.18908                      63.51102
                       0.22499                      -2.22414                      63.50948
                       0.77355                      -2.11950                      63.50797
                       1.27885                      -1.88172                      63.50658
                       1.70914                      -1.52575                      63.50541
                       2.03739                      -1.07395                      63.50451
                       2.24297                      -0.55471                      63.50396
                       2.27223                      -0.00078                      67.88348
                       2.20391                       0.54002                      67.88370
                       2.00325                       1.04685                      67.88430
                       1.68284                       1.48785                      67.88526
                       1.26283                       1.83531                      67.88652
                       0.76961                       2.06741                      67.88798
                       0.23416                       2.16955                      67.88956
                      -0.30987                       2.13532                      67.89117
                      -0.82829                       1.96688                      67.89270
                      -1.28854                       1.67479                      67.89405
                      -1.66169                       1.27743                      67.89514
                      -1.92429                       0.79975                      67.89590
                      -2.05985                       0.27177                      67.89629
                      -2.05985                      -0.27334                      67.89627
                      -1.92429                      -0.80132                      67.89586
                      -1.66169                      -1.27900                      67.89507
                      -1.28854                      -1.67636                      67.89395
                      -0.82829                      -1.96844                      67.89258
                      -0.30987                      -2.13689                      67.89105
                       0.23416                      -2.17112                      67.88944
                       0.76961                      -2.06897                      67.88786
                       1.26283                      -1.83688                      67.88641
                       1.68284                      -1.48942                      67.88518
                       2.00325                      -1.04842                      67.88424
                       2.20391                      -0.54159                      67.88366
                       2.23231                      -0.00092                      72.26326
                       2.16566                       0.52665                      72.26349
                       1.96991                       1.02106                      72.26411
                       1.65735                       1.45126                      72.26510
                       1.24762                       1.79022                      72.26639
                       0.76648                       2.01663                      72.26790
                       0.24414                       2.11627                      72.26954
                      -0.28656                       2.08288                      72.27119
                      -0.79229                       1.91856                      72.27277
                      -1.24127                       1.63363                      72.27416
                      -1.60528                       1.24599                      72.27528
                      -1.86145                       0.78001                      72.27607
                      -1.99370                       0.26496                      72.27646
                      -1.99370                      -0.26680                      72.27645
                      -1.86145                      -0.78185                      72.27602
                      -1.60528                      -1.24783                      72.27520
                      -1.24127                      -1.63547                      72.27405
                      -0.79229                      -1.92040                      72.27264
                      -0.28656                      -2.08472                      72.27106
                       0.24414                      -2.11811                      72.26940
                       0.76648                      -2.01847                      72.26777
                       1.24762                      -1.79205                      72.26628
                       1.65735                      -1.45310                      72.26501
                       1.96991                      -1.02290                      72.26405
                       2.16566                      -0.52848                      72.26345
                       2.19299                      -0.00106                      76.64318
                       2.12802                       0.51326                      76.64341
                       1.93718                       0.99526                      76.64404
                       1.63247                       1.41467                      76.64504
                       1.23303                       1.74511                      76.64634
                       0.76396                       1.96584                      76.64787
                       0.25474                       2.06298                      76.64951
                      -0.26265                       2.03043                      76.65118
                      -0.75568                       1.87023                      76.65277
                      -1.19338                       1.59245                      76.65418
                      -1.54826                       1.21455                      76.65531
                      -1.79800                       0.76026                      76.65610
                      -1.92693                       0.25814                      76.65650
                      -1.92693                      -0.26027                      76.65648
                      -1.79800                      -0.76239                      76.65605
                      -1.54826                      -1.21668                      76.65523
                      -1.19338                      -1.59458                      76.65407
                      -0.75568                      -1.87236                      76.65264
                      -0.26265                      -2.03256                      76.65104
                       0.25474                      -2.06511                      76.64937
                       0.76396                      -1.96797                      76.64773
                       1.23303                      -1.74724                      76.64622
                       1.63247                      -1.41679                      76.64494
                       1.93718                      -0.99739                      76.64397
                       2.12802                      -0.51538                      76.64337
                       2.15397                      -0.00122                      81.02330
                       2.09067                       0.49986                      81.02352
                       1.90475                       0.96946                      81.02414
                       1.60788                       1.37806                      81.02512
                       1.21873                       1.70000                      81.02640
                       0.76174                       1.91504                      81.02789
                       0.26562                       2.00968                      81.02950
                      -0.23844                       1.97797                      81.03114
                      -0.71878                       1.82190                      81.03269
                      -1.14521                       1.55127                      81.03407
                      -1.49095                       1.18310                      81.03518
                      -1.73426                       0.74051                      81.03595
                      -1.85987                       0.25131                      81.03634
                      -1.85987                      -0.25375                      81.03632
                      -1.73427                      -0.74294                      81.03590
                      -1.49095                      -1.18553                      81.03509
                      -1.14521                      -1.55371                      81.03395
                      -0.71878                      -1.82433                      81.03256
                      -0.23844                      -1.98040                      81.03099
                       0.26562                      -2.01212                      81.02936
                       0.76174                      -1.91748                      81.02775
                       1.21873                      -1.70243                      81.02627
                       1.60788                      -1.38050                      81.02502
                       1.90475                      -0.97189                      81.02407
                       2.09067                      -0.50230                      81.02348
                       2.11474                      -0.00138                      85.40369
                       2.05311                       0.48646                      85.40390
                       1.87210                       0.94364                      85.40448
                       1.58308                       1.34144                      85.40540
                       1.20421                       1.65487                      85.40660
                       0.75930                       1.86424                      85.40799
                       0.27629                       1.95637                      85.40951
                      -0.21445                       1.92550                      85.41104
                      -0.68209                       1.77355                      85.41249
                      -1.09726                       1.51008                      85.41378
                      -1.43386                       1.15163                      85.41482
                      -1.67074                       0.72074                      85.41554
                      -1.79302                       0.24448                      85.41591
                      -1.79302                      -0.24724                      85.41589
                      -1.67074                      -0.72350                      85.41549
                      -1.43386                      -1.15440                      85.41473
                      -1.09726                      -1.51284                      85.41367
                      -0.68209                      -1.77631                      85.41236
                      -0.21445                      -1.92826                      85.41089
                       0.27629                      -1.95913                      85.40936
                       0.75930                      -1.86700                      85.40785
                       1.20421                      -1.65764                      85.40647
                       1.58308                      -1.34421                      85.40530
                       1.87210                      -0.94640                      85.40441
                       2.05311                      -0.48922                      85.40386
                       2.09483                      -0.00146                      87.59401
                       2.03404                       0.47975                      87.59421
                       1.85548                       0.93073                      87.59476
                       1.57038                       1.32313                      87.59563
                       1.19666                       1.63231                      87.59676
                       0.75778                       1.83883                      87.59809
                       0.28133                       1.92972                      87.59952
                      -0.20275                       1.89926                      87.60097
                      -0.66404                       1.74938                      87.60234
                      -1.07357                       1.48948                      87.60356
                      -1.40561                       1.13590                      87.60454
                      -1.63927                       0.71086                      87.60522
                      -1.75990                       0.24106                      87.60557
                      -1.75990                      -0.24398                      87.60555
                      -1.63927                      -0.71379                      87.60517
                      -1.40561                      -1.13883                      87.60445
                      -1.07357                      -1.49241                      87.60345
                      -0.66404                      -1.75230                      87.60221
                      -0.20275                      -1.90219                      87.60082
                       0.28133                      -1.93265                      87.59937
                       0.75778                      -1.84176                      87.59794
                       1.19665                      -1.63524                      87.59664
                       1.57038                      -1.32606                      87.59553
                       1.85548                      -0.93366                      87.59469
                       2.03403                      -0.48268                      87.59417
                       3.00000                       0.00000                       0.00000
                       2.90575                       0.74607                       0.00000
                       2.62892                       1.44526                       0.00000
                       2.18691                       2.05364                       0.00000
                       1.60748                       2.53298                       0.00000
                       0.92705                       2.85317                       0.00000
                       0.18837                       2.99408                       0.00000
                      -0.56214                       2.94686                       0.00000
                      -1.27734                       2.71448                       0.00000
                      -1.91227                       2.31154                       0.00000
                      -2.42705                       1.76336                       0.00000
                      -2.78933                       1.10437                       0.00000
                      -2.97634                       0.37600                       0.00000
                      -2.97634                      -0.37600                       0.00000
                      -2.78933                      -1.10437                       0.00000
                      -2.42705                      -1.76336                       0.00000
                      -1.91227                      -2.31154                       0.00000
                      -1.27734                      -2.71448                       0.00000
                      -0.56214                      -2.94686                       0.00000
                       0.18837                      -2.99408                       0.00000
                       0.92705                      -2.85317                       0.00000
                       1.60748                      -2.53298                       0.00000
                       2.18691                      -2.05364                       0.00000
                       2.62892                      -1.44526                       0.00000
                       2.90575                      -0.74607                       0.00000
        </DataArray>
      </Points>
      <Polys>
        <DataArray type="Int32" Name="connectivity" format="ascii">
      0      1     26     25
      1      2     27     26
      2      3     28     27
      3      4     29     28
      4      5     30     29
      5      6     31     30
      6      7     32     31
      7      8     33     32
      8      9     34     33
      9     10     35     34
     10     11     36     35
     11     12     37     36
     12     13     38     37
     13     14     39     38
     14     15     40     39
     15     16     41     40
     16     17     42     41
     17     18     43     42
     18     19     44     43
     19     20     45     44
     20     21     46     45
     21     22     47     46
     22     23     48     47
     23     24     49     48
     24      0     25     49
     24     23     22     21     20     19     18     17     16     15     14     13     12     11     10      9      8      7      6      5      4      3      2      1      0
     25     26     27     28     29     30     31     32     33     34     35     36     37     38     39     40     41     42     43     44     45     46     47     48     49
     25     26     51     50
     26     27     52     51
     27     28     53     52
     28     29     54     53
     29     30     55     54
     30     31     56     55
     31     32     57     56
     32     33     58     57
     33     34     59     58
     34     35     60     59
     35     36     61     60
     36     37     62     61
     37     38     63     62
     38     39     64     63
     39     40     65     64
     40     41     66     65
     41     42     67     66
     42     43     68     67
     43     44     69     68
     44     45     70     69
     45     46     71     70
     46     47     72     71
     47     48     73     72
     48     49     74     73
     49     25     50     74
     49     48     47     46     45     44     43     42     41     40     39     38     37     36     35     34     33     32     31     30     29     28     27     26     25
     50     51     52     53     54     55     56     57     58     59     60     61     62     63     64     65     66     67     68     69     70     71     72     73     74
     50     51     76     75
     51     52     77     76
     52     53     78     77
     53     54     79     78
     54     55     80     79
     55     56     81     80
     56     57     82     81
     57     58     83     82
     58     59     84     83
     59     60     85     84
     60     61     86     85
     61     62     87     86
     62     63     88     87
     63     64     89     88
     64     65     90     89
     65     66     91     90
     66     67     92     91
     67     68     93     92
     68     69     94     93
     69     70     95     94
     70     71     96     95
     71     72     97     96
     72     73     98     97
     73     74     99     98
     74     50     75     99
     74     73     72     71     70     69     68     67     66     65     64     63     62     61     60     59     58     57     56     55     54     53     52     51     50
     75     76     77     78     79     80     81     82     83     84     85     86     87     88     89     90     91     92     93     94     95     96     97     98     99
     75     76    101    100
     76     77    102    101
     77     78    103    102
     78     79    104    103
     79     80    105    104
     80     81    106    105
     81     82    107    106
     82     83    108    107
     83     84    109    108
     84     85    110    109
     85     86    111    110
     86     87    112    111
     87     88    113    112
     88     89    114    113
     89     90    115    114
     90     91    116    115
     91     92    117    116
     92     93    118    117
     93     94    119    118
     94     95    120    119
     95     96    121    120
     96     97    122    121
     97     98    123    122
     98     99    124    123
     99     75    100    124
     99     98     97     96     95     94     93     92     91     90     89     88     87     86     85     84     83     82     81     80     79     78     77     76     75
    100    101    102    103    104    105    106    107    108    109    110    111    112    113    114    115    116    117    118    119    120    121    122    123    124
    100    101    126    125
    101    102    127    126
    102    103    128    127
    103    104    129    128
    104    105    130    129
    105    106    131    130
    106    107    132    131
    107    108    133    132
    108    109    134    133
    109    110    135    134
    110    111    136    135
    111    112    137    136
    112    113    138    137
    113    114    139    138
    114    115    140    139
    115    116    141    140
    116    117    142    141
    117    118    143    142
    118    119    144    143
    119    120    145    144
    120    121    146    145
    121    122    147    146
    122    123    148    147
    123    124    149    148
    124    100    125    149
    124    123    122    121    120    119    118    117    116    115    114    113    112    111    110    109    108    107    106    105    104    103    102    101    100
    125    126    127    128    129    130    131    132    133    134    135    136    137    138    139    140    141    142    143    144    145    146    147    148    149
    125    126    151    150
    126    127    152    151
    127    128    153    152
    128    129    154    153
    129    130    155    154
    130    131    156    155
    131    132    157    156
    132    133    158    157
    133    134    159    158
    134    135    160    159
    135    136    161    160
    136    137    162    161
    137    138    163    162
    138    139    164    163
    139    140    165    164
    140    141    166    165
    141    142    167    166
    142    143    168    167
    143    144    169    168
    144    145    170    169
    145    146    171    170
    146    147    172    171
    147    148    173    172
    148    149    174    173
    149    125    150    174
    149    148    147    146    145    144    143    142    141    140    139    138    137    136    135    134    133    132    131    130    129    128    127    126    125
    150    151    152    153    154    155    156    157    158    159    160    161    162    163    164    165    166    167    168    169    170    171    172    173    174
    150    151    176    175
    151    152    177    176
    152    153    178    177
    153    154    179    178
    154    155    180    179
    155    156    181    180
    156    157    182    181
    157    158    183    182
    158    159    184    183
    159    160    185    184
    160    161    186    185
    161    162    187    186
    162    163    188    187
    163    164    189    188
    164    165    190    189
    165    166    191    190
    166    167    192    191
    167    168    193    192
    168    169    194    193
    169    170    195    194
    170    171    196    195
    171    172    197    196
    172    173    198    197
    173    174    199    198
    174    150    175    199
    174    173    172    171    170    169    168    167    166    165    164    163    162    161    160    159    158    157    156    155    154    153    152    151    150
    175    176    177    178    179    180    181    182    183    184    185    186    187    188    189    190    191    192    193    194    195    196    197    198    199
    175    176    201    200
    176    177    202    201
    177    178    203    202
    178    179    204    203
    179    180    205    204
    180    181    206    205
    181    182    207    206
    182    183    208    207
    183    184    209    208
    184    185    210    209
    185    186    211    210
    186    187    212    211
    187    188    213    212
    188    189    214    213
    189    190    215    214
    190    191    216    215
    191    192    217    216
    192    193    218    217
    193    194    219    218
    194    195    220    219
    195    196    221    220
    196    197    222    221
    197    198    223    222
    198    199    224    223
    199    175    200    224
    199    198    197    196    195    194    193    192    191    190    189    188    187    186    185    184    183    182    181    180    179    178    177    176    175
    200    201    202    203    204    205    206    207    208    209    210    211    212    213    214    215    216    217    218    219    220    221    222    223    224
    200    201    226    225
    201    202    227    226
    202    203    228    227
    203    204    229    228
    204    205    230    229
    205    206    231    230
    206    207    232    231
    207    208    233    232
    208    209    234    233
    209    210    235    234
    210    211    236    235
    211    212    237    236
    212    213    238    237
    213    214    239    238
    214    215    240    239
    215    216    241    240
    216    217    242    241
    217    218    243    242
    218    219    244    243
    219    220    245    244
    220    221    246    245
    221    222    247    246
    222    223    248    247
    223    224    249    248
    224    200    225    249
    224    223    222    221    220    219    218    217    216    215    214    213    212    211    210    209    208    207    206    205    204    203    202    201    200
    225    226    227    228    229    230    231    232    233    234    235    236    237    238    239    240    241    242    243    244    245    246    247    248    249
    225    226    251    250
    226    227    252    251
    227    228    253    252
    228    229    254    253
    229    230    255    254
    230    231    256    255
    231    232    257    256
    232    233    258    257
    233    234    259    258
    234    235    260    259
    235    236    261    260
    236    237    262    261
    237    238    263    262
    238    239    264    263
    239    240    265    264
    240    241    266    265
    241    242    267    266
    242    243    268    267
    243    244    269    268
    244    245    270    269
    245    246    271    270
    246    247    272    271
    247    248    273    272
    248    249    274    273
    249    225    250    274
    249    248    247    246    245    244    243    242    241    240    239    238    237    236    235    234    233    232    231    230    229    228    227    226    225
    250    251    252    253    254    255    256    257    258    259    260    261    262    263    264    265    266    267    268    269    270    271    272    273    274
    250    251    276    275
    251    252    277    276
    252    253    278    277
    253    254    279    278
    254    255    280    279
    255    256    281    280
    256    257    282    281
    257    258    283    282
    258    259    284    283
    259    260    285    284
    260    261    286    285
    261    262    287    286
    262    263    288    287
    263    264    289    288
    264    265    290    289
    265    266    291    290
    266    267    292    291
    267    268    293    292
    268    269    294    293
    269    270    295    294
    270    271    296    295
    271    272    297    296
    272    273    298    297
    273    274    299    298
    274    250    275    299
    274    273    272    271    270    269    268    267    266    265    264    263    262    261    260    259    258    257    256    255    254    253    252    251    250
    275    276    277    278    279    280    281    282    283    284    285    286    287    288    289    290    291    292    293    294    295    296    297    298    299
    275    276    301    300
    276    277    302    301
    277    278    303    302
    278    279    304    303
    279    280    305    304
    280    281    306    305
    281    282    307    306
    282    283    308    307
    283    284    309    308
    284    285    310    309
    285    286    311    310
    286    287    312    311
    287    288    313    312
    288    289    314    313
    289    290    315    314
    290    291    316    315
    291    292    317    316
    292    293    318    317
    293    294    319    318
    294    295    320    319
    295    296    321    320
    296    297    322    321
    297    298    323    322
    298    299    324    323
    299    275    300    324
    299    298    297    296    295    294    293    292    291    290    289    288    287    286    285    284    283    282    281    280    279    278    277    276    275
    300    301    302    303    304    305    306    307    308    309    310    311    312    313    314    315    316    317    318    319    320    321    322    323    324
    300    301    326    325
    301    302    327    326
    302    303    328    327
    303    304    329    328
    304    305    330    329
    305    306    331    330
    306    307    332    331
    307    308    333    332
    308    309    334    333
    309    310    335    334
    310    311    336    335
    311    312    337    336
    312    313    338    337
    313    314    339    338
    314    315    340    339
    315    316    341    340
    316    317    342    341
    317    318    343    342
    318    319    344    343
    319    320    345    344
    320    321    346    345
    321    322    347    346
    322    323    348    347
    323    324    349    348
    324    300    325    349
    324    323    322    321    320    319    318    317    316    315    314    313    312    311    310    309    308    307    306    305    304    303    302    301    300
    325    326    327    328    329    330    331    332    333    334    335    336    337    338    339    340    341    342    343    344    345    346    347    348    349
    325    326    351    350
    326    327    352    351
    327    328    353    352
    328    329    354    353
    329    330    355    354
    330    331    356    355
    331    332    357    356
    332    333    358    357
    333    334    359    358
    334    335    360    359
    335    336    361    360
    336    337    362    361
    337    338    363    362
    338    339    364    363
    339    340    365    364
    340    341    366    365
    341    342    367    366
    342    343    368    367
    343    344    369    368
    344    345    370    369
    345    346    371    370
    346    347    372    371
    347    348    373    372
    348    349    374    373
    349    325    350    374
    349    348    347    346    345    344    343    342    341    340    339    338    337    336    335    334    333    332    331    330    329    328    327    326    325
    350    351    352    353    354    355    356    357    358    359    360    361    362    363    364    365    366    367    368    369    370    371    372    373    374
    350    351    376    375
    351    352    377    376
    352    353    378    377
    353    354    379    378
    354    355    380    379
    355    356    381    380
    356    357    382    381
    357    358    383    382
    358    359    384    383
    359    360    385    384
    360    361    386    385
    361    362    387    386
    362    363    388    387
    363    364    389    388
    364    365    390    389
    365    366    391    390
    366    367    392    391
    367    368    393    392
    368    369    394    393
    369    370    395    394
    370    371    396    395
    371    372    397    396
    372    373    398    397
    373    374    399    398
    374    350    375    399
    374    373    372    371    370    369    368    367    366    365    364    363    362    361    360    359    358    357    356    355    354    353    352    351    350
    375    376    377    378    379    380    381    382    383    384    385    386    387    388    389    390    391    392    393    394    395    396    397    398    399
    375    376    401    400
    376    377    402    401
    377    378    403    402
    378    379    404    403
    379    380    405    404
    380    381    406    405
    381    382    407    406
    382    383    408    407
    383    384    409    408
    384    385    410    409
    385    386    411    410
    386    387    412    411
    387    388    413    412
    388    389    414    413
    389    390    415    414
    390    391    416    415
    391    392    417    416
    392    393    418    417
    393    394    419    418
    394    395    420    419
    395    396    421    420
    396    397    422    421
    397    398    423    422
    398    399    424    423
    399    375    400    424
    399    398    397    396    395    394    393    392    391    390    389    388    387    386    385    384    383    382    381    380    379    378    377    376    375
    400    401    402    403    404    405    406    407    408    409    410    411    412    413    414    415    416    417    418    419    420    421    422    423    424
    400    401    426    425
    401    402    427    426
    402    403    428    427
    403    404    429    428
    404    405    430    429
    405    406    431    430
    406    407    432    431
    407    408    433    432
    408    409    434    433
    409    410    435    434
    410    411    436    435
    411    412    437    436
    412    413    438    437
    413    414    439    438
    414    415    440    439
    415    416    441    440
    416    417    442    441
    417    418    443    442
    418    419    444    443
    419    420    445    444
    420    421    446    445
    421    422    447    446
    422    423    448    447
    423    424    449    448
    424    400    425    449
    424    423    422    421    420    419    418    417    416    415    414    413    412    411    410    409    408    407    406    405    404    403    402    401    400
    425    426    427    428    429    430    431    432    433    434    435    436    437    438    439    440    441    442    443    444    445    446    447    448    449
    425    426    451    450
    426    427    452    451
    427    428    453    452
    428    429    454    453
    429    430    455    454
    430    431    456    455
    431    432    457    456
    432    433    458    457
    433    434    459    458
    434    435    460    459
    435    436    461    460
    436    437    462    461
    437    438    463    462
    438    439    464    463
    439    440    465    464
    440    441    466    465
    441    442    467    466
    442    443    468    467
    443    444    469    468
    444    445    470    469
    445    446    471    470
    446    447    472    471
    447    448    473    472
    448    449    474    473
    449    425    450    474
    449    448    447    446    445    444    443    442    441    440    439    438    437    436    435    434    433    432    431    430    429    428    427    426    425
    450    451    452    453    454    455    456    457    458    459    460    461    462    463    464    465    466    467    468    469    470    471    472    473    474
    450    451    476    475
    451    452    477    476
    452    453    478    477
    453    454    479    478
    454    455    480    479
    455    456    481    480
    456    457    482    481
    457    458    483    482
    458    459    484    483
    459    460    485    484
    460    461    486    485
    461    462    487    486
    462    463    488    487
    463    464    489    488
    464    465    490    489
    465    466    491    490
    466    467    492    491
    467    468    493    492
    468    469    494    493
    469    470    495    494
    470    471    496    495
    471    472    497    496
    472    473    498    497
    473    474    499    498
    474    450    475    499
    474    473    472    471    470    469    468    467    466    465    464    463    462    461    460    459    458    457    456    455    454    453    452    451    450
    475    476    477    478    479    480    481    482    483    484    485    486    487    488    489    490    491    492    493    494    495    496    497    498    499
    475    476    501    500
    476    477    502    501
    477    478    503    502
    478    479    504    503
    479    480    505    504
    480    481    506    505
    481    482    507    506
    482    483    508    507
    483    484    509    508
    484    485    510    509
    485    486    511    510
    486    487    512    511
    487    488    513    512
    488    489    514    513
    489    490    515    514
    490    491    516    515
    491    492    517    516
    492    493    518    517
    493    494    519    518
    494    495    520    519
    495    496    521    520
    496    497    522    521
    497    498    523    522
    498    499    524    523
    499    475    500    524
    499    498    497    496    495    494    493    492    491    490    489    488    487    486    485    484    483    482    481    480    479    478    477    476    475
    500    501    502    503    504    505    506    507    508    509    510    511    512    513    514    515    516    517    518    519    520    521    522    523    524
    525    526      1      0
    526    527      2      1
    527    528      3      2
    528    529      4      3
    529    530      5      4
    530    531      6      5
    531    532      7      6
    532    533      8      7
    533    534      9      8
    534    535     10      9
    535    536     11     10
    536    537     12     11
    537    538     13     12
    538    539     14     13
    539    540     15     14
    540    541     16     15
    541    542     17     16
    542    543     18     17
    543    544     19     18
    544    545     20     19
    545    546     21     20
    546    547     22     21
    547    548     23     22
    548    549     24     23
    549    525      0     24
    549    548    547    546    545    544    543    542    541    540    539    538    537    536    535    534    533    532    531    530    529    528    527    526    525
      0      1      2      3      4      5      6      7      8      9     10     11     12     13     14     15     16     17     18     19     20     21     22     23     24
        </DataArray>
        <DataArray type="Int32" Name="offsets" format="ascii">
      4
      8
     12
     16
     20
     24
     28
     32
     36
     40
     44
     48
     52
     56
     60
     64
     68
     72
     76
     80
     84
     88
     92
     96
    100
    125
    150
    154
    158
    162
    166
    170
    174
    178
    182
    186
    190
    194
    198
    202
    206
    210
    214
    218
    222
    226
    230
    234
    238
    242
    246
    250
    275
    300
    304
    308
    312
    316
    320
    324
    328
    332
    336
    340
    344
    348
    352
    356
    360
    364
    368
    372
    376
    380
    384
    388
    392
    396
    400
    425
    450
    454
    458
    462
    466
    470
    474
    478
    482
    486
    490
    494
    498
    502
    506
    510
    514
    518
    522
    526
    530
    534
    538
    542
    546
    550
    575
    600
    604
    608
    612
    616
    620
    624
    628
    632
    636
    640
    644
    648
    652
    656
    660
    664
    668
    672
    676
    680
    684
    688
    692
    696
    700
    725
    750
    754
    758
    762
    766
    770
    774
    778
    782
    786
    790
    794
    798
    802
    806
    810
    814
    818
    822
    826
    830
    834
    838
    842
    846
    850
    875
    900
    904
    908
    912
    916
    920
    924
    928
    932
    936
    940
    944
    948
    952
    956
    960
    964
    968
    972
    976
    980
    984
    988
    992
    996
   1000
   1025
   1050
   1054
   1058
   1062
   1066
   1070
   1074
   1078
   1082
   1086
   1090
   1094
   1098
   1102
   1106
   1110
   1114
   1118
   1122
   1126
   1130
   1134
   1138
   1142
   1146
   1150
   1175
   1200
   1204
   1208
   1212
   1216
   1220
   1224
   1228
   1232
   1236
   1240
   1244
   1248
   1252
   1256
   1260
   1264
   1268
   1272
   1276
   1280
   1284
   1288
   1292
   1296
   1300
   1325
   1350
   1354
   1358
   1362
   1366
   1370
   1374
   1378
   1382
   1386
   1390
   1394
   1398
   1402
   1406
   1410
   1414
   1418
   1422
   1426
   1430
   1434
   1438
   1442
   1446
   1450
   1475
   1500
   1504
   1508
   1512
   1516
   1520
   1524
   1528
   1532
   1536
   1540
   1544
   1548
   1552
   1556
   1560
   1564
   1568
   1572
   1576
   1580
   1584
   1588
   1592
   1596
   1600
   1625
   1650
   1654
   1658
   1662
   1666
   1670
   1674
   1678
   1682
   1686
   1690
   1694
   1698
   1702
   1706
   1710
   1714
   1718
   1722
   1726
   1730
   1734
   1738
   1742
   1746
   1750
   1775
   1800
   1804
   1808
   1812
   1816
   1820
   1824
   1828
   1832
   1836
   1840
   1844
   1848
   1852
   1856
   1860
   1864
   1868
   1872
   1876
   1880
   1884
   1888
   1892
   1896
   1900
   1925
   1950
   1954
   1958
   1962
   1966
   1970
   1974
   1978
   1982
   1986
   1990
   1994
   1998
   2002
   2006
   2010
   2014
   2018
   2022
   2026
   2030
   2034
   2038
   2042
   2046
   2050
   2075
   2100
   2104
   2108
   2112
   2116
   2120
   2124
   2128
   2132
   2136
   2140
   2144
   2148
   2152
   2156
   2160
   2164
   2168
   2172
   2176
   2180
   2184
   2188
   2192
   2196
   2200
   2225
   2250
   2254
   2258
   2262
   2266
   2270
   2274
   2278
   2282
   2286
   2290
   2294
   2298
   2302
   2306
   2310
   2314
   2318
   2322
   2326
   2330
   2334
   2338
   2342
   2346
   2350
   2375
   2400
   2404
   2408
   2412
   2416
   2420
   2424
   2428
   2432
   2436
   2440
   2444
   2448
   2452
   2456
   2460
   2464
   2468
   2472
   2476
   2480
   2484
   2488
   2492
   2496
   2500
   2525
   2550
   2554
   2558
   2562
   2566
   2570
   2574
   2578
   2582
   2586
   2590
   2594
   2598
   2602
   2606
   2610
   2614
   2618
   2622
   2626
   2630
   2634
   2638
   2642
   2646
   2650
   2675
   2700
   2704
   2708
   2712
   2716
   2720
   2724
   2728
   2732
   2736
   2740
   2744
   2748
   2752
   2756
   2760
   2764
   2768
   2772
   2776
   2780
   2784
   2788
   2792
   2796
   2800
   2825
   2850
   2854
   2858
   2862
   2866
   2870
   2874
   2878
   2882
   2886
   2890
   2894
   2898
   2902
   2906
   2910
   2914
   2918
   2922
   2926
   2930
   2934
   2938
   2942
   2946
   2950
   2975
   3000
   3004
   3008
   3012
   3016
   3020
   3024
   3028
   3032
   3036
   3040
   3044
   3048
   3052
   3056
   3060
   3064
   3068
   3072
   3076
   3080
   3084
   3088
   3092
   3096
   3100
   3125
   3150
        </DataArray>
      </Polys>
    </Piece>
  </PolyData>
</VTKFile>
