<?xml version="1.0"?>
<VTKFile type="PolyData" version="0.1" byte_order="LittleEndian">
  <PolyData>
    <Piece NumberOfPoints="     19" NumberOfVerts="  0" NumberOfLines="     18"
           NumberOfStrips="  0" NumberOfPolys="      0">
      <Points>
        <DataArray type="Float32" NumberOfComponents="3" format="ascii">
                      -4.97898                      -1.23638                      89.17906
                      -5.10825                      -2.36246                      88.41485
                      -5.39432                      -4.56004                      86.80989
                      -5.69097                      -6.73144                      85.16742
                      -6.06363                      -9.42952                      83.09009
                      -6.43602                     -12.74831                      80.70439
                      -6.75999                     -16.13978                      78.41747
                      -7.07046                     -19.53112                      76.12758
                      -7.36554                     -22.92353                      73.83623
                      -7.64816                     -26.31613                      71.54250
                      -7.92338                     -29.70706                      69.24444
                      -8.19523                     -33.09745                      66.94438
                      -8.47081                     -36.48758                      64.64395
                      -8.75896                     -39.87768                      62.34516
                      -9.06785                     -43.26781                      60.04991
                      -9.35024                     -46.09305                      58.14192
                      -9.59571                     -48.35768                      56.62605
                      -9.85248                     -50.65346                      55.15854
                     -10.00156                     -51.77769                      54.39415
        </DataArray>
      </Points>
      <PointData>
        <DataArray type="Float32" Name="TranslationalVelocity" NumberOfComponents="3" format="ascii">
                      -0.31245                       2.35795                      -3.43973
                      -0.59475                       4.51180                      -6.56580
                      -1.14660                       9.03761                     -12.66455
                      -1.69348                      13.66811                     -18.68790
                      -2.37608                      19.52059                     -26.16776
                      -3.22130                      26.22289                     -35.36137
                      -4.09282                      32.63426                     -44.74799
                      -4.97446                      39.04565                     -54.12562
                      -5.86856                      45.45271                     -63.49798
                      -6.77685                      51.85912                     -72.86308
                      -7.70065                      58.27212                     -82.21642
                      -8.64175                      64.68683                     -91.56172
                      -9.60135                      71.10114                    -100.90023
                     -10.58017                      77.51230                    -110.23287
                     -11.57836                      83.91763                    -119.55973
                     -12.42500                      89.24799                    -127.32761
                     -13.11207                      93.48787                    -133.55078
                     -13.81411                      97.59687                    -139.85652
                     -14.16185                      99.74112                    -142.94252
        </DataArray>
        <DataArray type="Float32" Name="RotationalVelocity" NumberOfComponents="3" format="ascii">
                       2.77637                      -0.00056                      -0.25102
                       2.77600                      -0.00046                      -0.25111
                       2.77498                      -0.00017                      -0.25142
                       2.77369                       0.00026                      -0.25193
                       2.77184                       0.00094                      -0.25282
                       2.76946                       0.00194                      -0.25425
                       2.76708                       0.00317                      -0.25609
                       2.76481                       0.00464                      -0.25830
                       2.76271                       0.00640                      -0.26087
                       2.76078                       0.00850                      -0.26377
                       2.75902                       0.01097                      -0.26696
                       2.75738                       0.01379                      -0.27038
                       2.75584                       0.01692                      -0.27393
                       2.75438                       0.02024                      -0.27750
                       2.75300                       0.02357                      -0.28096
                       2.75194                       0.02616                      -0.28362
                       2.75118                       0.02795                      -0.28550
                       2.75055                       0.02934                      -0.28710
                       2.75030                       0.02984                      -0.28776
        </DataArray>
        <DataArray type="Float32" Name="TranslationalAcceleration" NumberOfComponents="3" format="ascii">
                       0.62072                       9.59521                       6.55904
                       0.72647                      11.60659                       7.93797
                       2.12997                      32.77385                      23.32423
                       3.44691                      51.97320                      37.81393
                       5.00253                      74.16639                      54.98588
                       6.69291                      99.89630                      73.70202
                       8.26257                     125.43807                      91.15016
                       9.81889                     150.84089                     108.55338
                      11.37644                     176.44147                     126.11683
                      12.93682                     202.34230                     143.91796
                      14.49172                     228.48135                     161.93622
                      16.02330                     254.72473                     180.05374
                      17.51225                     280.89942                     198.14005
                      18.94118                     306.86205                     216.08642
                      20.29913                     332.56014                     233.85125
                      21.37454                     353.83945                     248.55870
                      22.19956                     370.91666                     260.28647
                      22.97488                     388.41087                     271.79394
                      23.38196                     397.10208                     277.89143
        </DataArray>
        <DataArray type="Float32" Name="OrientationX" NumberOfComponents="3" format="ascii">
                       0.94900                       0.09466                      -0.30074
                       0.94902                       0.09498                      -0.30056
                       0.94905                       0.09603                      -0.30013
                       0.94905                       0.09761                      -0.29962
                       0.94899                       0.10025                      -0.29896
                       0.95794                       0.08654                      -0.27360
                       0.96353                       0.07877                      -0.25576
                       0.96762                       0.07360                      -0.24143
                       0.97122                       0.06876                      -0.22805
                       0.97412                       0.06449                      -0.21664
                       0.97594                       0.06168                      -0.20914
                       0.97694                       0.05951                      -0.20507
                       0.97680                       0.05860                      -0.20596
                       0.97507                       0.05983                      -0.21369
                       0.97267                       0.06004                      -0.22432
                       0.97033                       0.05867                      -0.23455
                       0.96821                       0.05638                      -0.24368
                       0.96520                       0.05450                      -0.25578
                       0.96318                       0.05402                      -0.26338
        </DataArray>
        <DataArray type="Float32" Name="OrientationY" NumberOfComponents="3" format="ascii">
                       0.30091                      -0.55674                       0.77427
                       0.30092                      -0.55682                       0.77420
                       0.30113                      -0.55699                       0.77401
                       0.30157                      -0.55712                       0.77374
                       0.30248                      -0.55722                       0.77331
                       0.27389                      -0.56022                       0.78176
                       0.25482                      -0.56205                       0.78687
                       0.24010                      -0.56340                       0.79053
                       0.22635                      -0.56459                       0.79373
                       0.21454                      -0.56561                       0.79628
                       0.20676                      -0.56635                       0.79781
                       0.20217                      -0.56691                       0.79859
                       0.20236                      -0.56720                       0.79833
                       0.20937                      -0.56710                       0.79659
                       0.21819                      -0.56690                       0.79437
                       0.22580                      -0.56672                       0.79236
                       0.23199                      -0.56658                       0.79067
                       0.24086                      -0.56631                       0.78821
                       0.24683                      -0.56611                       0.78651
        </DataArray>
        <DataArray type="Float32" Name="OrientationZ" NumberOfComponents="3" format="ascii">
                      -0.09414                      -0.82527                      -0.55683
                      -0.09383                      -0.82518                      -0.55702
                      -0.09284                      -0.82495                      -0.55753
                      -0.09140                      -0.82467                      -0.55817
                      -0.08906                      -0.82429                      -0.55912
                      -0.08562                      -0.82381                      -0.56036
                      -0.08177                      -0.82334                      -0.56162
                      -0.07783                      -0.82290                      -0.56283
                      -0.07418                      -0.82250                      -0.56391
                      -0.07118                      -0.82215                      -0.56481
                      -0.06924                      -0.82185                      -0.56548
                      -0.06873                      -0.82163                      -0.56587
                      -0.07004                      -0.82149                      -0.56590
                      -0.07352                      -0.82147                      -0.56549
                      -0.07947                      -0.82160                      -0.56450
                      -0.08644                      -0.82182                      -0.56316
                      -0.09349                      -0.82207                      -0.56165
                      -0.10190                      -0.82239                      -0.55973
                      -0.10662                      -0.82256                      -0.55860
        </DataArray>
        <DataArray type="Float32" Name="Force" NumberOfComponents="3" format="ascii">
                       2.09840                     -15.89977                      23.21019
                     189.03929                     -88.47030                      99.26767
                     313.30223                    -242.21847                     306.71563
                     331.11938                    -343.43433                     454.50164
                    1522.24350                     143.93534                    -455.93497
                    1377.91181                      88.56988                    -342.00636
                    1248.75849                      36.07918                    -235.58044
                    1902.59159                      65.61272                    -360.75311
                    2340.76452                      62.69545                    -401.33132
                    2590.33192                      48.48983                    -398.90441
                    4190.01079                      73.47452                    -622.80343
                    4463.52079                      56.05104                    -626.32585
                    3621.15728                      13.40731                    -469.29188
                    2174.06475                     -57.59594                    -198.50192
                     357.98745                    -124.70410                     133.78846
                     300.39047                    -142.82490                     165.11886
                    -858.31230                    -138.40067                     348.47430
                   -2161.78449                    -103.24575                     548.00694
                  -18826.26023                     740.87379                    2503.09618
        </DataArray>
        <DataArray type="Float32" Name="Moment" NumberOfComponents="3" format="ascii">
                       0.00000                       0.00000                       0.00000
                       0.00000                       0.00000                       0.00000
                       0.00000                       0.00000                       0.00000
                       0.00000                       0.00000                       0.00000
                     119.46980                    1109.21354                     749.04795
                     204.64261                    1978.55308                    1336.87478
                     260.29782                    2638.38203                    1783.84837
                     410.22422                    4373.56004                    2958.94975
                     575.71788                    6448.23149                    4365.20828
                     626.36742                    7318.88209                    4957.05443
                     683.47791                    8217.82332                    5567.69650
                     720.83730                    8735.27961                    5918.79406
                     555.44706                    6605.32950                    4474.65842
                     573.42001                    6493.26186                    4396.26337
                     587.77813                    6150.68815                    4160.29061
                     613.15672                    5890.82109                    3979.97839
                     586.33318                    5200.85485                    3509.75310
                     318.86565                    2590.83971                    1745.98523
                     297.51404                    2308.37719                    1554.41916
        </DataArray>
      </PointData>
      <Lines>
        <DataArray type="Int32" Name="connectivity" format="ascii">
      0      1
      1      2
      2      3
      3      4
      4      5
      5      6
      6      7
      7      8
      8      9
      9     10
     10     11
     11     12
     12     13
     13     14
     14     15
     15     16
     16     17
     17     18
        </DataArray>
        <DataArray type="Int32" Name="offsets" format="ascii">
      2
      4
      6
      8
     10
     12
     14
     16
     18
     20
     22
     24
     26
     28
     30
     32
     34
     36
        </DataArray>
      </Lines>
    </Piece>
  </PolyData>
</VTKFile>
