<?xml version="1.0"?>
<VTKFile type="PolyData" version="0.1" byte_order="LittleEndian">
  <PolyData>
    <Piece NumberOfPoints="     19" NumberOfVerts="  0" NumberOfLines="     18"
           NumberOfStrips="  0" NumberOfPolys="      0">
      <Points>
        <DataArray type="Float32" NumberOfComponents="3" format="ascii">
                      -4.87933                      -1.47262                      90.33225
                      -4.91358                      -2.80882                      90.61891
                      -5.01069                      -5.50062                      91.10036
                      -5.11857                      -8.20217                      91.53686
                      -5.25484                     -11.58566                      92.05346
                      -5.34001                     -15.61989                      92.80292
                      -5.37290                     -19.63015                      93.67069
                      -5.38988                     -23.64185                      94.53475
                      -5.38872                     -27.65457                      95.39700
                      -5.37215                     -31.66853                      96.25631
                      -5.34515                     -35.68417                      97.11022
                      -5.31173                     -39.70084                      97.96138
                      -5.27912                     -43.71800                      98.81142
                      -5.25646                     -47.73498                      99.66230
                      -5.25245                     -51.75101                     100.51571
                      -5.27297                     -55.09628                     101.23062
                      -5.30851                     -57.76946                     101.81342
                      -5.35454                     -60.43029                     102.45236
                      -5.39907                     -61.76789                     102.73411
        </DataArray>
      </Points>
      <PointData>
        <DataArray type="Float32" Name="TranslationalVelocity" NumberOfComponents="3" format="ascii">
                      -0.37042                      -0.87826                      -4.10032
                      -0.70811                      -1.67224                      -7.84147
                      -1.38891                      -2.99588                     -15.37870
                      -2.07295                      -4.19104                     -22.94425
                      -2.93121                      -5.60341                     -32.42133
                      -3.95764                      -7.68120                     -43.72390
                      -4.98271                     -10.10427                     -54.96226
                      -6.01449                     -12.52160                     -66.20715
                      -7.05432                     -14.93905                     -77.45686
                      -8.10345                     -17.35262                     -88.71122
                      -9.16279                     -19.75400                     -99.97074
                     -10.23237                     -22.14944                    -111.23292
                     -11.31153                     -24.54152                    -122.49581
                     -12.39861                     -26.93317                    -133.75729
                     -13.49086                     -29.32675                    -145.01541
                     -14.40212                     -31.32539                    -154.39311
                     -15.12903                     -32.94963                    -161.88720
                     -15.84913                     -34.72851                    -169.34768
                     -16.20960                     -35.50638                    -173.09852
        </DataArray>
        <DataArray type="Float32" Name="RotationalVelocity" NumberOfComponents="3" format="ascii">
                       2.79975                       0.00049                      -0.25281
                       2.79987                       0.00047                      -0.25288
                       2.80018                       0.00043                      -0.25308
                       2.80057                       0.00038                      -0.25340
                       2.80113                       0.00029                      -0.25397
                       2.80183                       0.00013                      -0.25494
                       2.80248                      -0.00009                      -0.25625
                       2.80304                      -0.00033                      -0.25789
                       2.80344                      -0.00056                      -0.25985
                       2.80367                      -0.00071                      -0.26207
                       2.80374                      -0.00072                      -0.26447
                       2.80366                      -0.00049                      -0.26692
                       2.80349                       0.00007                      -0.26925
                       2.80330                       0.00105                      -0.27124
                       2.80321                       0.00256                      -0.27260
                       2.80330                       0.00428                      -0.27304
                       2.80356                       0.00603                      -0.27275
                       2.80405                       0.00812                      -0.27174
                       2.80440                       0.00931                      -0.27093
        </DataArray>
        <DataArray type="Float32" Name="TranslationalAcceleration" NumberOfComponents="3" format="ascii">
                      -0.18685                      11.59854                      -2.41206
                      -0.25953                      14.01757                      -2.94060
                      -0.69345                      40.27150                      -7.65979
                      -1.07724                      64.50711                     -11.55343
                      -1.52716                      92.88207                     -15.73556
                      -2.16770                     124.96866                     -21.39857
                      -2.92383                     156.06147                     -27.80425
                      -3.72698                     187.09469                     -34.13898
                      -4.58746                     218.44622                     -40.52043
                      -5.50328                     250.23306                     -46.98308
                      -6.45985                     282.38369                     -53.50602
                      -7.43354                     314.70532                     -60.07855
                      -8.38571                     346.97141                     -66.66177
                      -9.26234                     378.99695                     -73.21245
                      -9.99244                     410.71684                     -79.69312
                     -10.42048                     437.00150                     -85.03048
                     -10.61175                     458.05825                     -89.32098
                     -10.66809                     479.27449                     -94.01255
                     -10.58324                     490.10871                     -96.03922
        </DataArray>
        <DataArray type="Float32" Name="OrientationX" NumberOfComponents="3" format="ascii">
                       0.94884                      -0.08971                      -0.30274
                       0.94884                      -0.08931                      -0.30286
                       0.94879                      -0.08813                      -0.30335
                       0.94868                      -0.08647                      -0.30420
                       0.94841                      -0.08385                      -0.30575
                       0.95751                      -0.07396                      -0.27875
                       0.96306                      -0.06554                      -0.26118
                       0.96705                      -0.05790                      -0.24793
                       0.97053                      -0.05071                      -0.23560
                       0.97332                      -0.04456                      -0.22507
                       0.97506                      -0.04027                      -0.21827
                       0.97602                      -0.03808                      -0.21431
                       0.97593                      -0.03871                      -0.21463
                       0.97429                      -0.04296                      -0.22115
                       0.97217                      -0.05018                      -0.22886
                       0.97023                      -0.05842                      -0.23505
                       0.96855                      -0.06666                      -0.23973
                       0.96604                      -0.07696                      -0.24667
                       0.96429                      -0.08300                      -0.25151
        </DataArray>
        <DataArray type="Float32" Name="OrientationY" NumberOfComponents="3" format="ascii">
                       0.31479                       0.19403                       0.92912
                       0.31482                       0.19390                       0.92914
                       0.31505                       0.19358                       0.92912
                       0.31552                       0.19324                       0.92904
                       0.31648                       0.19281                       0.92880
                       0.28800                       0.19480                       0.93761
                       0.26906                       0.19582                       0.94301
                       0.25452                       0.19642                       0.94691
                       0.24099                       0.19686                       0.95035
                       0.22943                       0.19711                       0.95316
                       0.22191                       0.19709                       0.95494
                       0.21759                       0.19689                       0.95598
                       0.21803                       0.19648                       0.95596
                       0.22527                       0.19575                       0.95443
                       0.23427                       0.19488                       0.95244
                       0.24199                       0.19407                       0.95067
                       0.24825                       0.19337                       0.94920
                       0.25714                       0.19239                       0.94703
                       0.26311                       0.19172                       0.94552
        </DataArray>
        <DataArray type="Float32" Name="OrientationZ" NumberOfComponents="3" format="ascii">
                      -0.02461                      -0.97688                       0.21235
                      -0.02426                      -0.97695                       0.21210
                      -0.02316                      -0.97712                       0.21144
                      -0.02155                      -0.97733                       0.21060
                      -0.01892                      -0.97765                       0.20940
                      -0.01505                      -0.97805                       0.20782
                      -0.01067                      -0.97845                       0.20622
                      -0.00613                      -0.97881                       0.20468
                      -0.00181                      -0.97912                       0.20328
                       0.00189                      -0.97937                       0.20207
                       0.00457                      -0.97956                       0.20111
                       0.00579                      -0.97968                       0.20046
                       0.00517                      -0.97974                       0.20019
                       0.00229                      -0.97971                       0.20039
                      -0.00319                      -0.97954                       0.20121
                      -0.00992                      -0.97925                       0.20243
                      -0.01692                      -0.97886                       0.20383
                      -0.02543                      -0.97830                       0.20565
                      -0.03026                      -0.97793                       0.20672
        </DataArray>
        <DataArray type="Float32" Name="Force" NumberOfComponents="3" format="ascii">
                       2.64458                       6.30011                      29.28981
                     207.43898                      22.85977                     128.86603
                     326.69219                      73.58736                     374.30157
                     343.88518                     113.21854                     556.29110
                    1555.04849                    -134.27700                    -482.02572
                    1454.91607                    -100.86559                    -364.81486
                    1364.73173                     -69.61433                    -256.18381
                    2087.60735                     -97.88639                    -398.73542
                    2546.92754                     -97.18386                    -437.46554
                    2841.77778                     -86.86765                    -439.71046
                    4504.23377                    -119.24988                    -670.67755
                    4818.62949                    -112.11691                    -675.18479
                    3946.48320                     -83.80247                    -504.21092
                    2466.73165                     -37.64278                    -212.45227
                     470.68792                      34.79309                     166.83909
                    1034.53176                      -3.60396                      28.07780
                    -542.03705                      78.99104                     323.19240
                   -1963.42041                     157.94291                     497.12904
                  -19996.72411                    1019.54970                    1888.16257
        </DataArray>
        <DataArray type="Float32" Name="Moment" NumberOfComponents="3" format="ascii">
                       0.00000                       0.00000                       0.00000
                       0.00000                       0.00000                       0.00000
                       0.00000                       0.00000                       0.00000
                       0.00000                       0.00000                       0.00000
                      25.52151                    1333.46359                    -289.12630
                      37.62435                    2499.58277                    -541.04601
                      35.00994                    3348.57183                    -723.42365
                      30.60259                    5361.94882                   -1156.09396
                       9.49649                    7956.56062                   -1712.27750
                     -24.17900                    9034.05839                   -1941.00182
                     -55.24826                   10083.90654                   -2164.01414
                     -72.73088                   10717.99039                   -2298.82419
                     -50.00382                    8097.66716                   -1737.25659
                     -25.81952                    7968.61407                   -1711.68146
                      18.09106                    7539.69991                   -1623.38866
                      65.87065                    7049.22512                   -1522.20378
                     103.13923                    6218.71662                   -1346.93016
                      78.74774                    3100.19963                    -673.94901
                      85.31226                    2804.80810                    -611.00434
        </DataArray>
      </PointData>
      <Lines>
        <DataArray type="Int32" Name="connectivity" format="ascii">
      0      1
      1      2
      2      3
      3      4
      4      5
      5      6
      6      7
      7      8
      8      9
      9     10
     10     11
     11     12
     12     13
     13     14
     14     15
     15     16
     16     17
     17     18
        </DataArray>
        <DataArray type="Int32" Name="offsets" format="ascii">
      2
      4
      6
      8
     10
     12
     14
     16
     18
     20
     22
     24
     26
     28
     30
     32
     34
     36
        </DataArray>
      </Lines>
    </Piece>
  </PolyData>
</VTKFile>
