<?xml version="1.0"?>
<VTKFile type="PolyData" version="0.1" byte_order="LittleEndian">
  <PolyData>
    <Piece NumberOfPoints="    550" NumberOfVerts="  0" NumberOfLines="     21"
           NumberOfStrips="  0" NumberOfPolys="    567">
      <Points>
        <DataArray type="Float32" NumberOfComponents="3" format="ascii">
                       2.97345                      -0.00000                       2.18980
                       2.88003                       0.73945                       2.18981
                       2.60566                       1.43243                       2.18982
                       2.16757                       2.03541                       2.18986
                       1.59329                       2.51050                       2.18990
                       0.91890                       2.82785                       2.18994
                       0.18677                       2.96751                       2.18999
                      -0.55708                       2.92071                       2.19004
                      -1.26593                       2.69039                       2.19009
                      -1.89523                       2.29102                       2.19013
                      -2.40544                       1.74770                       2.19017
                      -2.76450                       1.09457                       2.19019
                      -2.94986                       0.37266                       2.19020
                      -2.94986                      -0.37266                       2.19020
                      -2.76450                      -1.09457                       2.19019
                      -2.40544                      -1.74771                       2.19016
                      -1.89523                      -2.29103                       2.19013
                      -1.26593                      -2.69039                       2.19008
                      -0.55708                      -2.92071                       2.19003
                       0.18677                      -2.96751                       2.18998
                       0.91890                      -2.82785                       2.18993
                       1.59329                      -2.51051                       2.18989
                       2.16757                      -2.03542                       2.18985
                       2.60566                      -1.43244                       2.18982
                       2.88003                      -0.73945                       2.18980
                       2.92085                      -0.00001                       6.56932
                       2.82910                       0.72619                       6.56934
                       2.55965                       1.40677                       6.56941
                       2.12940                       1.99895                       6.56951
                       1.56540                       2.46553                       6.56964
                       0.90309                       2.77719                       6.56980
                       0.18408                       2.91435                       6.56997
                      -0.54646                       2.86839                       6.57014
                      -1.24261                       2.64220                       6.57030
                      -1.86064                       2.24998                       6.57044
                      -2.36171                       1.71639                       6.57056
                      -2.71434                       1.07496                       6.57064
                      -2.89638                       0.36598                       6.57068
                      -2.89638                      -0.36600                       6.57067
                      -2.71434                      -1.07498                       6.57063
                      -2.36171                      -1.71642                       6.57055
                      -1.86064                      -2.25001                       6.57043
                      -1.24261                      -2.64222                       6.57028
                      -0.54646                      -2.86841                       6.57012
                       0.18408                      -2.91438                       6.56995
                       0.90309                      -2.77722                       6.56978
                       1.56540                      -2.46556                       6.56963
                       2.12940                      -1.99898                       6.56950
                       2.55965                      -1.40679                       6.56940
                       2.82910                      -0.72622                       6.56934
                       2.86902                      -0.00003                      10.94879
                       2.77896                       0.71293                      10.94883
                       2.51441                       1.38109                      10.94895
                       2.09201                       1.96248                      10.94913
                       1.53830                       2.42055                      10.94937
                       0.88806                       2.72653                      10.94964
                       0.18216                       2.86118                      10.94994
                      -0.53505                       2.81606                      10.95024
                      -1.21851                       2.59399                      10.95053
                      -1.82527                       2.20893                      10.95078
                      -2.31720                       1.68507                      10.95099
                      -2.66340                       1.05533                      10.95113
                      -2.84212                       0.35928                      10.95120
                      -2.84212                      -0.35935                      10.95120
                      -2.66340                      -1.05540                      10.95112
                      -2.31720                      -1.68514                      10.95097
                      -1.82526                      -2.20900                      10.95076
                      -1.21851                      -2.59406                      10.95050
                      -0.53505                      -2.81613                      10.95021
                       0.18216                      -2.86125                      10.94991
                       0.88806                      -2.72659                      10.94961
                       1.53830                      -2.42062                      10.94934
                       2.09201                      -1.96254                      10.94911
                       2.51441                      -1.38116                      10.94893
                       2.77896                      -0.71300                      10.94883
                       2.81804                      -0.00006                      15.32827
                       2.72965                       0.69966                      15.32833
                       2.47002                       1.35541                      15.32849
                       2.05546                       1.92600                      15.32875
                       1.51204                       2.37556                      15.32909
                       0.87388                       2.67585                      15.32949
                       0.18109                       2.80801                      15.32991
                      -0.52280                       2.76372                      15.33035
                      -1.19356                       2.54578                      15.33076
                      -1.78905                       2.16787                      15.33112
                      -2.27185                       1.65374                      15.33141
                      -2.61162                       1.03570                      15.33162
                      -2.78702                       0.35258                      15.33172
                      -2.78702                      -0.35270                      15.33172
                      -2.61162                      -1.03583                      15.33160
                      -2.27185                      -1.65387                      15.33139
                      -1.78905                      -2.16800                      15.33109
                      -1.19356                      -2.54591                      15.33072
                      -0.52280                      -2.76385                      15.33030
                       0.18109                      -2.80814                      15.32987
                       0.87388                      -2.67598                      15.32944
                       1.51204                      -2.37569                      15.32905
                       2.05546                      -1.92612                      15.32872
                       2.47002                      -1.35554                      15.32847
                       2.72965                      -0.69978                      15.32831
                       2.76792                      -0.00010                      19.70777
                       2.68119                       0.68637                      19.70784
                       2.42648                       1.32972                      19.70806
                       2.01977                       1.88950                      19.70839
                       1.48662                       2.33056                      19.70883
                       0.86054                       2.62517                      19.70934
                       0.18087                       2.75482                      19.70989
                      -0.50970                       2.71138                      19.71044
                      -1.16777                       2.49756                      19.71097
                      -1.75199                       2.12680                      19.71144
                      -2.22565                       1.62240                      19.71182
                      -2.55899                       1.01606                      19.71208
                      -2.73107                       0.34586                      19.71221
                      -2.73107                      -0.34607                      19.71221
                      -2.55899                      -1.01627                      19.71206
                      -2.22565                      -1.62261                      19.71179
                      -1.75199                      -2.12701                      19.71140
                      -1.16777                      -2.49777                      19.71092
                      -0.50970                      -2.71159                      19.71039
                       0.18087                      -2.75503                      19.70983
                       0.86054                      -2.62538                      19.70928
                       1.48662                      -2.33077                      19.70878
                       2.01977                      -1.88971                      19.70835
                       2.42648                      -1.32992                      19.70803
                       2.68119                      -0.68658                      19.70783
                       2.71861                      -0.00016                      24.08731
                       2.63356                       0.67308                      24.08740
                       2.38376                       1.30401                      24.08766
                       1.98490                       1.85300                      24.08806
                       1.46204                       2.28555                      24.08859
                       0.84804                       2.57447                      24.08920
                       0.18147                       2.70163                      24.08986
                      -0.49577                       2.65902                      24.09053
                      -1.14115                       2.44932                      24.09117
                      -1.71410                       2.08572                      24.09174
                      -2.17862                       1.59105                      24.09219
                      -2.50553                       0.99640                      24.09251
                      -2.67429                       0.33914                      24.09267
                      -2.67429                      -0.33945                      24.09266
                      -2.50553                      -0.99671                      24.09248
                      -2.17862                      -1.59136                      24.09215
                      -1.71410                      -2.08603                      24.09168
                      -1.14115                      -2.44964                      24.09111
                      -0.49578                      -2.65933                      24.09046
                       0.18147                      -2.70194                      24.08979
                       0.84804                      -2.57478                      24.08913
                       1.46204                      -2.28586                      24.08853
                       1.98490                      -1.85331                      24.08801
                       2.38376                      -1.30432                      24.08762
                       2.63356                      -0.67339                      24.08738
                       2.67010                      -0.00022                      28.46689
                       2.58673                       0.65977                      28.46700
                       2.34183                       1.27829                      28.46729
                       1.95082                       1.81648                      28.46776
                       1.43824                       2.24052                      28.46837
                       0.83632                       2.52377                      28.46908
                       0.18287                       2.64842                      28.46984
                      -0.48106                       2.60665                      28.47062
                      -1.11374                       2.40108                      28.47135
                      -1.67541                       2.04463                      28.47200
                      -2.13080                       1.55969                      28.47253
                      -2.45128                       0.97674                      28.47289
                      -2.61672                       0.33240                      28.47308
                      -2.61672                      -0.33284                      28.47307
                      -2.45128                      -0.97718                      28.47286
                      -2.13080                      -1.56013                      28.47248
                      -1.67541                      -2.04507                      28.47194
                      -1.11374                      -2.40152                      28.47128
                      -0.48106                      -2.60709                      28.47053
                       0.18287                      -2.64886                      28.46976
                       0.83632                      -2.52420                      28.46899
                       1.43824                      -2.24096                      28.46829
                       1.95082                      -1.81692                      28.46770
                       2.34183                      -1.27873                      28.46725
                       2.58673                      -0.66021                      28.46698
                       2.62235                      -0.00030                      32.84651
                       2.54064                       0.64645                      32.84663
                       2.30067                       1.25256                      32.84696
                       1.91750                       1.77995                      32.84749
                       1.41521                       2.19548                      32.84817
                       0.82536                       2.47304                      32.84896
                       0.18502                       2.59520                      32.84982
                      -0.46558                       2.55426                      32.85069
                      -1.08557                       2.35282                      32.85152
                      -1.63598                       2.00352                      32.85225
                      -2.08222                       1.52831                      32.85284
                      -2.39627                       0.95706                      32.85325
                      -2.55839                       0.32565                      32.85345
                      -2.55839                      -0.32624                      32.85344
                      -2.39627                      -0.95765                      32.85321
                      -2.08222                      -1.52891                      32.85278
                      -1.63598                      -2.00411                      32.85217
                      -1.08557                      -2.35341                      32.85143
                      -0.46559                      -2.55486                      32.85059
                       0.18502                      -2.59579                      32.84972
                       0.82536                      -2.47364                      32.84887
                       1.41521                      -2.19608                      32.84808
                       1.91750                      -1.78055                      32.84742
                       2.30067                      -1.25316                      32.84691
                       2.54064                      -0.64705                      32.84661
                       2.57532                      -0.00039                      37.22615
                       2.49529                       0.63311                      37.22629
                       2.26023                       1.22681                      37.22666
                       1.88490                       1.74341                      37.22723
                       1.39290                       2.15043                      37.22798
                       0.81513                       2.42230                      37.22886
                       0.18790                       2.54196                      37.22981
                      -0.44938                       2.50186                      37.23076
                      -1.05667                       2.30454                      37.23167
                      -1.59581                       1.96239                      37.23248
                      -2.03292                       1.49692                      37.23312
                      -2.34054                       0.93736                      37.23357
                      -2.49933                       0.31888                      37.23380
                      -2.49933                      -0.31966                      37.23378
                      -2.34054                      -0.93814                      37.23353
                      -2.03292                      -1.49770                      37.23305
                      -1.59581                      -1.96318                      37.23238
                      -1.05667                      -2.30533                      37.23156
                      -0.44938                      -2.50265                      37.23064
                       0.18790                      -2.54274                      37.22968
                       0.81513                      -2.42309                      37.22874
                       1.39290                      -2.15121                      37.22788
                       1.88490                      -1.74419                      37.22715
                       2.26023                      -1.22760                      37.22660
                       2.49529                      -0.63390                      37.22626
                       2.52903                      -0.00051                      41.60581
                       2.45067                       0.61976                      41.60596
                       2.22052                       1.20105                      41.60636
                       1.85304                       1.70684                      41.60699
                       1.37132                       2.10535                      41.60781
                       0.80563                       2.37155                      41.60876
                       0.19151                       2.48870                      41.60979
                      -0.43245                       2.44944                      41.61083
                      -1.02704                       2.25624                      41.61182
                      -1.55491                       1.92125                      41.61269
                      -1.98288                       1.46550                      41.61339
                      -2.28407                       0.91764                      41.61388
                      -2.43955                       0.31209                      41.61412
                      -2.43955                      -0.31310                      41.61411
                      -2.28407                      -0.91866                      41.61383
                      -1.98288                      -1.46652                      41.61331
                      -1.55491                      -1.92226                      41.61258
                      -1.02704                      -2.25726                      41.61169
                      -0.43245                      -2.45045                      41.61069
                       0.19151                      -2.48971                      41.60965
                       0.80563                      -2.37256                      41.60863
                       1.37132                      -2.10637                      41.60769
                       1.85304                      -1.70785                      41.60689
                       2.22052                      -1.20206                      41.60629
                       2.45067                      -0.62077                      41.60593
                       2.48347                      -0.00064                      45.98548
                       2.40678                       0.60638                      45.98564
                       2.18155                       1.17526                      45.98607
                       1.82191                       1.67025                      45.98675
                       1.35048                       2.06026                      45.98763
                       0.79687                       2.32077                      45.98866
                       0.19586                       2.43542                      45.98977
                      -0.41478                       2.39700                      45.99090
                      -0.99668                       2.20793                      45.99196
                      -1.51327                       1.88008                      45.99290
                      -1.93211                       1.43407                      45.99366
                      -2.22687                       0.89790                      45.99418
                      -2.37903                       0.30528                      45.99444
                      -2.37903                      -0.30656                      45.99442
                      -2.22687                      -0.89919                      45.99412
                      -1.93211                      -1.43535                      45.99356
                      -1.51327                      -1.88137                      45.99278
                      -0.99668                      -2.20921                      45.99181
                      -0.41478                      -2.39828                      45.99074
                       0.19586                      -2.43670                      45.98961
                       0.79687                      -2.32205                      45.98851
                       1.35048                      -2.06154                      45.98750
                       1.82191                      -1.67154                      45.98664
                       2.18155                      -1.17654                      45.98599
                       2.40678                      -0.60766                      45.98560
                       2.43867                      -0.00080                      50.36514
                       2.36366                       0.59298                      50.36532
                       2.14334                       1.14945                      50.36578
                       1.79155                       1.63364                      50.36651
                       1.33040                       2.01514                      50.36746
                       0.78887                       2.26997                      50.36856
                       0.20097                       2.38211                      50.36975
                      -0.39635                       2.34453                      50.37096
                      -0.96555                       2.15959                      50.37210
                      -1.47088                       1.83890                      50.37311
                      -1.88058                       1.40261                      50.37392
                      -2.16890                       0.87814                      50.37448
                      -2.31774                       0.29845                      50.37476
                      -2.31774                      -0.30005                      50.37474
                      -2.16890                      -0.87974                      50.37442
                      -1.88058                      -1.40421                      50.37381
                      -1.47088                      -1.84050                      50.37297
                      -0.96555                      -2.16119                      50.37194
                      -0.39635                      -2.34613                      50.37078
                       0.20097                      -2.38371                      50.36957
                       0.78887                      -2.27157                      50.36839
                       1.33040                      -2.01674                      50.36730
                       1.79155                      -1.63524                      50.36639
                       2.14334                      -1.15105                      50.36569
                       2.36366                      -0.59458                      50.36527
                       2.39467                      -0.00098                      54.74480
                       2.32133                       0.57955                      54.74499
                       2.10593                       1.12361                      54.74549
                       1.76199                       1.59701                      54.74627
                       1.31112                       1.97000                      54.74728
                       0.78166                       2.21914                      54.74846
                       0.20688                       2.32879                      54.74974
                      -0.37711                       2.29204                      54.75102
                      -0.93362                       2.11122                      54.75224
                      -1.42768                       1.79768                      54.75332
                      -1.82824                       1.37113                      54.75418
                      -2.11014                       0.85836                      54.75478
                      -2.25566                       0.29159                      54.75508
                      -2.25566                      -0.29356                      54.75505
                      -2.11014                      -0.86032                      54.75471
                      -1.82824                      -1.37309                      54.75406
                      -1.42768                      -1.79965                      54.75316
                      -0.93362                      -2.11319                      54.75205
                      -0.37711                      -2.29401                      54.75082
                       0.20688                      -2.33075                      54.74953
                       0.78166                      -2.22110                      54.74826
                       1.31112                      -1.97196                      54.74711
                       1.76199                      -1.59897                      54.74613
                       2.10593                      -1.12558                      54.74539
                       2.32133                      -0.58152                      54.74494
                       2.35151                      -0.00119                      59.12447
                       2.27984                       0.56610                      59.12467
                       2.06935                       1.09775                      59.12520
                       1.73325                       1.56035                      59.12603
                       1.29267                       1.92483                      59.12711
                       0.77529                       2.16829                      59.12836
                       0.21362                       2.27543                      59.12972
                      -0.35705                       2.23953                      59.13108
                      -0.90087                       2.06283                      59.13238
                      -1.38365                       1.75645                      59.13352
                      -1.77508                       1.33962                      59.13444
                      -2.05054                       0.83855                      59.13507
                      -2.19274                       0.28471                      59.13539
                      -2.19274                      -0.28709                      59.13536
                      -2.05054                      -0.84093                      59.13499
                      -1.77508                      -1.34200                      59.13430
                      -1.38365                      -1.75883                      59.13334
                      -0.90087                      -2.06521                      59.13217
                      -0.35705                      -2.24191                      59.13086
                       0.21362                      -2.27781                      59.12948
                       0.77529                      -2.17067                      59.12814
                       1.29267                      -1.92721                      59.12691
                       1.73325                      -1.56273                      59.12588
                       2.06935                      -1.10013                      59.12509
                       2.27984                      -0.56848                      59.12462
                       2.30918                      -0.00143                      63.50416
                       2.23919                       0.55262                      63.50437
                       2.03361                       1.07186                      63.50493
                       1.70536                       1.52366                      63.50581
                       1.27507                       1.87963                      63.50695
                       0.76976                       2.11741                      63.50827
                       0.22120                       2.22205                      63.50969
                      -0.33615                       2.18699                      63.51114
                      -0.86726                       2.01441                      63.51250
                      -1.33878                       1.71518                      63.51371
                      -1.72107                       1.30808                      63.51467
                      -1.99010                       0.81871                      63.51534
                      -2.12899                       0.27780                      63.51567
                      -2.12899                      -0.28065                      63.51564
                      -1.99010                      -0.82156                      63.51525
                      -1.72107                      -1.31094                      63.51452
                      -1.33878                      -1.71803                      63.51351
                      -0.86727                      -2.01727                      63.51227
                      -0.33615                      -2.18984                      63.51089
                       0.22120                      -2.22491                      63.50944
                       0.76976                      -2.12026                      63.50803
                       1.27507                      -1.88248                      63.50673
                       1.70536                      -1.52651                      63.50564
                       2.03361                      -1.07471                      63.50481
                       2.23919                      -0.55548                      63.50431
                       2.26767                      -0.00169                      67.88389
                       2.19936                       0.53912                      67.88412
                       1.99869                       1.04594                      67.88470
                       1.67829                       1.48694                      67.88562
                       1.25828                       1.83441                      67.88680
                       0.76505                       2.06650                      67.88818
                       0.22960                       2.16864                      67.88967
                      -0.31442                       2.13442                      67.89118
                      -0.83285                       1.96597                      67.89260
                      -1.29309                       1.67389                      67.89386
                      -1.66624                       1.27652                      67.89487
                      -1.92885                       0.79884                      67.89556
                      -2.06441                       0.27086                      67.89591
                      -2.06441                      -0.27424                      67.89587
                      -1.92885                      -0.80222                      67.89546
                      -1.66624                      -1.27990                      67.89471
                      -1.29309                      -1.67727                      67.89365
                      -0.83285                      -1.96935                      67.89235
                      -0.31442                      -2.13780                      67.89091
                       0.22960                      -2.17202                      67.88940
                       0.76505                      -2.06988                      67.88792
                       1.25828                      -1.83779                      67.88657
                       1.67829                      -1.49032                      67.88543
                       1.99869                      -1.04932                      67.88457
                       2.19936                      -0.54250                      67.88405
                       2.22689                      -0.00198                      72.26371
                       2.16025                       0.52559                      72.26394
                       1.96450                       1.02000                      72.26454
                       1.65194                       1.45020                      72.26548
                       1.24221                       1.78916                      72.26670
                       0.76107                       2.01557                      72.26812
                       0.23873                       2.11521                      72.26965
                      -0.29198                       2.08182                      72.27120
                      -0.79771                       1.91750                      72.27266
                      -1.24668                       1.63257                      72.27396
                      -1.61069                       1.24493                      72.27499
                      -1.86687                       0.77895                      72.27571
                      -1.99911                       0.26390                      72.27606
                      -1.99911                      -0.26786                      72.27602
                      -1.86687                      -0.78291                      72.27560
                      -1.61069                      -1.24889                      72.27482
                      -1.24668                      -1.63653                      72.27373
                      -0.79771                      -1.92146                      72.27240
                      -0.29198                      -2.08578                      72.27091
                       0.23873                      -2.11917                      72.26936
                       0.76107                      -2.01953                      72.26784
                       1.24221                      -1.79312                      72.26646
                       1.65194                      -1.45416                      72.26528
                       1.96449                      -1.02396                      72.26440
                       2.16025                      -0.52954                      72.26386
                       2.18666                      -0.00229                      76.64365
                       2.12168                       0.51203                      76.64388
                       1.93085                       0.99403                      76.64449
                       1.62613                       1.41344                      76.64544
                       1.22669                       1.74388                      76.64667
                       0.75763                       1.96461                      76.64810
                       0.24840                       2.06175                      76.64964
                      -0.26898                       2.02920                      76.65120
                      -0.76202                       1.86900                      76.65267
                      -1.19972                       1.59123                      76.65397
                      -1.55460                       1.21332                      76.65501
                      -1.80434                       0.75904                      76.65573
                      -1.93327                       0.25691                      76.65608
                      -1.93327                      -0.26150                      76.65604
                      -1.80434                      -0.76362                      76.65561
                      -1.55460                      -1.21791                      76.65483
                      -1.19972                      -1.59581                      76.65373
                      -0.76202                      -1.87359                      76.65239
                      -0.26898                      -2.03378                      76.65089
                       0.24840                      -2.06634                      76.64933
                       0.75762                      -1.96920                      76.64781
                       1.22669                      -1.74847                      76.64641
                       1.62613                      -1.41802                      76.64523
                       1.93085                      -0.99862                      76.64434
                       2.12168                      -0.51661                      76.64380
                       2.14666                      -0.00263                      81.02377
                       2.08336                       0.49845                      81.02400
                       1.89744                       0.96805                      81.02460
                       1.60057                       1.37665                      81.02553
                       1.21141                       1.69859                      81.02673
                       0.75442                       1.91363                      81.02813
                       0.25831                       2.00827                      81.02963
                      -0.24575                       1.97656                      81.03115
                      -0.72609                       1.82049                      81.03259
                      -1.15253                       1.54986                      81.03386
                      -1.49827                       1.18169                      81.03487
                      -1.74158                       0.73910                      81.03557
                      -1.86718                       0.24990                      81.03592
                      -1.86718                      -0.25516                      81.03588
                      -1.74158                      -0.74435                      81.03546
                      -1.49827                      -1.18694                      81.03469
                      -1.15253                      -1.55511                      81.03362
                      -0.72609                      -1.82574                      81.03231
                      -0.24575                      -1.98181                      81.03084
                       0.25831                      -2.01353                      81.02932
                       0.75442                      -1.91889                      81.02783
                       1.21141                      -1.70384                      81.02646
                       1.60057                      -1.38190                      81.02531
                       1.89743                      -0.97330                      81.02445
                       2.08336                      -0.50371                      81.02392
                       2.10644                      -0.00298                      85.40415
                       2.04481                       0.48486                      85.40437
                       1.86380                       0.94204                      85.40493
                       1.57478                       1.33985                      85.40580
                       1.19591                       1.65328                      85.40692
                       0.75099                       1.86264                      85.40823
                       0.26799                       1.95478                      85.40964
                      -0.22275                       1.92390                      85.41106
                      -0.69040                       1.77195                      85.41241
                      -1.10556                       1.50848                      85.41359
                      -1.44216                       1.15004                      85.41454
                      -1.67905                       0.71914                      85.41519
                      -1.80133                       0.24288                      85.41550
                      -1.80133                      -0.24883                      85.41546
                      -1.67905                      -0.72510                      85.41507
                      -1.44216                      -1.15599                      85.41435
                      -1.10556                      -1.51444                      85.41334
                      -0.69040                      -1.77791                      85.41212
                      -0.22275                      -1.92986                      85.41075
                       0.26799                      -1.96073                      85.40932
                       0.75099                      -1.86859                      85.40793
                       1.19590                      -1.65923                      85.40665
                       1.57478                      -1.34580                      85.40558
                       1.86380                      -0.94800                      85.40477
                       2.04481                      -0.49081                      85.40429
                       2.08604                      -0.00316                      87.59446
                       2.02525                       0.47806                      87.59466
                       1.84669                       0.92904                      87.59520
                       1.56159                       1.32144                      87.59602
                       1.18787                       1.63062                      87.59708
                       0.74899                       1.83714                      87.59832
                       0.27254                       1.92802                      87.59965
                      -0.21154                       1.89757                      87.60099
                      -0.67284                       1.74768                      87.60226
                      -1.08237                       1.48779                      87.60338
                      -1.41440                       1.13421                      87.60427
                      -1.64807                       0.70916                      87.60488
                      -1.76869                       0.23936                      87.60518
                      -1.76869                      -0.24568                      87.60514
                      -1.64807                      -0.71548                      87.60477
                      -1.41440                      -1.14052                      87.60408
                      -1.08237                      -1.49410                      87.60313
                      -0.67284                      -1.75400                      87.60197
                      -0.21154                      -1.90388                      87.60068
                       0.27254                      -1.93434                      87.59933
                       0.74899                      -1.84345                      87.59802
                       1.18786                      -1.63693                      87.59682
                       1.56159                      -1.32776                      87.59580
                       1.84669                      -0.93535                      87.59504
                       2.02525                      -0.48437                      87.59458
                       3.00000                       0.00000                       0.00000
                       2.90575                       0.74607                       0.00000
                       2.62892                       1.44526                       0.00000
                       2.18691                       2.05364                       0.00000
                       1.60748                       2.53298                       0.00000
                       0.92705                       2.85317                       0.00000
                       0.18837                       2.99408                       0.00000
                      -0.56214                       2.94686                       0.00000
                      -1.27734                       2.71448                       0.00000
                      -1.91227                       2.31154                       0.00000
                      -2.42705                       1.76336                       0.00000
                      -2.78933                       1.10437                       0.00000
                      -2.97634                       0.37600                       0.00000
                      -2.97634                      -0.37600                       0.00000
                      -2.78933                      -1.10437                       0.00000
                      -2.42705                      -1.76336                       0.00000
                      -1.91227                      -2.31154                       0.00000
                      -1.27734                      -2.71448                       0.00000
                      -0.56214                      -2.94686                       0.00000
                       0.18837                      -2.99408                       0.00000
                       0.92705                      -2.85317                       0.00000
                       1.60748                      -2.53298                       0.00000
                       2.18691                      -2.05364                       0.00000
                       2.62892                      -1.44526                       0.00000
                       2.90575                      -0.74607                       0.00000
        </DataArray>
      </Points>
      <Polys>
        <DataArray type="Int32" Name="connectivity" format="ascii">
      0      1     26     25
      1      2     27     26
      2      3     28     27
      3      4     29     28
      4      5     30     29
      5      6     31     30
      6      7     32     31
      7      8     33     32
      8      9     34     33
      9     10     35     34
     10     11     36     35
     11     12     37     36
     12     13     38     37
     13     14     39     38
     14     15     40     39
     15     16     41     40
     16     17     42     41
     17     18     43     42
     18     19     44     43
     19     20     45     44
     20     21     46     45
     21     22     47     46
     22     23     48     47
     23     24     49     48
     24      0     25     49
     24     23     22     21     20     19     18     17     16     15     14     13     12     11     10      9      8      7      6      5      4      3      2      1      0
     25     26     27     28     29     30     31     32     33     34     35     36     37     38     39     40     41     42     43     44     45     46     47     48     49
     25     26     51     50
     26     27     52     51
     27     28     53     52
     28     29     54     53
     29     30     55     54
     30     31     56     55
     31     32     57     56
     32     33     58     57
     33     34     59     58
     34     35     60     59
     35     36     61     60
     36     37     62     61
     37     38     63     62
     38     39     64     63
     39     40     65     64
     40     41     66     65
     41     42     67     66
     42     43     68     67
     43     44     69     68
     44     45     70     69
     45     46     71     70
     46     47     72     71
     47     48     73     72
     48     49     74     73
     49     25     50     74
     49     48     47     46     45     44     43     42     41     40     39     38     37     36     35     34     33     32     31     30     29     28     27     26     25
     50     51     52     53     54     55     56     57     58     59     60     61     62     63     64     65     66     67     68     69     70     71     72     73     74
     50     51     76     75
     51     52     77     76
     52     53     78     77
     53     54     79     78
     54     55     80     79
     55     56     81     80
     56     57     82     81
     57     58     83     82
     58     59     84     83
     59     60     85     84
     60     61     86     85
     61     62     87     86
     62     63     88     87
     63     64     89     88
     64     65     90     89
     65     66     91     90
     66     67     92     91
     67     68     93     92
     68     69     94     93
     69     70     95     94
     70     71     96     95
     71     72     97     96
     72     73     98     97
     73     74     99     98
     74     50     75     99
     74     73     72     71     70     69     68     67     66     65     64     63     62     61     60     59     58     57     56     55     54     53     52     51     50
     75     76     77     78     79     80     81     82     83     84     85     86     87     88     89     90     91     92     93     94     95     96     97     98     99
     75     76    101    100
     76     77    102    101
     77     78    103    102
     78     79    104    103
     79     80    105    104
     80     81    106    105
     81     82    107    106
     82     83    108    107
     83     84    109    108
     84     85    110    109
     85     86    111    110
     86     87    112    111
     87     88    113    112
     88     89    114    113
     89     90    115    114
     90     91    116    115
     91     92    117    116
     92     93    118    117
     93     94    119    118
     94     95    120    119
     95     96    121    120
     96     97    122    121
     97     98    123    122
     98     99    124    123
     99     75    100    124
     99     98     97     96     95     94     93     92     91     90     89     88     87     86     85     84     83     82     81     80     79     78     77     76     75
    100    101    102    103    104    105    106    107    108    109    110    111    112    113    114    115    116    117    118    119    120    121    122    123    124
    100    101    126    125
    101    102    127    126
    102    103    128    127
    103    104    129    128
    104    105    130    129
    105    106    131    130
    106    107    132    131
    107    108    133    132
    108    109    134    133
    109    110    135    134
    110    111    136    135
    111    112    137    136
    112    113    138    137
    113    114    139    138
    114    115    140    139
    115    116    141    140
    116    117    142    141
    117    118    143    142
    118    119    144    143
    119    120    145    144
    120    121    146    145
    121    122    147    146
    122    123    148    147
    123    124    149    148
    124    100    125    149
    124    123    122    121    120    119    118    117    116    115    114    113    112    111    110    109    108    107    106    105    104    103    102    101    100
    125    126    127    128    129    130    131    132    133    134    135    136    137    138    139    140    141    142    143    144    145    146    147    148    149
    125    126    151    150
    126    127    152    151
    127    128    153    152
    128    129    154    153
    129    130    155    154
    130    131    156    155
    131    132    157    156
    132    133    158    157
    133    134    159    158
    134    135    160    159
    135    136    161    160
    136    137    162    161
    137    138    163    162
    138    139    164    163
    139    140    165    164
    140    141    166    165
    141    142    167    166
    142    143    168    167
    143    144    169    168
    144    145    170    169
    145    146    171    170
    146    147    172    171
    147    148    173    172
    148    149    174    173
    149    125    150    174
    149    148    147    146    145    144    143    142    141    140    139    138    137    136    135    134    133    132    131    130    129    128    127    126    125
    150    151    152    153    154    155    156    157    158    159    160    161    162    163    164    165    166    167    168    169    170    171    172    173    174
    150    151    176    175
    151    152    177    176
    152    153    178    177
    153    154    179    178
    154    155    180    179
    155    156    181    180
    156    157    182    181
    157    158    183    182
    158    159    184    183
    159    160    185    184
    160    161    186    185
    161    162    187    186
    162    163    188    187
    163    164    189    188
    164    165    190    189
    165    166    191    190
    166    167    192    191
    167    168    193    192
    168    169    194    193
    169    170    195    194
    170    171    196    195
    171    172    197    196
    172    173    198    197
    173    174    199    198
    174    150    175    199
    174    173    172    171    170    169    168    167    166    165    164    163    162    161    160    159    158    157    156    155    154    153    152    151    150
    175    176    177    178    179    180    181    182    183    184    185    186    187    188    189    190    191    192    193    194    195    196    197    198    199
    175    176    201    200
    176    177    202    201
    177    178    203    202
    178    179    204    203
    179    180    205    204
    180    181    206    205
    181    182    207    206
    182    183    208    207
    183    184    209    208
    184    185    210    209
    185    186    211    210
    186    187    212    211
    187    188    213    212
    188    189    214    213
    189    190    215    214
    190    191    216    215
    191    192    217    216
    192    193    218    217
    193    194    219    218
    194    195    220    219
    195    196    221    220
    196    197    222    221
    197    198    223    222
    198    199    224    223
    199    175    200    224
    199    198    197    196    195    194    193    192    191    190    189    188    187    186    185    184    183    182    181    180    179    178    177    176    175
    200    201    202    203    204    205    206    207    208    209    210    211    212    213    214    215    216    217    218    219    220    221    222    223    224
    200    201    226    225
    201    202    227    226
    202    203    228    227
    203    204    229    228
    204    205    230    229
    205    206    231    230
    206    207    232    231
    207    208    233    232
    208    209    234    233
    209    210    235    234
    210    211    236    235
    211    212    237    236
    212    213    238    237
    213    214    239    238
    214    215    240    239
    215    216    241    240
    216    217    242    241
    217    218    243    242
    218    219    244    243
    219    220    245    244
    220    221    246    245
    221    222    247    246
    222    223    248    247
    223    224    249    248
    224    200    225    249
    224    223    222    221    220    219    218    217    216    215    214    213    212    211    210    209    208    207    206    205    204    203    202    201    200
    225    226    227    228    229    230    231    232    233    234    235    236    237    238    239    240    241    242    243    244    245    246    247    248    249
    225    226    251    250
    226    227    252    251
    227    228    253    252
    228    229    254    253
    229    230    255    254
    230    231    256    255
    231    232    257    256
    232    233    258    257
    233    234    259    258
    234    235    260    259
    235    236    261    260
    236    237    262    261
    237    238    263    262
    238    239    264    263
    239    240    265    264
    240    241    266    265
    241    242    267    266
    242    243    268    267
    243    244    269    268
    244    245    270    269
    245    246    271    270
    246    247    272    271
    247    248    273    272
    248    249    274    273
    249    225    250    274
    249    248    247    246    245    244    243    242    241    240    239    238    237    236    235    234    233    232    231    230    229    228    227    226    225
    250    251    252    253    254    255    256    257    258    259    260    261    262    263    264    265    266    267    268    269    270    271    272    273    274
    250    251    276    275
    251    252    277    276
    252    253    278    277
    253    254    279    278
    254    255    280    279
    255    256    281    280
    256    257    282    281
    257    258    283    282
    258    259    284    283
    259    260    285    284
    260    261    286    285
    261    262    287    286
    262    263    288    287
    263    264    289    288
    264    265    290    289
    265    266    291    290
    266    267    292    291
    267    268    293    292
    268    269    294    293
    269    270    295    294
    270    271    296    295
    271    272    297    296
    272    273    298    297
    273    274    299    298
    274    250    275    299
    274    273    272    271    270    269    268    267    266    265    264    263    262    261    260    259    258    257    256    255    254    253    252    251    250
    275    276    277    278    279    280    281    282    283    284    285    286    287    288    289    290    291    292    293    294    295    296    297    298    299
    275    276    301    300
    276    277    302    301
    277    278    303    302
    278    279    304    303
    279    280    305    304
    280    281    306    305
    281    282    307    306
    282    283    308    307
    283    284    309    308
    284    285    310    309
    285    286    311    310
    286    287    312    311
    287    288    313    312
    288    289    314    313
    289    290    315    314
    290    291    316    315
    291    292    317    316
    292    293    318    317
    293    294    319    318
    294    295    320    319
    295    296    321    320
    296    297    322    321
    297    298    323    322
    298    299    324    323
    299    275    300    324
    299    298    297    296    295    294    293    292    291    290    289    288    287    286    285    284    283    282    281    280    279    278    277    276    275
    300    301    302    303    304    305    306    307    308    309    310    311    312    313    314    315    316    317    318    319    320    321    322    323    324
    300    301    326    325
    301    302    327    326
    302    303    328    327
    303    304    329    328
    304    305    330    329
    305    306    331    330
    306    307    332    331
    307    308    333    332
    308    309    334    333
    309    310    335    334
    310    311    336    335
    311    312    337    336
    312    313    338    337
    313    314    339    338
    314    315    340    339
    315    316    341    340
    316    317    342    341
    317    318    343    342
    318    319    344    343
    319    320    345    344
    320    321    346    345
    321    322    347    346
    322    323    348    347
    323    324    349    348
    324    300    325    349
    324    323    322    321    320    319    318    317    316    315    314    313    312    311    310    309    308    307    306    305    304    303    302    301    300
    325    326    327    328    329    330    331    332    333    334    335    336    337    338    339    340    341    342    343    344    345    346    347    348    349
    325    326    351    350
    326    327    352    351
    327    328    353    352
    328    329    354    353
    329    330    355    354
    330    331    356    355
    331    332    357    356
    332    333    358    357
    333    334    359    358
    334    335    360    359
    335    336    361    360
    336    337    362    361
    337    338    363    362
    338    339    364    363
    339    340    365    364
    340    341    366    365
    341    342    367    366
    342    343    368    367
    343    344    369    368
    344    345    370    369
    345    346    371    370
    346    347    372    371
    347    348    373    372
    348    349    374    373
    349    325    350    374
    349    348    347    346    345    344    343    342    341    340    339    338    337    336    335    334    333    332    331    330    329    328    327    326    325
    350    351    352    353    354    355    356    357    358    359    360    361    362    363    364    365    366    367    368    369    370    371    372    373    374
    350    351    376    375
    351    352    377    376
    352    353    378    377
    353    354    379    378
    354    355    380    379
    355    356    381    380
    356    357    382    381
    357    358    383    382
    358    359    384    383
    359    360    385    384
    360    361    386    385
    361    362    387    386
    362    363    388    387
    363    364    389    388
    364    365    390    389
    365    366    391    390
    366    367    392    391
    367    368    393    392
    368    369    394    393
    369    370    395    394
    370    371    396    395
    371    372    397    396
    372    373    398    397
    373    374    399    398
    374    350    375    399
    374    373    372    371    370    369    368    367    366    365    364    363    362    361    360    359    358    357    356    355    354    353    352    351    350
    375    376    377    378    379    380    381    382    383    384    385    386    387    388    389    390    391    392    393    394    395    396    397    398    399
    375    376    401    400
    376    377    402    401
    377    378    403    402
    378    379    404    403
    379    380    405    404
    380    381    406    405
    381    382    407    406
    382    383    408    407
    383    384    409    408
    384    385    410    409
    385    386    411    410
    386    387    412    411
    387    388    413    412
    388    389    414    413
    389    390    415    414
    390    391    416    415
    391    392    417    416
    392    393    418    417
    393    394    419    418
    394    395    420    419
    395    396    421    420
    396    397    422    421
    397    398    423    422
    398    399    424    423
    399    375    400    424
    399    398    397    396    395    394    393    392    391    390    389    388    387    386    385    384    383    382    381    380    379    378    377    376    375
    400    401    402    403    404    405    406    407    408    409    410    411    412    413    414    415    416    417    418    419    420    421    422    423    424
    400    401    426    425
    401    402    427    426
    402    403    428    427
    403    404    429    428
    404    405    430    429
    405    406    431    430
    406    407    432    431
    407    408    433    432
    408    409    434    433
    409    410    435    434
    410    411    436    435
    411    412    437    436
    412    413    438    437
    413    414    439    438
    414    415    440    439
    415    416    441    440
    416    417    442    441
    417    418    443    442
    418    419    444    443
    419    420    445    444
    420    421    446    445
    421    422    447    446
    422    423    448    447
    423    424    449    448
    424    400    425    449
    424    423    422    421    420    419    418    417    416    415    414    413    412    411    410    409    408    407    406    405    404    403    402    401    400
    425    426    427    428    429    430    431    432    433    434    435    436    437    438    439    440    441    442    443    444    445    446    447    448    449
    425    426    451    450
    426    427    452    451
    427    428    453    452
    428    429    454    453
    429    430    455    454
    430    431    456    455
    431    432    457    456
    432    433    458    457
    433    434    459    458
    434    435    460    459
    435    436    461    460
    436    437    462    461
    437    438    463    462
    438    439    464    463
    439    440    465    464
    440    441    466    465
    441    442    467    466
    442    443    468    467
    443    444    469    468
    444    445    470    469
    445    446    471    470
    446    447    472    471
    447    448    473    472
    448    449    474    473
    449    425    450    474
    449    448    447    446    445    444    443    442    441    440    439    438    437    436    435    434    433    432    431    430    429    428    427    426    425
    450    451    452    453    454    455    456    457    458    459    460    461    462    463    464    465    466    467    468    469    470    471    472    473    474
    450    451    476    475
    451    452    477    476
    452    453    478    477
    453    454    479    478
    454    455    480    479
    455    456    481    480
    456    457    482    481
    457    458    483    482
    458    459    484    483
    459    460    485    484
    460    461    486    485
    461    462    487    486
    462    463    488    487
    463    464    489    488
    464    465    490    489
    465    466    491    490
    466    467    492    491
    467    468    493    492
    468    469    494    493
    469    470    495    494
    470    471    496    495
    471    472    497    496
    472    473    498    497
    473    474    499    498
    474    450    475    499
    474    473    472    471    470    469    468    467    466    465    464    463    462    461    460    459    458    457    456    455    454    453    452    451    450
    475    476    477    478    479    480    481    482    483    484    485    486    487    488    489    490    491    492    493    494    495    496    497    498    499
    475    476    501    500
    476    477    502    501
    477    478    503    502
    478    479    504    503
    479    480    505    504
    480    481    506    505
    481    482    507    506
    482    483    508    507
    483    484    509    508
    484    485    510    509
    485    486    511    510
    486    487    512    511
    487    488    513    512
    488    489    514    513
    489    490    515    514
    490    491    516    515
    491    492    517    516
    492    493    518    517
    493    494    519    518
    494    495    520    519
    495    496    521    520
    496    497    522    521
    497    498    523    522
    498    499    524    523
    499    475    500    524
    499    498    497    496    495    494    493    492    491    490    489    488    487    486    485    484    483    482    481    480    479    478    477    476    475
    500    501    502    503    504    505    506    507    508    509    510    511    512    513    514    515    516    517    518    519    520    521    522    523    524
    525    526      1      0
    526    527      2      1
    527    528      3      2
    528    529      4      3
    529    530      5      4
    530    531      6      5
    531    532      7      6
    532    533      8      7
    533    534      9      8
    534    535     10      9
    535    536     11     10
    536    537     12     11
    537    538     13     12
    538    539     14     13
    539    540     15     14
    540    541     16     15
    541    542     17     16
    542    543     18     17
    543    544     19     18
    544    545     20     19
    545    546     21     20
    546    547     22     21
    547    548     23     22
    548    549     24     23
    549    525      0     24
    549    548    547    546    545    544    543    542    541    540    539    538    537    536    535    534    533    532    531    530    529    528    527    526    525
      0      1      2      3      4      5      6      7      8      9     10     11     12     13     14     15     16     17     18     19     20     21     22     23     24
        </DataArray>
        <DataArray type="Int32" Name="offsets" format="ascii">
      4
      8
     12
     16
     20
     24
     28
     32
     36
     40
     44
     48
     52
     56
     60
     64
     68
     72
     76
     80
     84
     88
     92
     96
    100
    125
    150
    154
    158
    162
    166
    170
    174
    178
    182
    186
    190
    194
    198
    202
    206
    210
    214
    218
    222
    226
    230
    234
    238
    242
    246
    250
    275
    300
    304
    308
    312
    316
    320
    324
    328
    332
    336
    340
    344
    348
    352
    356
    360
    364
    368
    372
    376
    380
    384
    388
    392
    396
    400
    425
    450
    454
    458
    462
    466
    470
    474
    478
    482
    486
    490
    494
    498
    502
    506
    510
    514
    518
    522
    526
    530
    534
    538
    542
    546
    550
    575
    600
    604
    608
    612
    616
    620
    624
    628
    632
    636
    640
    644
    648
    652
    656
    660
    664
    668
    672
    676
    680
    684
    688
    692
    696
    700
    725
    750
    754
    758
    762
    766
    770
    774
    778
    782
    786
    790
    794
    798
    802
    806
    810
    814
    818
    822
    826
    830
    834
    838
    842
    846
    850
    875
    900
    904
    908
    912
    916
    920
    924
    928
    932
    936
    940
    944
    948
    952
    956
    960
    964
    968
    972
    976
    980
    984
    988
    992
    996
   1000
   1025
   1050
   1054
   1058
   1062
   1066
   1070
   1074
   1078
   1082
   1086
   1090
   1094
   1098
   1102
   1106
   1110
   1114
   1118
   1122
   1126
   1130
   1134
   1138
   1142
   1146
   1150
   1175
   1200
   1204
   1208
   1212
   1216
   1220
   1224
   1228
   1232
   1236
   1240
   1244
   1248
   1252
   1256
   1260
   1264
   1268
   1272
   1276
   1280
   1284
   1288
   1292
   1296
   1300
   1325
   1350
   1354
   1358
   1362
   1366
   1370
   1374
   1378
   1382
   1386
   1390
   1394
   1398
   1402
   1406
   1410
   1414
   1418
   1422
   1426
   1430
   1434
   1438
   1442
   1446
   1450
   1475
   1500
   1504
   1508
   1512
   1516
   1520
   1524
   1528
   1532
   1536
   1540
   1544
   1548
   1552
   1556
   1560
   1564
   1568
   1572
   1576
   1580
   1584
   1588
   1592
   1596
   1600
   1625
   1650
   1654
   1658
   1662
   1666
   1670
   1674
   1678
   1682
   1686
   1690
   1694
   1698
   1702
   1706
   1710
   1714
   1718
   1722
   1726
   1730
   1734
   1738
   1742
   1746
   1750
   1775
   1800
   1804
   1808
   1812
   1816
   1820
   1824
   1828
   1832
   1836
   1840
   1844
   1848
   1852
   1856
   1860
   1864
   1868
   1872
   1876
   1880
   1884
   1888
   1892
   1896
   1900
   1925
   1950
   1954
   1958
   1962
   1966
   1970
   1974
   1978
   1982
   1986
   1990
   1994
   1998
   2002
   2006
   2010
   2014
   2018
   2022
   2026
   2030
   2034
   2038
   2042
   2046
   2050
   2075
   2100
   2104
   2108
   2112
   2116
   2120
   2124
   2128
   2132
   2136
   2140
   2144
   2148
   2152
   2156
   2160
   2164
   2168
   2172
   2176
   2180
   2184
   2188
   2192
   2196
   2200
   2225
   2250
   2254
   2258
   2262
   2266
   2270
   2274
   2278
   2282
   2286
   2290
   2294
   2298
   2302
   2306
   2310
   2314
   2318
   2322
   2326
   2330
   2334
   2338
   2342
   2346
   2350
   2375
   2400
   2404
   2408
   2412
   2416
   2420
   2424
   2428
   2432
   2436
   2440
   2444
   2448
   2452
   2456
   2460
   2464
   2468
   2472
   2476
   2480
   2484
   2488
   2492
   2496
   2500
   2525
   2550
   2554
   2558
   2562
   2566
   2570
   2574
   2578
   2582
   2586
   2590
   2594
   2598
   2602
   2606
   2610
   2614
   2618
   2622
   2626
   2630
   2634
   2638
   2642
   2646
   2650
   2675
   2700
   2704
   2708
   2712
   2716
   2720
   2724
   2728
   2732
   2736
   2740
   2744
   2748
   2752
   2756
   2760
   2764
   2768
   2772
   2776
   2780
   2784
   2788
   2792
   2796
   2800
   2825
   2850
   2854
   2858
   2862
   2866
   2870
   2874
   2878
   2882
   2886
   2890
   2894
   2898
   2902
   2906
   2910
   2914
   2918
   2922
   2926
   2930
   2934
   2938
   2942
   2946
   2950
   2975
   3000
   3004
   3008
   3012
   3016
   3020
   3024
   3028
   3032
   3036
   3040
   3044
   3048
   3052
   3056
   3060
   3064
   3068
   3072
   3076
   3080
   3084
   3088
   3092
   3096
   3100
   3125
   3150
        </DataArray>
      </Polys>
    </Piece>
  </PolyData>
</VTKFile>
