<?xml version="1.0"?>
<VTKFile type="PolyData" version="0.1" byte_order="LittleEndian">
  <PolyData>
    <Piece NumberOfPoints="     19" NumberOfVerts="  0" NumberOfLines="     18"
           NumberOfStrips="  0" NumberOfPolys="      0">
      <Points>
        <DataArray type="Float32" NumberOfComponents="3" format="ascii">
                      -4.94736                       0.19570                      88.54983
                      -5.13139                       0.38509                      87.20883
                      -5.51830                       0.85745                      84.54246
                      -5.91197                       1.37409                      81.88306
                      -6.40433                       2.04632                      78.56218
                      -6.93405                       2.71146                      74.54918
                      -7.42660                       3.24788                      70.51348
                      -7.90204                       3.78179                      66.47535
                      -8.35350                       4.31150                      62.43390
                      -8.77717                       4.83900                      58.38919
                      -9.16995                       5.36798                      54.34163
                      -9.52719                       5.89697                      50.29082
                      -9.84635                       6.42598                      46.23683
                     -10.12589                       6.95499                      42.17989
                     -10.36310                       7.48401                      38.12025
                     -10.52792                       7.92471                      34.73553
                     -10.64052                       8.26925                      32.02607
                     -10.73843                       8.55901                      29.30891
                     -10.78139                       8.74504                      27.95606
        </DataArray>
      </Points>
      <PointData>
        <DataArray type="Float32" Name="TranslationalVelocity" NumberOfComponents="3" format="ascii">
                      -0.22534                       0.93753                       0.10800
                      -0.20873                       1.79274                       0.22649
                      -0.16919                       3.49387                       0.52211
                      -0.12545                       5.19020                       0.84511
                      -0.06609                       7.30716                       1.26460
                       0.00277                       9.85937                       1.67800
                       0.07180                      12.42107                       2.00944
                       0.14947                      14.98054                       2.33810
                       0.23664                      17.53794                       2.66303
                       0.33424                      20.09307                       2.98558
                       0.44316                      22.64563                       3.30822
                       0.56383                      25.19580                       3.63029
                       0.69664                      27.74363                       3.95202
                       0.84183                      30.28918                       4.27369
                       0.99954                      32.83242                       4.59565
                       1.14077                      34.94997                       4.86436
                       1.25934                      36.64348                       5.07477
                       1.38016                      38.34063                       5.25152
                       1.44496                      39.18519                       5.36574
        </DataArray>
        <DataArray type="Float32" Name="RotationalVelocity" NumberOfComponents="3" format="ascii">
                       0.62988                      -0.00412                      -0.05796
                       0.62978                      -0.00425                      -0.05797
                       0.62953                      -0.00471                      -0.05800
                       0.62919                      -0.00540                      -0.05805
                       0.62871                      -0.00653                      -0.05816
                       0.62806                      -0.00821                      -0.05832
                       0.62738                      -0.01018                      -0.05853
                       0.62670                      -0.01239                      -0.05877
                       0.62604                      -0.01482                      -0.05903
                       0.62541                      -0.01743                      -0.05932
                       0.62482                      -0.02021                      -0.05962
                       0.62429                      -0.02313                      -0.05995
                       0.62380                      -0.02615                      -0.06033
                       0.62337                      -0.02919                      -0.06077
                       0.62301                      -0.03218                      -0.06133
                       0.62278                      -0.03454                      -0.06190
                       0.62264                      -0.03627                      -0.06247
                       0.62256                      -0.03779                      -0.06315
                       0.62254                      -0.03846                      -0.06355
        </DataArray>
        <DataArray type="Float32" Name="TranslationalAcceleration" NumberOfComponents="3" format="ascii">
                      -0.23427                       0.05000                       0.50164
                       0.00703                       0.03881                       0.69825
                       0.05479                       0.07121                       2.01018
                       0.13329                       0.06787                       3.23385
                       0.25062                       0.03253                       4.67842
                       0.39050                       0.01616                       6.32812
                       0.49889                       0.01831                       7.93535
                       0.55314                      -0.01473                       9.53631
                       0.54244                      -0.08267                      11.14859
                       0.46439                      -0.18625                      12.77709
                       0.32441                      -0.32602                      14.41765
                       0.13426                      -0.49970                      16.06085
                      -0.08891                      -0.70452                      17.69571
                      -0.32381                      -0.93643                      19.31322
                      -0.54619                      -1.19024                      20.90953
                      -0.70233                      -1.41426                      22.22667
                      -0.79847                      -1.59365                      23.27859
                      -0.86993                      -1.75096                      24.34127
                      -0.88352                      -1.84432                      24.87527
        </DataArray>
        <DataArray type="Float32" Name="OrientationX" NumberOfComponents="3" format="ascii">
                       0.96714                       0.23384                      -0.09977
                       0.96718                       0.23380                      -0.09951
                       0.96729                       0.23369                      -0.09870
                       0.96746                       0.23351                      -0.09749
                       0.96773                       0.23321                      -0.09549
                       0.97455                       0.20190                      -0.09744
                       0.97907                       0.17891                      -0.09701
                       0.98277                       0.15850                      -0.09513
                       0.98630                       0.13669                      -0.09232
                       0.98954                       0.11398                      -0.08844
                       0.99226                       0.09213                      -0.08323
                       0.99457                       0.07016                      -0.07692
                       0.99634                       0.04985                      -0.06950
                       0.99757                       0.03383                      -0.06098
                       0.99846                       0.01803                      -0.05254
                       0.99892                       0.00495                      -0.04610
                       0.99912                      -0.00470                      -0.04168
                       0.99923                      -0.01013                      -0.03783
                       0.99929                      -0.01044                      -0.03614
        </DataArray>
        <DataArray type="Float32" Name="OrientationY" NumberOfComponents="3" format="ascii">
                       0.21595                      -0.96270                      -0.16300
                       0.21596                      -0.96271                      -0.16292
                       0.21599                      -0.96275                      -0.16269
                       0.21602                      -0.96279                      -0.16237
                       0.21607                      -0.96287                      -0.16185
                       0.18514                      -0.96992                      -0.15804
                       0.16270                      -0.97442                      -0.15501
                       0.14299                      -0.97795                      -0.15223
                       0.12201                      -0.98123                      -0.14935
                       0.10026                      -0.98412                      -0.14651
                       0.07951                      -0.98639                      -0.14391
                       0.05876                      -0.98819                      -0.14154
                       0.03976                      -0.98941                      -0.13958
                       0.02513                      -0.99008                      -0.13821
                       0.01067                      -0.99050                      -0.13710
                      -0.00139                      -0.99066                      -0.13638
                      -0.01033                      -0.99066                      -0.13595
                      -0.01518                      -0.99063                      -0.13574
                      -0.01526                      -0.99063                      -0.13573
        </DataArray>
        <DataArray type="Float32" Name="OrientationZ" NumberOfComponents="3" format="ascii">
                      -0.13416                       0.13610                      -0.98157
                      -0.13390                       0.13608                      -0.98161
                      -0.13304                       0.13606                      -0.98173
                      -0.13178                       0.13603                      -0.98190
                      -0.12969                       0.13600                      -0.98218
                      -0.12642                       0.13598                      -0.98261
                      -0.12227                       0.13598                      -0.98314
                      -0.11716                       0.13600                      -0.98376
                      -0.11100                       0.13604                      -0.98446
                      -0.10373                       0.13611                      -0.98525
                      -0.09535                       0.13618                      -0.98608
                      -0.08594                       0.13625                      -0.98694
                      -0.07572                       0.13631                      -0.98777
                      -0.06506                       0.13634                      -0.98852
                      -0.05451                       0.13633                      -0.98916
                      -0.04634                       0.13630                      -0.98958
                      -0.04065                       0.13626                      -0.98984
                      -0.03610                       0.13621                      -0.99002
                      -0.03438                       0.13618                      -0.99009
        </DataArray>
        <DataArray type="Float32" Name="Force" NumberOfComponents="3" format="ascii">
                      -0.00725                      -0.57638                      -0.07892
                     119.54242                     -15.78605                     -18.49516
                     138.17903                     -38.16841                     -24.01752
                     112.03141                     -47.40883                     -21.60796
                     940.26740                     325.92486                     -78.99065
                     945.44142                     279.98073                     -82.85054
                    1087.34836                     304.60671                     -93.04541
                    1114.83316                     321.26514                     -88.30320
                    1235.52374                     376.44378                     -87.23860
                    1435.79316                     418.80581                     -93.28215
                    1584.88680                     448.60194                     -91.29796
                    1719.46393                     443.98248                     -88.47003
                    2167.85514                     469.44879                    -101.47735
                    2357.71631                     466.83765                     -90.88929
                    2492.26492                     449.34160                     -75.55290
                    2564.18908                     427.43422                     -61.35214
                    2496.78393                     383.02465                     -49.94091
                    1806.34994                     242.92350                     -32.53200
                     611.00051                     -13.20377                     -23.04474
        </DataArray>
        <DataArray type="Float32" Name="Moment" NumberOfComponents="3" format="ascii">
                       0.00000                       0.00000                       0.00000
                       0.00000                       0.00000                       0.00000
                       0.00000                       0.00000                       0.00000
                       0.00000                       0.00000                       0.00000
                      65.66503                     -68.91918                     497.27667
                      72.82788                     -78.42544                     566.04192
                      70.51964                     -78.53027                     567.01960
                      71.36067                     -82.94308                     599.16884
                      60.49097                     -74.21805                     536.44955
                      52.37390                     -68.76768                     497.39197
                      38.94927                     -55.63931                     402.75028
                      35.45488                     -56.19043                     407.09628
                      41.25766                     -74.20331                     538.10989
                      36.67317                     -76.74826                     557.11687
                      29.59646                     -73.88650                     536.86813
                      23.81060                     -69.89173                     508.22637
                      18.65644                     -62.41040                     454.06442
                       8.28911                     -31.21277                     227.18301
                       6.64796                     -26.28134                     191.31997
        </DataArray>
      </PointData>
      <Lines>
        <DataArray type="Int32" Name="connectivity" format="ascii">
      0      1
      1      2
      2      3
      3      4
      4      5
      5      6
      6      7
      7      8
      8      9
      9     10
     10     11
     11     12
     12     13
     13     14
     14     15
     15     16
     16     17
     17     18
        </DataArray>
        <DataArray type="Int32" Name="offsets" format="ascii">
      2
      4
      6
      8
     10
     12
     14
     16
     18
     20
     22
     24
     26
     28
     30
     32
     34
     36
        </DataArray>
      </Lines>
    </Piece>
  </PolyData>
</VTKFile>
