<?xml version="1.0"?>
<VTKFile type="PolyData" version="0.1" byte_order="LittleEndian">
  <PolyData>
    <Piece NumberOfPoints="     19" NumberOfVerts="  0" NumberOfLines="     18"
           NumberOfStrips="  0" NumberOfPolys="      0">
      <Points>
        <DataArray type="Float32" NumberOfComponents="3" format="ascii">
                      -4.98953                      -1.19364                      89.11631
                      -5.12386                      -2.27845                      88.29538
                      -5.41989                      -4.38956                      86.57992
                      -5.72652                      -6.47259                      84.82841
                      -6.11182                      -9.05907                      82.61576
                      -6.50022                     -12.24977                      80.06358
                      -6.84114                     -15.51848                      77.60655
                      -7.16938                     -18.78709                      75.14684
                      -7.48323                     -22.05692                      72.68589
                      -7.78583                     -25.32700                      70.22286
                      -8.08241                     -28.59537                      67.75591
                      -8.37717                     -31.86324                      65.28733
                      -8.67729                     -35.13092                      62.81874
                      -8.99163                     -38.39871                      60.35220
                      -9.32833                     -41.66666                      57.88960
                      -9.63502                     -44.39025                      55.84249
                      -9.90052                     -46.57399                      54.21530
                     -10.17778                     -48.79124                      52.63502
                     -10.33720                     -49.87456                      51.81561
        </DataArray>
      </Points>
      <PointData>
        <DataArray type="Float32" Name="TranslationalVelocity" NumberOfComponents="3" format="ascii">
                      -0.30344                       2.55267                      -3.34441
                      -0.57641                       4.88506                      -6.38193
                      -1.11083                       9.76119                     -12.29063
                      -1.64133                      14.73843                     -18.11754
                      -2.30326                      21.02161                     -25.34804
                      -3.12365                      28.24907                     -34.26074
                      -3.97034                      35.19276                     -43.38290
                      -4.82823                      42.13498                     -52.49557
                      -5.70326                      49.07139                     -61.60198
                      -6.60092                      56.00541                     -70.69921
                      -7.52551                      62.94395                     -79.78173
                      -8.48020                      69.88225                     -88.85320
                      -9.46508                      76.81827                     -97.91506
                     -10.47642                      83.74942                    -106.96907
                     -11.50578                      90.67332                    -116.01699
                     -12.36737                      96.43506                    -123.55412
                     -13.05144                     101.02039                    -129.59646
                     -13.72796                     105.47882                    -135.73275
                     -14.05465                     107.79485                    -138.73017
        </DataArray>
        <DataArray type="Float32" Name="RotationalVelocity" NumberOfComponents="3" format="ascii">
                       2.80016                      -0.00085                      -0.25294
                       2.79973                      -0.00077                      -0.25321
                       2.79861                      -0.00023                      -0.25357
                       2.79720                       0.00053                      -0.25391
                       2.79519                       0.00145                      -0.25460
                       2.79257                       0.00236                      -0.25611
                       2.78990                       0.00332                      -0.25842
                       2.78729                       0.00490                      -0.26137
                       2.78482                       0.00785                      -0.26459
                       2.78255                       0.01288                      -0.26763
                       2.78051                       0.02047                      -0.26996
                       2.77874                       0.03072                      -0.27108
                       2.77732                       0.04311                      -0.27058
                       2.77634                       0.05635                      -0.26823
                       2.77596                       0.06816                      -0.26401
                       2.77622                       0.07467                      -0.25929
                       2.77696                       0.07569                      -0.25492
                       2.77827                       0.07113                      -0.25033
                       2.77918                       0.06616                      -0.24808
        </DataArray>
        <DataArray type="Float32" Name="TranslationalAcceleration" NumberOfComponents="3" format="ascii">
                       0.71785                       9.41542                       7.18861
                       0.97394                      11.38140                       8.64515
                       2.50328                      32.06854                      25.40472
                       3.69497                      50.78654                      41.19680
                       5.08969                      72.39548                      59.87655
                       6.94880                      97.53604                      80.22499
                       9.16256                     122.58646                      99.15636
                      11.59567                     147.51441                     117.97214
                      13.86371                     172.62503                     136.98692
                      15.52935                     197.99096                     156.37917
                      16.23193                     223.52922                     176.19952
                      15.80631                     249.10118                     196.35245
                      14.40881                     274.54747                     216.65970
                      12.63191                     299.76117                     236.87526
                      11.61309                     324.76013                     256.69919
                      12.68159                     345.57087                     272.67229
                      15.80477                     362.41484                     284.89071
                      22.09668                     379.89379                     296.17538
                      26.49107                     388.62686                     301.88986
        </DataArray>
        <DataArray type="Float32" Name="OrientationX" NumberOfComponents="3" format="ascii">
                       0.94948                       0.10556                      -0.29553
                       0.94951                       0.10586                      -0.29534
                       0.94954                       0.10685                      -0.29489
                       0.94954                       0.10836                      -0.29434
                       0.94947                       0.11090                      -0.29362
                       0.95833                       0.09578                      -0.26911
                       0.96385                       0.08697                      -0.25185
                       0.96789                       0.08093                      -0.23800
                       0.97141                       0.07527                      -0.22516
                       0.97423                       0.07028                      -0.21432
                       0.97597                       0.06694                      -0.20737
                       0.97687                       0.06444                      -0.20389
                       0.97663                       0.06344                      -0.20535
                       0.97478                       0.06494                      -0.21352
                       0.97224                       0.06558                      -0.22460
                       0.96980                       0.06462                      -0.23520
                       0.96760                       0.06271                      -0.24459
                       0.96452                       0.06136                      -0.25678
                       0.96248                       0.06123                      -0.26434
        </DataArray>
        <DataArray type="Float32" Name="OrientationY" NumberOfComponents="3" format="ascii">
                       0.29817                      -0.59710                       0.74469
                       0.29819                      -0.59717                       0.74463
                       0.29840                      -0.59731                       0.74443
                       0.29885                      -0.59742                       0.74416
                       0.29978                      -0.59749                       0.74373
                       0.27122                      -0.60075                       0.75202
                       0.25219                      -0.60273                       0.75704
                       0.23755                      -0.60417                       0.76062
                       0.22394                      -0.60543                       0.76374
                       0.21231                      -0.60650                       0.76622
                       0.20476                      -0.60726                       0.76767
                       0.20047                      -0.60781                       0.76836
                       0.20098                      -0.60806                       0.76803
                       0.20834                      -0.60789                       0.76620
                       0.21745                      -0.60761                       0.76389
                       0.22524                      -0.60736                       0.76183
                       0.23149                      -0.60717                       0.76010
                       0.24031                      -0.60683                       0.75763
                       0.24621                      -0.60659                       0.75593
        </DataArray>
        <DataArray type="Float32" Name="OrientationZ" NumberOfComponents="3" format="ascii">
                      -0.09785                      -0.79519                      -0.59841
                      -0.09755                      -0.79510                      -0.59859
                      -0.09660                      -0.79486                      -0.59906
                      -0.09521                      -0.79457                      -0.59966
                      -0.09295                      -0.79417                      -0.60054
                      -0.08964                      -0.79368                      -0.60170
                      -0.08596                      -0.79319                      -0.60288
                      -0.08223                      -0.79274                      -0.60399
                      -0.07883                      -0.79233                      -0.60498
                      -0.07613                      -0.79197                      -0.60579
                      -0.07454                      -0.79168                      -0.60637
                      -0.07442                      -0.79147                      -0.60667
                      -0.07615                      -0.79135                      -0.60660
                      -0.08004                      -0.79136                      -0.60609
                      -0.08638                      -0.79153                      -0.60500
                      -0.09362                      -0.79179                      -0.60357
                      -0.10083                      -0.79209                      -0.60201
                      -0.10933                      -0.79246                      -0.60005
                      -0.11406                      -0.79266                      -0.59890
        </DataArray>
        <DataArray type="Float32" Name="Force" NumberOfComponents="3" format="ascii">
                       2.03179                     -17.17625                      22.49235
                     186.73377                     -95.11762                      95.95699
                     312.51795                    -262.26254                     298.02580
                     331.05245                    -373.08948                     442.97648
                    1493.05345                     156.97672                    -439.78404
                    1364.52562                      97.55528                    -333.07088
                    1225.65019                      39.29790                    -227.20377
                    1868.47039                      71.74257                    -350.02385
                    2316.08409                      69.65617                    -394.73518
                    2555.92958                      53.16551                    -392.33482
                    4169.60452                      81.21933                    -621.19058
                    4428.47484                      61.08986                    -625.33865
                    3478.21429                       8.34045                    -448.70819
                    1992.75972                     -69.67782                    -171.53002
                   -3652.93810                    -395.56562                    1047.74676
                     468.34264                    -133.61481                     104.56999
                   -1102.72705                    -154.83262                     391.04323
                   -2385.94165                    -119.07954                     594.24792
                  -19492.52029                     764.56522                    2701.19059
        </DataArray>
        <DataArray type="Float32" Name="Moment" NumberOfComponents="3" format="ascii">
                       0.00000                       0.00000                       0.00000
                       0.00000                       0.00000                       0.00000
                       0.00000                       0.00000                       0.00000
                       0.00000                       0.00000                       0.00000
                     125.77409                    1077.82700                     811.71930
                     225.90615                    2009.33786                    1514.02083
                     288.98004                    2683.33591                    2023.02069
                     441.67635                    4291.55377                    3237.34014
                     627.79696                    6369.82934                    4807.59908
                     686.92725                    7223.17988                    5453.91741
                     750.14993                    8062.84513                    6089.41532
                     795.14703                    8563.36702                    6467.57333
                     613.10433                    6453.07679                    4872.49808
                     633.10299                    6336.04682                    4781.32181
                     646.79489                    5991.72240                    4517.14220
                     657.68461                    5613.99867                    4227.71041
                     625.44115                    4950.26984                    3723.76762
                     339.36040                    2473.46628                    1858.20311
                     320.96281                    2240.52454                    1681.97943
        </DataArray>
      </PointData>
      <Lines>
        <DataArray type="Int32" Name="connectivity" format="ascii">
      0      1
      1      2
      2      3
      3      4
      4      5
      5      6
      6      7
      7      8
      8      9
      9     10
     10     11
     11     12
     12     13
     13     14
     14     15
     15     16
     16     17
     17     18
        </DataArray>
        <DataArray type="Int32" Name="offsets" format="ascii">
      2
      4
      6
      8
     10
     12
     14
     16
     18
     20
     22
     24
     26
     28
     30
     32
     34
     36
        </DataArray>
      </Lines>
    </Piece>
  </PolyData>
</VTKFile>
