<?xml version="1.0"?>
<VTKFile type="PolyData" version="0.1" byte_order="LittleEndian">
  <PolyData>
    <Piece NumberOfPoints="    550" NumberOfVerts="  0" NumberOfLines="     21"
           NumberOfStrips="  0" NumberOfPolys="    567">
      <Points>
        <DataArray type="Float32" NumberOfComponents="3" format="ascii">
                       2.97345                      -0.00000                       2.18980
                       2.88003                       0.73945                       2.18981
                       2.60566                       1.43243                       2.18983
                       2.16757                       2.03541                       2.18986
                       1.59328                       2.51050                       2.18990
                       0.91889                       2.82784                       2.18995
                       0.18677                       2.96750                       2.19000
                      -0.55708                       2.92071                       2.19005
                      -1.26593                       2.69039                       2.19009
                      -1.89523                       2.29102                       2.19013
                      -2.40544                       1.74770                       2.19016
                      -2.76450                       1.09457                       2.19019
                      -2.94986                       0.37266                       2.19020
                      -2.94986                      -0.37267                       2.19019
                      -2.76450                      -1.09458                       2.19018
                      -2.40544                      -1.74771                       2.19015
                      -1.89523                      -2.29103                       2.19012
                      -1.26593                      -2.69039                       2.19008
                      -0.55708                      -2.92071                       2.19003
                       0.18677                      -2.96751                       2.18998
                       0.91889                      -2.82785                       2.18993
                       1.59328                      -2.51051                       2.18989
                       2.16757                      -2.03542                       2.18985
                       2.60566                      -1.43244                       2.18982
                       2.88003                      -0.73945                       2.18981
                       2.92083                      -0.00003                       6.56933
                       2.82909                       0.72618                       6.56936
                       2.55963                       1.40675                       6.56943
                       2.12938                       1.99893                       6.56953
                       1.56539                       2.46551                       6.56966
                       0.90307                       2.77718                       6.56982
                       0.18406                       2.91433                       6.56998
                      -0.54647                       2.86837                       6.57015
                      -1.24262                       2.64218                       6.57031
                      -1.86065                       2.24997                       6.57044
                      -2.36173                       1.71638                       6.57055
                      -2.71436                       1.07494                       6.57063
                      -2.89639                       0.36596                       6.57066
                      -2.89639                      -0.36602                       6.57066
                      -2.71436                      -1.07500                       6.57061
                      -2.36173                      -1.71644                       6.57052
                      -1.86065                      -2.25002                       6.57041
                      -1.24263                      -2.64224                       6.57026
                      -0.54647                      -2.86843                       6.57010
                       0.18406                      -2.91439                       6.56993
                       0.90307                      -2.77723                       6.56977
                       1.56538                      -2.46557                       6.56962
                       2.12938                      -1.99899                       6.56950
                       2.55963                      -1.40681                       6.56940
                       2.82909                      -0.72623                       6.56935
                       2.86898                      -0.00008                      10.94882
                       2.77891                       0.71289                      10.94886
                       2.51436                       1.38105                      10.94898
                       2.09196                       1.96243                      10.94916
                       1.53825                       2.42051                      10.94940
                       0.88802                       2.72648                      10.94967
                       0.18212                       2.86114                      10.94996
                      -0.53510                       2.81602                      10.95026
                      -1.21855                       2.59395                      10.95054
                      -1.82531                       2.20889                      10.95078
                      -2.31725                       1.68503                      10.95098
                      -2.66345                       1.05529                      10.95111
                      -2.84217                       0.35924                      10.95118
                      -2.84217                      -0.35939                      10.95117
                      -2.66345                      -1.05544                      10.95109
                      -2.31725                      -1.68518                      10.95093
                      -1.82531                      -2.20904                      10.95072
                      -1.21855                      -2.59410                      10.95047
                      -0.53510                      -2.81617                      10.95018
                       0.18212                      -2.86129                      10.94989
                       0.88802                      -2.72664                      10.94960
                       1.53825                      -2.42066                      10.94933
                       2.09196                      -1.96259                      10.94911
                       2.51436                      -1.38120                      10.94894
                       2.77891                      -0.71304                      10.94884
                       2.81795                      -0.00014                      15.32830
                       2.72956                       0.69958                      15.32837
                       2.46993                       1.35533                      15.32853
                       2.05537                       1.92591                      15.32879
                       1.51194                       2.37548                      15.32913
                       0.87379                       2.67577                      15.32952
                       0.18100                       2.80793                      15.32994
                      -0.52289                       2.76364                      15.33037
                      -1.19365                       2.54570                      15.33077
                      -1.78914                       2.16779                      15.33112
                      -2.27194                       1.65366                      15.33140
                      -2.61171                       1.03562                      15.33160
                      -2.78711                       0.35250                      15.33169
                      -2.78711                      -0.35279                      15.33168
                      -2.61171                      -1.03591                      15.33156
                      -2.27194                      -1.65395                      15.33134
                      -1.78914                      -2.16808                      15.33104
                      -1.19365                      -2.54599                      15.33068
                      -0.52289                      -2.76393                      15.33027
                       0.18100                      -2.80822                      15.32984
                       0.87379                      -2.67606                      15.32943
                       1.51194                      -2.37577                      15.32905
                       2.05537                      -1.92620                      15.32873
                       2.46993                      -1.35562                      15.32849
                       2.72956                      -0.69986                      15.32834
                       2.76777                      -0.00023                      19.70781
                       2.68104                       0.68624                      19.70789
                       2.42633                       1.32959                      19.70811
                       2.01962                       1.88937                      19.70844
                       1.48647                       2.33043                      19.70888
                       0.86039                       2.62504                      19.70938
                       0.18072                       2.75469                      19.70992
                      -0.50985                       2.71125                      19.71047
                      -1.16792                       2.49743                      19.71099
                      -1.75214                       2.12667                      19.71144
                      -2.22580                       1.62227                      19.71181
                      -2.55914                       1.01593                      19.71206
                      -2.73122                       0.34573                      19.71218
                      -2.73122                      -0.34620                      19.71216
                      -2.55914                      -1.01640                      19.71201
                      -2.22580                      -1.62274                      19.71173
                      -1.75214                      -2.12714                      19.71135
                      -1.16792                      -2.49790                      19.71087
                      -0.50985                      -2.71171                      19.71035
                       0.18072                      -2.75516                      19.70980
                       0.86039                      -2.62551                      19.70926
                       1.48647                      -2.33090                      19.70877
                       2.01962                      -1.88984                      19.70836
                       2.42633                      -1.33005                      19.70805
                       2.68104                      -0.68671                      19.70786
                       2.71839                      -0.00034                      24.08735
                       2.63335                       0.67289                      24.08745
                       2.38354                       1.30382                      24.08772
                       1.98468                       1.85281                      24.08812
                       1.46182                       2.28536                      24.08864
                       0.84782                       2.57429                      24.08925
                       0.18125                       2.70144                      24.08991
                      -0.49599                       2.65883                      24.09057
                      -1.14137                       2.44914                      24.09119
                      -1.71431                       2.08553                      24.09174
                      -2.17884                       1.59086                      24.09218
                      -2.50575                       0.99622                      24.09248
                      -2.67451                       0.33895                      24.09263
                      -2.67451                      -0.33964                      24.09261
                      -2.50575                      -0.99690                      24.09243
                      -2.17884                      -1.59155                      24.09209
                      -1.71431                      -2.08622                      24.09162
                      -1.14137                      -2.44982                      24.09105
                      -0.49599                      -2.65952                      24.09042
                       0.18125                      -2.70213                      24.08976
                       0.84782                      -2.57497                      24.08911
                       1.46182                      -2.28605                      24.08852
                       1.98468                      -1.85350                      24.08802
                       2.38354                      -1.30451                      24.08764
                       2.63335                      -0.67358                      24.08742
                       2.66981                      -0.00048                      28.46694
                       2.58643                       0.65952                      28.46706
                       2.34154                       1.27804                      28.46736
                       1.95052                       1.81623                      28.46783
                       1.43795                       2.24026                      28.46843
                       0.83603                       2.52351                      28.46913
                       0.18257                       2.64816                      28.46989
                      -0.48135                       2.60639                      28.47065
                      -1.11403                       2.40082                      28.47137
                      -1.67571                       2.04437                      28.47201
                      -2.13110                       1.55943                      28.47252
                      -2.45158                       0.97648                      28.47287
                      -2.61701                       0.33214                      28.47304
                      -2.61701                      -0.33310                      28.47301
                      -2.45158                      -0.97743                      28.47280
                      -2.13110                      -1.56039                      28.47241
                      -1.67571                      -2.04532                      28.47187
                      -1.11403                      -2.40177                      28.47122
                      -0.48135                      -2.60734                      28.47048
                       0.18257                      -2.64911                      28.46971
                       0.83603                      -2.52446                      28.46897
                       1.43795                      -2.24122                      28.46828
                       1.95052                      -1.81718                      28.46771
                       2.34154                      -1.27899                      28.46727
                       2.58643                      -0.66047                      28.46701
                       2.62197                      -0.00063                      32.84656
                       2.54027                       0.64611                      32.84669
                       2.30029                       1.25223                      32.84703
                       1.91712                       1.77962                      32.84756
                       1.41483                       2.19515                      32.84824
                       0.82498                       2.47271                      32.84903
                       0.18464                       2.59486                      32.84988
                      -0.46596                       2.55393                      32.85073
                      -1.08594                       2.35248                      32.85154
                      -1.63635                       2.00318                      32.85226
                      -2.08260                       1.52797                      32.85283
                      -2.39665                       0.95672                      32.85322
                      -2.55877                       0.32531                      32.85341
                      -2.55877                      -0.32658                      32.85338
                      -2.39665                      -0.95799                      32.85314
                      -2.08260                      -1.52924                      32.85271
                      -1.63635                      -2.00445                      32.85210
                      -1.08594                      -2.35375                      32.85136
                      -0.46596                      -2.55520                      32.85053
                       0.18464                      -2.59613                      32.84967
                       0.82498                      -2.47398                      32.84883
                       1.41483                      -2.19642                      32.84806
                       1.91712                      -1.78089                      32.84742
                       2.30029                      -1.25350                      32.84693
                       2.54027                      -0.64738                      32.84664
                       2.57487                      -0.00082                      37.22620
                       2.49483                       0.63269                      37.22635
                       2.25977                       1.22639                      37.22672
                       1.88445                       1.74298                      37.22731
                       1.39244                       2.15000                      37.22806
                       0.81467                       2.42188                      37.22893
                       0.18744                       2.54153                      37.22986
                      -0.44984                       2.50143                      37.23081
                      -1.05713                       2.30411                      37.23170
                      -1.59626                       1.96197                      37.23249
                      -2.03337                       1.49649                      37.23312
                      -2.34099                       0.93693                      37.23355
                      -2.49979                       0.31845                      37.23376
                      -2.49979                      -0.32009                      37.23373
                      -2.34099                      -0.93857                      37.23346
                      -2.03337                      -1.49813                      37.23298
                      -1.59626                      -1.96361                      37.23231
                      -1.05713                      -2.30575                      37.23149
                      -0.44984                      -2.50307                      37.23058
                       0.18744                      -2.54317                      37.22963
                       0.81467                      -2.42352                      37.22871
                       1.39244                      -2.15164                      37.22786
                       1.88445                      -1.74462                      37.22715
                       2.25977                      -1.22803                      37.22661
                       2.49483                      -0.63433                      37.22629
                       2.52849                      -0.00104                      41.60586
                       2.45013                       0.61923                      41.60602
                       2.21998                       1.20052                      41.60643
                       1.85250                       1.70631                      41.60706
                       1.37078                       2.10482                      41.60788
                       0.80509                       2.37102                      41.60883
                       0.19097                       2.48817                      41.60985
                      -0.43298                       2.44891                      41.61088
                      -1.02758                       2.25572                      41.61186
                      -1.55545                       1.92072                      41.61271
                      -1.98342                       1.46497                      41.61339
                      -2.28461                       0.91711                      41.61386
                      -2.44009                       0.31156                      41.61409
                      -2.44009                      -0.31363                      41.61406
                      -2.28461                      -0.91918                      41.61377
                      -1.98342                      -1.46705                      41.61324
                      -1.55544                      -1.92279                      41.61251
                      -1.02758                      -2.25779                      41.61162
                      -0.43298                      -2.45098                      41.61062
                       0.19097                      -2.49024                      41.60959
                       0.80509                      -2.37309                      41.60858
                       1.37078                      -2.10690                      41.60766
                       1.85250                      -1.70838                      41.60688
                       2.21998                      -1.20259                      41.60630
                       2.45013                      -0.62130                      41.60595
                       2.48286                      -0.00128                      45.98552
                       2.40617                       0.60574                      45.98569
                       2.18094                       1.17462                      45.98614
                       1.82130                       1.66961                      45.98683
                       1.34987                       2.05961                      45.98771
                       0.79626                       2.32013                      45.98874
                       0.19525                       2.43477                      45.98984
                      -0.41539                       2.39636                      45.99095
                      -0.99729                       2.20729                      45.99201
                      -1.51388                       1.87944                      45.99293
                      -1.93272                       1.43343                      45.99367
                      -2.22748                       0.89726                      45.99417
                      -2.37964                       0.30464                      45.99441
                      -2.37964                      -0.30721                      45.99438
                      -2.22748                      -0.89983                      45.99406
                      -1.93272                      -1.43600                      45.99349
                      -1.51388                      -1.88201                      45.99270
                      -0.99729                      -2.20985                      45.99174
                      -0.41539                      -2.39892                      45.99066
                       0.19525                      -2.43734                      45.98955
                       0.79626                      -2.32269                      45.98846
                       1.34987                      -2.06218                      45.98746
                       1.82130                      -1.67218                      45.98662
                       2.18094                      -1.17718                      45.98600
                       2.40617                      -0.60831                      45.98562
                       2.43800                      -0.00157                      50.36517
                       2.36299                       0.59221                      50.36537
                       2.14266                       1.14868                      50.36585
                       1.79088                       1.63287                      50.36659
                       1.32973                       2.01437                      50.36754
                       0.78819                       2.26920                      50.36864
                       0.20030                       2.38135                      50.36983
                      -0.39702                       2.34377                      50.37103
                      -0.96622                       2.15882                      50.37215
                      -1.47155                       1.83813                      50.37315
                      -1.88125                       1.40184                      50.37394
                      -2.16958                       0.87738                      50.37448
                      -2.31842                       0.29768                      50.37474
                      -2.31842                      -0.30082                      50.37470
                      -2.16958                      -0.88051                      50.37436
                      -1.88125                      -1.40498                      50.37375
                      -1.47155                      -1.84126                      50.37289
                      -0.96622                      -2.16196                      50.37186
                      -0.39702                      -2.34690                      50.37070
                       0.20030                      -2.38448                      50.36950
                       0.78819                      -2.27233                      50.36833
                       1.32973                      -2.01751                      50.36726
                       1.79088                      -1.63601                      50.36636
                       2.14266                      -1.15181                      50.36569
                       2.36299                      -0.59535                      50.36528
                       2.39395                      -0.00189                      54.74483
                       2.32061                       0.57865                      54.74504
                       2.10520                       1.12271                      54.74555
                       1.76126                       1.59610                      54.74634
                       1.31040                       1.96909                      54.74736
                       0.78094                       2.21823                      54.74854
                       0.20616                       2.32788                      54.74981
                      -0.37784                       2.29114                      54.75109
                      -0.93435                       2.11032                      54.75230
                      -1.42840                       1.79678                      54.75336
                      -1.82897                       1.37022                      54.75421
                      -2.11086                       0.85745                      54.75479
                      -2.25638                       0.29069                      54.75507
                      -2.25638                      -0.29446                      54.75502
                      -2.11086                      -0.86123                      54.75466
                      -1.82897                      -1.37400                      54.75400
                      -1.42840                      -1.80056                      54.75308
                      -0.93435                      -2.11409                      54.75198
                      -0.37784                      -2.29491                      54.75074
                       0.20615                      -2.33166                      54.74945
                       0.78094                      -2.22201                      54.74820
                       1.31040                      -1.97287                      54.74706
                       1.76126                      -1.59988                      54.74610
                       2.10520                      -1.12648                      54.74538
                       2.32061                      -0.58242                      54.74495
                       2.35074                      -0.00225                      59.12449
                       2.27908                       0.56505                      59.12471
                       2.06858                       1.09669                      59.12526
                       1.73249                       1.55929                      59.12610
                       1.29191                       1.92377                      59.12719
                       0.77453                       2.16723                      59.12845
                       0.21286                       2.27438                      59.12980
                      -0.35781                       2.23847                      59.13116
                      -0.90163                       2.06178                      59.13245
                      -1.38441                       1.75539                      59.13357
                      -1.77584                       1.33857                      59.13447
                      -2.05131                       0.83749                      59.13509
                      -2.19351                       0.28365                      59.13538
                      -2.19351                      -0.28815                      59.13533
                      -2.05131                      -0.84198                      59.13494
                      -1.77584                      -1.34306                      59.13424
                      -1.38441                      -1.75988                      59.13327
                      -0.90163                      -2.06627                      59.13209
                      -0.35781                      -2.24297                      59.13077
                       0.21286                      -2.27887                      59.12941
                       0.77453                      -2.17172                      59.12807
                       1.29191                      -1.92826                      59.12686
                       1.73249                      -1.56378                      59.12583
                       2.06858                      -1.10119                      59.12507
                       2.27908                      -0.56954                      59.12461
                       2.30840                      -0.00264                      63.50417
                       2.23840                       0.55141                      63.50440
                       2.03282                       1.07064                      63.50498
                       1.70457                       1.52244                      63.50588
                       1.27428                       1.87841                      63.50702
                       0.76898                       2.11619                      63.50835
                       0.22042                       2.22084                      63.50978
                      -0.33693                       2.18577                      63.51122
                      -0.86805                       2.01320                      63.51258
                      -1.33957                       1.71396                      63.51377
                      -1.72185                       1.30687                      63.51472
                      -1.99089                       0.81749                      63.51537
                      -2.12977                       0.27658                      63.51567
                      -2.12977                      -0.28187                      63.51562
                      -1.99089                      -0.82278                      63.51521
                      -1.72185                      -1.31215                      63.51447
                      -1.33957                      -1.71925                      63.51344
                      -0.86805                      -2.01848                      63.51219
                      -0.33693                      -2.19106                      63.51080
                       0.22042                      -2.22612                      63.50936
                       0.76898                      -2.12148                      63.50795
                       1.27428                      -1.88370                      63.50667
                       1.70457                      -1.52773                      63.50559
                       2.03282                      -1.07593                      63.50478
                       2.23840                      -0.55669                      63.50430
                       2.26688                      -0.00308                      67.88389
                       2.19856                       0.53773                      67.88414
                       1.99790                       1.04456                      67.88475
                       1.67749                       1.48556                      67.88568
                       1.25748                       1.83302                      67.88688
                       0.76426                       2.06512                      67.88827
                       0.22881                       2.16726                      67.88976
                      -0.31522                       2.13303                      67.89126
                      -0.83364                       1.96458                      67.89268
                      -1.29389                       1.67250                      67.89393
                      -1.66704                       1.27514                      67.89492
                      -1.92964                       0.79746                      67.89560
                      -2.06520                       0.26948                      67.89592
                      -2.06520                      -0.27563                      67.89586
                      -1.92964                      -0.80361                      67.89543
                      -1.66704                      -1.28129                      67.89466
                      -1.29389                      -1.67865                      67.89358
                      -0.83364                      -1.97074                      67.89228
                      -0.31522                      -2.13918                      67.89082
                       0.22881                      -2.17341                      67.88931
                       0.76426                      -2.07127                      67.88784
                       1.25748                      -1.83917                      67.88650
                       1.67749                      -1.49171                      67.88537
                       1.99790                      -1.05071                      67.88453
                       2.19856                      -0.54388                      67.88403
                       2.22611                      -0.00355                      72.26370
                       2.15946                       0.52402                      72.26395
                       1.96371                       1.01843                      72.26458
                       1.65115                       1.44864                      72.26554
                       1.24143                       1.78759                      72.26678
                       0.76028                       2.01400                      72.26821
                       0.23794                       2.11364                      72.26974
                      -0.29276                       2.08025                      72.27129
                      -0.79849                       1.91593                      72.27275
                      -1.24747                       1.63100                      72.27403
                      -1.61148                       1.24337                      72.27505
                      -1.86765                       0.77738                      72.27575
                      -1.99990                       0.26233                      72.27608
                      -1.99990                      -0.26942                      72.27602
                      -1.86765                      -0.78448                      72.27557
                      -1.61148                      -1.25046                      72.27477
                      -1.24747                      -1.63809                      72.27367
                      -0.79849                      -1.92302                      72.27232
                      -0.29276                      -2.08735                      72.27083
                       0.23794                      -2.12073                      72.26927
                       0.76028                      -2.02109                      72.26776
                       1.24143                      -1.79468                      72.26638
                       1.65115                      -1.45573                      72.26522
                       1.96371                      -1.02553                      72.26435
                       2.15946                      -0.53111                      72.26383
                       2.18590                      -0.00405                      76.64363
                       2.12092                       0.51027                      76.64389
                       1.93009                       0.99228                      76.64452
                       1.62537                       1.41168                      76.64549
                       1.22593                       1.74213                      76.64674
                       0.75687                       1.96286                      76.64818
                       0.24764                       2.06000                      76.64973
                      -0.26974                       2.02744                      76.65129
                      -0.76278                       1.86725                      76.65276
                      -1.20048                       1.58947                      76.65405
                      -1.55536                       1.21156                      76.65508
                      -1.80510                       0.75728                      76.65578
                      -1.93403                       0.25516                      76.65611
                      -1.93403                      -0.26325                      76.65605
                      -1.80510                      -0.76538                      76.65560
                      -1.55536                      -1.21966                      76.65479
                      -1.20048                      -1.59757                      76.65367
                      -0.76278                      -1.87534                      76.65232
                      -0.26974                      -2.03554                      76.65081
                       0.24764                      -2.06809                      76.64924
                       0.75687                      -1.97095                      76.64772
                       1.22593                      -1.75022                      76.64632
                       1.62537                      -1.41978                      76.64516
                       1.93009                      -1.00037                      76.64429
                       2.12092                      -0.51837                      76.64377
                       2.14594                      -0.00458                      81.02375
                       2.08264                       0.49650                      81.02400
                       1.89672                       0.96610                      81.02462
                       1.59985                       1.37470                      81.02558
                       1.21070                       1.69664                      81.02680
                       0.75370                       1.91168                      81.02821
                       0.25759                       2.00632                      81.02972
                      -0.24647                       1.97461                      81.03125
                      -0.72681                       1.81853                      81.03268
                      -1.15325                       1.54791                      81.03394
                      -1.49898                       1.17974                      81.03495
                      -1.74230                       0.73715                      81.03563
                      -1.86790                       0.24795                      81.03595
                      -1.86790                      -0.25711                      81.03589
                      -1.74230                      -0.74630                      81.03545
                      -1.49898                      -1.18889                      81.03465
                      -1.15325                      -1.55707                      81.03356
                      -0.72681                      -1.82769                      81.03223
                      -0.24647                      -1.98376                      81.03076
                       0.25759                      -2.01548                      81.02923
                       0.75370                      -1.92084                      81.02773
                       1.21069                      -1.70579                      81.02637
                       1.59985                      -1.38385                      81.02523
                       1.89672                      -0.97525                      81.02438
                       2.08264                      -0.50566                      81.02388
                       2.10577                      -0.00513                      85.40412
                       2.04414                       0.48271                      85.40436
                       1.86313                       0.93989                      85.40495
                       1.57411                       1.33770                      85.40584
                       1.19524                       1.65113                      85.40699
                       0.75033                       1.86049                      85.40831
                       0.26733                       1.95262                      85.40973
                      -0.22342                       1.92175                      85.41116
                      -0.69106                       1.76980                      85.41250
                      -1.10623                       1.50633                      85.41368
                      -1.44283                       1.14788                      85.41461
                      -1.67971                       0.71699                      85.41525
                      -1.80199                       0.24073                      85.41554
                      -1.80199                      -0.25099                      85.41548
                      -1.67971                      -0.72725                      85.41506
                      -1.44283                      -1.15814                      85.41432
                      -1.10623                      -1.51659                      85.41329
                      -0.69106                      -1.78006                      85.41205
                      -0.22342                      -1.93201                      85.41066
                       0.26733                      -1.96288                      85.40923
                       0.75033                      -1.87075                      85.40783
                       1.19524                      -1.66138                      85.40656
                       1.57411                      -1.34795                      85.40550
                       1.86313                      -0.95015                      85.40471
                       2.04414                      -0.49297                      85.40424
                       2.08541                      -0.00541                      87.59443
                       2.02461                       0.47580                      87.59466
                       1.84606                       0.92678                      87.59521
                       1.56096                       1.31919                      87.59606
                       1.18723                       1.62836                      87.59715
                       0.74836                       1.83488                      87.59840
                       0.27191                       1.92577                      87.59974
                      -0.21217                       1.89531                      87.60109
                      -0.67347                       1.74543                      87.60236
                      -1.08300                       1.48553                      87.60347
                      -1.41503                       1.13195                      87.60435
                      -1.64870                       0.70691                      87.60495
                      -1.76932                       0.23711                      87.60522
                      -1.76932                      -0.24793                      87.60516
                      -1.64870                      -0.71773                      87.60476
                      -1.41503                      -1.14278                      87.60405
                      -1.08300                      -1.49636                      87.60308
                      -0.67347                      -1.75625                      87.60190
                      -0.21217                      -1.90614                      87.60060
                       0.27191                      -1.93659                      87.59924
                       0.74836                      -1.84571                      87.59792
                       1.18723                      -1.63919                      87.59672
                       1.56096                      -1.33001                      87.59572
                       1.84606                      -0.93760                      87.59497
                       2.02461                      -0.48663                      87.59453
                       3.00000                       0.00000                       0.00000
                       2.90575                       0.74607                       0.00000
                       2.62892                       1.44526                       0.00000
                       2.18691                       2.05364                       0.00000
                       1.60748                       2.53298                       0.00000
                       0.92705                       2.85317                       0.00000
                       0.18837                       2.99408                       0.00000
                      -0.56214                       2.94686                       0.00000
                      -1.27734                       2.71448                       0.00000
                      -1.91227                       2.31154                       0.00000
                      -2.42705                       1.76336                       0.00000
                      -2.78933                       1.10437                       0.00000
                      -2.97634                       0.37600                       0.00000
                      -2.97634                      -0.37600                       0.00000
                      -2.78933                      -1.10437                       0.00000
                      -2.42705                      -1.76336                       0.00000
                      -1.91227                      -2.31154                       0.00000
                      -1.27734                      -2.71448                       0.00000
                      -0.56214                      -2.94686                       0.00000
                       0.18837                      -2.99408                       0.00000
                       0.92705                      -2.85317                       0.00000
                       1.60748                      -2.53298                       0.00000
                       2.18691                      -2.05364                       0.00000
                       2.62892                      -1.44526                       0.00000
                       2.90575                      -0.74607                       0.00000
        </DataArray>
      </Points>
      <Polys>
        <DataArray type="Int32" Name="connectivity" format="ascii">
      0      1     26     25
      1      2     27     26
      2      3     28     27
      3      4     29     28
      4      5     30     29
      5      6     31     30
      6      7     32     31
      7      8     33     32
      8      9     34     33
      9     10     35     34
     10     11     36     35
     11     12     37     36
     12     13     38     37
     13     14     39     38
     14     15     40     39
     15     16     41     40
     16     17     42     41
     17     18     43     42
     18     19     44     43
     19     20     45     44
     20     21     46     45
     21     22     47     46
     22     23     48     47
     23     24     49     48
     24      0     25     49
     24     23     22     21     20     19     18     17     16     15     14     13     12     11     10      9      8      7      6      5      4      3      2      1      0
     25     26     27     28     29     30     31     32     33     34     35     36     37     38     39     40     41     42     43     44     45     46     47     48     49
     25     26     51     50
     26     27     52     51
     27     28     53     52
     28     29     54     53
     29     30     55     54
     30     31     56     55
     31     32     57     56
     32     33     58     57
     33     34     59     58
     34     35     60     59
     35     36     61     60
     36     37     62     61
     37     38     63     62
     38     39     64     63
     39     40     65     64
     40     41     66     65
     41     42     67     66
     42     43     68     67
     43     44     69     68
     44     45     70     69
     45     46     71     70
     46     47     72     71
     47     48     73     72
     48     49     74     73
     49     25     50     74
     49     48     47     46     45     44     43     42     41     40     39     38     37     36     35     34     33     32     31     30     29     28     27     26     25
     50     51     52     53     54     55     56     57     58     59     60     61     62     63     64     65     66     67     68     69     70     71     72     73     74
     50     51     76     75
     51     52     77     76
     52     53     78     77
     53     54     79     78
     54     55     80     79
     55     56     81     80
     56     57     82     81
     57     58     83     82
     58     59     84     83
     59     60     85     84
     60     61     86     85
     61     62     87     86
     62     63     88     87
     63     64     89     88
     64     65     90     89
     65     66     91     90
     66     67     92     91
     67     68     93     92
     68     69     94     93
     69     70     95     94
     70     71     96     95
     71     72     97     96
     72     73     98     97
     73     74     99     98
     74     50     75     99
     74     73     72     71     70     69     68     67     66     65     64     63     62     61     60     59     58     57     56     55     54     53     52     51     50
     75     76     77     78     79     80     81     82     83     84     85     86     87     88     89     90     91     92     93     94     95     96     97     98     99
     75     76    101    100
     76     77    102    101
     77     78    103    102
     78     79    104    103
     79     80    105    104
     80     81    106    105
     81     82    107    106
     82     83    108    107
     83     84    109    108
     84     85    110    109
     85     86    111    110
     86     87    112    111
     87     88    113    112
     88     89    114    113
     89     90    115    114
     90     91    116    115
     91     92    117    116
     92     93    118    117
     93     94    119    118
     94     95    120    119
     95     96    121    120
     96     97    122    121
     97     98    123    122
     98     99    124    123
     99     75    100    124
     99     98     97     96     95     94     93     92     91     90     89     88     87     86     85     84     83     82     81     80     79     78     77     76     75
    100    101    102    103    104    105    106    107    108    109    110    111    112    113    114    115    116    117    118    119    120    121    122    123    124
    100    101    126    125
    101    102    127    126
    102    103    128    127
    103    104    129    128
    104    105    130    129
    105    106    131    130
    106    107    132    131
    107    108    133    132
    108    109    134    133
    109    110    135    134
    110    111    136    135
    111    112    137    136
    112    113    138    137
    113    114    139    138
    114    115    140    139
    115    116    141    140
    116    117    142    141
    117    118    143    142
    118    119    144    143
    119    120    145    144
    120    121    146    145
    121    122    147    146
    122    123    148    147
    123    124    149    148
    124    100    125    149
    124    123    122    121    120    119    118    117    116    115    114    113    112    111    110    109    108    107    106    105    104    103    102    101    100
    125    126    127    128    129    130    131    132    133    134    135    136    137    138    139    140    141    142    143    144    145    146    147    148    149
    125    126    151    150
    126    127    152    151
    127    128    153    152
    128    129    154    153
    129    130    155    154
    130    131    156    155
    131    132    157    156
    132    133    158    157
    133    134    159    158
    134    135    160    159
    135    136    161    160
    136    137    162    161
    137    138    163    162
    138    139    164    163
    139    140    165    164
    140    141    166    165
    141    142    167    166
    142    143    168    167
    143    144    169    168
    144    145    170    169
    145    146    171    170
    146    147    172    171
    147    148    173    172
    148    149    174    173
    149    125    150    174
    149    148    147    146    145    144    143    142    141    140    139    138    137    136    135    134    133    132    131    130    129    128    127    126    125
    150    151    152    153    154    155    156    157    158    159    160    161    162    163    164    165    166    167    168    169    170    171    172    173    174
    150    151    176    175
    151    152    177    176
    152    153    178    177
    153    154    179    178
    154    155    180    179
    155    156    181    180
    156    157    182    181
    157    158    183    182
    158    159    184    183
    159    160    185    184
    160    161    186    185
    161    162    187    186
    162    163    188    187
    163    164    189    188
    164    165    190    189
    165    166    191    190
    166    167    192    191
    167    168    193    192
    168    169    194    193
    169    170    195    194
    170    171    196    195
    171    172    197    196
    172    173    198    197
    173    174    199    198
    174    150    175    199
    174    173    172    171    170    169    168    167    166    165    164    163    162    161    160    159    158    157    156    155    154    153    152    151    150
    175    176    177    178    179    180    181    182    183    184    185    186    187    188    189    190    191    192    193    194    195    196    197    198    199
    175    176    201    200
    176    177    202    201
    177    178    203    202
    178    179    204    203
    179    180    205    204
    180    181    206    205
    181    182    207    206
    182    183    208    207
    183    184    209    208
    184    185    210    209
    185    186    211    210
    186    187    212    211
    187    188    213    212
    188    189    214    213
    189    190    215    214
    190    191    216    215
    191    192    217    216
    192    193    218    217
    193    194    219    218
    194    195    220    219
    195    196    221    220
    196    197    222    221
    197    198    223    222
    198    199    224    223
    199    175    200    224
    199    198    197    196    195    194    193    192    191    190    189    188    187    186    185    184    183    182    181    180    179    178    177    176    175
    200    201    202    203    204    205    206    207    208    209    210    211    212    213    214    215    216    217    218    219    220    221    222    223    224
    200    201    226    225
    201    202    227    226
    202    203    228    227
    203    204    229    228
    204    205    230    229
    205    206    231    230
    206    207    232    231
    207    208    233    232
    208    209    234    233
    209    210    235    234
    210    211    236    235
    211    212    237    236
    212    213    238    237
    213    214    239    238
    214    215    240    239
    215    216    241    240
    216    217    242    241
    217    218    243    242
    218    219    244    243
    219    220    245    244
    220    221    246    245
    221    222    247    246
    222    223    248    247
    223    224    249    248
    224    200    225    249
    224    223    222    221    220    219    218    217    216    215    214    213    212    211    210    209    208    207    206    205    204    203    202    201    200
    225    226    227    228    229    230    231    232    233    234    235    236    237    238    239    240    241    242    243    244    245    246    247    248    249
    225    226    251    250
    226    227    252    251
    227    228    253    252
    228    229    254    253
    229    230    255    254
    230    231    256    255
    231    232    257    256
    232    233    258    257
    233    234    259    258
    234    235    260    259
    235    236    261    260
    236    237    262    261
    237    238    263    262
    238    239    264    263
    239    240    265    264
    240    241    266    265
    241    242    267    266
    242    243    268    267
    243    244    269    268
    244    245    270    269
    245    246    271    270
    246    247    272    271
    247    248    273    272
    248    249    274    273
    249    225    250    274
    249    248    247    246    245    244    243    242    241    240    239    238    237    236    235    234    233    232    231    230    229    228    227    226    225
    250    251    252    253    254    255    256    257    258    259    260    261    262    263    264    265    266    267    268    269    270    271    272    273    274
    250    251    276    275
    251    252    277    276
    252    253    278    277
    253    254    279    278
    254    255    280    279
    255    256    281    280
    256    257    282    281
    257    258    283    282
    258    259    284    283
    259    260    285    284
    260    261    286    285
    261    262    287    286
    262    263    288    287
    263    264    289    288
    264    265    290    289
    265    266    291    290
    266    267    292    291
    267    268    293    292
    268    269    294    293
    269    270    295    294
    270    271    296    295
    271    272    297    296
    272    273    298    297
    273    274    299    298
    274    250    275    299
    274    273    272    271    270    269    268    267    266    265    264    263    262    261    260    259    258    257    256    255    254    253    252    251    250
    275    276    277    278    279    280    281    282    283    284    285    286    287    288    289    290    291    292    293    294    295    296    297    298    299
    275    276    301    300
    276    277    302    301
    277    278    303    302
    278    279    304    303
    279    280    305    304
    280    281    306    305
    281    282    307    306
    282    283    308    307
    283    284    309    308
    284    285    310    309
    285    286    311    310
    286    287    312    311
    287    288    313    312
    288    289    314    313
    289    290    315    314
    290    291    316    315
    291    292    317    316
    292    293    318    317
    293    294    319    318
    294    295    320    319
    295    296    321    320
    296    297    322    321
    297    298    323    322
    298    299    324    323
    299    275    300    324
    299    298    297    296    295    294    293    292    291    290    289    288    287    286    285    284    283    282    281    280    279    278    277    276    275
    300    301    302    303    304    305    306    307    308    309    310    311    312    313    314    315    316    317    318    319    320    321    322    323    324
    300    301    326    325
    301    302    327    326
    302    303    328    327
    303    304    329    328
    304    305    330    329
    305    306    331    330
    306    307    332    331
    307    308    333    332
    308    309    334    333
    309    310    335    334
    310    311    336    335
    311    312    337    336
    312    313    338    337
    313    314    339    338
    314    315    340    339
    315    316    341    340
    316    317    342    341
    317    318    343    342
    318    319    344    343
    319    320    345    344
    320    321    346    345
    321    322    347    346
    322    323    348    347
    323    324    349    348
    324    300    325    349
    324    323    322    321    320    319    318    317    316    315    314    313    312    311    310    309    308    307    306    305    304    303    302    301    300
    325    326    327    328    329    330    331    332    333    334    335    336    337    338    339    340    341    342    343    344    345    346    347    348    349
    325    326    351    350
    326    327    352    351
    327    328    353    352
    328    329    354    353
    329    330    355    354
    330    331    356    355
    331    332    357    356
    332    333    358    357
    333    334    359    358
    334    335    360    359
    335    336    361    360
    336    337    362    361
    337    338    363    362
    338    339    364    363
    339    340    365    364
    340    341    366    365
    341    342    367    366
    342    343    368    367
    343    344    369    368
    344    345    370    369
    345    346    371    370
    346    347    372    371
    347    348    373    372
    348    349    374    373
    349    325    350    374
    349    348    347    346    345    344    343    342    341    340    339    338    337    336    335    334    333    332    331    330    329    328    327    326    325
    350    351    352    353    354    355    356    357    358    359    360    361    362    363    364    365    366    367    368    369    370    371    372    373    374
    350    351    376    375
    351    352    377    376
    352    353    378    377
    353    354    379    378
    354    355    380    379
    355    356    381    380
    356    357    382    381
    357    358    383    382
    358    359    384    383
    359    360    385    384
    360    361    386    385
    361    362    387    386
    362    363    388    387
    363    364    389    388
    364    365    390    389
    365    366    391    390
    366    367    392    391
    367    368    393    392
    368    369    394    393
    369    370    395    394
    370    371    396    395
    371    372    397    396
    372    373    398    397
    373    374    399    398
    374    350    375    399
    374    373    372    371    370    369    368    367    366    365    364    363    362    361    360    359    358    357    356    355    354    353    352    351    350
    375    376    377    378    379    380    381    382    383    384    385    386    387    388    389    390    391    392    393    394    395    396    397    398    399
    375    376    401    400
    376    377    402    401
    377    378    403    402
    378    379    404    403
    379    380    405    404
    380    381    406    405
    381    382    407    406
    382    383    408    407
    383    384    409    408
    384    385    410    409
    385    386    411    410
    386    387    412    411
    387    388    413    412
    388    389    414    413
    389    390    415    414
    390    391    416    415
    391    392    417    416
    392    393    418    417
    393    394    419    418
    394    395    420    419
    395    396    421    420
    396    397    422    421
    397    398    423    422
    398    399    424    423
    399    375    400    424
    399    398    397    396    395    394    393    392    391    390    389    388    387    386    385    384    383    382    381    380    379    378    377    376    375
    400    401    402    403    404    405    406    407    408    409    410    411    412    413    414    415    416    417    418    419    420    421    422    423    424
    400    401    426    425
    401    402    427    426
    402    403    428    427
    403    404    429    428
    404    405    430    429
    405    406    431    430
    406    407    432    431
    407    408    433    432
    408    409    434    433
    409    410    435    434
    410    411    436    435
    411    412    437    436
    412    413    438    437
    413    414    439    438
    414    415    440    439
    415    416    441    440
    416    417    442    441
    417    418    443    442
    418    419    444    443
    419    420    445    444
    420    421    446    445
    421    422    447    446
    422    423    448    447
    423    424    449    448
    424    400    425    449
    424    423    422    421    420    419    418    417    416    415    414    413    412    411    410    409    408    407    406    405    404    403    402    401    400
    425    426    427    428    429    430    431    432    433    434    435    436    437    438    439    440    441    442    443    444    445    446    447    448    449
    425    426    451    450
    426    427    452    451
    427    428    453    452
    428    429    454    453
    429    430    455    454
    430    431    456    455
    431    432    457    456
    432    433    458    457
    433    434    459    458
    434    435    460    459
    435    436    461    460
    436    437    462    461
    437    438    463    462
    438    439    464    463
    439    440    465    464
    440    441    466    465
    441    442    467    466
    442    443    468    467
    443    444    469    468
    444    445    470    469
    445    446    471    470
    446    447    472    471
    447    448    473    472
    448    449    474    473
    449    425    450    474
    449    448    447    446    445    444    443    442    441    440    439    438    437    436    435    434    433    432    431    430    429    428    427    426    425
    450    451    452    453    454    455    456    457    458    459    460    461    462    463    464    465    466    467    468    469    470    471    472    473    474
    450    451    476    475
    451    452    477    476
    452    453    478    477
    453    454    479    478
    454    455    480    479
    455    456    481    480
    456    457    482    481
    457    458    483    482
    458    459    484    483
    459    460    485    484
    460    461    486    485
    461    462    487    486
    462    463    488    487
    463    464    489    488
    464    465    490    489
    465    466    491    490
    466    467    492    491
    467    468    493    492
    468    469    494    493
    469    470    495    494
    470    471    496    495
    471    472    497    496
    472    473    498    497
    473    474    499    498
    474    450    475    499
    474    473    472    471    470    469    468    467    466    465    464    463    462    461    460    459    458    457    456    455    454    453    452    451    450
    475    476    477    478    479    480    481    482    483    484    485    486    487    488    489    490    491    492    493    494    495    496    497    498    499
    475    476    501    500
    476    477    502    501
    477    478    503    502
    478    479    504    503
    479    480    505    504
    480    481    506    505
    481    482    507    506
    482    483    508    507
    483    484    509    508
    484    485    510    509
    485    486    511    510
    486    487    512    511
    487    488    513    512
    488    489    514    513
    489    490    515    514
    490    491    516    515
    491    492    517    516
    492    493    518    517
    493    494    519    518
    494    495    520    519
    495    496    521    520
    496    497    522    521
    497    498    523    522
    498    499    524    523
    499    475    500    524
    499    498    497    496    495    494    493    492    491    490    489    488    487    486    485    484    483    482    481    480    479    478    477    476    475
    500    501    502    503    504    505    506    507    508    509    510    511    512    513    514    515    516    517    518    519    520    521    522    523    524
    525    526      1      0
    526    527      2      1
    527    528      3      2
    528    529      4      3
    529    530      5      4
    530    531      6      5
    531    532      7      6
    532    533      8      7
    533    534      9      8
    534    535     10      9
    535    536     11     10
    536    537     12     11
    537    538     13     12
    538    539     14     13
    539    540     15     14
    540    541     16     15
    541    542     17     16
    542    543     18     17
    543    544     19     18
    544    545     20     19
    545    546     21     20
    546    547     22     21
    547    548     23     22
    548    549     24     23
    549    525      0     24
    549    548    547    546    545    544    543    542    541    540    539    538    537    536    535    534    533    532    531    530    529    528    527    526    525
      0      1      2      3      4      5      6      7      8      9     10     11     12     13     14     15     16     17     18     19     20     21     22     23     24
        </DataArray>
        <DataArray type="Int32" Name="offsets" format="ascii">
      4
      8
     12
     16
     20
     24
     28
     32
     36
     40
     44
     48
     52
     56
     60
     64
     68
     72
     76
     80
     84
     88
     92
     96
    100
    125
    150
    154
    158
    162
    166
    170
    174
    178
    182
    186
    190
    194
    198
    202
    206
    210
    214
    218
    222
    226
    230
    234
    238
    242
    246
    250
    275
    300
    304
    308
    312
    316
    320
    324
    328
    332
    336
    340
    344
    348
    352
    356
    360
    364
    368
    372
    376
    380
    384
    388
    392
    396
    400
    425
    450
    454
    458
    462
    466
    470
    474
    478
    482
    486
    490
    494
    498
    502
    506
    510
    514
    518
    522
    526
    530
    534
    538
    542
    546
    550
    575
    600
    604
    608
    612
    616
    620
    624
    628
    632
    636
    640
    644
    648
    652
    656
    660
    664
    668
    672
    676
    680
    684
    688
    692
    696
    700
    725
    750
    754
    758
    762
    766
    770
    774
    778
    782
    786
    790
    794
    798
    802
    806
    810
    814
    818
    822
    826
    830
    834
    838
    842
    846
    850
    875
    900
    904
    908
    912
    916
    920
    924
    928
    932
    936
    940
    944
    948
    952
    956
    960
    964
    968
    972
    976
    980
    984
    988
    992
    996
   1000
   1025
   1050
   1054
   1058
   1062
   1066
   1070
   1074
   1078
   1082
   1086
   1090
   1094
   1098
   1102
   1106
   1110
   1114
   1118
   1122
   1126
   1130
   1134
   1138
   1142
   1146
   1150
   1175
   1200
   1204
   1208
   1212
   1216
   1220
   1224
   1228
   1232
   1236
   1240
   1244
   1248
   1252
   1256
   1260
   1264
   1268
   1272
   1276
   1280
   1284
   1288
   1292
   1296
   1300
   1325
   1350
   1354
   1358
   1362
   1366
   1370
   1374
   1378
   1382
   1386
   1390
   1394
   1398
   1402
   1406
   1410
   1414
   1418
   1422
   1426
   1430
   1434
   1438
   1442
   1446
   1450
   1475
   1500
   1504
   1508
   1512
   1516
   1520
   1524
   1528
   1532
   1536
   1540
   1544
   1548
   1552
   1556
   1560
   1564
   1568
   1572
   1576
   1580
   1584
   1588
   1592
   1596
   1600
   1625
   1650
   1654
   1658
   1662
   1666
   1670
   1674
   1678
   1682
   1686
   1690
   1694
   1698
   1702
   1706
   1710
   1714
   1718
   1722
   1726
   1730
   1734
   1738
   1742
   1746
   1750
   1775
   1800
   1804
   1808
   1812
   1816
   1820
   1824
   1828
   1832
   1836
   1840
   1844
   1848
   1852
   1856
   1860
   1864
   1868
   1872
   1876
   1880
   1884
   1888
   1892
   1896
   1900
   1925
   1950
   1954
   1958
   1962
   1966
   1970
   1974
   1978
   1982
   1986
   1990
   1994
   1998
   2002
   2006
   2010
   2014
   2018
   2022
   2026
   2030
   2034
   2038
   2042
   2046
   2050
   2075
   2100
   2104
   2108
   2112
   2116
   2120
   2124
   2128
   2132
   2136
   2140
   2144
   2148
   2152
   2156
   2160
   2164
   2168
   2172
   2176
   2180
   2184
   2188
   2192
   2196
   2200
   2225
   2250
   2254
   2258
   2262
   2266
   2270
   2274
   2278
   2282
   2286
   2290
   2294
   2298
   2302
   2306
   2310
   2314
   2318
   2322
   2326
   2330
   2334
   2338
   2342
   2346
   2350
   2375
   2400
   2404
   2408
   2412
   2416
   2420
   2424
   2428
   2432
   2436
   2440
   2444
   2448
   2452
   2456
   2460
   2464
   2468
   2472
   2476
   2480
   2484
   2488
   2492
   2496
   2500
   2525
   2550
   2554
   2558
   2562
   2566
   2570
   2574
   2578
   2582
   2586
   2590
   2594
   2598
   2602
   2606
   2610
   2614
   2618
   2622
   2626
   2630
   2634
   2638
   2642
   2646
   2650
   2675
   2700
   2704
   2708
   2712
   2716
   2720
   2724
   2728
   2732
   2736
   2740
   2744
   2748
   2752
   2756
   2760
   2764
   2768
   2772
   2776
   2780
   2784
   2788
   2792
   2796
   2800
   2825
   2850
   2854
   2858
   2862
   2866
   2870
   2874
   2878
   2882
   2886
   2890
   2894
   2898
   2902
   2906
   2910
   2914
   2918
   2922
   2926
   2930
   2934
   2938
   2942
   2946
   2950
   2975
   3000
   3004
   3008
   3012
   3016
   3020
   3024
   3028
   3032
   3036
   3040
   3044
   3048
   3052
   3056
   3060
   3064
   3068
   3072
   3076
   3080
   3084
   3088
   3092
   3096
   3100
   3125
   3150
        </DataArray>
      </Polys>
    </Piece>
  </PolyData>
</VTKFile>
