<?xml version="1.0"?>
<VTKFile type="PolyData" version="0.1" byte_order="LittleEndian">
  <PolyData>
    <Piece NumberOfPoints="    625" NumberOfVerts="  0" NumberOfLines="      0"
           NumberOfStrips="  0" NumberOfPolys="    600">
      <Points>
        <DataArray type="Float32" NumberOfComponents="3" format="ascii">
                      -4.72208                      -1.00619                      91.12449
                      -4.72208                      -1.00619                      91.12449
                      -4.72208                      -1.00619                      91.12449
                      -4.72208                      -1.00619                      91.12449
                      -4.72208                      -1.00619                      91.12449
                      -4.72208                      -1.00619                      91.12449
                      -4.72208                      -1.00619                      91.12449
                      -4.72208                      -1.00619                      91.12449
                      -4.72208                      -1.00619                      91.12449
                      -4.72208                      -1.00619                      91.12449
                      -4.72208                      -1.00619                      91.12449
                      -4.72208                      -1.00619                      91.12449
                      -4.72208                      -1.00619                      91.12449
                      -4.72208                      -1.00619                      91.12449
                      -4.72208                      -1.00619                      91.12449
                      -4.72208                      -1.00619                      91.12449
                      -4.72208                      -1.00619                      91.12449
                      -4.72208                      -1.00619                      91.12449
                      -4.72208                      -1.00619                      91.12449
                      -4.72208                      -1.00619                      91.12449
                      -4.72208                      -1.00619                      91.12449
                      -4.72208                      -1.00619                      91.12449
                      -4.72208                      -1.00619                      91.12449
                      -4.72208                      -1.00619                      91.12449
                      -4.72208                      -1.00619                      91.12449
                      -4.13343                      -0.92242                      90.97794
                      -4.16121                      -1.03308                      90.88014
                      -4.22476                      -1.13678                      90.79189
                      -4.32009                      -1.22702                      90.71874
                      -4.44119                      -1.29811                      90.66527
                      -4.58048                      -1.34560                      90.63485
                      -4.72919                      -1.36650                      90.62939
                      -4.87798                      -1.35950                      90.64923
                      -5.01750                      -1.32503                      90.69313
                      -5.13898                      -1.26527                      90.75833
                      -5.23480                      -1.18396                      90.84073
                      -5.29892                      -1.08622                      90.93515
                      -5.32733                      -0.97819                      91.03567
                      -5.31823                      -0.86666                      91.13596
                      -5.27221                      -0.75863                      91.22972
                      -5.19214                      -0.66089                      91.31106
                      -5.08306                      -0.57958                      91.37488
                      -4.95183                      -0.51982                      91.41716
                      -4.80669                      -0.48535                      91.43524
                      -4.65676                      -0.47835                      91.42799
                      -4.51146                      -0.49925                      91.39587
                      -4.37992                      -0.54673                      91.34088
                      -4.27041                      -0.61783                      91.26650
                      -4.18980                      -0.70806                      91.17738
                      -4.14317                      -0.81177                      91.07914
                      -3.91307                      -0.83866                      90.86479
                      -3.95150                      -0.99171                      90.72953
                      -4.03940                      -1.13514                      90.60747
                      -4.17124                      -1.25995                      90.50628
                      -4.33875                      -1.35828                      90.43233
                      -4.53140                      -1.42397                      90.39025
                      -4.73708                      -1.45287                      90.38270
                      -4.94287                      -1.44319                      90.41015
                      -5.13585                      -1.39552                      90.47087
                      -5.30388                      -1.31285                      90.56104
                      -5.43640                      -1.20040                      90.67501
                      -5.52510                      -1.06521                      90.80561
                      -5.56439                      -0.91579                      90.94464
                      -5.55181                      -0.76152                      91.08335
                      -5.48814                      -0.61210                      91.21304
                      -5.37740                      -0.47692                      91.32555
                      -5.22653                      -0.36446                      91.41381
                      -5.04502                      -0.28180                      91.47229
                      -4.84428                      -0.23413                      91.49730
                      -4.63690                      -0.22444                      91.48727
                      -4.43593                      -0.25335                      91.44284
                      -4.25400                      -0.31903                      91.36679
                      -4.10253                      -0.41736                      91.26391
                      -3.99104                      -0.54217                      91.14065
                      -3.92654                      -0.68560                      91.00477
                      -3.75912                      -0.75489                      90.75767
                      -3.80510                      -0.93803                      90.59581
                      -3.91027                      -1.10966                      90.44976
                      -4.06804                      -1.25900                      90.32868
                      -4.26848                      -1.37666                      90.24019
                      -4.49900                      -1.45526                      90.18984
                      -4.74512                      -1.48985                      90.18080
                      -4.99136                      -1.47826                      90.21365
                      -5.22227                      -1.42122                      90.28630
                      -5.42333                      -1.32231                      90.39421
                      -5.58191                      -1.18774                      90.53058
                      -5.68804                      -1.02598                      90.68685
                      -5.73506                      -0.84719                      90.85321
                      -5.72001                      -0.66259                      91.01919
                      -5.64383                      -0.48380                      91.17437
                      -5.51131                      -0.32204                      91.30900
                      -5.33079                      -0.18747                      91.41462
                      -5.11360                      -0.08856                      91.48459
                      -4.87338                      -0.03152                      91.51452
                      -4.62524                      -0.01993                      91.50252
                      -4.38477                      -0.05452                      91.44935
                      -4.16707                      -0.13311                      91.35835
                      -3.98582                      -0.25078                      91.23524
                      -3.85241                      -0.40012                      91.08776
                      -3.77523                      -0.57175                      90.92516
                      -3.64214                      -0.67112                      90.65390
                      -3.69395                      -0.87749                      90.47151
                      -3.81247                      -1.07090                      90.30692
                      -3.99025                      -1.23919                      90.17048
                      -4.21612                      -1.37178                      90.07076
                      -4.47589                      -1.46035                      90.01403
                      -4.75323                      -1.49933                      90.00385
                      -5.03072                      -1.48627                      90.04085
                      -5.29093                      -1.42199                      90.12273
                      -5.51749                      -1.31053                      90.24432
                      -5.69619                      -1.15889                      90.39800
                      -5.81579                      -0.97661                      90.57410
                      -5.86877                      -0.77513                      90.76156
                      -5.85180                      -0.56712                      90.94860
                      -5.76596                      -0.36564                      91.12347
                      -5.61664                      -0.18335                      91.27518
                      -5.41321                      -0.03172                      91.39420
                      -5.16846                       0.07974                      91.47304
                      -4.89777                       0.14402                      91.50677
                      -4.61815                       0.15709                      91.49325
                      -4.34716                       0.11811                      91.43334
                      -4.10184                       0.02954                      91.33079
                      -3.89760                      -0.10305                      91.19206
                      -3.74726                      -0.27134                      91.02586
                      -3.66029                      -0.46475                      90.84264
                      -3.55061                      -0.58735                      90.55244
                      -3.60707                      -0.81224                      90.35368
                      -3.73623                      -1.02300                      90.17433
                      -3.92996                      -1.20639                      90.02564
                      -4.17609                      -1.35088                      89.91698
                      -4.45917                      -1.44740                      89.85515
                      -4.76140                      -1.48987                      89.84406
                      -5.06379                      -1.47564                      89.88439
                      -5.34734                      -1.40559                      89.97361
                      -5.59424                      -1.28413                      90.10611
                      -5.78897                      -1.11889                      90.27358
                      -5.91929                      -0.92025                      90.46548
                      -5.97703                      -0.70070                      90.66976
                      -5.95854                      -0.47402                      90.87358
                      -5.86500                      -0.25446                      91.06414
                      -5.70227                      -0.05582                      91.22946
                      -5.48059                       0.10942                      91.35916
                      -5.21388                       0.23088                      91.44508
                      -4.91891                       0.30093                      91.48183
                      -4.61419                       0.31516                      91.46710
                      -4.31890                       0.27269                      91.40181
                      -4.05156                       0.17618                      91.29006
                      -3.82899                       0.03169                      91.13889
                      -3.66517                      -0.15170                      90.95778
                      -3.57039                      -0.36246                      90.75811
                      -3.47864                      -0.50359                      90.45275
                      -3.53884                      -0.74337                      90.24083
                      -3.67654                      -0.96809                      90.04960
                      -3.88310                      -1.16362                      89.89107
                      -4.14554                      -1.31768                      89.77520
                      -4.44736                      -1.42059                      89.70929
                      -4.76960                      -1.46588                      89.69745
                      -5.09202                      -1.45070                      89.74045
                      -5.39435                      -1.37602                      89.83558
                      -5.65760                      -1.24651                      89.97686
                      -5.86523                      -1.07033                      90.15542
                      -6.00419                      -0.85853                      90.36003
                      -6.06575                      -0.62444                      90.57784
                      -6.04604                      -0.38274                      90.79516
                      -5.94630                      -0.14865                      90.99834
                      -5.77279                       0.06315                      91.17461
                      -5.53643                       0.23934                      91.31290
                      -5.25206                       0.36884                      91.40451
                      -4.93755                       0.44353                      91.44369
                      -4.61266                       0.45870                      91.42799
                      -4.29780                       0.41342                      91.35837
                      -4.01276                       0.31051                      91.23923
                      -3.77545                       0.15645                      91.07804
                      -3.60078                      -0.03908                      90.88493
                      -3.49973                      -0.26380                      90.67205
                      -3.42273                      -0.41982                      90.35452
                      -3.48592                      -0.67152                      90.13207
                      -3.63047                      -0.90740                      89.93133
                      -3.84729                      -1.11265                      89.76493
                      -4.12277                      -1.27437                      89.64330
                      -4.43959                      -1.38239                      89.57411
                      -4.77785                      -1.42993                      89.56169
                      -5.11629                      -1.41400                      89.60683
                      -5.43364                      -1.33560                      89.70669
                      -5.70997                      -1.19966                      89.85499
                      -5.92792                      -1.01472                      90.04241
                      -6.07378                      -0.79240                      90.25719
                      -6.13840                      -0.54667                      90.48582
                      -6.11771                      -0.29297                      90.71394
                      -6.01301                      -0.04724                      90.92722
                      -5.83089                       0.17508                      91.11225
                      -5.58278                       0.36002                      91.25741
                      -5.28428                       0.49596                      91.35357
                      -4.95414                       0.57436                      91.39470
                      -4.61310                       0.59029                      91.37821
                      -4.28260                       0.54275                      91.30514
                      -3.98340                       0.43473                      91.18008
                      -3.73429                       0.27302                      91.01088
                      -3.55094                       0.06777                      90.80818
                      -3.44487                      -0.16812                      90.58471
                      -3.38069                      -0.33605                      90.25755
                      -3.44623                      -0.59710                      90.02684
                      -3.59614                      -0.84174                      89.81865
                      -3.82102                      -1.05461                      89.64606
                      -4.10672                      -1.22233                      89.51993
                      -4.43531                      -1.33436                      89.44816
                      -4.78612                      -1.38366                      89.43528
                      -5.13712                      -1.36714                      89.48210
                      -5.46626                      -1.28583                      89.58566
                      -5.75285                      -1.14485                      89.73947
                      -5.97889                      -0.95304                      89.93385
                      -6.13016                      -0.72247                      90.15660
                      -6.19718                      -0.46762                      90.39372
                      -6.17572                      -0.20450                      90.63031
                      -6.06714                       0.05036                      90.85151
                      -5.87826                       0.28093                      91.04341
                      -5.62094                       0.47274                      91.19396
                      -5.31135                       0.61373                      91.29369
                      -4.96895                       0.69503                      91.33635
                      -4.61526                       0.71156                      91.31925
                      -4.27248                       0.66225                      91.24346
                      -3.96217                       0.55022                      91.11375
                      -3.70382                       0.38250                      90.93827
                      -3.51367                       0.16964                      90.72805
                      -3.40365                      -0.07501                      90.49628
                      -3.35107                      -0.25228                      90.16170
                      -3.41838                      -0.52037                      89.92476
                      -3.57234                      -0.77162                      89.71096
                      -3.80328                      -0.99023                      89.53372
                      -4.09669                      -1.16247                      89.40418
                      -4.43414                      -1.27753                      89.33048
                      -4.79442                      -1.32816                      89.31725
                      -5.15489                      -1.31119                      89.36533
                      -5.49291                      -1.22769                      89.47169
                      -5.78723                      -1.08290                      89.62964
                      -6.01937                      -0.88592                      89.82927
                      -6.17473                      -0.64913                      90.05803
                      -6.24355                      -0.38740                      90.30155
                      -6.22151                      -0.11718                      90.54452
                      -6.11000                       0.14455                      90.77169
                      -5.91602                       0.38135                      90.96876
                      -5.65176                       0.57833                      91.12337
                      -5.33382                       0.72312                      91.22580
                      -4.98219                       0.80662                      91.26961
                      -4.61895                       0.82359                      91.25205
                      -4.26692                       0.77296                      91.17421
                      -3.94824                       0.65790                      91.04101
                      -3.68292                       0.48566                      90.86079
                      -3.48764                       0.26705                      90.64490
                      -3.37465                       0.01580                      90.40688
                      -3.33291                      -0.16852                      90.06689
                      -3.40145                      -0.44152                      89.82561
                      -3.55824                      -0.69738                      89.60788
                      -3.79342                      -0.92000                      89.42739
                      -4.09221                      -1.09541                      89.29547
                      -4.43585                      -1.21257                      89.22042
                      -4.80274                      -1.26414                      89.20695
                      -5.16983                      -1.24686                      89.25591
                      -5.51405                      -1.16182                      89.36422
                      -5.81377                      -1.01438                      89.52507
                      -6.05017                      -0.81378                      89.72837
                      -6.20838                      -0.57264                      89.96132
                      -6.27847                      -0.30611                      90.20931
                      -6.25602                      -0.03093                      90.45674
                      -6.14247                       0.23560                      90.68807
                      -5.94493                       0.47674                      90.88877
                      -5.67582                       0.67734                      91.04621
                      -5.35204                       0.82478                      91.15052
                      -4.99396                       0.90982                      91.19513
                      -4.62405                       0.92710                      91.17725
                      -4.26557                       0.87554                      91.09799
                      -3.94104                       0.75837                      90.96234
                      -3.67085                       0.58297                      90.77881
                      -3.47198                       0.36034                      90.55895
                      -3.35692                       0.10449                      90.31657
                      -3.32559                      -0.08475                      89.97307
                      -3.39486                      -0.36067                      89.72921
                      -3.55332                      -0.61925                      89.50916
                      -3.79101                      -0.84424                      89.32675
                      -4.09299                      -1.02152                      89.19343
                      -4.44029                      -1.13993                      89.11757
                      -4.81109                      -1.19205                      89.10396
                      -5.18209                      -1.17458                      89.15344
                      -5.52998                      -1.08864                      89.26290
                      -5.83290                      -0.93962                      89.42547
                      -6.07181                      -0.73689                      89.63093
                      -6.23171                      -0.49318                      89.86637
                      -6.30254                      -0.22381                      90.11700
                      -6.27986                       0.05430                      90.36707
                      -6.16509                       0.32367                      90.60087
                      -5.96545                       0.56738                      90.80370
                      -5.69347                       0.77012                      90.96283
                      -5.36625                       0.91914                      91.06824
                      -5.00434                       1.00508                      91.11333
                      -4.63049                       1.02254                      91.09526
                      -4.26819                       0.97043                      91.01515
                      -3.94020                       0.85202                      90.87805
                      -3.66713                       0.67474                      90.69258
                      -3.46614                       0.44975                      90.47037
                      -3.34986                       0.19117                      90.22541
                      -3.32878                      -0.00098                      89.88020
                      -3.39829                      -0.27786                      89.63549
                      -3.55730                      -0.53735                      89.41467
                      -3.79582                      -0.76313                      89.23162
                      -4.09885                      -0.94102                      89.09783
                      -4.44737                      -1.05985                      89.02172
                      -4.81946                      -1.11214                      89.00806
                      -5.19176                      -1.09462                      89.05771
                      -5.54086                      -1.00838                      89.16755
                      -5.84483                      -0.85884                      89.33069
                      -6.08458                      -0.65540                      89.53687
                      -6.24503                      -0.41084                      89.77313
                      -6.31612                      -0.14053                      90.02463
                      -6.29336                       0.13855                      90.27558
                      -6.17819                       0.40887                      90.51019
                      -5.97784                       0.65343                      90.71373
                      -5.70492                       0.85687                      90.87341
                      -5.37655                       1.00641                      90.97919
                      -5.01338                       1.09265                      91.02444
                      -4.63823                       1.11017                      91.00630
                      -4.27467                       1.05788                      90.92592
                      -3.94553                       0.93905                      90.78834
                      -3.67151                       0.76116                      90.60222
                      -3.46982                       0.53538                      90.37924
                      -3.35313                       0.27590                      90.13342
                      -3.34236                       0.08279                      89.78827
                      -3.41163                      -0.19313                      89.54441
                      -3.57008                      -0.45171                      89.32436
                      -3.80777                      -0.67671                      89.14195
                      -4.10975                      -0.85398                      89.00862
                      -4.45705                      -0.97240                      88.93277
                      -4.82785                      -1.02451                      88.91916
                      -5.19885                      -1.00705                      88.96864
                      -5.54674                      -0.92111                      89.07810
                      -5.84966                      -0.77209                      89.24067
                      -6.08857                      -0.56936                      89.44613
                      -6.24847                      -0.32565                      89.68157
                      -6.31930                      -0.05627                      89.93220
                      -6.29662                       0.22184                      90.18227
                      -6.18185                       0.49121                      90.41607
                      -5.98221                       0.73492                      90.61890
                      -5.71023                       0.93765                      90.77802
                      -5.38301                       1.08667                      90.88344
                      -5.02110                       1.17261                      90.92853
                      -4.64725                       1.19008                      90.91045
                      -4.28495                       1.13796                      90.83035
                      -3.95696                       1.01955                      90.69325
                      -3.68390                       0.84228                      90.50778
                      -3.48291                       0.61728                      90.28557
                      -3.36662                       0.35870                      90.04061
                      -3.36643                       0.16655                      89.69729
                      -3.43497                      -0.10646                      89.45601
                      -3.59176                      -0.36231                      89.23828
                      -3.82694                      -0.58493                      89.05779
                      -4.12574                      -0.76034                      88.92587
                      -4.46938                      -0.87750                      88.85082
                      -4.83627                      -0.92907                      88.83735
                      -5.20335                      -0.91179                      88.88631
                      -5.54757                      -0.82675                      88.99462
                      -5.84730                      -0.67931                      89.15547
                      -6.08369                      -0.47871                      89.35876
                      -6.24190                      -0.23757                      89.59172
                      -6.31199                       0.02896                      89.83971
                      -6.28955                       0.30414                      90.08714
                      -6.17599                       0.57067                      90.31847
                      -5.97845                       0.81181                      90.51916
                      -5.70934                       1.01240                      90.67661
                      -5.38557                       1.15985                      90.78092
                      -5.02748                       1.24489                      90.82553
                      -4.65757                       1.26217                      90.80764
                      -4.29909                       1.21060                      90.72839
                      -3.97456                       1.09344                      90.59273
                      -3.70437                       0.91804                      90.40921
                      -3.50550                       0.69541                      90.18935
                      -3.39045                       0.43956                      89.94697
                      -3.40136                       0.25032                      89.60730
                      -3.46866                      -0.01777                      89.37036
                      -3.62262                      -0.26901                      89.15656
                      -3.85356                      -0.48762                      88.97932
                      -4.14698                      -0.65987                      88.84978
                      -4.48442                      -0.77492                      88.77608
                      -4.84470                      -0.82556                      88.76285
                      -5.20518                      -0.80859                      88.81093
                      -5.54319                      -0.72509                      88.91728
                      -5.83752                      -0.58030                      89.07524
                      -6.06965                      -0.38332                      89.27487
                      -6.22501                      -0.14652                      89.50363
                      -6.29383                       0.11521                      89.74715
                      -6.27180                       0.38542                      89.99012
                      -6.16028                       0.64715                      90.21728
                      -5.96630                       0.88395                      90.41436
                      -5.70204                       1.08093                      90.56897
                      -5.38411                       1.22572                      90.67140
                      -5.03247                       1.30922                      90.71521
                      -4.66923                       1.32619                      90.69764
                      -4.31721                       1.27556                      90.61981
                      -3.99853                       1.16051                      90.48661
                      -3.73321                       0.98826                      90.30639
                      -3.53792                       0.76965                      90.09049
                      -3.42494                       0.51841                      89.85248
                      -3.44774                       0.33409                      89.51834
                      -3.51327                       0.07304                      89.28763
                      -3.66319                      -0.17160                      89.07944
                      -3.88806                      -0.38447                      88.90686
                      -4.17377                      -0.55219                      88.78072
                      -4.50235                      -0.66422                      88.70896
                      -4.85317                      -0.71353                      88.69608
                      -5.20417                      -0.69700                      88.74289
                      -5.53331                      -0.61570                      88.84646
                      -5.81989                      -0.47471                      89.00026
                      -6.04593                      -0.28290                      89.19465
                      -6.19721                      -0.05233                      89.41740
                      -6.26422                       0.20252                      89.65452
                      -6.24277                       0.46564                      89.89111
                      -6.13418                       0.72050                      90.11231
                      -5.94530                       0.95107                      90.30421
                      -5.68798                       1.14288                      90.45475
                      -5.37840                       1.28386                      90.55449
                      -5.03600                       1.36517                      90.59715
                      -4.68230                       1.38169                      90.58004
                      -4.33953                       1.33239                      90.50426
                      -4.02922                       1.22036                      90.37455
                      -3.77087                       1.05264                      90.19907
                      -3.58071                       0.83977                      89.98885
                      -3.47070                       0.59513                      89.75708
                      -3.50653                       0.41785                      89.43052
                      -3.56973                       0.16615                      89.20806
                      -3.71427                      -0.06973                      89.00733
                      -3.93110                      -0.27498                      88.84092
                      -4.20658                      -0.43670                      88.71930
                      -4.52340                      -0.54472                      88.65011
                      -4.86165                      -0.59226                      88.63769
                      -5.20009                      -0.57633                      88.68283
                      -5.51745                      -0.49793                      88.78268
                      -5.79378                      -0.36199                      88.93098
                      -6.01172                      -0.17705                      89.11841
                      -6.15758                       0.04527                      89.33319
                      -6.22220                       0.29100                      89.56182
                      -6.20151                       0.54470                      89.78994
                      -6.09682                       0.79043                      90.00322
                      -5.91469                       1.01275                      90.18825
                      -5.66658                       1.19769                      90.33340
                      -5.36808                       1.33363                      90.42957
                      -5.03794                       1.41203                      90.47070
                      -4.69690                       1.42796                      90.45421
                      -4.36640                       1.38042                      90.38114
                      -4.06720                       1.27240                      90.25607
                      -3.81810                       1.11069                      90.08688
                      -3.63475                       0.90544                      89.88418
                      -3.52867                       0.66955                      89.66071
                      -3.57920                       0.50162                      89.34395
                      -3.63940                       0.26184                      89.13203
                      -3.77711                       0.03712                      88.94079
                      -3.98367                      -0.15842                      88.78226
                      -4.24611                      -0.31248                      88.66640
                      -4.54793                      -0.41538                      88.60048
                      -4.87017                      -0.46067                      88.58865
                      -5.19259                      -0.44550                      88.63165
                      -5.49492                      -0.37081                      88.72678
                      -5.75817                      -0.24131                      88.86806
                      -5.96580                      -0.06512                      89.04662
                      -6.10475                       0.14667                      89.25122
                      -6.16631                       0.38077                      89.46903
                      -6.14660                       0.62246                      89.68636
                      -6.04686                       0.85656                      89.88954
                      -5.87336                       1.06836                      90.06581
                      -5.63700                       1.24454                      90.20409
                      -5.35263                       1.37405                      90.29571
                      -5.03811                       1.44873                      90.33489
                      -4.71322                       1.46391                      90.31918
                      -4.39836                       1.41862                      90.24957
                      -4.11333                       1.31572                      90.13042
                      -3.87602                       1.16166                      89.96923
                      -3.70135                       0.96612                      89.77613
                      -3.60029                       0.74141                      89.56324
                      -3.66794                       0.58539                      89.25883
                      -3.72440                       0.36050                      89.06008
                      -3.85355                       0.14974                      88.88072
                      -4.04729                      -0.03365                      88.73204
                      -4.29342                      -0.17814                      88.62337
                      -4.57650                      -0.27466                      88.56155
                      -4.87872                      -0.31713                      88.55045
                      -5.18111                      -0.30290                      88.59078
                      -5.46467                      -0.23285                      88.68000
                      -5.71156                      -0.11139                      88.81251
                      -5.90629                       0.05385                      88.97997
                      -6.03662                       0.25249                      89.17187
                      -6.09435                       0.47204                      89.37615
                      -6.07587                       0.69872                      89.57997
                      -5.98232                       0.91828                      89.77053
                      -5.81960                       1.11692                      89.93586
                      -5.59792                       1.28216                      90.06555
                      -5.33121                       1.40362                      90.15148
                      -5.03623                       1.47367                      90.18823
                      -4.73152                       1.48791                      90.17349
                      -4.43622                       1.44543                      90.10820
                      -4.16889                       1.34892                      89.99646
                      -3.94632                       1.20443                      89.84528
                      -3.78250                       1.02104                      89.66417
                      -3.68772                       0.81028                      89.46451
                      -3.77623                       0.66915                      89.17550
                      -3.82804                       0.46278                      88.99310
                      -3.94656                       0.26937                      88.82852
                      -4.12434                       0.10109                      88.69208
                      -4.35021                      -0.03151                      88.59236
                      -4.60997                      -0.12008                      88.53562
                      -4.88732                      -0.15906                      88.52544
                      -5.16481                      -0.14599                      88.56245
                      -5.42501                      -0.08171                      88.64432
                      -5.65158                       0.02974                      88.76592
                      -5.83028                       0.18138                      88.91959
                      -5.94988                       0.36366                      89.09569
                      -6.00286                       0.56514                      89.28315
                      -5.98589                       0.77316                      89.47019
                      -5.90005                       0.97464                      89.64506
                      -5.75072                       1.15692                      89.79677
                      -5.54730                       1.30856                      89.91579
                      -5.30255                       1.42002                      89.99464
                      -5.03186                       1.48430                      90.02836
                      -4.75224                       1.49736                      90.01484
                      -4.48125                       1.45838                      89.95493
                      -4.23593                       1.36982                      89.85239
                      -4.03169                       1.23722                      89.71366
                      -3.88135                       1.06894                      89.54746
                      -3.79438                       0.87553                      89.36423
                      -3.90997                       0.75292                      89.09447
                      -3.95595                       0.56978                      88.93261
                      -4.06112                       0.39815                      88.78655
                      -4.21889                       0.24881                      88.66547
                      -4.41933                       0.13115                      88.57698
                      -4.64985                       0.05255                      88.52663
                      -4.89596                       0.01796                      88.51760
                      -5.14221                       0.02955                      88.55044
                      -5.37312                       0.08659                      88.62310
                      -5.57418                       0.18550                      88.73100
                      -5.73276                       0.32006                      88.86737
                      -5.83889                       0.48183                      89.02365
                      -5.88591                       0.66062                      89.19000
                      -5.87085                       0.84522                      89.35598
                      -5.79468                       1.02401                      89.51117
                      -5.66216                       1.18577                      89.64579
                      -5.48164                       1.32034                      89.75141
                      -5.26445                       1.41925                      89.82138
                      -5.02423                       1.47629                      89.85131
                      -4.77609                       1.48788                      89.83931
                      -4.53562                       1.45329                      89.78614
                      -4.31791                       1.37470                      89.69515
                      -4.13667                       1.25703                      89.57204
                      -4.00326                       1.10769                      89.42455
                      -3.92608                       0.93606                      89.26195
                      -4.08069                       0.83669                      89.01679
                      -4.11911                       0.68364                      88.88152
                      -4.20701                       0.54020                      88.75946
                      -4.33885                       0.41540                      88.65827
                      -4.50636                       0.31706                      88.58432
                      -4.69901                       0.25138                      88.54225
                      -4.90469                       0.22247                      88.53469
                      -5.11048                       0.23216                      88.56214
                      -5.30346                       0.27983                      88.62286
                      -5.47149                       0.36249                      88.71304
                      -5.60401                       0.47495                      88.82701
                      -5.69271                       0.61013                      88.95760
                      -5.73200                       0.75955                      89.09663
                      -5.71942                       0.91382                      89.23534
                      -5.65576                       1.06324                      89.36503
                      -5.54501                       1.19843                      89.47754
                      -5.39414                       1.31088                      89.56581
                      -5.21263                       1.39354                      89.62428
                      -5.01189                       1.44122                      89.64929
                      -4.80451                       1.45090                      89.63926
                      -4.60354                       1.42200                      89.59483
                      -4.42161                       1.35631                      89.51878
                      -4.27014                       1.25798                      89.41590
                      -4.15865                       1.13317                      89.29264
                      -4.09415                       0.98974                      89.15676
                      -4.31780                       0.92046                      88.94513
                      -4.34558                       0.80980                      88.84734
                      -4.40913                       0.70610                      88.75909
                      -4.50446                       0.61586                      88.68593
                      -4.62557                       0.54477                      88.63246
                      -4.76485                       0.49728                      88.60204
                      -4.91356                       0.47638                      88.59658
                      -5.06235                       0.48338                      88.61642
                      -5.20187                       0.51785                      88.66032
                      -5.32335                       0.57761                      88.72552
                      -5.41917                       0.65892                      88.80792
                      -5.48329                       0.75665                      88.90234
                      -5.51170                       0.86469                      89.00286
                      -5.50261                       0.97622                      89.10315
                      -5.45658                       1.08425                      89.19691
                      -5.37651                       1.18199                      89.27826
                      -5.26743                       1.26330                      89.34207
                      -5.13620                       1.32306                      89.38435
                      -4.99106                       1.35753                      89.40243
                      -4.84113                       1.36453                      89.39518
                      -4.69583                       1.34363                      89.36306
                      -4.56429                       1.29614                      89.30808
                      -4.45478                       1.22505                      89.23369
                      -4.37417                       1.13481                      89.14458
                      -4.32754                       1.03111                      89.04633
                      -4.92321                       1.00422                      88.90688
                      -4.92321                       1.00422                      88.90688
                      -4.92321                       1.00422                      88.90688
                      -4.92321                       1.00422                      88.90688
                      -4.92321                       1.00422                      88.90688
                      -4.92321                       1.00422                      88.90688
                      -4.92321                       1.00422                      88.90688
                      -4.92321                       1.00422                      88.90688
                      -4.92321                       1.00422                      88.90688
                      -4.92321                       1.00422                      88.90688
                      -4.92321                       1.00422                      88.90688
                      -4.92321                       1.00422                      88.90688
                      -4.92321                       1.00422                      88.90688
                      -4.92321                       1.00422                      88.90688
                      -4.92321                       1.00422                      88.90688
                      -4.92321                       1.00422                      88.90688
                      -4.92321                       1.00422                      88.90688
                      -4.92321                       1.00422                      88.90688
                      -4.92321                       1.00422                      88.90688
                      -4.92321                       1.00422                      88.90688
                      -4.92321                       1.00422                      88.90688
                      -4.92321                       1.00422                      88.90688
                      -4.92321                       1.00422                      88.90688
                      -4.92321                       1.00422                      88.90688
                      -4.92321                       1.00422                      88.90688
        </DataArray>
      </Points>
      <Polys>
        <DataArray type="Int32" Name="connectivity" format="ascii">
      0      1     26     25
      1      2     27     26
      2      3     28     27
      3      4     29     28
      4      5     30     29
      5      6     31     30
      6      7     32     31
      7      8     33     32
      8      9     34     33
      9     10     35     34
     10     11     36     35
     11     12     37     36
     12     13     38     37
     13     14     39     38
     14     15     40     39
     15     16     41     40
     16     17     42     41
     17     18     43     42
     18     19     44     43
     19     20     45     44
     20     21     46     45
     21     22     47     46
     22     23     48     47
     23     24     49     48
     24      0     25     49
     25     26     51     50
     26     27     52     51
     27     28     53     52
     28     29     54     53
     29     30     55     54
     30     31     56     55
     31     32     57     56
     32     33     58     57
     33     34     59     58
     34     35     60     59
     35     36     61     60
     36     37     62     61
     37     38     63     62
     38     39     64     63
     39     40     65     64
     40     41     66     65
     41     42     67     66
     42     43     68     67
     43     44     69     68
     44     45     70     69
     45     46     71     70
     46     47     72     71
     47     48     73     72
     48     49     74     73
     49     25     50     74
     50     51     76     75
     51     52     77     76
     52     53     78     77
     53     54     79     78
     54     55     80     79
     55     56     81     80
     56     57     82     81
     57     58     83     82
     58     59     84     83
     59     60     85     84
     60     61     86     85
     61     62     87     86
     62     63     88     87
     63     64     89     88
     64     65     90     89
     65     66     91     90
     66     67     92     91
     67     68     93     92
     68     69     94     93
     69     70     95     94
     70     71     96     95
     71     72     97     96
     72     73     98     97
     73     74     99     98
     74     50     75     99
     75     76    101    100
     76     77    102    101
     77     78    103    102
     78     79    104    103
     79     80    105    104
     80     81    106    105
     81     82    107    106
     82     83    108    107
     83     84    109    108
     84     85    110    109
     85     86    111    110
     86     87    112    111
     87     88    113    112
     88     89    114    113
     89     90    115    114
     90     91    116    115
     91     92    117    116
     92     93    118    117
     93     94    119    118
     94     95    120    119
     95     96    121    120
     96     97    122    121
     97     98    123    122
     98     99    124    123
     99     75    100    124
    100    101    126    125
    101    102    127    126
    102    103    128    127
    103    104    129    128
    104    105    130    129
    105    106    131    130
    106    107    132    131
    107    108    133    132
    108    109    134    133
    109    110    135    134
    110    111    136    135
    111    112    137    136
    112    113    138    137
    113    114    139    138
    114    115    140    139
    115    116    141    140
    116    117    142    141
    117    118    143    142
    118    119    144    143
    119    120    145    144
    120    121    146    145
    121    122    147    146
    122    123    148    147
    123    124    149    148
    124    100    125    149
    125    126    151    150
    126    127    152    151
    127    128    153    152
    128    129    154    153
    129    130    155    154
    130    131    156    155
    131    132    157    156
    132    133    158    157
    133    134    159    158
    134    135    160    159
    135    136    161    160
    136    137    162    161
    137    138    163    162
    138    139    164    163
    139    140    165    164
    140    141    166    165
    141    142    167    166
    142    143    168    167
    143    144    169    168
    144    145    170    169
    145    146    171    170
    146    147    172    171
    147    148    173    172
    148    149    174    173
    149    125    150    174
    150    151    176    175
    151    152    177    176
    152    153    178    177
    153    154    179    178
    154    155    180    179
    155    156    181    180
    156    157    182    181
    157    158    183    182
    158    159    184    183
    159    160    185    184
    160    161    186    185
    161    162    187    186
    162    163    188    187
    163    164    189    188
    164    165    190    189
    165    166    191    190
    166    167    192    191
    167    168    193    192
    168    169    194    193
    169    170    195    194
    170    171    196    195
    171    172    197    196
    172    173    198    197
    173    174    199    198
    174    150    175    199
    175    176    201    200
    176    177    202    201
    177    178    203    202
    178    179    204    203
    179    180    205    204
    180    181    206    205
    181    182    207    206
    182    183    208    207
    183    184    209    208
    184    185    210    209
    185    186    211    210
    186    187    212    211
    187    188    213    212
    188    189    214    213
    189    190    215    214
    190    191    216    215
    191    192    217    216
    192    193    218    217
    193    194    219    218
    194    195    220    219
    195    196    221    220
    196    197    222    221
    197    198    223    222
    198    199    224    223
    199    175    200    224
    200    201    226    225
    201    202    227    226
    202    203    228    227
    203    204    229    228
    204    205    230    229
    205    206    231    230
    206    207    232    231
    207    208    233    232
    208    209    234    233
    209    210    235    234
    210    211    236    235
    211    212    237    236
    212    213    238    237
    213    214    239    238
    214    215    240    239
    215    216    241    240
    216    217    242    241
    217    218    243    242
    218    219    244    243
    219    220    245    244
    220    221    246    245
    221    222    247    246
    222    223    248    247
    223    224    249    248
    224    200    225    249
    225    226    251    250
    226    227    252    251
    227    228    253    252
    228    229    254    253
    229    230    255    254
    230    231    256    255
    231    232    257    256
    232    233    258    257
    233    234    259    258
    234    235    260    259
    235    236    261    260
    236    237    262    261
    237    238    263    262
    238    239    264    263
    239    240    265    264
    240    241    266    265
    241    242    267    266
    242    243    268    267
    243    244    269    268
    244    245    270    269
    245    246    271    270
    246    247    272    271
    247    248    273    272
    248    249    274    273
    249    225    250    274
    250    251    276    275
    251    252    277    276
    252    253    278    277
    253    254    279    278
    254    255    280    279
    255    256    281    280
    256    257    282    281
    257    258    283    282
    258    259    284    283
    259    260    285    284
    260    261    286    285
    261    262    287    286
    262    263    288    287
    263    264    289    288
    264    265    290    289
    265    266    291    290
    266    267    292    291
    267    268    293    292
    268    269    294    293
    269    270    295    294
    270    271    296    295
    271    272    297    296
    272    273    298    297
    273    274    299    298
    274    250    275    299
    275    276    301    300
    276    277    302    301
    277    278    303    302
    278    279    304    303
    279    280    305    304
    280    281    306    305
    281    282    307    306
    282    283    308    307
    283    284    309    308
    284    285    310    309
    285    286    311    310
    286    287    312    311
    287    288    313    312
    288    289    314    313
    289    290    315    314
    290    291    316    315
    291    292    317    316
    292    293    318    317
    293    294    319    318
    294    295    320    319
    295    296    321    320
    296    297    322    321
    297    298    323    322
    298    299    324    323
    299    275    300    324
    300    301    326    325
    301    302    327    326
    302    303    328    327
    303    304    329    328
    304    305    330    329
    305    306    331    330
    306    307    332    331
    307    308    333    332
    308    309    334    333
    309    310    335    334
    310    311    336    335
    311    312    337    336
    312    313    338    337
    313    314    339    338
    314    315    340    339
    315    316    341    340
    316    317    342    341
    317    318    343    342
    318    319    344    343
    319    320    345    344
    320    321    346    345
    321    322    347    346
    322    323    348    347
    323    324    349    348
    324    300    325    349
    325    326    351    350
    326    327    352    351
    327    328    353    352
    328    329    354    353
    329    330    355    354
    330    331    356    355
    331    332    357    356
    332    333    358    357
    333    334    359    358
    334    335    360    359
    335    336    361    360
    336    337    362    361
    337    338    363    362
    338    339    364    363
    339    340    365    364
    340    341    366    365
    341    342    367    366
    342    343    368    367
    343    344    369    368
    344    345    370    369
    345    346    371    370
    346    347    372    371
    347    348    373    372
    348    349    374    373
    349    325    350    374
    350    351    376    375
    351    352    377    376
    352    353    378    377
    353    354    379    378
    354    355    380    379
    355    356    381    380
    356    357    382    381
    357    358    383    382
    358    359    384    383
    359    360    385    384
    360    361    386    385
    361    362    387    386
    362    363    388    387
    363    364    389    388
    364    365    390    389
    365    366    391    390
    366    367    392    391
    367    368    393    392
    368    369    394    393
    369    370    395    394
    370    371    396    395
    371    372    397    396
    372    373    398    397
    373    374    399    398
    374    350    375    399
    375    376    401    400
    376    377    402    401
    377    378    403    402
    378    379    404    403
    379    380    405    404
    380    381    406    405
    381    382    407    406
    382    383    408    407
    383    384    409    408
    384    385    410    409
    385    386    411    410
    386    387    412    411
    387    388    413    412
    388    389    414    413
    389    390    415    414
    390    391    416    415
    391    392    417    416
    392    393    418    417
    393    394    419    418
    394    395    420    419
    395    396    421    420
    396    397    422    421
    397    398    423    422
    398    399    424    423
    399    375    400    424
    400    401    426    425
    401    402    427    426
    402    403    428    427
    403    404    429    428
    404    405    430    429
    405    406    431    430
    406    407    432    431
    407    408    433    432
    408    409    434    433
    409    410    435    434
    410    411    436    435
    411    412    437    436
    412    413    438    437
    413    414    439    438
    414    415    440    439
    415    416    441    440
    416    417    442    441
    417    418    443    442
    418    419    444    443
    419    420    445    444
    420    421    446    445
    421    422    447    446
    422    423    448    447
    423    424    449    448
    424    400    425    449
    425    426    451    450
    426    427    452    451
    427    428    453    452
    428    429    454    453
    429    430    455    454
    430    431    456    455
    431    432    457    456
    432    433    458    457
    433    434    459    458
    434    435    460    459
    435    436    461    460
    436    437    462    461
    437    438    463    462
    438    439    464    463
    439    440    465    464
    440    441    466    465
    441    442    467    466
    442    443    468    467
    443    444    469    468
    444    445    470    469
    445    446    471    470
    446    447    472    471
    447    448    473    472
    448    449    474    473
    449    425    450    474
    450    451    476    475
    451    452    477    476
    452    453    478    477
    453    454    479    478
    454    455    480    479
    455    456    481    480
    456    457    482    481
    457    458    483    482
    458    459    484    483
    459    460    485    484
    460    461    486    485
    461    462    487    486
    462    463    488    487
    463    464    489    488
    464    465    490    489
    465    466    491    490
    466    467    492    491
    467    468    493    492
    468    469    494    493
    469    470    495    494
    470    471    496    495
    471    472    497    496
    472    473    498    497
    473    474    499    498
    474    450    475    499
    475    476    501    500
    476    477    502    501
    477    478    503    502
    478    479    504    503
    479    480    505    504
    480    481    506    505
    481    482    507    506
    482    483    508    507
    483    484    509    508
    484    485    510    509
    485    486    511    510
    486    487    512    511
    487    488    513    512
    488    489    514    513
    489    490    515    514
    490    491    516    515
    491    492    517    516
    492    493    518    517
    493    494    519    518
    494    495    520    519
    495    496    521    520
    496    497    522    521
    497    498    523    522
    498    499    524    523
    499    475    500    524
    500    501    526    525
    501    502    527    526
    502    503    528    527
    503    504    529    528
    504    505    530    529
    505    506    531    530
    506    507    532    531
    507    508    533    532
    508    509    534    533
    509    510    535    534
    510    511    536    535
    511    512    537    536
    512    513    538    537
    513    514    539    538
    514    515    540    539
    515    516    541    540
    516    517    542    541
    517    518    543    542
    518    519    544    543
    519    520    545    544
    520    521    546    545
    521    522    547    546
    522    523    548    547
    523    524    549    548
    524    500    525    549
    525    526    551    550
    526    527    552    551
    527    528    553    552
    528    529    554    553
    529    530    555    554
    530    531    556    555
    531    532    557    556
    532    533    558    557
    533    534    559    558
    534    535    560    559
    535    536    561    560
    536    537    562    561
    537    538    563    562
    538    539    564    563
    539    540    565    564
    540    541    566    565
    541    542    567    566
    542    543    568    567
    543    544    569    568
    544    545    570    569
    545    546    571    570
    546    547    572    571
    547    548    573    572
    548    549    574    573
    549    525    550    574
    550    551    576    575
    551    552    577    576
    552    553    578    577
    553    554    579    578
    554    555    580    579
    555    556    581    580
    556    557    582    581
    557    558    583    582
    558    559    584    583
    559    560    585    584
    560    561    586    585
    561    562    587    586
    562    563    588    587
    563    564    589    588
    564    565    590    589
    565    566    591    590
    566    567    592    591
    567    568    593    592
    568    569    594    593
    569    570    595    594
    570    571    596    595
    571    572    597    596
    572    573    598    597
    573    574    599    598
    574    550    575    599
    575    576    601    600
    576    577    602    601
    577    578    603    602
    578    579    604    603
    579    580    605    604
    580    581    606    605
    581    582    607    606
    582    583    608    607
    583    584    609    608
    584    585    610    609
    585    586    611    610
    586    587    612    611
    587    588    613    612
    588    589    614    613
    589    590    615    614
    590    591    616    615
    591    592    617    616
    592    593    618    617
    593    594    619    618
    594    595    620    619
    595    596    621    620
    596    597    622    621
    597    598    623    622
    598    599    624    623
    599    575    600    624
        </DataArray>
        <DataArray type="Int32" Name="offsets" format="ascii">
      4
      8
     12
     16
     20
     24
     28
     32
     36
     40
     44
     48
     52
     56
     60
     64
     68
     72
     76
     80
     84
     88
     92
     96
    100
    104
    108
    112
    116
    120
    124
    128
    132
    136
    140
    144
    148
    152
    156
    160
    164
    168
    172
    176
    180
    184
    188
    192
    196
    200
    204
    208
    212
    216
    220
    224
    228
    232
    236
    240
    244
    248
    252
    256
    260
    264
    268
    272
    276
    280
    284
    288
    292
    296
    300
    304
    308
    312
    316
    320
    324
    328
    332
    336
    340
    344
    348
    352
    356
    360
    364
    368
    372
    376
    380
    384
    388
    392
    396
    400
    404
    408
    412
    416
    420
    424
    428
    432
    436
    440
    444
    448
    452
    456
    460
    464
    468
    472
    476
    480
    484
    488
    492
    496
    500
    504
    508
    512
    516
    520
    524
    528
    532
    536
    540
    544
    548
    552
    556
    560
    564
    568
    572
    576
    580
    584
    588
    592
    596
    600
    604
    608
    612
    616
    620
    624
    628
    632
    636
    640
    644
    648
    652
    656
    660
    664
    668
    672
    676
    680
    684
    688
    692
    696
    700
    704
    708
    712
    716
    720
    724
    728
    732
    736
    740
    744
    748
    752
    756
    760
    764
    768
    772
    776
    780
    784
    788
    792
    796
    800
    804
    808
    812
    816
    820
    824
    828
    832
    836
    840
    844
    848
    852
    856
    860
    864
    868
    872
    876
    880
    884
    888
    892
    896
    900
    904
    908
    912
    916
    920
    924
    928
    932
    936
    940
    944
    948
    952
    956
    960
    964
    968
    972
    976
    980
    984
    988
    992
    996
   1000
   1004
   1008
   1012
   1016
   1020
   1024
   1028
   1032
   1036
   1040
   1044
   1048
   1052
   1056
   1060
   1064
   1068
   1072
   1076
   1080
   1084
   1088
   1092
   1096
   1100
   1104
   1108
   1112
   1116
   1120
   1124
   1128
   1132
   1136
   1140
   1144
   1148
   1152
   1156
   1160
   1164
   1168
   1172
   1176
   1180
   1184
   1188
   1192
   1196
   1200
   1204
   1208
   1212
   1216
   1220
   1224
   1228
   1232
   1236
   1240
   1244
   1248
   1252
   1256
   1260
   1264
   1268
   1272
   1276
   1280
   1284
   1288
   1292
   1296
   1300
   1304
   1308
   1312
   1316
   1320
   1324
   1328
   1332
   1336
   1340
   1344
   1348
   1352
   1356
   1360
   1364
   1368
   1372
   1376
   1380
   1384
   1388
   1392
   1396
   1400
   1404
   1408
   1412
   1416
   1420
   1424
   1428
   1432
   1436
   1440
   1444
   1448
   1452
   1456
   1460
   1464
   1468
   1472
   1476
   1480
   1484
   1488
   1492
   1496
   1500
   1504
   1508
   1512
   1516
   1520
   1524
   1528
   1532
   1536
   1540
   1544
   1548
   1552
   1556
   1560
   1564
   1568
   1572
   1576
   1580
   1584
   1588
   1592
   1596
   1600
   1604
   1608
   1612
   1616
   1620
   1624
   1628
   1632
   1636
   1640
   1644
   1648
   1652
   1656
   1660
   1664
   1668
   1672
   1676
   1680
   1684
   1688
   1692
   1696
   1700
   1704
   1708
   1712
   1716
   1720
   1724
   1728
   1732
   1736
   1740
   1744
   1748
   1752
   1756
   1760
   1764
   1768
   1772
   1776
   1780
   1784
   1788
   1792
   1796
   1800
   1804
   1808
   1812
   1816
   1820
   1824
   1828
   1832
   1836
   1840
   1844
   1848
   1852
   1856
   1860
   1864
   1868
   1872
   1876
   1880
   1884
   1888
   1892
   1896
   1900
   1904
   1908
   1912
   1916
   1920
   1924
   1928
   1932
   1936
   1940
   1944
   1948
   1952
   1956
   1960
   1964
   1968
   1972
   1976
   1980
   1984
   1988
   1992
   1996
   2000
   2004
   2008
   2012
   2016
   2020
   2024
   2028
   2032
   2036
   2040
   2044
   2048
   2052
   2056
   2060
   2064
   2068
   2072
   2076
   2080
   2084
   2088
   2092
   2096
   2100
   2104
   2108
   2112
   2116
   2120
   2124
   2128
   2132
   2136
   2140
   2144
   2148
   2152
   2156
   2160
   2164
   2168
   2172
   2176
   2180
   2184
   2188
   2192
   2196
   2200
   2204
   2208
   2212
   2216
   2220
   2224
   2228
   2232
   2236
   2240
   2244
   2248
   2252
   2256
   2260
   2264
   2268
   2272
   2276
   2280
   2284
   2288
   2292
   2296
   2300
   2304
   2308
   2312
   2316
   2320
   2324
   2328
   2332
   2336
   2340
   2344
   2348
   2352
   2356
   2360
   2364
   2368
   2372
   2376
   2380
   2384
   2388
   2392
   2396
   2400
        </DataArray>
      </Polys>
    </Piece>
  </PolyData>
</VTKFile>
