<?xml version="1.0"?>
<VTKFile type="PolyData" version="0.1" byte_order="LittleEndian">
  <PolyData>
    <Piece NumberOfPoints="     19" NumberOfVerts="  0" NumberOfLines="     18"
           NumberOfStrips="  0" NumberOfPolys="      0">
      <Points>
        <DataArray type="Float32" NumberOfComponents="3" format="ascii">
                      -5.03871                       0.33688                      88.56668
                      -5.21789                       0.65272                      87.24876
                      -5.59519                       1.37614                      84.63692
                      -5.97946                       2.14276                      82.03574
                      -6.46027                       3.12635                      78.78958
                      -6.97825                       4.16674                      74.85266
                      -7.46330                       5.07951                      70.88094
                      -7.93943                       5.98851                      66.90683
                      -8.40619                       6.89216                      62.92989
                      -8.86777                       7.79242                      58.95103
                      -9.33042                       8.69277                      54.97183
                      -9.79989                       9.59152                      50.99268
                     -10.28482                      10.48807                      47.01475
                     -10.79558                      11.38141                      43.03950
                     -11.34176                      12.27039                      39.06854
                     -11.83431                      13.00635                      35.76424
                     -12.25677                      13.58349                      33.12307
                     -12.70313                      14.10328                      30.47312
                     -12.94624                      14.40101                      29.16040
        </DataArray>
      </Points>
      <PointData>
        <DataArray type="Float32" Name="TranslationalVelocity" NumberOfComponents="3" format="ascii">
                       0.08548                       4.10674                       0.96104
                       0.16473                       7.84123                       1.84526
                       0.34289                      15.24377                       3.86985
                       0.52731                      22.61249                       6.01406
                       0.75743                      31.79967                       8.76294
                       0.98850                      42.91189                      11.66759
                       1.17659                      54.09795                      14.21371
                       1.35225                      65.27386                      16.74752
                       1.51413                      76.44212                      19.26498
                       1.66107                      87.60275                      21.77208
                       1.79149                      98.75456                      24.27928
                       1.90159                     109.89938                      26.78281
                       1.98672                     121.03724                      29.28224
                       2.04096                     132.16714                      31.77632
                       2.05700                     143.28670                      34.26360
                       2.03386                     152.54222                      36.32861
                       1.98616                     159.94219                      37.95298
                       1.89479                     167.36627                      39.42339
                       1.84907                     171.04698                      40.26561
        </DataArray>
        <DataArray type="Float32" Name="RotationalVelocity" NumberOfComponents="3" format="ascii">
                       2.79997                       0.00017                      -0.25280
                       2.79931                       0.00057                      -0.25260
                       2.79756                       0.00174                      -0.25214
                       2.79541                       0.00324                      -0.25157
                       2.79240                       0.00537                      -0.25075
                       2.78866                       0.00807                      -0.24967
                       2.78505                       0.01083                      -0.24868
                       2.78172                       0.01376                      -0.24799
                       2.77873                       0.01706                      -0.24783
                       2.77604                       0.02103                      -0.24842
                       2.77357                       0.02601                      -0.24993
                       2.77119                       0.03231                      -0.25242
                       2.76875                       0.04017                      -0.25587
                       2.76616                       0.04974                      -0.26010
                       2.76332                       0.06096                      -0.26477
                       2.76077                       0.07139                      -0.26862
                       2.75862                       0.08029                      -0.27135
                       2.75644                       0.08943                      -0.27347
                       2.75536                       0.09401                      -0.27420
        </DataArray>
        <DataArray type="Float32" Name="TranslationalAcceleration" NumberOfComponents="3" format="ascii">
                       1.06619                      -2.70943                      11.53751
                       1.23408                      -3.32158                      13.89214
                       3.43984                     -10.22851                      39.55791
                       5.36723                     -16.96666                      63.03249
                       7.50244                     -25.09148                      90.32569
                       9.84716                     -33.27038                     121.52017
                      12.11383                     -40.20220                     152.04721
                      14.42911                     -47.04340                     182.40210
                      16.90948                     -53.88565                     212.97100
                      19.64491                     -60.78697                     243.87144
                      22.70268                     -67.77018                     275.02862
                      26.13010                     -74.78611                     306.26276
                      29.95740                     -81.77721                     337.35207
                      34.20094                     -88.68105                     368.11042
                      38.86670                     -95.44829                     398.46349
                      43.08559                    -100.96000                     423.51736
                      46.65959                    -105.23013                     443.54590
                      50.39525                    -109.03799                     463.83659
                      52.34624                    -111.23220                     474.03795
        </DataArray>
        <DataArray type="Float32" Name="OrientationX" NumberOfComponents="3" format="ascii">
                       0.96930                       0.23380                      -0.07611
                       0.96933                       0.23377                      -0.07585
                       0.96938                       0.23382                      -0.07504
                       0.96943                       0.23401                      -0.07383
                       0.96946                       0.23451                      -0.07182
                       0.97565                       0.20550                      -0.07672
                       0.97939                       0.18598                      -0.07883
                       0.98205                       0.17089                      -0.07990
                       0.98425                       0.15698                      -0.08123
                       0.98590                       0.14532                      -0.08301
                       0.98675                       0.13807                      -0.08515
                       0.98697                       0.13449                      -0.08829
                       0.98636                       0.13621                      -0.09242
                       0.98459                       0.14528                      -0.09732
                       0.98210                       0.15674                      -0.10444
                       0.97953                       0.16699                      -0.11237
                       0.97712                       0.17555                      -0.12012
                       0.97394                       0.18695                      -0.12841
                       0.97195                       0.19423                      -0.13260
        </DataArray>
        <DataArray type="Float32" Name="OrientationY" NumberOfComponents="3" format="ascii">
                       0.20814                      -0.94502                      -0.25223
                       0.20818                      -0.94504                      -0.25213
                       0.20845                      -0.94506                      -0.25182
                       0.20898                      -0.94505                      -0.25141
                       0.21001                      -0.94499                      -0.25080
                       0.18100                      -0.95179                      -0.24766
                       0.16177                      -0.95587                      -0.24524
                       0.14704                      -0.95875                      -0.24326
                       0.13337                      -0.96119                      -0.24152
                       0.12174                      -0.96308                      -0.24011
                       0.11428                      -0.96421                      -0.23923
                       0.11011                      -0.96481                      -0.23880
                       0.11083                      -0.96469                      -0.23894
                       0.11847                      -0.96356                      -0.23984
                       0.12791                      -0.96205                      -0.24104
                       0.13599                      -0.96066                      -0.24214
                       0.14250                      -0.95948                      -0.24310
                       0.15160                      -0.95773                      -0.24450
                       0.15766                      -0.95650                      -0.24547
        </DataArray>
        <DataArray type="Float32" Name="OrientationZ" NumberOfComponents="3" format="ascii">
                      -0.13089                       0.22865                      -0.96467
                      -0.13062                       0.22860                      -0.96472
                      -0.12980                       0.22847                      -0.96486
                      -0.12861                       0.22830                      -0.96506
                      -0.12668                       0.22805                      -0.96537
                      -0.12392                       0.22774                      -0.96580
                      -0.12096                       0.22744                      -0.96625
                      -0.11818                       0.22715                      -0.96666
                      -0.11599                       0.22688                      -0.96699
                      -0.11484                       0.22662                      -0.96719
                      -0.11514                       0.22633                      -0.96722
                      -0.11730                       0.22597                      -0.96705
                      -0.12170                       0.22544                      -0.96663
                      -0.12862                       0.22462                      -0.96592
                      -0.13826                       0.22337                      -0.96488
                      -0.14838                       0.22190                      -0.96371
                      -0.15793                       0.22042                      -0.96253
                      -0.16869                       0.21866                      -0.96111
                      -0.17451                       0.21767                      -0.96029
        </DataArray>
        <DataArray type="Float32" Name="Force" NumberOfComponents="3" format="ascii">
                      -0.33621                     -15.91272                      -3.72606
                     140.14994                     -99.56440                     -42.57491
                     221.61334                    -312.61260                    -103.90195
                     230.49103                    -486.90221                    -146.09828
                    1169.16762                     241.06712                     -96.31542
                     994.05726                     145.11904                     -93.17339
                     787.97784                      41.36262                     -88.85084
                    1279.62851                      97.90271                    -133.27044
                    1710.37980                     116.91955                    -177.50147
                    1863.98929                      90.34420                    -199.94139
                    3372.44388                     177.44827                    -359.46654
                    3529.49758                     152.21474                    -392.11432
                    2351.12966                      27.08937                    -289.61264
                     912.58427                    -117.77449                    -149.43981
                    1038.35610                    -110.67829                    -175.07890
                    -922.99763                    -297.14263                      71.63301
                   -2522.57094                    -443.88302                     308.66817
                   -3458.73108                    -488.47785                     491.41085
                  -19498.26967                    -653.83788                    3391.35063
        </DataArray>
        <DataArray type="Float32" Name="Moment" NumberOfComponents="3" format="ascii">
                       0.00000                       0.00000                       0.00000
                       0.00000                       0.00000                       0.00000
                       0.00000                       0.00000                       0.00000
                       0.00000                       0.00000                       0.00000
                     146.52497                    -264.54082                    1116.54144
                     283.75527                    -523.82799                    2211.48507
                     380.41596                    -719.57979                    3038.75168
                     604.03662                   -1169.62822                    4940.57574
                     890.44511                   -1756.93559                    7422.91994
                    1005.87544                   -2004.91211                    8471.52672
                    1133.65940                   -2253.85952                    9523.16513
                    1229.07776                   -2398.46372                   10132.11005
                     961.34691                   -1808.15568                    7635.26568
                     993.67170                   -1768.16385                    7461.55763
                    1012.03773                   -1674.73207                    7060.88550
                    1020.22398                   -1572.40507                    6623.14351
                     958.89750                   -1387.88724                    5840.66504
                     514.60495                    -696.79613                    2929.34241
                     483.90012                    -633.09845                    2660.08212
        </DataArray>
      </PointData>
      <Lines>
        <DataArray type="Int32" Name="connectivity" format="ascii">
      0      1
      1      2
      2      3
      3      4
      4      5
      5      6
      6      7
      7      8
      8      9
      9     10
     10     11
     11     12
     12     13
     13     14
     14     15
     15     16
     16     17
     17     18
        </DataArray>
        <DataArray type="Int32" Name="offsets" format="ascii">
      2
      4
      6
      8
     10
     12
     14
     16
     18
     20
     22
     24
     26
     28
     30
     32
     34
     36
        </DataArray>
      </Lines>
    </Piece>
  </PolyData>
</VTKFile>
