<?xml version="1.0"?>
<VTKFile type="PolyData" version="0.1" byte_order="LittleEndian">
  <PolyData>
    <Piece NumberOfPoints="    625" NumberOfVerts="  0" NumberOfLines="      0"
           NumberOfStrips="  0" NumberOfPolys="    600">
      <Points>
        <DataArray type="Float32" NumberOfComponents="3" format="ascii">
                      -4.91947                       1.19754                      89.12550
                      -4.91947                       1.19754                      89.12550
                      -4.91947                       1.19754                      89.12550
                      -4.91947                       1.19754                      89.12550
                      -4.91947                       1.19754                      89.12550
                      -4.91947                       1.19754                      89.12550
                      -4.91947                       1.19754                      89.12550
                      -4.91947                       1.19754                      89.12550
                      -4.91947                       1.19754                      89.12550
                      -4.91947                       1.19754                      89.12550
                      -4.91947                       1.19754                      89.12550
                      -4.91947                       1.19754                      89.12550
                      -4.91947                       1.19754                      89.12550
                      -4.91947                       1.19754                      89.12550
                      -4.91947                       1.19754                      89.12550
                      -4.91947                       1.19754                      89.12550
                      -4.91947                       1.19754                      89.12550
                      -4.91947                       1.19754                      89.12550
                      -4.91947                       1.19754                      89.12550
                      -4.91947                       1.19754                      89.12550
                      -4.91947                       1.19754                      89.12550
                      -4.91947                       1.19754                      89.12550
                      -4.91947                       1.19754                      89.12550
                      -4.91947                       1.19754                      89.12550
                      -4.91947                       1.19754                      89.12550
                      -4.31573                       1.09708                      89.14559
                      -4.32370                       1.18578                      89.26662
                      -4.36868                       1.26891                      89.38344
                      -4.44785                       1.34124                      89.48871
                      -4.55623                       1.39823                      89.57581
                      -4.68702                       1.43630                      89.63927
                      -4.83199                       1.45305                      89.67510
                      -4.98204                       1.44743                      89.68106
                      -5.12773                       1.41980                      89.65676
                      -5.25992                       1.37189                      89.60373
                      -5.37029                       1.30672                      89.52530
                      -5.45192                       1.22837                      89.42641
                      -5.49967                       1.14177                      89.31327
                      -5.51055                       1.05236                      89.19298
                      -5.48386                       0.96577                      89.07311
                      -5.42129                       0.88742                      88.96118
                      -5.32677                       0.82225                      88.86423
                      -5.20624                       0.77434                      88.78835
                      -5.06726                       0.74672                      88.73831
                      -4.91858                       0.74110                      88.71726
                      -4.76954                       0.75786                      88.72650
                      -4.62949                       0.79593                      88.76548
                      -4.50725                       0.85292                      88.83172
                      -4.41048                       0.92525                      88.92109
                      -4.34528                       1.00838                      89.02794
                      -4.08029                       0.99662                      89.19898
                      -4.09131                       1.11930                      89.36638
                      -4.15353                       1.23428                      89.52796
                      -4.26303                       1.33432                      89.67356
                      -4.41293                       1.41314                      89.79403
                      -4.59383                       1.46579                      89.88181
                      -4.79434                       1.48896                      89.93137
                      -5.00187                       1.48119                      89.93960
                      -5.20339                       1.44298                      89.90599
                      -5.38622                       1.37671                      89.83264
                      -5.53888                       1.28657                      89.72417
                      -5.65179                       1.17820                      89.58739
                      -5.71783                       1.05842                      89.43090
                      -5.73287                       0.93476                      89.26453
                      -5.69596                       0.81499                      89.09873
                      -5.60942                       0.70663                      88.94392
                      -5.47869                       0.61648                      88.80983
                      -5.31197                       0.55023                      88.70488
                      -5.11976                       0.51202                      88.63566
                      -4.91411                       0.50425                      88.60654
                      -4.70796                       0.52743                      88.61933
                      -4.51426                       0.58008                      88.67323
                      -4.34518                       0.65891                      88.76486
                      -4.21134                       0.75896                      88.88846
                      -4.12116                       0.87393                      89.03626
                      -3.91125                       0.89615                      89.25837
                      -3.92444                       1.04296                      89.45868
                      -3.99889                       1.18053                      89.65203
                      -4.12992                       1.30024                      89.82625
                      -4.30929                       1.39456                      89.97040
                      -4.52575                       1.45756                      90.07543
                      -4.76568                       1.48528                      90.13473
                      -5.01401                       1.47599                      90.14458
                      -5.25514                       1.43026                      90.10436
                      -5.47391                       1.35097                      90.01660
                      -5.65659                       1.24310                      89.88681
                      -5.79168                       1.11343                      89.72314
                      -5.87071                       0.97011                      89.53589
                      -5.88871                       0.82214                      89.33681
                      -5.84455                       0.67882                      89.13841
                      -5.74099                       0.54915                      88.95317
                      -5.58456                       0.44129                      88.79272
                      -5.38507                       0.36201                      88.66713
                      -5.15506                       0.31628                      88.58432
                      -4.90899                       0.30700                      88.54946
                      -4.66232                       0.33473                      88.56477
                      -4.43054                       0.39773                      88.62927
                      -4.22822                       0.49206                      88.73891
                      -4.06807                       0.61177                      88.88681
                      -3.96015                       0.74935                      89.06366
                      -3.77919                       0.79569                      89.32110
                      -3.79405                       0.96112                      89.54683
                      -3.87794                       1.11615                      89.76471
                      -4.02559                       1.25104                      89.96103
                      -4.22773                       1.35733                      90.12348
                      -4.47164                       1.42832                      90.24183
                      -4.74201                       1.45956                      90.30866
                      -5.02185                       1.44909                      90.31976
                      -5.29357                       1.39756                      90.27443
                      -5.54010                       1.30821                      90.17553
                      -5.74596                       1.18665                      90.02928
                      -5.89819                       1.04053                      89.84484
                      -5.98725                       0.87903                      89.63383
                      -6.00753                       0.71228                      89.40949
                      -5.95776                       0.55078                      89.18593
                      -5.84107                       0.40466                      88.97718
                      -5.66479                       0.28311                      88.79637
                      -5.43999                       0.19377                      88.65486
                      -5.18080                       0.14225                      88.56153
                      -4.90351                       0.13178                      88.52226
                      -4.62554                       0.16303                      88.53951
                      -4.36435                       0.23403                      88.61219
                      -4.13637                       0.34032                      88.73574
                      -3.95590                       0.47522                      88.90240
                      -3.83429                       0.63026                      89.10170
                      -3.67258                       0.69522                      89.38614
                      -3.68878                       0.87549                      89.63212
                      -3.78020                       1.04444                      89.86955
                      -3.94110                       1.19143                      90.08349
                      -4.16137                       1.30725                      90.26051
                      -4.42717                       1.38462                      90.38948
                      -4.72180                       1.41866                      90.46230
                      -5.02674                       1.40725                      90.47440
                      -5.32284                       1.35109                      90.42501
                      -5.59150                       1.25373                      90.31723
                      -5.81582                       1.12127                      90.15785
                      -5.98171                       0.96203                      89.95687
                      -6.07876                       0.78604                      89.72693
                      -6.10086                       0.60433                      89.48246
                      -6.04663                       0.42834                      89.23884
                      -5.91947                       0.26911                      89.01136
                      -5.72737                       0.13666                      88.81433
                      -5.48240                       0.03930                      88.66012
                      -5.19996                      -0.01685                      88.55842
                      -4.89779                      -0.02825                      88.51562
                      -4.59487                       0.00580                      88.53441
                      -4.31025                       0.08317                      88.61362
                      -4.06181                       0.19900                      88.74826
                      -3.86515                       0.34600                      88.92987
                      -3.73263                       0.51495                      89.14705
                      -3.58552                       0.59475                      89.45294
                      -3.60279                       0.78696                      89.71522
                      -3.70026                       0.96710                      89.96836
                      -3.87182                       1.12383                      90.19647
                      -4.10668                       1.24732                      90.38522
                      -4.39008                       1.32981                      90.52273
                      -4.70422                       1.36610                      90.60038
                      -5.02937                       1.35393                      90.61327
                      -5.34508                       1.29406                      90.56061
                      -5.63152                       1.19025                      90.44570
                      -5.87070                       1.04901                      90.27577
                      -6.04758                       0.87924                      90.06148
                      -6.15106                       0.69158                      89.81630
                      -6.17462                       0.49785                      89.55564
                      -6.11680                       0.31019                      89.29588
                      -5.98121                       0.14042                      89.05334
                      -5.77639                      -0.00080                      88.84326
                      -5.51520                      -0.10461                      88.67884
                      -5.21405                      -0.16447                      88.57040
                      -4.89187                      -0.17663                      88.52477
                      -4.56890                      -0.14033                      88.54481
                      -4.26542                      -0.05783                      88.62926
                      -4.00052                       0.06567                      88.77282
                      -3.79084                       0.22241                      88.96646
                      -3.64955                       0.40254                      89.19802
                      -3.51453                       0.49429                      89.52120
                      -3.53266                       0.69605                      89.79651
                      -3.63498                       0.88513                      90.06223
                      -3.81506                       1.04965                      90.30168
                      -4.06159                       1.17928                      90.49980
                      -4.35907                       1.26586                      90.64415
                      -4.68883                       1.30397                      90.72565
                      -5.03013                       1.29119                      90.73919
                      -5.36153                       1.22834                      90.68391
                      -5.66220                       1.11937                      90.56329
                      -5.91327                       0.97112                      90.38491
                      -6.09894                       0.79291                      90.15997
                      -6.20756                       0.59593                      89.90261
                      -6.23229                       0.39256                      89.62900
                      -6.17159                       0.19559                      89.35634
                      -6.02927                       0.01738                      89.10174
                      -5.81427                      -0.13086                      88.88122
                      -5.54010                      -0.23983                      88.70863
                      -5.22399                      -0.30267                      88.59480
                      -4.88580                      -0.31543                      88.54691
                      -4.54677                      -0.27732                      88.56794
                      -4.22822                      -0.19073                      88.65659
                      -3.95016                      -0.06109                      88.80728
                      -3.73006                       0.10344                      89.01054
                      -3.58174                       0.29252                      89.25360
                      -3.45742                       0.39382                      89.59071
                      -3.47622                       0.60307                      89.87624
                      -3.58233                       0.79917                      90.15183
                      -3.76910                       0.96981                      90.40017
                      -4.02478                       1.10424                      90.60564
                      -4.33331                       1.19404                      90.75535
                      -4.67531                       1.23356                      90.83988
                      -5.02928                       1.22031                      90.85392
                      -5.37298                       1.15513                      90.79659
                      -5.68482                       1.04211                      90.67149
                      -5.94520                       0.88836                      90.48649
                      -6.13777                       0.70353                      90.25320
                      -6.25042                       0.49923                      89.98628
                      -6.27607                       0.28832                      89.70252
                      -6.21312                       0.08403                      89.41973
                      -6.06552                      -0.10079                      89.15568
                      -5.84253                      -0.25454                      88.92697
                      -5.55818                      -0.36755                      88.74797
                      -5.23034                      -0.43272                      88.62992
                      -4.87959                      -0.44596                      88.58024
                      -4.52798                      -0.40643                      88.60206
                      -4.19760                      -0.31663                      88.69400
                      -3.90921                      -0.18218                      88.85028
                      -3.68094                      -0.01154                      89.06109
                      -3.52712                       0.18457                      89.31318
                      -3.41272                       0.29335                      89.66134
                      -3.43202                       0.50825                      89.95458
                      -3.54100                       0.70964                      90.23760
                      -3.73281                       0.88488                      90.49264
                      -3.99539                       1.02294                      90.70366
                      -4.31224                       1.11517                      90.85740
                      -4.66347                       1.15575                      90.94421
                      -5.02699                       1.14214                      90.95863
                      -5.37996                       1.07520                      90.89976
                      -5.70022                       0.95913                      90.77128
                      -5.96763                       0.80123                      90.58129
                      -6.16539                       0.61141                      90.34171
                      -6.28108                       0.40161                      90.06759
                      -6.30742                       0.18501                      89.77617
                      -6.24277                      -0.02479                      89.48575
                      -6.09118                      -0.21461                      89.21458
                      -5.86218                      -0.37250                      88.97970
                      -5.57016                      -0.48856                      88.79587
                      -5.23347                      -0.55549                      88.67463
                      -4.87326                      -0.56909                      88.62362
                      -4.51216                      -0.52849                      88.64602
                      -4.17287                      -0.43626                      88.74044
                      -3.87671                      -0.29819                      88.90094
                      -3.64227                      -0.12294                      89.11744
                      -3.48430                       0.07845                      89.37633
                      -3.37948                       0.19288                      89.73301
                      -3.39914                       0.41173                      90.03163
                      -3.51012                       0.61681                      90.31985
                      -3.70544                       0.79527                      90.57956
                      -3.97284                       0.93586                      90.79445
                      -4.29551                       1.02978                      90.95102
                      -4.65318                       1.07111                      91.03942
                      -5.02337                       1.05725                      91.05411
                      -5.38282                       0.98908                      90.99415
                      -5.70895                       0.87088                      90.86332
                      -5.98127                       0.71008                      90.66984
                      -6.18266                       0.51678                      90.42586
                      -6.30047                       0.30313                      90.14671
                      -6.32730                       0.08255                      89.84994
                      -6.26146                      -0.13110                      89.55419
                      -6.10709                      -0.32439                      89.27805
                      -5.87389                      -0.48519                      89.03886
                      -5.57651                      -0.60338                      88.85165
                      -5.23364                      -0.67153                      88.72820
                      -4.86682                      -0.68538                      88.67624
                      -4.49910                      -0.64404                      88.69906
                      -4.15358                      -0.55012                      88.79521
                      -3.85198                      -0.40951                      88.95866
                      -3.61324                      -0.23105                      89.17913
                      -3.45237                      -0.02596                      89.44277
                      -3.35708                       0.09242                      89.80566
                      -3.37695                       0.31359                      90.10746
                      -3.48911                       0.52086                      90.39875
                      -3.68652                       0.70122                      90.66123
                      -3.95677                       0.84331                      90.87842
                      -4.28287                       0.93823                      91.03665
                      -4.64435                       0.98000                      91.12600
                      -5.01849                       0.96599                      91.14084
                      -5.38177                       0.89710                      91.08024
                      -5.71138                       0.77764                      90.94802
                      -5.98660                       0.61513                      90.75247
                      -6.19014                       0.41977                      90.50589
                      -6.30920                       0.20384                      90.22377
                      -6.33632                      -0.01909                      89.92384
                      -6.26978                      -0.23502                      89.62494
                      -6.11376                      -0.43038                      89.34585
                      -5.87808                      -0.59288                      89.10411
                      -5.57753                      -0.71233                      88.91491
                      -5.23100                      -0.78121                      88.79014
                      -4.86027                      -0.79521                      88.73763
                      -4.48863                      -0.75343                      88.76069
                      -4.13943                      -0.65850                      88.85787
                      -3.83462                      -0.51640                      89.02305
                      -3.59334                      -0.33604                      89.24587
                      -3.43075                      -0.12876                      89.51232
                      -3.34518                      -0.00805                      89.87926
                      -3.36512                       0.21389                      90.18211
                      -3.47768                       0.42189                      90.47442
                      -3.67577                       0.60287                      90.73782
                      -3.94696                       0.74547                      90.95576
                      -4.27421                       0.84071                      91.11455
                      -4.63695                       0.88263                      91.20420
                      -5.01239                       0.86857                      91.21910
                      -5.37695                       0.79944                      91.15829
                      -5.70770                       0.67956                      91.02560
                      -5.98388                       0.51648                      90.82938
                      -6.18813                       0.32044                      90.58194
                      -6.30761                       0.10376                      90.29883
                      -6.33482                      -0.11995                      89.99785
                      -6.26805                      -0.33663                      89.69791
                      -6.11149                      -0.53267                      89.41785
                      -5.87498                      -0.69574                      89.17526
                      -5.57339                      -0.81561                      88.98540
                      -5.22565                      -0.88473                      88.86019
                      -4.85362                      -0.89877                      88.80750
                      -4.48069                      -0.85685                      88.83064
                      -4.13027                      -0.76159                      88.92816
                      -3.82439                      -0.61899                      89.09392
                      -3.58227                      -0.43800                      89.31752
                      -3.41911                      -0.23000                      89.58490
                      -3.34368                      -0.10852                      89.95380
                      -3.36355                       0.11265                      90.25560
                      -3.47571                       0.31993                      90.54689
                      -3.67312                       0.50028                      90.80937
                      -3.94337                       0.64238                      91.02656
                      -4.26948                       0.73729                      91.18479
                      -4.63096                       0.77906                      91.27414
                      -5.00509                       0.76506                      91.28898
                      -5.36838                       0.69616                      91.22838
                      -5.69798                       0.57670                      91.09616
                      -5.97320                       0.41419                      90.90061
                      -6.17674                       0.21883                      90.65403
                      -6.29581                       0.00290                      90.37191
                      -6.32292                      -0.22003                      90.07198
                      -6.25638                      -0.43596                      89.77308
                      -6.10037                      -0.63131                      89.49399
                      -5.86468                      -0.79382                      89.25225
                      -5.56413                      -0.91327                      89.06305
                      -5.21761                      -0.98215                      88.93828
                      -4.84688                      -0.99614                      88.88577
                      -4.47523                      -0.95436                      88.90883
                      -4.12604                      -0.85944                      89.00600
                      -3.82122                      -0.71733                      89.17119
                      -3.57994                      -0.53697                      89.39401
                      -3.41735                      -0.32969                      89.66046
                      -3.35268                      -0.20899                      90.02929
                      -3.37234                       0.00985                      90.32790
                      -3.48332                       0.21494                      90.61612
                      -3.67865                       0.39339                      90.87584
                      -3.94604                       0.53399                      91.09073
                      -4.26871                       0.62791                      91.24730
                      -4.62638                       0.66923                      91.33570
                      -4.99657                       0.65538                      91.35039
                      -5.35603                       0.58721                      91.29043
                      -5.68216                       0.46901                      91.15960
                      -5.95447                       0.30821                      90.96612
                      -6.15586                       0.11491                      90.72214
                      -6.27368                      -0.09874                      90.44299
                      -6.30050                      -0.31932                      90.14622
                      -6.23467                      -0.53297                      89.85047
                      -6.08030                      -0.72627                      89.57433
                      -5.84710                      -0.88706                      89.33514
                      -5.54972                      -1.00525                      89.14793
                      -5.20685                      -1.07341                      89.02447
                      -4.84002                      -1.08725                      88.97252
                      -4.47230                      -1.04591                      88.99534
                      -4.12679                      -0.95199                      89.09149
                      -3.82518                      -0.81138                      89.25493
                      -3.58645                      -0.63292                      89.47540
                      -3.42558                      -0.42783                      89.73904
                      -3.37253                      -0.30946                      90.10576
                      -3.39183                      -0.09456                      90.39899
                      -3.50081                       0.10683                      90.68202
                      -3.69262                       0.28207                      90.93706
                      -3.95520                       0.42014                      91.14808
                      -4.27205                       0.51236                      91.30182
                      -4.62327                       0.55294                      91.38863
                      -4.98679                       0.53933                      91.40305
                      -5.33977                       0.47239                      91.34417
                      -5.66002                       0.35632                      91.21570
                      -5.92743                       0.19842                      91.02570
                      -6.12520                       0.00861                      90.78612
                      -6.24088                      -0.20120                      90.51201
                      -6.26723                      -0.41780                      90.22058
                      -6.20258                      -0.62760                      89.93016
                      -6.05099                      -0.81741                      89.65900
                      -5.82199                      -0.97531                      89.42412
                      -5.52997                      -1.09137                      89.24028
                      -5.19328                      -1.15830                      89.11905
                      -4.83307                      -1.17189                      89.06803
                      -4.47197                      -1.13130                      89.09044
                      -4.13268                      -1.03907                      89.18486
                      -3.83651                      -0.90100                      89.34536
                      -3.60208                      -0.72575                      89.56185
                      -3.44411                      -0.52436                      89.82074
                      -3.40383                      -0.40993                      90.18326
                      -3.42263                      -0.20067                      90.46880
                      -3.52874                      -0.00457                      90.74439
                      -3.71551                       0.16606                      90.99272
                      -3.97119                       0.30050                      91.19820
                      -4.27972                       0.39030                      91.34790
                      -4.62172                       0.42981                      91.43243
                      -4.97569                       0.41657                      91.44647
                      -5.31939                       0.35138                      91.38914
                      -5.63123                       0.23837                      91.26405
                      -5.89162                       0.08461                      91.07904
                      -6.08418                      -0.10022                      90.84575
                      -6.19683                      -0.30451                      90.57884
                      -6.22249                      -0.51543                      90.29507
                      -6.15953                      -0.71971                      90.01228
                      -6.01193                      -0.90454                      89.74824
                      -5.78894                      -1.05829                      89.51953
                      -5.50460                      -1.17130                      89.34053
                      -5.17675                      -1.23647                      89.22248
                      -4.82600                      -1.24971                      89.17280
                      -4.47439                      -1.21018                      89.19462
                      -4.14401                      -1.12037                      89.28656
                      -3.85563                      -0.98592                      89.44284
                      -3.62735                      -0.81529                      89.65365
                      -3.47353                      -0.61918                      89.90574
                      -3.44755                      -0.51039                      90.26189
                      -3.46567                      -0.30863                      90.53720
                      -3.56799                      -0.11955                      90.80293
                      -3.74807                       0.04497                      91.04237
                      -3.99460                       0.17460                      91.24049
                      -4.29209                       0.26118                      91.38484
                      -4.62184                       0.29929                      91.46634
                      -4.96314                       0.28651                      91.47988
                      -5.29454                       0.22366                      91.42461
                      -5.59522                       0.11469                      91.30399
                      -5.84628                      -0.03356                      91.12560
                      -6.03195                      -0.21177                      90.90067
                      -6.14057                      -0.40875                      90.64331
                      -6.16531                      -0.61212                      90.36970
                      -6.10461                      -0.80909                      90.09703
                      -5.96229                      -0.98730                      89.84244
                      -5.74728                      -1.13555                      89.62192
                      -5.47312                      -1.24451                      89.44932
                      -5.15700                      -1.30735                      89.33550
                      -4.81881                      -1.32011                      89.28760
                      -4.47979                      -1.28200                      89.30864
                      -4.16124                      -1.19541                      89.39728
                      -3.88317                      -1.06577                      89.54797
                      -3.66307                      -0.90124                      89.75123
                      -3.51475                      -0.71216                      89.99430
                      -3.50514                      -0.61086                      90.34178
                      -3.52241                      -0.41865                      90.60405
                      -3.61988                      -0.23852                      90.85720
                      -3.79144                      -0.08179                      91.08531
                      -4.02629                       0.04170                      91.27405
                      -4.30970                       0.12419                      91.41156
                      -4.62384                       0.16049                      91.48921
                      -4.94898                       0.14832                      91.50211
                      -5.26470                       0.08844                      91.44945
                      -5.55114                      -0.01537                      91.33454
                      -5.79032                      -0.15660                      91.16460
                      -5.96720                      -0.32638                      90.95031
                      -6.07068                      -0.51403                      90.70513
                      -6.09424                      -0.70777                      90.44448
                      -6.03641                      -0.89542                      90.18472
                      -5.90083                      -1.06519                      89.94218
                      -5.69601                      -1.20642                      89.73209
                      -5.43482                      -1.31023                      89.56767
                      -5.13367                      -1.37009                      89.45924
                      -4.81149                      -1.38225                      89.41360
                      -4.48851                      -1.34594                      89.43364
                      -4.18504                      -1.26345                      89.51809
                      -3.92014                      -1.13995                      89.66165
                      -3.71046                      -0.98321                      89.85529
                      -3.56916                      -0.80307                      90.08685
                      -3.57880                      -0.71133                      90.42311
                      -3.59500                      -0.53106                      90.66910
                      -3.68642                      -0.36212                      90.90652
                      -3.84732                      -0.21512                      91.12046
                      -4.06759                      -0.09930                      91.29748
                      -4.33339                      -0.02194                      91.42645
                      -4.62802                       0.01211                      91.49927
                      -4.93296                       0.00069                      91.51137
                      -5.22906                      -0.05546                      91.46198
                      -5.49772                      -0.15283                      91.35421
                      -5.72204                      -0.28529                      91.19483
                      -5.88793                      -0.44452                      90.99385
                      -5.98498                      -0.62052                      90.76390
                      -6.00708                      -0.80222                      90.51943
                      -5.95285                      -0.97822                      90.27581
                      -5.82569                      -1.13744                      90.04833
                      -5.63359                      -1.26990                      89.85130
                      -5.38862                      -1.36726                      89.69709
                      -5.10618                      -1.42340                      89.59539
                      -4.80401                      -1.43481                      89.55259
                      -4.50109                      -1.40075                      89.57139
                      -4.21647                      -1.32338                      89.65059
                      -3.96803                      -1.20756                      89.78523
                      -3.77137                      -1.06055                      89.96684
                      -3.63885                      -0.89161                      90.18402
                      -3.67201                      -0.81180                      90.50621
                      -3.68687                      -0.64637                      90.73194
                      -3.77076                      -0.49134                      90.94982
                      -3.91842                      -0.35644                      91.14615
                      -4.12055                      -0.25016                      91.30859
                      -4.36447                      -0.17917                      91.42694
                      -4.63484                      -0.14793                      91.49377
                      -4.91467                      -0.15840                      91.50487
                      -5.18640                      -0.20993                      91.45955
                      -5.43293                      -0.29928                      91.36065
                      -5.63878                      -0.42084                      91.21439
                      -5.79102                      -0.56696                      91.02996
                      -5.88007                      -0.72846                      90.81894
                      -5.90035                      -0.89521                      90.59461
                      -5.85059                      -1.05671                      90.37104
                      -5.73389                      -1.20283                      90.16229
                      -5.55761                      -1.32438                      89.98148
                      -5.33281                      -1.41372                      89.83997
                      -5.07363                      -1.46524                      89.74664
                      -4.79633                      -1.47571                      89.70737
                      -4.51836                      -1.44446                      89.72462
                      -4.25718                      -1.37346                      89.79730
                      -4.02919                      -1.26717                      89.92086
                      -3.84872                      -1.13227                      90.08751
                      -3.72711                      -0.97723                      90.28681
                      -3.79068                      -0.91227                      90.59162
                      -3.80387                      -0.76547                      90.79193
                      -3.87831                      -0.62789                      90.98528
                      -4.00934                      -0.50818                      91.15950
                      -4.18872                      -0.41387                      91.30366
                      -4.40517                      -0.35087                      91.40868
                      -4.64510                      -0.32314                      91.46799
                      -4.89343                      -0.33244                      91.47784
                      -5.13456                      -0.37817                      91.43762
                      -5.35334                      -0.45746                      91.34985
                      -5.53601                      -0.56533                      91.22006
                      -5.67111                      -0.69499                      91.05639
                      -5.75014                      -0.83832                      90.86914
                      -5.76814                      -0.98629                      90.67006
                      -5.72397                      -1.12961                      90.47166
                      -5.62042                      -1.25927                      90.28642
                      -5.46398                      -1.36714                      90.12597
                      -5.26449                      -1.44642                      90.00039
                      -5.03449                      -1.49214                      89.91757
                      -4.78842                      -1.50143                      89.88272
                      -4.54174                      -1.47370                      89.89802
                      -4.30996                      -1.41069                      89.96252
                      -4.10764                      -1.31637                      90.07216
                      -3.94749                      -1.19666                      90.22006
                      -3.83958                      -1.05908                      90.39692
                      -3.94632                      -1.01274                      90.68037
                      -3.95734                      -0.89006                      90.84777
                      -4.01955                      -0.77508                      91.00935
                      -4.12906                      -0.67504                      91.15495
                      -4.27896                      -0.59622                      91.27542
                      -4.45986                      -0.54357                      91.36320
                      -4.66037                      -0.52040                      91.41276
                      -4.86790                      -0.52817                      91.42099
                      -5.06942                      -0.56639                      91.38738
                      -5.25225                      -0.63265                      91.31403
                      -5.40491                      -0.72280                      91.20556
                      -5.51781                      -0.83116                      91.06878
                      -5.58386                      -0.95094                      90.91229
                      -5.59890                      -1.07460                      90.74592
                      -5.56199                      -1.19437                      90.58012
                      -5.47545                      -1.30274                      90.42531
                      -5.34472                      -1.39288                      90.29122
                      -5.17800                      -1.45914                      90.18627
                      -4.98578                      -1.49735                      90.11705
                      -4.78014                      -1.50511                      90.08793
                      -4.57399                      -1.48193                      90.10072
                      -4.38029                      -1.42928                      90.15462
                      -4.21121                      -1.35045                      90.24625
                      -4.07737                      -1.25041                      90.36985
                      -3.98718                      -1.13543                      90.51765
                      -4.16836                      -1.11321                      90.77512
                      -4.17633                      -1.02451                      90.89615
                      -4.22131                      -0.94139                      91.01297
                      -4.30048                      -0.86906                      91.11824
                      -4.40887                      -0.81207                      91.20534
                      -4.53965                      -0.77400                      91.26880
                      -4.68462                      -0.75725                      91.30463
                      -4.83467                      -0.76287                      91.31059
                      -4.98036                      -0.79050                      91.28628
                      -5.11255                      -0.83841                      91.23326
                      -5.22293                      -0.90358                      91.15483
                      -5.30455                      -0.98193                      91.05594
                      -5.35230                      -1.06853                      90.94280
                      -5.36318                      -1.15794                      90.82251
                      -5.33649                      -1.24453                      90.70264
                      -5.27392                      -1.32288                      90.59071
                      -5.17940                      -1.38805                      90.49376
                      -5.05887                      -1.43596                      90.41788
                      -4.91990                      -1.46358                      90.36784
                      -4.77121                      -1.46919                      90.34679
                      -4.62217                      -1.45244                      90.35603
                      -4.48212                      -1.41437                      90.39501
                      -4.35988                      -1.35738                      90.46125
                      -4.26311                      -1.28504                      90.55061
                      -4.19791                      -1.20192                      90.65747
                      -4.75871                      -1.21369                      90.90317
                      -4.75871                      -1.21369                      90.90317
                      -4.75871                      -1.21369                      90.90317
                      -4.75871                      -1.21369                      90.90317
                      -4.75871                      -1.21369                      90.90317
                      -4.75871                      -1.21369                      90.90317
                      -4.75871                      -1.21369                      90.90317
                      -4.75871                      -1.21369                      90.90317
                      -4.75871                      -1.21369                      90.90317
                      -4.75871                      -1.21369                      90.90317
                      -4.75871                      -1.21369                      90.90317
                      -4.75871                      -1.21369                      90.90317
                      -4.75871                      -1.21369                      90.90317
                      -4.75871                      -1.21369                      90.90317
                      -4.75871                      -1.21369                      90.90317
                      -4.75871                      -1.21369                      90.90317
                      -4.75871                      -1.21369                      90.90317
                      -4.75871                      -1.21369                      90.90317
                      -4.75871                      -1.21369                      90.90317
                      -4.75871                      -1.21369                      90.90317
                      -4.75871                      -1.21369                      90.90317
                      -4.75871                      -1.21369                      90.90317
                      -4.75871                      -1.21369                      90.90317
                      -4.75871                      -1.21369                      90.90317
                      -4.75871                      -1.21369                      90.90317
        </DataArray>
      </Points>
      <Polys>
        <DataArray type="Int32" Name="connectivity" format="ascii">
      0      1     26     25
      1      2     27     26
      2      3     28     27
      3      4     29     28
      4      5     30     29
      5      6     31     30
      6      7     32     31
      7      8     33     32
      8      9     34     33
      9     10     35     34
     10     11     36     35
     11     12     37     36
     12     13     38     37
     13     14     39     38
     14     15     40     39
     15     16     41     40
     16     17     42     41
     17     18     43     42
     18     19     44     43
     19     20     45     44
     20     21     46     45
     21     22     47     46
     22     23     48     47
     23     24     49     48
     24      0     25     49
     25     26     51     50
     26     27     52     51
     27     28     53     52
     28     29     54     53
     29     30     55     54
     30     31     56     55
     31     32     57     56
     32     33     58     57
     33     34     59     58
     34     35     60     59
     35     36     61     60
     36     37     62     61
     37     38     63     62
     38     39     64     63
     39     40     65     64
     40     41     66     65
     41     42     67     66
     42     43     68     67
     43     44     69     68
     44     45     70     69
     45     46     71     70
     46     47     72     71
     47     48     73     72
     48     49     74     73
     49     25     50     74
     50     51     76     75
     51     52     77     76
     52     53     78     77
     53     54     79     78
     54     55     80     79
     55     56     81     80
     56     57     82     81
     57     58     83     82
     58     59     84     83
     59     60     85     84
     60     61     86     85
     61     62     87     86
     62     63     88     87
     63     64     89     88
     64     65     90     89
     65     66     91     90
     66     67     92     91
     67     68     93     92
     68     69     94     93
     69     70     95     94
     70     71     96     95
     71     72     97     96
     72     73     98     97
     73     74     99     98
     74     50     75     99
     75     76    101    100
     76     77    102    101
     77     78    103    102
     78     79    104    103
     79     80    105    104
     80     81    106    105
     81     82    107    106
     82     83    108    107
     83     84    109    108
     84     85    110    109
     85     86    111    110
     86     87    112    111
     87     88    113    112
     88     89    114    113
     89     90    115    114
     90     91    116    115
     91     92    117    116
     92     93    118    117
     93     94    119    118
     94     95    120    119
     95     96    121    120
     96     97    122    121
     97     98    123    122
     98     99    124    123
     99     75    100    124
    100    101    126    125
    101    102    127    126
    102    103    128    127
    103    104    129    128
    104    105    130    129
    105    106    131    130
    106    107    132    131
    107    108    133    132
    108    109    134    133
    109    110    135    134
    110    111    136    135
    111    112    137    136
    112    113    138    137
    113    114    139    138
    114    115    140    139
    115    116    141    140
    116    117    142    141
    117    118    143    142
    118    119    144    143
    119    120    145    144
    120    121    146    145
    121    122    147    146
    122    123    148    147
    123    124    149    148
    124    100    125    149
    125    126    151    150
    126    127    152    151
    127    128    153    152
    128    129    154    153
    129    130    155    154
    130    131    156    155
    131    132    157    156
    132    133    158    157
    133    134    159    158
    134    135    160    159
    135    136    161    160
    136    137    162    161
    137    138    163    162
    138    139    164    163
    139    140    165    164
    140    141    166    165
    141    142    167    166
    142    143    168    167
    143    144    169    168
    144    145    170    169
    145    146    171    170
    146    147    172    171
    147    148    173    172
    148    149    174    173
    149    125    150    174
    150    151    176    175
    151    152    177    176
    152    153    178    177
    153    154    179    178
    154    155    180    179
    155    156    181    180
    156    157    182    181
    157    158    183    182
    158    159    184    183
    159    160    185    184
    160    161    186    185
    161    162    187    186
    162    163    188    187
    163    164    189    188
    164    165    190    189
    165    166    191    190
    166    167    192    191
    167    168    193    192
    168    169    194    193
    169    170    195    194
    170    171    196    195
    171    172    197    196
    172    173    198    197
    173    174    199    198
    174    150    175    199
    175    176    201    200
    176    177    202    201
    177    178    203    202
    178    179    204    203
    179    180    205    204
    180    181    206    205
    181    182    207    206
    182    183    208    207
    183    184    209    208
    184    185    210    209
    185    186    211    210
    186    187    212    211
    187    188    213    212
    188    189    214    213
    189    190    215    214
    190    191    216    215
    191    192    217    216
    192    193    218    217
    193    194    219    218
    194    195    220    219
    195    196    221    220
    196    197    222    221
    197    198    223    222
    198    199    224    223
    199    175    200    224
    200    201    226    225
    201    202    227    226
    202    203    228    227
    203    204    229    228
    204    205    230    229
    205    206    231    230
    206    207    232    231
    207    208    233    232
    208    209    234    233
    209    210    235    234
    210    211    236    235
    211    212    237    236
    212    213    238    237
    213    214    239    238
    214    215    240    239
    215    216    241    240
    216    217    242    241
    217    218    243    242
    218    219    244    243
    219    220    245    244
    220    221    246    245
    221    222    247    246
    222    223    248    247
    223    224    249    248
    224    200    225    249
    225    226    251    250
    226    227    252    251
    227    228    253    252
    228    229    254    253
    229    230    255    254
    230    231    256    255
    231    232    257    256
    232    233    258    257
    233    234    259    258
    234    235    260    259
    235    236    261    260
    236    237    262    261
    237    238    263    262
    238    239    264    263
    239    240    265    264
    240    241    266    265
    241    242    267    266
    242    243    268    267
    243    244    269    268
    244    245    270    269
    245    246    271    270
    246    247    272    271
    247    248    273    272
    248    249    274    273
    249    225    250    274
    250    251    276    275
    251    252    277    276
    252    253    278    277
    253    254    279    278
    254    255    280    279
    255    256    281    280
    256    257    282    281
    257    258    283    282
    258    259    284    283
    259    260    285    284
    260    261    286    285
    261    262    287    286
    262    263    288    287
    263    264    289    288
    264    265    290    289
    265    266    291    290
    266    267    292    291
    267    268    293    292
    268    269    294    293
    269    270    295    294
    270    271    296    295
    271    272    297    296
    272    273    298    297
    273    274    299    298
    274    250    275    299
    275    276    301    300
    276    277    302    301
    277    278    303    302
    278    279    304    303
    279    280    305    304
    280    281    306    305
    281    282    307    306
    282    283    308    307
    283    284    309    308
    284    285    310    309
    285    286    311    310
    286    287    312    311
    287    288    313    312
    288    289    314    313
    289    290    315    314
    290    291    316    315
    291    292    317    316
    292    293    318    317
    293    294    319    318
    294    295    320    319
    295    296    321    320
    296    297    322    321
    297    298    323    322
    298    299    324    323
    299    275    300    324
    300    301    326    325
    301    302    327    326
    302    303    328    327
    303    304    329    328
    304    305    330    329
    305    306    331    330
    306    307    332    331
    307    308    333    332
    308    309    334    333
    309    310    335    334
    310    311    336    335
    311    312    337    336
    312    313    338    337
    313    314    339    338
    314    315    340    339
    315    316    341    340
    316    317    342    341
    317    318    343    342
    318    319    344    343
    319    320    345    344
    320    321    346    345
    321    322    347    346
    322    323    348    347
    323    324    349    348
    324    300    325    349
    325    326    351    350
    326    327    352    351
    327    328    353    352
    328    329    354    353
    329    330    355    354
    330    331    356    355
    331    332    357    356
    332    333    358    357
    333    334    359    358
    334    335    360    359
    335    336    361    360
    336    337    362    361
    337    338    363    362
    338    339    364    363
    339    340    365    364
    340    341    366    365
    341    342    367    366
    342    343    368    367
    343    344    369    368
    344    345    370    369
    345    346    371    370
    346    347    372    371
    347    348    373    372
    348    349    374    373
    349    325    350    374
    350    351    376    375
    351    352    377    376
    352    353    378    377
    353    354    379    378
    354    355    380    379
    355    356    381    380
    356    357    382    381
    357    358    383    382
    358    359    384    383
    359    360    385    384
    360    361    386    385
    361    362    387    386
    362    363    388    387
    363    364    389    388
    364    365    390    389
    365    366    391    390
    366    367    392    391
    367    368    393    392
    368    369    394    393
    369    370    395    394
    370    371    396    395
    371    372    397    396
    372    373    398    397
    373    374    399    398
    374    350    375    399
    375    376    401    400
    376    377    402    401
    377    378    403    402
    378    379    404    403
    379    380    405    404
    380    381    406    405
    381    382    407    406
    382    383    408    407
    383    384    409    408
    384    385    410    409
    385    386    411    410
    386    387    412    411
    387    388    413    412
    388    389    414    413
    389    390    415    414
    390    391    416    415
    391    392    417    416
    392    393    418    417
    393    394    419    418
    394    395    420    419
    395    396    421    420
    396    397    422    421
    397    398    423    422
    398    399    424    423
    399    375    400    424
    400    401    426    425
    401    402    427    426
    402    403    428    427
    403    404    429    428
    404    405    430    429
    405    406    431    430
    406    407    432    431
    407    408    433    432
    408    409    434    433
    409    410    435    434
    410    411    436    435
    411    412    437    436
    412    413    438    437
    413    414    439    438
    414    415    440    439
    415    416    441    440
    416    417    442    441
    417    418    443    442
    418    419    444    443
    419    420    445    444
    420    421    446    445
    421    422    447    446
    422    423    448    447
    423    424    449    448
    424    400    425    449
    425    426    451    450
    426    427    452    451
    427    428    453    452
    428    429    454    453
    429    430    455    454
    430    431    456    455
    431    432    457    456
    432    433    458    457
    433    434    459    458
    434    435    460    459
    435    436    461    460
    436    437    462    461
    437    438    463    462
    438    439    464    463
    439    440    465    464
    440    441    466    465
    441    442    467    466
    442    443    468    467
    443    444    469    468
    444    445    470    469
    445    446    471    470
    446    447    472    471
    447    448    473    472
    448    449    474    473
    449    425    450    474
    450    451    476    475
    451    452    477    476
    452    453    478    477
    453    454    479    478
    454    455    480    479
    455    456    481    480
    456    457    482    481
    457    458    483    482
    458    459    484    483
    459    460    485    484
    460    461    486    485
    461    462    487    486
    462    463    488    487
    463    464    489    488
    464    465    490    489
    465    466    491    490
    466    467    492    491
    467    468    493    492
    468    469    494    493
    469    470    495    494
    470    471    496    495
    471    472    497    496
    472    473    498    497
    473    474    499    498
    474    450    475    499
    475    476    501    500
    476    477    502    501
    477    478    503    502
    478    479    504    503
    479    480    505    504
    480    481    506    505
    481    482    507    506
    482    483    508    507
    483    484    509    508
    484    485    510    509
    485    486    511    510
    486    487    512    511
    487    488    513    512
    488    489    514    513
    489    490    515    514
    490    491    516    515
    491    492    517    516
    492    493    518    517
    493    494    519    518
    494    495    520    519
    495    496    521    520
    496    497    522    521
    497    498    523    522
    498    499    524    523
    499    475    500    524
    500    501    526    525
    501    502    527    526
    502    503    528    527
    503    504    529    528
    504    505    530    529
    505    506    531    530
    506    507    532    531
    507    508    533    532
    508    509    534    533
    509    510    535    534
    510    511    536    535
    511    512    537    536
    512    513    538    537
    513    514    539    538
    514    515    540    539
    515    516    541    540
    516    517    542    541
    517    518    543    542
    518    519    544    543
    519    520    545    544
    520    521    546    545
    521    522    547    546
    522    523    548    547
    523    524    549    548
    524    500    525    549
    525    526    551    550
    526    527    552    551
    527    528    553    552
    528    529    554    553
    529    530    555    554
    530    531    556    555
    531    532    557    556
    532    533    558    557
    533    534    559    558
    534    535    560    559
    535    536    561    560
    536    537    562    561
    537    538    563    562
    538    539    564    563
    539    540    565    564
    540    541    566    565
    541    542    567    566
    542    543    568    567
    543    544    569    568
    544    545    570    569
    545    546    571    570
    546    547    572    571
    547    548    573    572
    548    549    574    573
    549    525    550    574
    550    551    576    575
    551    552    577    576
    552    553    578    577
    553    554    579    578
    554    555    580    579
    555    556    581    580
    556    557    582    581
    557    558    583    582
    558    559    584    583
    559    560    585    584
    560    561    586    585
    561    562    587    586
    562    563    588    587
    563    564    589    588
    564    565    590    589
    565    566    591    590
    566    567    592    591
    567    568    593    592
    568    569    594    593
    569    570    595    594
    570    571    596    595
    571    572    597    596
    572    573    598    597
    573    574    599    598
    574    550    575    599
    575    576    601    600
    576    577    602    601
    577    578    603    602
    578    579    604    603
    579    580    605    604
    580    581    606    605
    581    582    607    606
    582    583    608    607
    583    584    609    608
    584    585    610    609
    585    586    611    610
    586    587    612    611
    587    588    613    612
    588    589    614    613
    589    590    615    614
    590    591    616    615
    591    592    617    616
    592    593    618    617
    593    594    619    618
    594    595    620    619
    595    596    621    620
    596    597    622    621
    597    598    623    622
    598    599    624    623
    599    575    600    624
        </DataArray>
        <DataArray type="Int32" Name="offsets" format="ascii">
      4
      8
     12
     16
     20
     24
     28
     32
     36
     40
     44
     48
     52
     56
     60
     64
     68
     72
     76
     80
     84
     88
     92
     96
    100
    104
    108
    112
    116
    120
    124
    128
    132
    136
    140
    144
    148
    152
    156
    160
    164
    168
    172
    176
    180
    184
    188
    192
    196
    200
    204
    208
    212
    216
    220
    224
    228
    232
    236
    240
    244
    248
    252
    256
    260
    264
    268
    272
    276
    280
    284
    288
    292
    296
    300
    304
    308
    312
    316
    320
    324
    328
    332
    336
    340
    344
    348
    352
    356
    360
    364
    368
    372
    376
    380
    384
    388
    392
    396
    400
    404
    408
    412
    416
    420
    424
    428
    432
    436
    440
    444
    448
    452
    456
    460
    464
    468
    472
    476
    480
    484
    488
    492
    496
    500
    504
    508
    512
    516
    520
    524
    528
    532
    536
    540
    544
    548
    552
    556
    560
    564
    568
    572
    576
    580
    584
    588
    592
    596
    600
    604
    608
    612
    616
    620
    624
    628
    632
    636
    640
    644
    648
    652
    656
    660
    664
    668
    672
    676
    680
    684
    688
    692
    696
    700
    704
    708
    712
    716
    720
    724
    728
    732
    736
    740
    744
    748
    752
    756
    760
    764
    768
    772
    776
    780
    784
    788
    792
    796
    800
    804
    808
    812
    816
    820
    824
    828
    832
    836
    840
    844
    848
    852
    856
    860
    864
    868
    872
    876
    880
    884
    888
    892
    896
    900
    904
    908
    912
    916
    920
    924
    928
    932
    936
    940
    944
    948
    952
    956
    960
    964
    968
    972
    976
    980
    984
    988
    992
    996
   1000
   1004
   1008
   1012
   1016
   1020
   1024
   1028
   1032
   1036
   1040
   1044
   1048
   1052
   1056
   1060
   1064
   1068
   1072
   1076
   1080
   1084
   1088
   1092
   1096
   1100
   1104
   1108
   1112
   1116
   1120
   1124
   1128
   1132
   1136
   1140
   1144
   1148
   1152
   1156
   1160
   1164
   1168
   1172
   1176
   1180
   1184
   1188
   1192
   1196
   1200
   1204
   1208
   1212
   1216
   1220
   1224
   1228
   1232
   1236
   1240
   1244
   1248
   1252
   1256
   1260
   1264
   1268
   1272
   1276
   1280
   1284
   1288
   1292
   1296
   1300
   1304
   1308
   1312
   1316
   1320
   1324
   1328
   1332
   1336
   1340
   1344
   1348
   1352
   1356
   1360
   1364
   1368
   1372
   1376
   1380
   1384
   1388
   1392
   1396
   1400
   1404
   1408
   1412
   1416
   1420
   1424
   1428
   1432
   1436
   1440
   1444
   1448
   1452
   1456
   1460
   1464
   1468
   1472
   1476
   1480
   1484
   1488
   1492
   1496
   1500
   1504
   1508
   1512
   1516
   1520
   1524
   1528
   1532
   1536
   1540
   1544
   1548
   1552
   1556
   1560
   1564
   1568
   1572
   1576
   1580
   1584
   1588
   1592
   1596
   1600
   1604
   1608
   1612
   1616
   1620
   1624
   1628
   1632
   1636
   1640
   1644
   1648
   1652
   1656
   1660
   1664
   1668
   1672
   1676
   1680
   1684
   1688
   1692
   1696
   1700
   1704
   1708
   1712
   1716
   1720
   1724
   1728
   1732
   1736
   1740
   1744
   1748
   1752
   1756
   1760
   1764
   1768
   1772
   1776
   1780
   1784
   1788
   1792
   1796
   1800
   1804
   1808
   1812
   1816
   1820
   1824
   1828
   1832
   1836
   1840
   1844
   1848
   1852
   1856
   1860
   1864
   1868
   1872
   1876
   1880
   1884
   1888
   1892
   1896
   1900
   1904
   1908
   1912
   1916
   1920
   1924
   1928
   1932
   1936
   1940
   1944
   1948
   1952
   1956
   1960
   1964
   1968
   1972
   1976
   1980
   1984
   1988
   1992
   1996
   2000
   2004
   2008
   2012
   2016
   2020
   2024
   2028
   2032
   2036
   2040
   2044
   2048
   2052
   2056
   2060
   2064
   2068
   2072
   2076
   2080
   2084
   2088
   2092
   2096
   2100
   2104
   2108
   2112
   2116
   2120
   2124
   2128
   2132
   2136
   2140
   2144
   2148
   2152
   2156
   2160
   2164
   2168
   2172
   2176
   2180
   2184
   2188
   2192
   2196
   2200
   2204
   2208
   2212
   2216
   2220
   2224
   2228
   2232
   2236
   2240
   2244
   2248
   2252
   2256
   2260
   2264
   2268
   2272
   2276
   2280
   2284
   2288
   2292
   2296
   2300
   2304
   2308
   2312
   2316
   2320
   2324
   2328
   2332
   2336
   2340
   2344
   2348
   2352
   2356
   2360
   2364
   2368
   2372
   2376
   2380
   2384
   2388
   2392
   2396
   2400
        </DataArray>
      </Polys>
    </Piece>
  </PolyData>
</VTKFile>
