<?xml version="1.0"?>
<VTKFile type="PolyData" version="0.1" byte_order="LittleEndian">
  <PolyData>
    <Piece NumberOfPoints="     19" NumberOfVerts="  0" NumberOfLines="     18"
           NumberOfStrips="  0" NumberOfPolys="      0">
      <Points>
        <DataArray type="Float32" NumberOfComponents="3" format="ascii">
                      -4.78168                       0.53350                      91.41230
                      -4.72656                       1.02273                      92.68758
                      -4.63354                       1.91303                      95.27325
                      -4.54587                       2.76225                      97.87559
                      -4.43445                       3.80029                     101.13841
                      -4.23949                       5.18231                     104.99877
                      -4.00800                       6.68813                     108.80962
                      -3.76118                       8.19845                     112.61816
                      -3.49718                       9.71471                     116.42370
                      -3.21869                      11.23484                     120.22720
                      -2.93058                      12.75524                     124.03036
                      -2.63744                      14.27719                     127.83292
                      -2.34708                      15.80078                     131.63522
                      -2.06936                      17.32639                     135.43748
                      -1.81387                      18.85437                     139.23979
                      -1.62845                      20.13028                     142.40844
                      -1.50301                      21.16036                     144.94030
                      -1.39769                      22.24351                     147.45164
                      -1.36285                      22.74786                     148.72255
        </DataArray>
      </Points>
      <PointData>
        <DataArray type="Float32" Name="TranslationalVelocity" NumberOfComponents="3" format="ascii">
                       0.13793                      -3.93183                       1.51623
                       0.26300                      -7.51744                       2.88633
                       0.49282                     -14.78604                       5.38073
                       0.71538                     -22.10523                       7.76139
                       0.99320                     -31.29096                      10.67342
                       1.37084                     -42.18804                      14.55387
                       1.79258                     -52.96968                      18.78658
                       2.23041                     -63.76280                      23.03662
                       2.68646                     -74.56491                      27.30744
                       3.16176                     -85.37666                      31.59250
                       3.65662                     -96.20000                      35.88089
                       4.17226                    -107.03126                      40.17552
                       4.70923                    -117.86767                      44.47618
                       5.26767                    -128.70589                      48.78373
                       5.84730                    -139.54253                      53.09934
                       6.34645                    -148.56886                      56.70459
                       6.75710                    -155.77697                      59.61670
                       7.18844                    -162.92351                      62.68063
                       7.39763                    -166.53601                      64.10835
        </DataArray>
        <DataArray type="Float32" Name="RotationalVelocity" NumberOfComponents="3" format="ascii">
                       2.80005                       0.00076                      -0.25313
                       2.80065                       0.00101                      -0.25326
                       2.80225                       0.00178                      -0.25367
                       2.80426                       0.00289                      -0.25425
                       2.80712                       0.00465                      -0.25521
                       2.81075                       0.00720                      -0.25666
                       2.81432                       0.01016                      -0.25834
                       2.81764                       0.01352                      -0.26015
                       2.82062                       0.01726                      -0.26198
                       2.82322                       0.02142                      -0.26372
                       2.82546                       0.02598                      -0.26527
                       2.82738                       0.03091                      -0.26655
                       2.82904                       0.03614                      -0.26752
                       2.83048                       0.04150                      -0.26816
                       2.83175                       0.04674                      -0.26849
                       2.83266                       0.05076                      -0.26859
                       2.83325                       0.05355                      -0.26861
                       2.83369                       0.05575                      -0.26863
                       2.83383                       0.05657                      -0.26866
        </DataArray>
        <DataArray type="Float32" Name="TranslationalAcceleration" NumberOfComponents="3" format="ascii">
                      -1.05092                      -4.25738                     -11.06428
                      -1.23472                      -5.13375                     -13.34129
                      -3.55850                     -14.00113                     -38.45262
                      -5.71272                     -21.78934                     -61.70874
                      -8.24906                     -30.64417                     -89.00423
                     -11.11667                     -41.75424                    -119.72418
                     -13.89560                     -53.60744                    -149.34277
                     -16.68112                     -65.52134                    -178.92717
                     -19.50221                     -77.63460                    -208.84340
                     -22.36664                     -89.95756                    -239.21426
                     -25.26926                    -102.41717                    -269.98389
                     -28.19927                    -114.93911                    -300.97038
                     -31.15100                    -127.43039                    -331.95690
                     -34.13260                    -139.82149                    -362.76012
                     -37.17532                    -152.09439                    -393.30409
                     -39.80526                    -162.27833                    -418.62447
                     -42.00534                    -170.51995                    -438.88821
                     -44.32347                    -179.29044                    -459.19983
                     -45.55733                    -183.44761                    -469.62130
        </DataArray>
        <DataArray type="Float32" Name="OrientationX" NumberOfComponents="3" format="ascii">
                       0.97931                      -0.19939                       0.03454
                       0.97929                      -0.19954                       0.03424
                       0.97920                      -0.20012                       0.03336
                       0.97905                      -0.20108                       0.03211
                       0.97875                      -0.20282                       0.03014
                       0.98413                      -0.17672                       0.01579
                       0.98711                      -0.15997                       0.00463
                       0.98905                      -0.14748                      -0.00501
                       0.99063                      -0.13588                      -0.01405
                       0.99180                      -0.12593                      -0.02171
                       0.99248                      -0.11947                      -0.02681
                       0.99287                      -0.11552                      -0.02925
                       0.99292                      -0.11542                      -0.02800
                       0.99242                      -0.12094                      -0.02188
                       0.99181                      -0.12715                      -0.01243
                       0.99129                      -0.13170                      -0.00224
                       0.99085                      -0.13477                       0.00760
                       0.98999                      -0.13975                       0.02000
                       0.98928                      -0.14345                       0.02738
        </DataArray>
        <DataArray type="Float32" Name="OrientationY" NumberOfComponents="3" format="ascii">
                       0.19828                       0.91134                      -0.36076
                       0.19830                       0.91128                      -0.36091
                       0.19850                       0.91107                      -0.36133
                       0.19892                       0.91075                      -0.36190
                       0.19978                       0.91021                      -0.36278
                       0.17024                       0.91543                      -0.36469
                       0.15054                       0.91832                      -0.36610
                       0.13535                       0.92023                      -0.36722
                       0.12123                       0.92187                      -0.36806
                       0.10914                       0.92315                      -0.36862
                       0.10124                       0.92390                      -0.36899
                       0.09666                       0.92430                      -0.36923
                       0.09701                       0.92417                      -0.36944
                       0.10436                       0.92328                      -0.36969
                       0.11358                       0.92214                      -0.36980
                       0.12154                       0.92115                      -0.36975
                       0.12802                       0.92033                      -0.36960
                       0.13721                       0.91913                      -0.36928
                       0.14337                       0.91831                      -0.36899
        </DataArray>
        <DataArray type="Float32" Name="OrientationZ" NumberOfComponents="3" format="ascii">
                       0.04046                       0.36015                       0.93202
                       0.04081                       0.36022                       0.93197
                       0.04192                       0.36044                       0.93184
                       0.04353                       0.36071                       0.93166
                       0.04614                       0.36110                       0.93139
                       0.04999                       0.36160                       0.93099
                       0.05432                       0.36208                       0.93056
                       0.05877                       0.36252                       0.93012
                       0.06296                       0.36290                       0.92970
                       0.06647                       0.36323                       0.92933
                       0.06886                       0.36350                       0.92904
                       0.06969                       0.36378                       0.92888
                       0.06851                       0.36411                       0.92883
                       0.06491                       0.36461                       0.92890
                       0.05848                       0.36536                       0.92903
                       0.05076                       0.36626                       0.92913
                       0.04282                       0.36719                       0.92916
                       0.03322                       0.36832                       0.92910
                       0.02779                       0.36896                       0.92903
        </DataArray>
        <DataArray type="Float32" Name="Force" NumberOfComponents="3" format="ascii">
                      -0.51541                      14.80707                      -5.69937
                     182.61826                     113.68428                     -51.92866
                     268.01035                     334.69011                    -141.40658
                     266.18630                     504.38605                    -207.40164
                    1592.33203                    -328.76434                      48.20354
                    1556.62501                    -234.22829                       6.98326
                    1490.34281                    -143.52289                     -31.48623
                    2227.29140                    -211.36324                     -58.95089
                    2650.21396                    -199.44116                    -102.27197
                    2919.34476                    -171.78084                    -142.27444
                    4483.57160                    -230.63912                    -242.95721
                    4704.09139                    -197.05470                    -276.56358
                    3721.52813                    -101.94696                    -235.02729
                    2136.82505                      47.83315                    -167.87551
                    2410.67153                     -84.44796                    -119.12237
                     368.17963                     193.20555                     -94.87096
                   -1342.19506                     292.17436                     -50.94518
                   -2657.75153                     306.52009                     -22.91231
                  -19749.09617                    -149.57895                     652.29522
        </DataArray>
        <DataArray type="Float32" Name="Moment" NumberOfComponents="3" format="ascii">
                       0.00000                       0.00000                       0.00000
                       0.00000                       0.00000                       0.00000
                       0.00000                       0.00000                       0.00000
                       0.00000                       0.00000                       0.00000
                     -60.41523                    -471.36788                   -1219.16032
                    -123.43882                    -888.86056                   -2298.11582
                    -181.07275                   -1199.93921                   -3101.09280
                    -314.22708                   -1924.59266                   -4971.71645
                    -500.39192                   -2860.98101                   -7387.63798
                    -602.01827                   -3260.44072                   -8416.25249
                    -697.78437                   -3647.85969                   -9414.11486
                    -752.51364                   -3886.87130                  -10030.12280
                    -560.53237                   -2944.27357                   -7598.59517
                    -523.15834                   -2899.32588                   -7485.19993
                    -446.47007                   -2744.39910                   -7089.63199
                    -364.06366                   -2574.82798                   -6656.53484
                    -271.54211                   -2272.66105                   -5879.86569
                    -105.85753                   -1138.18280                   -2947.45026
                     -80.55349                   -1032.69203                   -2675.67130
        </DataArray>
      </PointData>
      <Lines>
        <DataArray type="Int32" Name="connectivity" format="ascii">
      0      1
      1      2
      2      3
      3      4
      4      5
      5      6
      6      7
      7      8
      8      9
      9     10
     10     11
     11     12
     12     13
     13     14
     14     15
     15     16
     16     17
     17     18
        </DataArray>
        <DataArray type="Int32" Name="offsets" format="ascii">
      2
      4
      6
      8
     10
     12
     14
     16
     18
     20
     22
     24
     26
     28
     30
     32
     34
     36
        </DataArray>
      </Lines>
    </Piece>
  </PolyData>
</VTKFile>
