<?xml version="1.0"?>
<VTKFile type="PolyData" version="0.1" byte_order="LittleEndian">
  <PolyData>
    <Piece NumberOfPoints="     22" NumberOfVerts="  0" NumberOfLines="     21"
           NumberOfStrips="  0" NumberOfPolys="      0">
      <Points>
        <DataArray type="Float32" NumberOfComponents="3" format="ascii">
                       0.00019                       0.00000                       2.19000
                       0.00192                       0.00001                       6.57000
                       0.00575                       0.00001                      10.95000
                       0.01187                       0.00002                      15.32999
                       0.02030                       0.00003                      19.70998
                       0.03099                       0.00004                      24.08997
                       0.04388                       0.00004                      28.46995
                       0.05889                       0.00004                      32.84993
                       0.07598                       0.00002                      37.22989
                       0.09515                      -0.00000                      41.60985
                       0.11647                      -0.00005                      45.98980
                       0.14004                      -0.00011                      50.36974
                       0.16597                      -0.00019                      54.74966
                       0.19438                      -0.00030                      59.12957
                       0.22529                      -0.00043                      63.50946
                       0.25866                      -0.00059                      67.88933
                       0.29422                      -0.00078                      72.26919
                       0.33146                      -0.00099                      76.64903
                       0.36950                      -0.00123                      81.02886
                       0.40700                      -0.00148                      85.40870
                       0.42498                      -0.00162                      87.59863
                       0.00000                       0.00000                       0.00000
        </DataArray>
      </Points>
      <PointData>
        <DataArray type="Float32" Name="TranslationalVelocity" NumberOfComponents="3" format="ascii">
                      -0.00002                      -0.00001                       0.00000
                      -0.00019                      -0.00010                       0.00000
                      -0.00055                      -0.00026                       0.00000
                      -0.00110                      -0.00049                       0.00000
                      -0.00182                      -0.00078                       0.00000
                      -0.00268                      -0.00112                       0.00000
                      -0.00367                      -0.00152                       0.00001
                      -0.00474                      -0.00198                       0.00001
                      -0.00587                      -0.00249                       0.00002
                      -0.00702                      -0.00306                       0.00002
                      -0.00816                      -0.00368                       0.00003
                      -0.00927                      -0.00436                       0.00003
                      -0.01033                      -0.00509                       0.00004
                      -0.01132                      -0.00587                       0.00004
                      -0.01223                      -0.00669                       0.00005
                      -0.01305                      -0.00756                       0.00006
                      -0.01377                      -0.00845                       0.00006
                      -0.01438                      -0.00937                       0.00007
                      -0.01487                      -0.01032                       0.00007
                      -0.01522                      -0.01127                       0.00008
                      -0.01533                      -0.01176                       0.00008
                       0.00000                      -0.00000                       0.00000
        </DataArray>
        <DataArray type="Float32" Name="RotationalVelocity" NumberOfComponents="3" format="ascii">
                       0.00001                      -0.00002                       0.00000
                       0.00003                      -0.00006                       0.00000
                       0.00004                      -0.00010                       0.00000
                       0.00006                      -0.00015                       0.00000
                       0.00007                      -0.00018                       0.00000
                       0.00009                      -0.00021                       0.00000
                       0.00010                      -0.00024                       0.00000
                       0.00011                      -0.00025                       0.00000
                       0.00012                      -0.00026                       0.00000
                       0.00014                      -0.00026                       0.00000
                       0.00015                      -0.00026                       0.00000
                       0.00016                      -0.00025                       0.00000
                       0.00017                      -0.00023                       0.00000
                       0.00018                      -0.00022                       0.00000
                       0.00019                      -0.00020                       0.00000
                       0.00020                      -0.00018                       0.00000
                       0.00021                      -0.00015                       0.00000
                       0.00021                      -0.00013                       0.00000
                       0.00022                      -0.00010                       0.00000
                       0.00022                      -0.00006                       0.00000
                       0.00022                      -0.00004                       0.00000
                       0.00000                      -0.00000                       0.00000
        </DataArray>
        <DataArray type="Float32" Name="TranslationalAcceleration" NumberOfComponents="3" format="ascii">
                       0.00008                      -0.00015                      -0.00000
                       0.00071                      -0.00125                      -0.00000
                       0.00200                      -0.00324                      -0.00000
                       0.00392                      -0.00594                      -0.00000
                       0.00640                      -0.00919                      -0.00001
                       0.00930                      -0.01286                      -0.00002
                       0.01251                      -0.01681                      -0.00003
                       0.01585                      -0.02088                      -0.00004
                       0.01917                      -0.02491                      -0.00005
                       0.02229                      -0.02874                      -0.00007
                       0.02508                      -0.03218                      -0.00008
                       0.02738                      -0.03504                      -0.00009
                       0.02907                      -0.03712                      -0.00010
                       0.03006                      -0.03826                      -0.00011
                       0.03027                      -0.03828                      -0.00011
                       0.02967                      -0.03707                      -0.00011
                       0.02825                      -0.03457                      -0.00009
                       0.02602                      -0.03078                      -0.00008
                       0.02304                      -0.02583                      -0.00005
                       0.01941                      -0.01996                      -0.00002
                       0.01738                      -0.01679                      -0.00000
                       0.00000                      -0.00000                       0.00000
        </DataArray>
        <DataArray type="Float32" Name="RotationalAcceleration" NumberOfComponents="3" format="ascii">
                       0.00013                       0.00007                       0.00000
                       0.00036                       0.00022                       0.00000
                       0.00054                       0.00037                       0.00000
                       0.00069                       0.00051                       0.00000
                       0.00080                       0.00062                       0.00000
                       0.00087                       0.00070                       0.00000
                       0.00092                       0.00075                       0.00000
                       0.00093                       0.00077                       0.00000
                       0.00090                       0.00074                       0.00000
                       0.00084                       0.00068                       0.00000
                       0.00073                       0.00059                       0.00000
                       0.00057                       0.00046                       0.00000
                       0.00037                       0.00031                       0.00000
                       0.00014                       0.00014                       0.00000
                      -0.00013                      -0.00004                       0.00000
                      -0.00042                      -0.00023                       0.00000
                      -0.00072                      -0.00042                       0.00000
                      -0.00100                      -0.00060                       0.00000
                      -0.00125                      -0.00076                       0.00000
                      -0.00142                      -0.00090                       0.00000
                      -0.00146                      -0.00096                       0.00000
                       0.00000                      -0.00000                       0.00000
        </DataArray>
        <DataArray type="Float32" Name="OrientationX" NumberOfComponents="3" format="ascii">
                       1.00000                      -0.00000                      -0.00018
                       1.00000                      -0.00000                      -0.00062
                       1.00000                      -0.00000                      -0.00113
                       1.00000                      -0.00000                      -0.00166
                       1.00000                      -0.00000                      -0.00219
                       1.00000                      -0.00000                      -0.00270
                       0.99999                       0.00000                      -0.00319
                       0.99999                       0.00000                      -0.00366
                       0.99999                       0.00000                      -0.00414
                       0.99999                       0.00000                      -0.00462
                       0.99999                       0.00000                      -0.00512
                       0.99998                       0.00000                      -0.00565
                       0.99998                       0.00000                      -0.00620
                       0.99998                       0.00000                      -0.00677
                       0.99997                       0.00000                      -0.00734
                       0.99997                       0.00000                      -0.00788
                       0.99997                       0.00000                      -0.00834
                       0.99996                       0.00000                      -0.00863
                       0.99996                       0.00000                      -0.00868
                       0.99996                       0.00000                      -0.00837
                       0.99997                       0.00000                      -0.00803
                       1.00000                      -0.00000                       0.00000
        </DataArray>
        <DataArray type="Float32" Name="OrientationY" NumberOfComponents="3" format="ascii">
                      -0.00000                       1.00000                      -0.00000
                      -0.00000                       1.00000                      -0.00000
                      -0.00000                       1.00000                      -0.00000
                      -0.00000                       1.00000                      -0.00000
                      -0.00000                       1.00000                      -0.00000
                      -0.00000                       1.00000                      -0.00000
                       0.00000                       1.00000                       0.00000
                       0.00000                       1.00000                       0.00000
                       0.00000                       1.00000                       0.00000
                       0.00000                       1.00000                       0.00001
                       0.00000                       1.00000                       0.00001
                       0.00000                       1.00000                       0.00002
                       0.00000                       1.00000                       0.00002
                       0.00000                       1.00000                       0.00003
                       0.00000                       1.00000                       0.00003
                       0.00000                       1.00000                       0.00004
                       0.00000                       1.00000                       0.00005
                       0.00000                       1.00000                       0.00005
                       0.00000                       1.00000                       0.00006
                       0.00000                       1.00000                       0.00006
                       0.00000                       1.00000                       0.00006
                      -0.00000                       1.00000                      -0.00000
        </DataArray>
        <DataArray type="Float32" Name="OrientationZ" NumberOfComponents="3" format="ascii">
                       0.00018                       0.00000                       1.00000
                       0.00062                       0.00000                       1.00000
                       0.00113                       0.00000                       1.00000
                       0.00166                       0.00000                       1.00000
                       0.00219                       0.00000                       1.00000
                       0.00270                       0.00000                       1.00000
                       0.00319                      -0.00000                       0.99999
                       0.00366                      -0.00000                       0.99999
                       0.00414                      -0.00000                       0.99999
                       0.00462                      -0.00001                       0.99999
                       0.00512                      -0.00001                       0.99999
                       0.00565                      -0.00002                       0.99998
                       0.00620                      -0.00002                       0.99998
                       0.00677                      -0.00003                       0.99998
                       0.00734                      -0.00003                       0.99997
                       0.00788                      -0.00004                       0.99997
                       0.00834                      -0.00005                       0.99997
                       0.00863                      -0.00005                       0.99996
                       0.00868                      -0.00006                       0.99996
                       0.00837                      -0.00006                       0.99996
                       0.00803                      -0.00006                       0.99997
                       0.00000                      -0.00000                       1.00000
        </DataArray>
      </PointData>
      <Lines>
        <DataArray type="Int32" Name="connectivity" format="ascii">
      0      1
      1      2
      2      3
      3      4
      4      5
      5      6
      6      7
      7      8
      8      9
      9     10
     10     11
     11     12
     12     13
     13     14
     14     15
     15     16
     16     17
     17     18
     18     19
     19     20
     21      0
        </DataArray>
        <DataArray type="Int32" Name="offsets" format="ascii">
      2
      4
      6
      8
     10
     12
     14
     16
     18
     20
     22
     24
     26
     28
     30
     32
     34
     36
     38
     40
     42
        </DataArray>
      </Lines>
    </Piece>
  </PolyData>
</VTKFile>
