<?xml version="1.0"?>
<VTKFile type="PolyData" version="0.1" byte_order="LittleEndian">
  <PolyData>
    <Piece NumberOfPoints="    625" NumberOfVerts="  0" NumberOfLines="      0"
           NumberOfStrips="  0" NumberOfPolys="    600">
      <Points>
        <DataArray type="Float32" NumberOfComponents="3" format="ascii">
                      -4.78602                       1.35500                      90.63905
                      -4.78602                       1.35500                      90.63905
                      -4.78602                       1.35500                      90.63905
                      -4.78602                       1.35500                      90.63905
                      -4.78602                       1.35500                      90.63905
                      -4.78602                       1.35500                      90.63905
                      -4.78602                       1.35500                      90.63905
                      -4.78602                       1.35500                      90.63905
                      -4.78602                       1.35500                      90.63905
                      -4.78602                       1.35500                      90.63905
                      -4.78602                       1.35500                      90.63905
                      -4.78602                       1.35500                      90.63905
                      -4.78602                       1.35500                      90.63905
                      -4.78602                       1.35500                      90.63905
                      -4.78602                       1.35500                      90.63905
                      -4.78602                       1.35500                      90.63905
                      -4.78602                       1.35500                      90.63905
                      -4.78602                       1.35500                      90.63905
                      -4.78602                       1.35500                      90.63905
                      -4.78602                       1.35500                      90.63905
                      -4.78602                       1.35500                      90.63905
                      -4.78602                       1.35500                      90.63905
                      -4.78602                       1.35500                      90.63905
                      -4.78602                       1.35500                      90.63905
                      -4.78602                       1.35500                      90.63905
                      -4.19368                       1.24147                      90.53301
                      -4.20025                       1.17912                      90.66958
                      -4.24391                       1.12068                      90.80096
                      -4.32194                       1.06984                      90.91889
                      -4.42942                       1.02977                      91.01596
                      -4.55960                       1.00301                      91.08609
                      -4.70431                       0.99123                      91.12485
                      -4.85444                       0.99518                      91.12981
                      -5.00057                       1.01460                      91.10067
                      -5.13352                       1.04827                      91.03925
                      -5.24493                       1.09408                      90.94942
                      -5.32780                       1.14915                      90.83681
                      -5.37692                       1.21003                      90.70850
                      -5.38921                       1.27287                      90.57256
                      -5.36389                       1.33375                      90.43753
                      -5.30256                       1.38882                      90.31188
                      -5.20908                       1.43464                      90.20352
                      -5.08930                       1.46831                      90.11926
                      -4.95076                       1.48774                      90.06439
                      -4.80217                       1.49168                      90.04235
                      -4.65286                       1.47991                      90.05453
                      -4.51221                       1.45315                      90.10017
                      -4.38906                       1.41309                      90.17640
                      -4.29115                       1.36225                      90.27843
                      -4.22463                       1.30382                      90.39984
                      -3.96964                       1.12793                      90.46027
                      -3.97872                       1.04169                      90.64916
                      -4.03912                       0.96086                      90.83087
                      -4.14704                       0.89054                      90.99398
                      -4.29570                       0.83513                      91.12825
                      -4.47576                       0.79811                      91.22524
                      -4.67590                       0.78182                      91.27885
                      -4.88356                       0.78728                      91.28572
                      -5.08568                       0.81414                      91.24541
                      -5.26956                       0.86071                      91.16046
                      -5.42365                       0.92408                      91.03621
                      -5.53827                       1.00025                      90.88046
                      -5.60621                       1.08444                      90.70299
                      -5.62321                       1.17137                      90.51497
                      -5.58820                       1.25556                      90.32820
                      -5.50337                       1.33174                      90.15442
                      -5.37406                       1.39511                      90.00454
                      -5.20840                       1.44169                      89.88800
                      -5.01678                       1.46855                      89.81210
                      -4.81126                       1.47401                      89.78162
                      -4.60474                       1.45772                      89.79847
                      -4.41021                       1.42072                      89.86159
                      -4.23988                       1.36531                      89.96703
                      -4.10446                       1.29499                      90.10814
                      -4.01245                       1.21417                      90.27607
                      -3.81201                       1.01439                      90.39353
                      -3.82287                       0.91119                      90.61955
                      -3.89514                       0.81448                      90.83698
                      -4.02428                       0.73033                      91.03216
                      -4.20216                       0.66403                      91.19282
                      -4.41762                       0.61974                      91.30888
                      -4.65711                       0.60024                      91.37303
                      -4.90559                       0.60677                      91.38125
                      -5.14744                       0.63891                      91.33302
                      -5.36747                       0.69464                      91.23137
                      -5.55185                       0.77046                      91.08269
                      -5.68900                       0.86161                      90.89632
                      -5.77030                       0.96235                      90.68397
                      -5.79064                       1.06637                      90.45898
                      -5.74875                       1.16711                      90.23549
                      -5.64724                       1.25826                      90.02755
                      -5.49252                       1.33409                      89.84821
                      -5.29428                       1.38982                      89.70875
                      -5.06500                       1.42197                      89.61793
                      -4.81908                       1.42850                      89.58146
                      -4.57196                       1.40902                      89.60162
                      -4.33918                       1.36473                      89.67716
                      -4.13537                       1.29844                      89.80332
                      -3.97333                       1.21429                      89.97218
                      -3.86323                       1.11758                      90.17312
                      -3.69135                       0.90085                      90.33013
                      -3.70359                       0.78456                      90.58482
                      -3.78503                       0.67558                      90.82984
                      -3.93055                       0.58075                      91.04978
                      -4.13100                       0.50604                      91.23083
                      -4.37379                       0.45613                      91.36161
                      -4.64367                       0.43416                      91.43390
                      -4.92367                       0.44152                      91.44316
                      -5.19621                       0.47773                      91.38882
                      -5.44416                       0.54053                      91.27427
                      -5.65193                       0.62597                      91.10673
                      -5.80648                       0.72868                      90.89671
                      -5.89810                       0.84221                      90.65742
                      -5.92102                       0.95942                      90.40389
                      -5.87380                       1.07295                      90.15204
                      -5.75942                       1.17566                      89.91772
                      -5.58507                       1.26111                      89.71563
                      -5.36168                       1.32392                      89.55847
                      -5.10331                       1.36014                      89.45613
                      -4.82618                       1.36750                      89.41503
                      -4.54772                       1.34554                      89.43775
                      -4.28541                       1.29564                      89.52287
                      -4.05574                       1.22093                      89.66504
                      -3.87313                       1.12611                      89.85532
                      -3.74907                       1.01713                      90.08176
                      -3.59615                       0.78731                      90.26903
                      -3.60949                       0.66058                      90.54658
                      -3.69823                       0.54183                      90.81358
                      -3.85681                       0.43849                      91.05326
                      -4.07524                       0.35707                      91.25055
                      -4.33982                       0.30268                      91.39306
                      -4.63391                       0.27875                      91.47184
                      -4.93904                       0.28676                      91.48193
                      -5.23603                       0.32623                      91.42271
                      -5.50622                       0.39466                      91.29789
                      -5.73264                       0.48777                      91.11531
                      -5.90106                       0.59969                      90.88645
                      -6.00089                       0.72341                      90.62569
                      -6.02587                       0.85113                      90.34941
                      -5.97442                       0.97485                      90.07497
                      -5.84978                       1.08678                      89.81961
                      -5.65978                       1.17989                      89.59939
                      -5.41635                       1.24834                      89.42814
                      -5.13479                       1.28781                      89.31661
                      -4.83280                       1.29583                      89.27183
                      -4.52935                       1.27190                      89.29659
                      -4.24351                       1.21752                      89.38934
                      -3.99323                       1.13611                      89.54426
                      -3.79424                       1.03278                      89.75162
                      -3.65905                       0.91402                      89.99838
                      -3.52049                       0.67376                      90.20970
                      -3.53472                       0.53865                      90.50563
                      -3.62934                       0.41203                      90.79031
                      -3.79841                       0.30185                      91.04586
                      -4.03132                       0.21504                      91.25622
                      -4.31342                       0.15705                      91.40817
                      -4.62699                       0.13152                      91.49217
                      -4.95232                       0.14007                      91.50293
                      -5.26898                       0.18215                      91.43978
                      -5.55707                       0.25512                      91.30669
                      -5.79848                       0.35439                      91.11202
                      -5.97805                       0.47373                      90.86801
                      -6.08450                       0.60563                      90.58997
                      -6.11113                       0.74182                      90.29540
                      -6.05627                       0.87373                      90.00278
                      -5.92338                       0.99307                      89.73052
                      -5.72079                       1.09235                      89.49571
                      -5.46124                       1.16533                      89.31312
                      -5.16104                       1.20741                      89.19421
                      -4.83905                       1.21597                      89.14645
                      -4.51550                       1.19046                      89.17285
                      -4.21072                       1.13248                      89.27175
                      -3.94387                       1.04567                      89.43693
                      -3.73170                       0.93550                      89.65802
                      -3.58756                       0.80888                      89.92112
                      -3.46091                       0.56022                      90.15182
                      -3.47584                       0.41840                      90.46246
                      -3.57516                       0.28548                      90.76129
                      -3.75264                       0.16982                      91.02953
                      -3.99712                       0.07870                      91.25035
                      -4.29323                       0.01783                      91.40985
                      -4.62238                      -0.00896                      91.49802
                      -4.96389                       0.00001                      91.50931
                      -5.29628                       0.04418                      91.44303
                      -5.59868                       0.12077                      91.30333
                      -5.85209                       0.22498                      91.09898
                      -6.04059                       0.35025                      90.84284
                      -6.15232                       0.48871                      90.55099
                      -6.18028                       0.63166                      90.24178
                      -6.12270                       0.77012                      89.93462
                      -5.98320                       0.89540                      89.64883
                      -5.77054                       0.99961                      89.40236
                      -5.49810                       1.07621                      89.21069
                      -5.18298                       1.12039                      89.08587
                      -4.84499                       1.12937                      89.03574
                      -4.50536                       1.10259                      89.06345
                      -4.18544                       1.04173                      89.16727
                      -3.90532                       0.95061                      89.34066
                      -3.68261                       0.83496                      89.57273
                      -3.53131                       0.70205                      89.84890
                      -3.41519                       0.44668                      90.09520
                      -3.43068                       0.29959                      90.41736
                      -3.53369                       0.16174                      90.72729
                      -3.71776                       0.04179                      91.00550
                      -3.97131                      -0.05272                      91.23451
                      -4.27842                      -0.11585                      91.39993
                      -4.61979                      -0.14364                      91.49137
                      -4.97397                      -0.13433                      91.50309
                      -5.31871                      -0.08852                      91.43434
                      -5.63234                      -0.00908                      91.28945
                      -5.89516                       0.09899                      91.07752
                      -6.09065                       0.22891                      90.81187
                      -6.20653                       0.37251                      90.50919
                      -6.23552                       0.52077                      90.18849
                      -6.17580                       0.66438                      89.86994
                      -6.03112                       0.79430                      89.57353
                      -5.81058                       0.90238                      89.31791
                      -5.52802                       0.98183                      89.11912
                      -5.20120                       1.02765                      88.98967
                      -4.85066                       1.03696                      88.93768
                      -4.49842                       1.00918                      88.96642
                      -4.16662                       0.94606                      89.07409
                      -3.87611                       0.85156                      89.25392
                      -3.64513                       0.73162                      89.49460
                      -3.48821                       0.59377                      89.78103
                      -3.38190                       0.33314                      90.03970
                      -3.39780                       0.18208                      90.37055
                      -3.50359                       0.04051                      90.68884
                      -3.69263                      -0.08268                      90.97455
                      -3.95302                      -0.17974                      91.20974
                      -4.26842                      -0.24457                      91.37963
                      -4.61900                      -0.27311                      91.47354
                      -4.98273                      -0.26355                      91.48557
                      -5.33677                      -0.21650                      91.41497
                      -5.65886                      -0.13492                      91.26617
                      -5.92877                      -0.02393                      91.04852
                      -6.12954                       0.10949                      90.77571
                      -6.24855                       0.25697                      90.46486
                      -6.27832                       0.40923                      90.13551
                      -6.21699                       0.55671                      89.80836
                      -6.06841                       0.69014                      89.50396
                      -5.84191                       0.80113                      89.24143
                      -5.55172                       0.88272                      89.03729
                      -5.21609                       0.92978                      88.90434
                      -4.85609                       0.93934                      88.85095
                      -4.49435                       0.91082                      88.88047
                      -4.15360                       0.84599                      88.99104
                      -3.85525                       0.74894                      89.17572
                      -3.61804                       0.62576                      89.42290
                      -3.45688                       0.48420                      89.71705
                      -3.36006                       0.21960                      89.98523
                      -3.37626                       0.06576                      90.32216
                      -3.48399                      -0.07841                      90.64629
                      -3.67649                      -0.20385                      90.93724
                      -3.94166                      -0.30269                      91.17675
                      -4.26285                      -0.36871                      91.34975
                      -4.61986                      -0.39777                      91.44538
                      -4.99027                      -0.38804                      91.45764
                      -5.35080                      -0.34013                      91.38574
                      -5.67881                      -0.25705                      91.23421
                      -5.95367                      -0.14403                      91.01257
                      -6.15812                      -0.00816                      90.73475
                      -6.27931                       0.14203                      90.41819
                      -6.30963                       0.29708                      90.08280
                      -6.24718                       0.44727                      89.74965
                      -6.09587                       0.58314                      89.43966
                      -5.86521                       0.69618                      89.17232
                      -5.56970                       0.77926                      88.96443
                      -5.22791                       0.82718                      88.82904
                      -4.86131                       0.83693                      88.77467
                      -4.49293                       0.80788                      88.80473
                      -4.14593                       0.74186                      88.91733
                      -3.84210                       0.64303                      89.10540
                      -3.60054                       0.51759                      89.35711
                      -3.43642                       0.37343                      89.65667
                      -3.34907                       0.10605                      89.93174
                      -3.36544                      -0.04942                      90.27226
                      -3.47432                      -0.19512                      90.59985
                      -3.66887                      -0.32191                      90.89390
                      -3.93687                      -0.42180                      91.13596
                      -4.26147                      -0.48853                      91.31081
                      -4.62229                      -0.51790                      91.40746
                      -4.99665                      -0.50806                      91.41984
                      -5.36103                      -0.45964                      91.34718
                      -5.69252                      -0.37568                      91.19404
                      -5.97032                      -0.26145                      90.97003
                      -6.17695                      -0.12412                      90.68925
                      -6.29943                       0.02766                      90.36932
                      -6.33007                       0.18437                      90.03035
                      -6.26695                       0.33615                      89.69365
                      -6.11403                       0.47348                      89.38036
                      -5.88092                       0.58771                      89.11017
                      -5.58226                       0.67169                      88.90006
                      -5.23682                       0.72012                      88.76323
                      -4.86631                       0.72996                      88.70828
                      -4.49401                       0.70060                      88.73866
                      -4.14331                       0.63389                      88.85246
                      -3.83624                       0.53400                      89.04253
                      -3.59211                       0.40722                      89.29693
                      -3.42624                       0.26152                      89.59968
                      -3.34858                      -0.00749                      89.87921
                      -3.36500                      -0.16350                      90.22092
                      -3.47426                      -0.30972                      90.54964
                      -3.66949                      -0.43694                      90.84472
                      -3.93843                      -0.53718                      91.08763
                      -4.26417                      -0.60414                      91.26309
                      -4.62625                      -0.63362                      91.36008
                      -5.00191                      -0.62375                      91.37250
                      -5.36756                      -0.57516                      91.29959
                      -5.70021                      -0.49090                      91.14591
                      -5.97897                      -0.37627                      90.92112
                      -6.18632                      -0.23847                      90.63936
                      -6.30924                      -0.08616                      90.31831
                      -6.33999                       0.07110                      89.97816
                      -6.27665                       0.22341                      89.64028
                      -6.12319                       0.36122                      89.32590
                      -5.88926                       0.47585                      89.05477
                      -5.58956                       0.56012                      88.84392
                      -5.24292                       0.60872                      88.70662
                      -4.87112                       0.61860                      88.65147
                      -4.49751                       0.58914                      88.68196
                      -4.14559                       0.52219                      88.79616
                      -3.83745                       0.42195                      88.98689
                      -3.59246                       0.29473                      89.24218
                      -3.42602                       0.14852                      89.54598
                      -3.35848                      -0.12103                      89.82761
                      -3.37485                      -0.27650                      90.16813
                      -3.48373                      -0.42221                      90.49571
                      -3.67828                      -0.54899                      90.78977
                      -3.94628                      -0.64888                      91.03183
                      -4.27088                      -0.71561                      91.20668
                      -4.63170                      -0.74498                      91.30333
                      -5.00606                      -0.73515                      91.31571
                      -5.37044                      -0.68673                      91.24305
                      -5.70193                      -0.60276                      91.08990
                      -5.97973                      -0.48853                      90.86590
                      -6.18636                      -0.35121                      90.58511
                      -6.30884                      -0.19943                      90.26519
                      -6.33948                      -0.04272                      89.92622
                      -6.27636                       0.10907                      89.58952
                      -6.12344                       0.24639                      89.27623
                      -5.89033                       0.36063                      89.00604
                      -5.59167                       0.44460                      88.79593
                      -5.24623                       0.49303                      88.65910
                      -4.87572                       0.50288                      88.60415
                      -4.50342                       0.47352                      88.63453
                      -4.15272                       0.40680                      88.74833
                      -3.84565                       0.30691                      88.93840
                      -3.60152                       0.18014                      89.19280
                      -3.43565                       0.03444                      89.49555
                      -3.37888                      -0.23458                      89.77696
                      -3.39508                      -0.38841                      90.11389
                      -3.50281                      -0.53258                      90.43802
                      -3.69531                      -0.65802                      90.72898
                      -3.96048                      -0.75686                      90.96848
                      -4.28167                      -0.82288                      91.14149
                      -4.63868                      -0.85194                      91.23712
                      -5.00909                      -0.84221                      91.24937
                      -5.36962                      -0.79430                      91.17747
                      -5.69763                      -0.71123                      91.02595
                      -5.97249                      -0.59820                      90.80430
                      -6.17694                      -0.46233                      90.52648
                      -6.29813                      -0.31214                      90.20993
                      -6.32845                      -0.15709                      89.87453
                      -6.26600                      -0.00690                      89.54138
                      -6.11469                       0.12897                      89.23139
                      -5.88403                       0.24201                      88.96405
                      -5.58852                       0.32509                      88.75616
                      -5.24673                       0.37301                      88.62077
                      -4.88013                       0.38275                      88.56640
                      -4.51175                       0.35371                      88.59646
                      -4.16475                       0.28769                      88.70906
                      -3.86092                       0.18886                      88.89713
                      -3.61936                       0.06342                      89.14885
                      -3.45524                      -0.08074                      89.44840
                      -3.41013                      -0.34812                      89.72730
                      -3.42603                      -0.49918                      90.05815
                      -3.53182                      -0.64075                      90.37644
                      -3.72086                      -0.76393                      90.66215
                      -3.98125                      -0.86099                      90.89734
                      -4.29665                      -0.92583                      91.06723
                      -4.64723                      -0.95436                      91.16114
                      -5.01096                      -0.94481                      91.17317
                      -5.36500                      -0.89776                      91.10257
                      -5.68709                      -0.81618                      90.95377
                      -5.95700                      -0.70519                      90.73613
                      -6.15777                      -0.57176                      90.46331
                      -6.27678                      -0.42429                      90.15246
                      -6.30655                      -0.27203                      89.82311
                      -6.24522                      -0.12455                      89.49596
                      -6.09664                       0.00888                      89.19156
                      -5.87014                       0.11988                      88.92904
                      -5.57995                       0.20147                      88.72489
                      -5.24432                       0.24852                      88.59194
                      -4.88432                       0.25809                      88.53855
                      -4.52258                       0.22956                      88.56807
                      -4.18183                       0.16474                      88.67864
                      -3.88348                       0.06769                      88.86332
                      -3.64627                      -0.05549                      89.11050
                      -3.48511                      -0.19706                      89.40465
                      -3.45283                      -0.46166                      89.67866
                      -3.46832                      -0.60875                      90.00083
                      -3.57133                      -0.74660                      90.31076
                      -3.75540                      -0.86655                      90.58896
                      -4.00895                      -0.96106                      90.81797
                      -4.31606                      -1.02419                      90.98340
                      -4.65743                      -1.05198                      91.07484
                      -5.01161                      -1.04267                      91.08656
                      -5.35635                      -0.99686                      91.01781
                      -5.66998                      -0.91743                      90.87292
                      -5.93280                      -0.80935                      90.66099
                      -6.12829                      -0.67943                      90.39534
                      -6.24417                      -0.53583                      90.09266
                      -6.27317                      -0.38757                      89.77196
                      -6.21345                      -0.24397                      89.45340
                      -6.06877                      -0.11404                      89.15700
                      -5.84822                      -0.00596                      88.90138
                      -5.56566                       0.07348                      88.70259
                      -5.23884                       0.11930                      88.57314
                      -4.88830                       0.12862                      88.52115
                      -4.53606                       0.10084                      88.54989
                      -4.20427                       0.03772                      88.65756
                      -3.91375                      -0.05678                      88.83738
                      -3.68277                      -0.17672                      89.07807
                      -3.52585                      -0.31457                      89.36450
                      -3.50796                      -0.57520                      89.63116
                      -3.52289                      -0.71703                      89.94179
                      -3.62221                      -0.84995                      90.24062
                      -3.79969                      -0.96560                      90.50887
                      -4.04417                      -1.05673                      90.72968
                      -4.34029                      -1.11760                      90.88918
                      -4.66944                      -1.14439                      90.97735
                      -5.01094                      -1.13542                      90.98865
                      -5.34333                      -1.09125                      90.92236
                      -5.64574                      -1.01465                      90.78266
                      -5.89915                      -0.91045                      90.57832
                      -6.08764                      -0.78518                      90.32218
                      -6.19938                      -0.64672                      90.03033
                      -6.22733                      -0.50377                      89.72111
                      -6.16975                      -0.36530                      89.41396
                      -6.03025                      -0.24003                      89.12817
                      -5.81759                      -0.13582                      88.88169
                      -5.54515                      -0.05922                      88.69002
                      -5.23003                      -0.01504                      88.56520
                      -4.89204                      -0.00605                      88.51507
                      -4.55241                      -0.03284                      88.54279
                      -4.23249                      -0.09370                      88.64660
                      -3.95237                      -0.18482                      88.81999
                      -3.72967                      -0.30047                      89.05206
                      -3.57836                      -0.43338                      89.32824
                      -3.57695                      -0.68875                      89.58490
                      -3.59118                      -0.82386                      89.88083
                      -3.68580                      -0.95049                      90.16551
                      -3.85488                      -1.06067                      90.42106
                      -4.08778                      -1.14748                      90.63142
                      -4.36988                      -1.20547                      90.78337
                      -4.68345                      -1.23099                      90.86737
                      -5.00878                      -1.22244                      90.87813
                      -5.32544                      -1.18036                      90.81498
                      -5.61353                      -1.10739                      90.68189
                      -5.85494                      -1.00812                      90.48723
                      -6.03452                      -0.88878                      90.24321
                      -6.14096                      -0.75688                      89.96518
                      -6.16759                      -0.62069                      89.67060
                      -6.11274                      -0.48878                      89.37799
                      -5.97984                      -0.36944                      89.10572
                      -5.77725                      -0.27016                      88.87092
                      -5.51770                      -0.19719                      88.68832
                      -5.21750                      -0.15510                      88.56941
                      -4.89551                      -0.14654                      88.52165
                      -4.57196                      -0.17206                      88.54805
                      -4.26719                      -0.23004                      88.64695
                      -4.00033                      -0.31684                      88.81214
                      -3.78817                      -0.42702                      89.03322
                      -3.64402                      -0.55364                      89.29632
                      -3.66202                      -0.80229                      89.54010
                      -3.67536                      -0.92901                      89.81765
                      -3.76411                      -1.04777                      90.08465
                      -3.92268                      -1.15111                      90.32432
                      -4.14112                      -1.23253                      90.52162
                      -4.40569                      -1.28691                      90.66413
                      -4.69978                      -1.31085                      90.74291
                      -5.00491                      -1.30284                      90.75300
                      -5.30190                      -1.26337                      90.69378
                      -5.57210                      -1.19493                      90.56895
                      -5.79851                      -1.10183                      90.38638
                      -5.96693                      -0.98990                      90.15752
                      -6.06677                      -0.86619                      89.89675
                      -6.09174                      -0.73846                      89.62047
                      -6.04029                      -0.61475                      89.34604
                      -5.91565                      -0.50282                      89.09068
                      -5.72565                      -0.40971                      88.87046
                      -5.48222                      -0.34126                      88.69921
                      -5.20067                      -0.30179                      88.58768
                      -4.89868                      -0.29376                      88.54289
                      -4.59522                      -0.31769                      88.56766
                      -4.30938                      -0.37207                      88.66041
                      -4.05910                      -0.45349                      88.81533
                      -3.86011                      -0.55682                      89.02269
                      -3.72492                      -0.67557                      89.26944
                      -3.76663                      -0.91584                      89.49706
                      -3.77887                      -1.03212                      89.75176
                      -3.86031                      -1.14110                      89.99678
                      -4.00583                      -1.23593                      90.21672
                      -4.20628                      -1.31065                      90.39777
                      -4.44907                      -1.36056                      90.52855
                      -4.71895                      -1.38252                      90.60084
                      -4.99895                      -1.37517                      90.61010
                      -5.27149                      -1.33895                      90.55575
                      -5.51944                      -1.27615                      90.44121
                      -5.72721                      -1.19071                      90.27366
                      -5.88177                      -1.08800                      90.06364
                      -5.97338                      -0.97447                      89.82435
                      -5.99630                      -0.85726                      89.57082
                      -5.94909                      -0.74373                      89.31898
                      -5.83471                      -0.64102                      89.08465
                      -5.66035                      -0.55557                      88.88256
                      -5.43696                      -0.49277                      88.72541
                      -5.17859                      -0.45654                      88.62307
                      -4.90147                      -0.44918                      88.58197
                      -4.62300                      -0.47114                      88.60469
                      -4.36069                      -0.52104                      88.68981
                      -4.13102                      -0.59575                      88.83197
                      -3.94841                      -0.69057                      89.02225
                      -3.82435                      -0.79955                      89.24869
                      -3.89670                      -1.02938                      89.45633
                      -3.90757                      -1.13257                      89.68235
                      -3.97984                      -1.22929                      89.89978
                      -4.10897                      -1.31344                      90.09496
                      -4.28685                      -1.37974                      90.25563
                      -4.50231                      -1.42403                      90.37168
                      -4.74180                      -1.44352                      90.43583
                      -4.99028                      -1.43700                      90.44405
                      -5.23213                      -1.40486                      90.39582
                      -5.45216                      -1.34913                      90.29417
                      -5.63655                      -1.27331                      90.14549
                      -5.77370                      -1.18216                      89.95912
                      -5.85500                      -1.08142                      89.74677
                      -5.87534                      -0.97740                      89.52178
                      -5.83344                      -0.87665                      89.29830
                      -5.73194                      -0.78550                      89.09035
                      -5.57721                      -0.70968                      88.91101
                      -5.37898                      -0.65394                      88.77156
                      -5.14969                      -0.62180                      88.68074
                      -4.90377                      -0.61526                      88.64426
                      -4.65665                      -0.63475                      88.66443
                      -4.42388                      -0.67903                      88.73996
                      -4.22006                      -0.74533                      88.86612
                      -4.05802                      -0.82948                      89.03498
                      -3.94793                      -0.92619                      89.23592
                      -4.06375                      -1.14293                      89.41894
                      -4.07283                      -1.22917                      89.60783
                      -4.13322                      -1.30999                      89.78954
                      -4.24114                      -1.38031                      89.95265
                      -4.38980                      -1.43573                      90.08692
                      -4.56986                      -1.47274                      90.18391
                      -4.77001                      -1.48903                      90.23752
                      -4.97766                      -1.48357                      90.24439
                      -5.17978                      -1.45672                      90.20408
                      -5.36366                      -1.41014                      90.11913
                      -5.51775                      -1.34678                      89.99488
                      -5.63237                      -1.27061                      89.83913
                      -5.70031                      -1.18641                      89.66166
                      -5.71731                      -1.09949                      89.47364
                      -5.68230                      -1.01529                      89.28687
                      -5.59747                      -0.93912                      89.11309
                      -5.46816                      -0.87575                      88.96321
                      -5.30250                      -0.82917                      88.84667
                      -5.11088                      -0.80230                      88.77077
                      -4.90536                      -0.79684                      88.74028
                      -4.69885                      -0.81313                      88.75714
                      -4.50431                      -0.85014                      88.82026
                      -4.33398                      -0.90554                      88.92569
                      -4.19856                      -0.97587                      89.06681
                      -4.10656                      -1.05669                      89.23474
                      -4.29720                      -1.25647                      89.38755
                      -4.30376                      -1.31882                      89.52412
                      -4.34743                      -1.37726                      89.65549
                      -4.42545                      -1.42810                      89.77342
                      -4.53293                      -1.46817                      89.87050
                      -4.66312                      -1.49493                      89.94062
                      -4.80782                      -1.50670                      89.97938
                      -4.95796                      -1.50276                      89.98435
                      -5.10409                      -1.48334                      89.95521
                      -5.23703                      -1.44967                      89.89379
                      -5.34844                      -1.40386                      89.80395
                      -5.43131                      -1.34878                      89.69135
                      -5.48043                      -1.28791                      89.56304
                      -5.49272                      -1.22506                      89.42710
                      -5.46741                      -1.16419                      89.29206
                      -5.40608                      -1.10912                      89.16642
                      -5.31259                      -1.06330                      89.05806
                      -5.19281                      -1.02963                      88.97380
                      -5.05428                      -1.01020                      88.91892
                      -4.90568                      -1.00625                      88.89688
                      -4.75637                      -1.01803                      88.90907
                      -4.61572                      -1.04479                      88.95471
                      -4.49258                      -1.08484                      89.03094
                      -4.39467                      -1.13569                      89.13296
                      -4.32815                      -1.19412                      89.25438
                      -4.89895                      -1.37002                      89.38946
                      -4.89895                      -1.37002                      89.38946
                      -4.89895                      -1.37002                      89.38946
                      -4.89895                      -1.37002                      89.38946
                      -4.89895                      -1.37002                      89.38946
                      -4.89895                      -1.37002                      89.38946
                      -4.89895                      -1.37002                      89.38946
                      -4.89895                      -1.37002                      89.38946
                      -4.89895                      -1.37002                      89.38946
                      -4.89895                      -1.37002                      89.38946
                      -4.89895                      -1.37002                      89.38946
                      -4.89895                      -1.37002                      89.38946
                      -4.89895                      -1.37002                      89.38946
                      -4.89895                      -1.37002                      89.38946
                      -4.89895                      -1.37002                      89.38946
                      -4.89895                      -1.37002                      89.38946
                      -4.89895                      -1.37002                      89.38946
                      -4.89895                      -1.37002                      89.38946
                      -4.89895                      -1.37002                      89.38946
                      -4.89895                      -1.37002                      89.38946
                      -4.89895                      -1.37002                      89.38946
                      -4.89895                      -1.37002                      89.38946
                      -4.89895                      -1.37002                      89.38946
                      -4.89895                      -1.37002                      89.38946
                      -4.89895                      -1.37002                      89.38946
        </DataArray>
      </Points>
      <Polys>
        <DataArray type="Int32" Name="connectivity" format="ascii">
      0      1     26     25
      1      2     27     26
      2      3     28     27
      3      4     29     28
      4      5     30     29
      5      6     31     30
      6      7     32     31
      7      8     33     32
      8      9     34     33
      9     10     35     34
     10     11     36     35
     11     12     37     36
     12     13     38     37
     13     14     39     38
     14     15     40     39
     15     16     41     40
     16     17     42     41
     17     18     43     42
     18     19     44     43
     19     20     45     44
     20     21     46     45
     21     22     47     46
     22     23     48     47
     23     24     49     48
     24      0     25     49
     25     26     51     50
     26     27     52     51
     27     28     53     52
     28     29     54     53
     29     30     55     54
     30     31     56     55
     31     32     57     56
     32     33     58     57
     33     34     59     58
     34     35     60     59
     35     36     61     60
     36     37     62     61
     37     38     63     62
     38     39     64     63
     39     40     65     64
     40     41     66     65
     41     42     67     66
     42     43     68     67
     43     44     69     68
     44     45     70     69
     45     46     71     70
     46     47     72     71
     47     48     73     72
     48     49     74     73
     49     25     50     74
     50     51     76     75
     51     52     77     76
     52     53     78     77
     53     54     79     78
     54     55     80     79
     55     56     81     80
     56     57     82     81
     57     58     83     82
     58     59     84     83
     59     60     85     84
     60     61     86     85
     61     62     87     86
     62     63     88     87
     63     64     89     88
     64     65     90     89
     65     66     91     90
     66     67     92     91
     67     68     93     92
     68     69     94     93
     69     70     95     94
     70     71     96     95
     71     72     97     96
     72     73     98     97
     73     74     99     98
     74     50     75     99
     75     76    101    100
     76     77    102    101
     77     78    103    102
     78     79    104    103
     79     80    105    104
     80     81    106    105
     81     82    107    106
     82     83    108    107
     83     84    109    108
     84     85    110    109
     85     86    111    110
     86     87    112    111
     87     88    113    112
     88     89    114    113
     89     90    115    114
     90     91    116    115
     91     92    117    116
     92     93    118    117
     93     94    119    118
     94     95    120    119
     95     96    121    120
     96     97    122    121
     97     98    123    122
     98     99    124    123
     99     75    100    124
    100    101    126    125
    101    102    127    126
    102    103    128    127
    103    104    129    128
    104    105    130    129
    105    106    131    130
    106    107    132    131
    107    108    133    132
    108    109    134    133
    109    110    135    134
    110    111    136    135
    111    112    137    136
    112    113    138    137
    113    114    139    138
    114    115    140    139
    115    116    141    140
    116    117    142    141
    117    118    143    142
    118    119    144    143
    119    120    145    144
    120    121    146    145
    121    122    147    146
    122    123    148    147
    123    124    149    148
    124    100    125    149
    125    126    151    150
    126    127    152    151
    127    128    153    152
    128    129    154    153
    129    130    155    154
    130    131    156    155
    131    132    157    156
    132    133    158    157
    133    134    159    158
    134    135    160    159
    135    136    161    160
    136    137    162    161
    137    138    163    162
    138    139    164    163
    139    140    165    164
    140    141    166    165
    141    142    167    166
    142    143    168    167
    143    144    169    168
    144    145    170    169
    145    146    171    170
    146    147    172    171
    147    148    173    172
    148    149    174    173
    149    125    150    174
    150    151    176    175
    151    152    177    176
    152    153    178    177
    153    154    179    178
    154    155    180    179
    155    156    181    180
    156    157    182    181
    157    158    183    182
    158    159    184    183
    159    160    185    184
    160    161    186    185
    161    162    187    186
    162    163    188    187
    163    164    189    188
    164    165    190    189
    165    166    191    190
    166    167    192    191
    167    168    193    192
    168    169    194    193
    169    170    195    194
    170    171    196    195
    171    172    197    196
    172    173    198    197
    173    174    199    198
    174    150    175    199
    175    176    201    200
    176    177    202    201
    177    178    203    202
    178    179    204    203
    179    180    205    204
    180    181    206    205
    181    182    207    206
    182    183    208    207
    183    184    209    208
    184    185    210    209
    185    186    211    210
    186    187    212    211
    187    188    213    212
    188    189    214    213
    189    190    215    214
    190    191    216    215
    191    192    217    216
    192    193    218    217
    193    194    219    218
    194    195    220    219
    195    196    221    220
    196    197    222    221
    197    198    223    222
    198    199    224    223
    199    175    200    224
    200    201    226    225
    201    202    227    226
    202    203    228    227
    203    204    229    228
    204    205    230    229
    205    206    231    230
    206    207    232    231
    207    208    233    232
    208    209    234    233
    209    210    235    234
    210    211    236    235
    211    212    237    236
    212    213    238    237
    213    214    239    238
    214    215    240    239
    215    216    241    240
    216    217    242    241
    217    218    243    242
    218    219    244    243
    219    220    245    244
    220    221    246    245
    221    222    247    246
    222    223    248    247
    223    224    249    248
    224    200    225    249
    225    226    251    250
    226    227    252    251
    227    228    253    252
    228    229    254    253
    229    230    255    254
    230    231    256    255
    231    232    257    256
    232    233    258    257
    233    234    259    258
    234    235    260    259
    235    236    261    260
    236    237    262    261
    237    238    263    262
    238    239    264    263
    239    240    265    264
    240    241    266    265
    241    242    267    266
    242    243    268    267
    243    244    269    268
    244    245    270    269
    245    246    271    270
    246    247    272    271
    247    248    273    272
    248    249    274    273
    249    225    250    274
    250    251    276    275
    251    252    277    276
    252    253    278    277
    253    254    279    278
    254    255    280    279
    255    256    281    280
    256    257    282    281
    257    258    283    282
    258    259    284    283
    259    260    285    284
    260    261    286    285
    261    262    287    286
    262    263    288    287
    263    264    289    288
    264    265    290    289
    265    266    291    290
    266    267    292    291
    267    268    293    292
    268    269    294    293
    269    270    295    294
    270    271    296    295
    271    272    297    296
    272    273    298    297
    273    274    299    298
    274    250    275    299
    275    276    301    300
    276    277    302    301
    277    278    303    302
    278    279    304    303
    279    280    305    304
    280    281    306    305
    281    282    307    306
    282    283    308    307
    283    284    309    308
    284    285    310    309
    285    286    311    310
    286    287    312    311
    287    288    313    312
    288    289    314    313
    289    290    315    314
    290    291    316    315
    291    292    317    316
    292    293    318    317
    293    294    319    318
    294    295    320    319
    295    296    321    320
    296    297    322    321
    297    298    323    322
    298    299    324    323
    299    275    300    324
    300    301    326    325
    301    302    327    326
    302    303    328    327
    303    304    329    328
    304    305    330    329
    305    306    331    330
    306    307    332    331
    307    308    333    332
    308    309    334    333
    309    310    335    334
    310    311    336    335
    311    312    337    336
    312    313    338    337
    313    314    339    338
    314    315    340    339
    315    316    341    340
    316    317    342    341
    317    318    343    342
    318    319    344    343
    319    320    345    344
    320    321    346    345
    321    322    347    346
    322    323    348    347
    323    324    349    348
    324    300    325    349
    325    326    351    350
    326    327    352    351
    327    328    353    352
    328    329    354    353
    329    330    355    354
    330    331    356    355
    331    332    357    356
    332    333    358    357
    333    334    359    358
    334    335    360    359
    335    336    361    360
    336    337    362    361
    337    338    363    362
    338    339    364    363
    339    340    365    364
    340    341    366    365
    341    342    367    366
    342    343    368    367
    343    344    369    368
    344    345    370    369
    345    346    371    370
    346    347    372    371
    347    348    373    372
    348    349    374    373
    349    325    350    374
    350    351    376    375
    351    352    377    376
    352    353    378    377
    353    354    379    378
    354    355    380    379
    355    356    381    380
    356    357    382    381
    357    358    383    382
    358    359    384    383
    359    360    385    384
    360    361    386    385
    361    362    387    386
    362    363    388    387
    363    364    389    388
    364    365    390    389
    365    366    391    390
    366    367    392    391
    367    368    393    392
    368    369    394    393
    369    370    395    394
    370    371    396    395
    371    372    397    396
    372    373    398    397
    373    374    399    398
    374    350    375    399
    375    376    401    400
    376    377    402    401
    377    378    403    402
    378    379    404    403
    379    380    405    404
    380    381    406    405
    381    382    407    406
    382    383    408    407
    383    384    409    408
    384    385    410    409
    385    386    411    410
    386    387    412    411
    387    388    413    412
    388    389    414    413
    389    390    415    414
    390    391    416    415
    391    392    417    416
    392    393    418    417
    393    394    419    418
    394    395    420    419
    395    396    421    420
    396    397    422    421
    397    398    423    422
    398    399    424    423
    399    375    400    424
    400    401    426    425
    401    402    427    426
    402    403    428    427
    403    404    429    428
    404    405    430    429
    405    406    431    430
    406    407    432    431
    407    408    433    432
    408    409    434    433
    409    410    435    434
    410    411    436    435
    411    412    437    436
    412    413    438    437
    413    414    439    438
    414    415    440    439
    415    416    441    440
    416    417    442    441
    417    418    443    442
    418    419    444    443
    419    420    445    444
    420    421    446    445
    421    422    447    446
    422    423    448    447
    423    424    449    448
    424    400    425    449
    425    426    451    450
    426    427    452    451
    427    428    453    452
    428    429    454    453
    429    430    455    454
    430    431    456    455
    431    432    457    456
    432    433    458    457
    433    434    459    458
    434    435    460    459
    435    436    461    460
    436    437    462    461
    437    438    463    462
    438    439    464    463
    439    440    465    464
    440    441    466    465
    441    442    467    466
    442    443    468    467
    443    444    469    468
    444    445    470    469
    445    446    471    470
    446    447    472    471
    447    448    473    472
    448    449    474    473
    449    425    450    474
    450    451    476    475
    451    452    477    476
    452    453    478    477
    453    454    479    478
    454    455    480    479
    455    456    481    480
    456    457    482    481
    457    458    483    482
    458    459    484    483
    459    460    485    484
    460    461    486    485
    461    462    487    486
    462    463    488    487
    463    464    489    488
    464    465    490    489
    465    466    491    490
    466    467    492    491
    467    468    493    492
    468    469    494    493
    469    470    495    494
    470    471    496    495
    471    472    497    496
    472    473    498    497
    473    474    499    498
    474    450    475    499
    475    476    501    500
    476    477    502    501
    477    478    503    502
    478    479    504    503
    479    480    505    504
    480    481    506    505
    481    482    507    506
    482    483    508    507
    483    484    509    508
    484    485    510    509
    485    486    511    510
    486    487    512    511
    487    488    513    512
    488    489    514    513
    489    490    515    514
    490    491    516    515
    491    492    517    516
    492    493    518    517
    493    494    519    518
    494    495    520    519
    495    496    521    520
    496    497    522    521
    497    498    523    522
    498    499    524    523
    499    475    500    524
    500    501    526    525
    501    502    527    526
    502    503    528    527
    503    504    529    528
    504    505    530    529
    505    506    531    530
    506    507    532    531
    507    508    533    532
    508    509    534    533
    509    510    535    534
    510    511    536    535
    511    512    537    536
    512    513    538    537
    513    514    539    538
    514    515    540    539
    515    516    541    540
    516    517    542    541
    517    518    543    542
    518    519    544    543
    519    520    545    544
    520    521    546    545
    521    522    547    546
    522    523    548    547
    523    524    549    548
    524    500    525    549
    525    526    551    550
    526    527    552    551
    527    528    553    552
    528    529    554    553
    529    530    555    554
    530    531    556    555
    531    532    557    556
    532    533    558    557
    533    534    559    558
    534    535    560    559
    535    536    561    560
    536    537    562    561
    537    538    563    562
    538    539    564    563
    539    540    565    564
    540    541    566    565
    541    542    567    566
    542    543    568    567
    543    544    569    568
    544    545    570    569
    545    546    571    570
    546    547    572    571
    547    548    573    572
    548    549    574    573
    549    525    550    574
    550    551    576    575
    551    552    577    576
    552    553    578    577
    553    554    579    578
    554    555    580    579
    555    556    581    580
    556    557    582    581
    557    558    583    582
    558    559    584    583
    559    560    585    584
    560    561    586    585
    561    562    587    586
    562    563    588    587
    563    564    589    588
    564    565    590    589
    565    566    591    590
    566    567    592    591
    567    568    593    592
    568    569    594    593
    569    570    595    594
    570    571    596    595
    571    572    597    596
    572    573    598    597
    573    574    599    598
    574    550    575    599
    575    576    601    600
    576    577    602    601
    577    578    603    602
    578    579    604    603
    579    580    605    604
    580    581    606    605
    581    582    607    606
    582    583    608    607
    583    584    609    608
    584    585    610    609
    585    586    611    610
    586    587    612    611
    587    588    613    612
    588    589    614    613
    589    590    615    614
    590    591    616    615
    591    592    617    616
    592    593    618    617
    593    594    619    618
    594    595    620    619
    595    596    621    620
    596    597    622    621
    597    598    623    622
    598    599    624    623
    599    575    600    624
        </DataArray>
        <DataArray type="Int32" Name="offsets" format="ascii">
      4
      8
     12
     16
     20
     24
     28
     32
     36
     40
     44
     48
     52
     56
     60
     64
     68
     72
     76
     80
     84
     88
     92
     96
    100
    104
    108
    112
    116
    120
    124
    128
    132
    136
    140
    144
    148
    152
    156
    160
    164
    168
    172
    176
    180
    184
    188
    192
    196
    200
    204
    208
    212
    216
    220
    224
    228
    232
    236
    240
    244
    248
    252
    256
    260
    264
    268
    272
    276
    280
    284
    288
    292
    296
    300
    304
    308
    312
    316
    320
    324
    328
    332
    336
    340
    344
    348
    352
    356
    360
    364
    368
    372
    376
    380
    384
    388
    392
    396
    400
    404
    408
    412
    416
    420
    424
    428
    432
    436
    440
    444
    448
    452
    456
    460
    464
    468
    472
    476
    480
    484
    488
    492
    496
    500
    504
    508
    512
    516
    520
    524
    528
    532
    536
    540
    544
    548
    552
    556
    560
    564
    568
    572
    576
    580
    584
    588
    592
    596
    600
    604
    608
    612
    616
    620
    624
    628
    632
    636
    640
    644
    648
    652
    656
    660
    664
    668
    672
    676
    680
    684
    688
    692
    696
    700
    704
    708
    712
    716
    720
    724
    728
    732
    736
    740
    744
    748
    752
    756
    760
    764
    768
    772
    776
    780
    784
    788
    792
    796
    800
    804
    808
    812
    816
    820
    824
    828
    832
    836
    840
    844
    848
    852
    856
    860
    864
    868
    872
    876
    880
    884
    888
    892
    896
    900
    904
    908
    912
    916
    920
    924
    928
    932
    936
    940
    944
    948
    952
    956
    960
    964
    968
    972
    976
    980
    984
    988
    992
    996
   1000
   1004
   1008
   1012
   1016
   1020
   1024
   1028
   1032
   1036
   1040
   1044
   1048
   1052
   1056
   1060
   1064
   1068
   1072
   1076
   1080
   1084
   1088
   1092
   1096
   1100
   1104
   1108
   1112
   1116
   1120
   1124
   1128
   1132
   1136
   1140
   1144
   1148
   1152
   1156
   1160
   1164
   1168
   1172
   1176
   1180
   1184
   1188
   1192
   1196
   1200
   1204
   1208
   1212
   1216
   1220
   1224
   1228
   1232
   1236
   1240
   1244
   1248
   1252
   1256
   1260
   1264
   1268
   1272
   1276
   1280
   1284
   1288
   1292
   1296
   1300
   1304
   1308
   1312
   1316
   1320
   1324
   1328
   1332
   1336
   1340
   1344
   1348
   1352
   1356
   1360
   1364
   1368
   1372
   1376
   1380
   1384
   1388
   1392
   1396
   1400
   1404
   1408
   1412
   1416
   1420
   1424
   1428
   1432
   1436
   1440
   1444
   1448
   1452
   1456
   1460
   1464
   1468
   1472
   1476
   1480
   1484
   1488
   1492
   1496
   1500
   1504
   1508
   1512
   1516
   1520
   1524
   1528
   1532
   1536
   1540
   1544
   1548
   1552
   1556
   1560
   1564
   1568
   1572
   1576
   1580
   1584
   1588
   1592
   1596
   1600
   1604
   1608
   1612
   1616
   1620
   1624
   1628
   1632
   1636
   1640
   1644
   1648
   1652
   1656
   1660
   1664
   1668
   1672
   1676
   1680
   1684
   1688
   1692
   1696
   1700
   1704
   1708
   1712
   1716
   1720
   1724
   1728
   1732
   1736
   1740
   1744
   1748
   1752
   1756
   1760
   1764
   1768
   1772
   1776
   1780
   1784
   1788
   1792
   1796
   1800
   1804
   1808
   1812
   1816
   1820
   1824
   1828
   1832
   1836
   1840
   1844
   1848
   1852
   1856
   1860
   1864
   1868
   1872
   1876
   1880
   1884
   1888
   1892
   1896
   1900
   1904
   1908
   1912
   1916
   1920
   1924
   1928
   1932
   1936
   1940
   1944
   1948
   1952
   1956
   1960
   1964
   1968
   1972
   1976
   1980
   1984
   1988
   1992
   1996
   2000
   2004
   2008
   2012
   2016
   2020
   2024
   2028
   2032
   2036
   2040
   2044
   2048
   2052
   2056
   2060
   2064
   2068
   2072
   2076
   2080
   2084
   2088
   2092
   2096
   2100
   2104
   2108
   2112
   2116
   2120
   2124
   2128
   2132
   2136
   2140
   2144
   2148
   2152
   2156
   2160
   2164
   2168
   2172
   2176
   2180
   2184
   2188
   2192
   2196
   2200
   2204
   2208
   2212
   2216
   2220
   2224
   2228
   2232
   2236
   2240
   2244
   2248
   2252
   2256
   2260
   2264
   2268
   2272
   2276
   2280
   2284
   2288
   2292
   2296
   2300
   2304
   2308
   2312
   2316
   2320
   2324
   2328
   2332
   2336
   2340
   2344
   2348
   2352
   2356
   2360
   2364
   2368
   2372
   2376
   2380
   2384
   2388
   2392
   2396
   2400
        </DataArray>
      </Polys>
    </Piece>
  </PolyData>
</VTKFile>
