<?xml version="1.0"?>
<VTKFile type="PolyData" version="0.1" byte_order="LittleEndian">
  <PolyData>
    <Piece NumberOfPoints="     22" NumberOfVerts="  0" NumberOfLines="     21"
           NumberOfStrips="  0" NumberOfPolys="      0">
      <Points>
        <DataArray type="Float32" NumberOfComponents="3" format="ascii">
                       0.00007                      -0.00000                       2.19000
                       0.00072                      -0.00001                       6.57000
                       0.00215                      -0.00003                      10.95000
                       0.00442                      -0.00006                      15.33000
                       0.00754                      -0.00009                      19.71000
                       0.01149                      -0.00014                      24.09000
                       0.01623                      -0.00019                      28.46999
                       0.02173                      -0.00026                      32.84999
                       0.02796                      -0.00035                      37.22999
                       0.03491                      -0.00045                      41.60998
                       0.04261                      -0.00057                      45.98997
                       0.05106                      -0.00071                      50.36997
                       0.06032                      -0.00088                      54.74996
                       0.07040                      -0.00107                      59.12994
                       0.08133                      -0.00128                      63.50993
                       0.09308                      -0.00152                      67.88991
                       0.10555                      -0.00179                      72.26990
                       0.11856                      -0.00207                      76.64988
                       0.13182                      -0.00238                      81.02986
                       0.14484                      -0.00270                      85.40984
                       0.15107                      -0.00287                      87.59983
                       0.00000                       0.00000                       0.00000
        </DataArray>
      </Points>
      <PointData>
        <DataArray type="Float32" Name="TranslationalVelocity" NumberOfComponents="3" format="ascii">
                       0.00001                      -0.00000                      -0.00000
                       0.00014                      -0.00000                      -0.00000
                       0.00038                      -0.00001                      -0.00000
                       0.00073                      -0.00002                      -0.00000
                       0.00118                      -0.00005                      -0.00000
                       0.00170                      -0.00009                      -0.00000
                       0.00225                      -0.00016                      -0.00000
                       0.00280                      -0.00026                      -0.00000
                       0.00331                      -0.00040                      -0.00000
                       0.00375                      -0.00060                      -0.00000
                       0.00407                      -0.00085                      -0.00000
                       0.00425                      -0.00118                      -0.00000
                       0.00425                      -0.00158                      -0.00000
                       0.00405                      -0.00207                      -0.00000
                       0.00363                      -0.00265                      -0.00000
                       0.00299                      -0.00333                      -0.00000
                       0.00212                      -0.00410                       0.00000
                       0.00103                      -0.00496                       0.00000
                      -0.00023                      -0.00589                       0.00001
                      -0.00165                      -0.00689                       0.00001
                      -0.00239                      -0.00741                       0.00001
                       0.00000                      -0.00000                       0.00000
        </DataArray>
        <DataArray type="Float32" Name="RotationalVelocity" NumberOfComponents="3" format="ascii">
                       0.00000                       0.00001                       0.00000
                       0.00000                       0.00004                       0.00000
                       0.00000                       0.00007                       0.00000
                       0.00000                       0.00009                       0.00000
                       0.00001                       0.00011                       0.00000
                       0.00001                       0.00012                       0.00000
                       0.00002                       0.00013                       0.00000
                       0.00003                       0.00012                       0.00000
                       0.00004                       0.00011                       0.00000
                       0.00005                       0.00009                       0.00000
                       0.00007                       0.00006                       0.00000
                       0.00008                       0.00002                       0.00000
                       0.00010                      -0.00002                       0.00000
                       0.00012                      -0.00007                       0.00000
                       0.00014                      -0.00012                       0.00000
                       0.00017                      -0.00017                       0.00000
                       0.00019                      -0.00022                       0.00000
                       0.00021                      -0.00027                       0.00000
                       0.00022                      -0.00031                       0.00000
                       0.00023                      -0.00034                       0.00000
                       0.00024                      -0.00034                       0.00000
                       0.00000                      -0.00000                       0.00000
        </DataArray>
        <DataArray type="Float32" Name="TranslationalAcceleration" NumberOfComponents="3" format="ascii">
                      -0.00043                      -0.00017                       0.00000
                      -0.00396                      -0.00144                       0.00000
                      -0.01109                      -0.00372                       0.00000
                      -0.02157                      -0.00681                       0.00001
                      -0.03491                      -0.01050                       0.00002
                      -0.05038                      -0.01460                       0.00003
                      -0.06711                      -0.01895                       0.00005
                      -0.08414                      -0.02332                       0.00007
                      -0.10044                      -0.02752                       0.00009
                      -0.11498                      -0.03131                       0.00012
                      -0.12675                      -0.03445                       0.00014
                      -0.13483                      -0.03667                       0.00015
                      -0.13843                      -0.03775                       0.00016
                      -0.13690                      -0.03743                       0.00016
                      -0.12978                      -0.03551                       0.00014
                      -0.11682                      -0.03185                       0.00010
                      -0.09804                      -0.02637                       0.00005
                      -0.07373                      -0.01911                      -0.00002
                      -0.04447                      -0.01024                      -0.00011
                      -0.01117                      -0.00010                      -0.00021
                       0.00660                       0.00529                      -0.00026
                       0.00000                      -0.00000                       0.00000
        </DataArray>
        <DataArray type="Float32" Name="RotationalAcceleration" NumberOfComponents="3" format="ascii">
                       0.00015                      -0.00040                       0.00000
                       0.00041                      -0.00122                       0.00000
                       0.00062                      -0.00203                       0.00000
                       0.00078                      -0.00274                       0.00000
                       0.00090                      -0.00332                       0.00000
                       0.00097                      -0.00371                       0.00000
                       0.00100                      -0.00389                       0.00000
                       0.00099                      -0.00384                       0.00000
                       0.00092                      -0.00356                       0.00000
                       0.00080                      -0.00304                       0.00000
                       0.00062                      -0.00230                       0.00000
                       0.00039                      -0.00136                       0.00000
                       0.00009                      -0.00026                       0.00000
                      -0.00025                       0.00097                       0.00000
                      -0.00063                       0.00229                       0.00000
                      -0.00104                       0.00363                       0.00000
                      -0.00146                       0.00494                       0.00000
                      -0.00185                       0.00614                       0.00000
                      -0.00219                       0.00718                       0.00000
                      -0.00242                       0.00797                       0.00000
                      -0.00249                       0.00825                       0.00000
                       0.00000                      -0.00000                       0.00000
        </DataArray>
        <DataArray type="Float32" Name="OrientationX" NumberOfComponents="3" format="ascii">
                       1.00000                       0.00000                      -0.00007
                       1.00000                       0.00000                      -0.00023
                       1.00000                       0.00000                      -0.00042
                       1.00000                       0.00000                      -0.00062
                       1.00000                       0.00000                      -0.00081
                       1.00000                       0.00000                      -0.00099
                       1.00000                       0.00000                      -0.00117
                       1.00000                       0.00000                      -0.00134
                       1.00000                       0.00000                      -0.00150
                       1.00000                       0.00000                      -0.00167
                       1.00000                       0.00000                      -0.00184
                       1.00000                       0.00000                      -0.00202
                       1.00000                       0.00000                      -0.00221
                       1.00000                       0.00000                      -0.00240
                       1.00000                       0.00000                      -0.00259
                       1.00000                       0.00000                      -0.00277
                       1.00000                       0.00000                      -0.00292
                       1.00000                       0.00000                      -0.00301
                       1.00000                       0.00000                      -0.00302
                       1.00000                       0.00000                      -0.00290
                       1.00000                       0.00000                      -0.00278
                       1.00000                      -0.00000                       0.00000
        </DataArray>
        <DataArray type="Float32" Name="OrientationY" NumberOfComponents="3" format="ascii">
                       0.00000                       1.00000                       0.00000
                       0.00000                       1.00000                       0.00000
                       0.00000                       1.00000                       0.00001
                       0.00000                       1.00000                       0.00001
                       0.00000                       1.00000                       0.00001
                       0.00000                       1.00000                       0.00001
                       0.00000                       1.00000                       0.00001
                       0.00000                       1.00000                       0.00002
                       0.00000                       1.00000                       0.00002
                       0.00000                       1.00000                       0.00003
                       0.00000                       1.00000                       0.00003
                       0.00000                       1.00000                       0.00004
                       0.00000                       1.00000                       0.00004
                       0.00000                       1.00000                       0.00005
                       0.00000                       1.00000                       0.00005
                       0.00000                       1.00000                       0.00006
                       0.00000                       1.00000                       0.00006
                       0.00000                       1.00000                       0.00007
                       0.00000                       1.00000                       0.00007
                       0.00000                       1.00000                       0.00007
                       0.00000                       1.00000                       0.00008
                      -0.00000                       1.00000                      -0.00000
        </DataArray>
        <DataArray type="Float32" Name="OrientationZ" NumberOfComponents="3" format="ascii">
                       0.00007                      -0.00000                       1.00000
                       0.00023                      -0.00000                       1.00000
                       0.00042                      -0.00001                       1.00000
                       0.00062                      -0.00001                       1.00000
                       0.00081                      -0.00001                       1.00000
                       0.00099                      -0.00001                       1.00000
                       0.00117                      -0.00001                       1.00000
                       0.00134                      -0.00002                       1.00000
                       0.00150                      -0.00002                       1.00000
                       0.00167                      -0.00003                       1.00000
                       0.00184                      -0.00003                       1.00000
                       0.00202                      -0.00004                       1.00000
                       0.00221                      -0.00004                       1.00000
                       0.00240                      -0.00005                       1.00000
                       0.00259                      -0.00005                       1.00000
                       0.00277                      -0.00006                       1.00000
                       0.00292                      -0.00006                       1.00000
                       0.00301                      -0.00007                       1.00000
                       0.00302                      -0.00007                       1.00000
                       0.00290                      -0.00007                       1.00000
                       0.00278                      -0.00008                       1.00000
                       0.00000                      -0.00000                       1.00000
        </DataArray>
      </PointData>
      <Lines>
        <DataArray type="Int32" Name="connectivity" format="ascii">
      0      1
      1      2
      2      3
      3      4
      4      5
      5      6
      6      7
      7      8
      8      9
      9     10
     10     11
     11     12
     12     13
     13     14
     14     15
     15     16
     16     17
     17     18
     18     19
     19     20
     21      0
        </DataArray>
        <DataArray type="Int32" Name="offsets" format="ascii">
      2
      4
      6
      8
     10
     12
     14
     16
     18
     20
     22
     24
     26
     28
     30
     32
     34
     36
     38
     40
     42
        </DataArray>
      </Lines>
    </Piece>
  </PolyData>
</VTKFile>
