<?xml version="1.0"?>
<VTKFile type="PolyData" version="0.1" byte_order="LittleEndian">
  <PolyData>
    <Piece NumberOfPoints="    625" NumberOfVerts="  0" NumberOfLines="      0"
           NumberOfStrips="  0" NumberOfPolys="    600">
      <Points>
        <DataArray type="Float32" NumberOfComponents="3" format="ascii">
                      -4.61691                       0.67411                      88.71308
                      -4.61691                       0.67411                      88.71308
                      -4.61691                       0.67411                      88.71308
                      -4.61691                       0.67411                      88.71308
                      -4.61691                       0.67411                      88.71308
                      -4.61691                       0.67411                      88.71308
                      -4.61691                       0.67411                      88.71308
                      -4.61691                       0.67411                      88.71308
                      -4.61691                       0.67411                      88.71308
                      -4.61691                       0.67411                      88.71308
                      -4.61691                       0.67411                      88.71308
                      -4.61691                       0.67411                      88.71308
                      -4.61691                       0.67411                      88.71308
                      -4.61691                       0.67411                      88.71308
                      -4.61691                       0.67411                      88.71308
                      -4.61691                       0.67411                      88.71308
                      -4.61691                       0.67411                      88.71308
                      -4.61691                       0.67411                      88.71308
                      -4.61691                       0.67411                      88.71308
                      -4.61691                       0.67411                      88.71308
                      -4.61691                       0.67411                      88.71308
                      -4.61691                       0.67411                      88.71308
                      -4.61691                       0.67411                      88.71308
                      -4.61691                       0.67411                      88.71308
                      -4.61691                       0.67411                      88.71308
                      -4.00949                       0.61745                      88.76627
                      -4.02173                       0.75033                      88.83536
                      -4.07070                       0.87487                      88.90373
                      -4.15331                       0.98323                      88.96709
                      -4.26438                       1.06860                      89.02146
                      -4.39692                       1.12563                      89.06342
                      -4.54261                       1.15073                      89.09034
                      -4.69230                       1.14231                      89.10052
                      -4.83658                       1.10092                      89.09332
                      -4.96638                       1.02915                      89.06920
                      -5.07355                       0.93151                      89.02968
                      -5.15135                       0.81414                      88.97723
                      -5.19490                       0.68440                      88.91515
                      -5.20145                       0.55046                      88.84734
                      -5.17061                       0.42073                      88.77806
                      -5.10430                       0.30336                      88.71167
                      -5.00669                       0.20572                      88.65234
                      -4.88391                       0.13396                      88.60379
                      -4.74369                       0.09257                      88.56908
                      -4.59482                       0.08416                      88.55038
                      -4.44667                       0.10926                      88.54888
                      -4.30855                       0.16629                      88.56466
                      -4.18912                       0.25167                      88.59674
                      -4.09590                       0.36003                      88.64309
                      -4.03474                       0.48457                      88.70081
                      -3.77015                       0.56079                      88.85506
                      -3.78708                       0.74458                      88.95061
                      -3.85481                       0.91683                      89.04518
                      -3.96907                       1.06670                      89.13281
                      -4.12269                       1.18479                      89.20801
                      -4.30602                       1.26366                      89.26605
                      -4.50753                       1.29837                      89.30328
                      -4.71457                       1.28674                      89.31736
                      -4.91412                       1.22949                      89.30741
                      -5.09365                       1.13022                      89.27405
                      -5.24188                       0.99517                      89.21938
                      -5.34949                       0.83283                      89.14684
                      -5.40972                       0.65339                      89.06097
                      -5.41879                       0.46814                      88.96719
                      -5.37613                       0.28870                      88.87137
                      -5.28441                       0.12636                      88.77954
                      -5.14940                      -0.00868                      88.69748
                      -4.97959                      -0.10795                      88.63033
                      -4.78564                      -0.16519                      88.58232
                      -4.57974                      -0.17682                      88.55646
                      -4.37483                      -0.14211                      88.55438
                      -4.18378                      -0.06322                      88.57621
                      -4.01860                       0.05486                      88.62057
                      -3.88967                       0.20474                      88.68468
                      -3.80508                       0.37699                      88.76452
                      -3.59718                       0.50412                      88.95026
                      -3.61744                       0.72405                      89.06460
                      -3.69848                       0.93015                      89.17776
                      -3.83520                       1.10949                      89.28262
                      -4.01902                       1.25079                      89.37261
                      -4.23839                       1.34517                      89.44205
                      -4.47952                       1.38671                      89.48660
                      -4.72725                       1.37278                      89.50345
                      -4.96604                       1.30428                      89.49154
                      -5.18086                       1.18550                      89.45163
                      -5.35823                       1.02390                      89.38621
                      -5.48699                       0.82964                      89.29940
                      -5.55907                       0.61493                      89.19666
                      -5.56992                       0.39326                      89.08444
                      -5.51887                       0.17855                      88.96978
                      -5.40912                      -0.01571                      88.85991
                      -5.24757                      -0.17730                      88.76171
                      -5.04438                      -0.29608                      88.68136
                      -4.81230                      -0.36458                      88.62391
                      -4.56593                      -0.37849                      88.59297
                      -4.32073                      -0.33695                      88.59048
                      -4.09213                      -0.24256                      88.61659
                      -3.89447                      -0.10126                      88.66968
                      -3.74019                       0.07808                      88.74640
                      -3.63897                       0.28419                      88.84192
                      -3.46116                       0.44745                      89.04904
                      -3.48399                       0.69528                      89.17789
                      -3.57531                       0.92754                      89.30540
                      -3.72938                       1.12963                      89.42357
                      -3.93652                       1.28886                      89.52497
                      -4.18372                       1.39521                      89.60323
                      -4.45544                       1.44202                      89.65343
                      -4.73461                       1.42633                      89.67242
                      -5.00369                       1.34913                      89.65900
                      -5.24577                       1.21528                      89.61402
                      -5.44564                       1.03318                      89.54030
                      -5.59074                       0.81428                      89.44248
                      -5.67195                       0.57232                      89.32670
                      -5.68418                       0.32252                      89.20024
                      -5.62665                       0.08057                      89.07104
                      -5.50298                      -0.13833                      88.94722
                      -5.32094                      -0.32042                      88.83657
                      -5.09197                      -0.45427                      88.74602
                      -4.83045                      -0.53146                      88.68128
                      -4.55281                      -0.54714                      88.64642
                      -4.27651                      -0.50033                      88.64361
                      -4.01890                      -0.39396                      88.67304
                      -3.79617                      -0.23473                      88.73286
                      -3.62232                      -0.03264                      88.81931
                      -3.50826                       0.19962                      88.92696
                      -3.35059                       0.39079                      89.15028
                      -3.37546                       0.66085                      89.29069
                      -3.47498                       0.91395                      89.42965
                      -3.64287                       1.13417                      89.55842
                      -3.86860                       1.30768                      89.66892
                      -4.13798                       1.42358                      89.75420
                      -4.43407                       1.47459                      89.80890
                      -4.73829                       1.45749                      89.82959
                      -5.03151                       1.37337                      89.81497
                      -5.29531                       1.22750                      89.76595
                      -5.51312                       1.02907                      89.68562
                      -5.67124                       0.79052                      89.57902
                      -5.75974                       0.52686                      89.45286
                      -5.77307                       0.25465                      89.31505
                      -5.71038                      -0.00901                      89.17426
                      -5.57561                      -0.24755                      89.03933
                      -5.37723                      -0.44598                      88.91874
                      -5.12772                      -0.59184                      88.82008
                      -4.84273                      -0.67595                      88.74953
                      -4.54019                      -0.69304                      88.71153
                      -4.23909                      -0.64203                      88.70847
                      -3.95837                      -0.52612                      88.74055
                      -3.71565                      -0.35261                      88.80573
                      -3.52620                      -0.13238                      88.89994
                      -3.40191                       0.12072                      89.01725
                      -3.25954                       0.33412                      89.25342
                      -3.28607                       0.62207                      89.40312
                      -3.39217                       0.89193                      89.55128
                      -3.57119                       1.12674                      89.68858
                      -3.81186                       1.31174                      89.80639
                      -4.09908                       1.43532                      89.89732
                      -4.41479                       1.48970                      89.95565
                      -4.73916                       1.47147                      89.97771
                      -5.05180                       1.38177                      89.96212
                      -5.33307                       1.22625                      89.90986
                      -5.56529                       1.01467                      89.82421
                      -5.73389                       0.76033                      89.71055
                      -5.82825                       0.47921                      89.57603
                      -5.84246                       0.18896                      89.42909
                      -5.77562                      -0.09216                      89.27897
                      -5.63193                      -0.34650                      89.13511
                      -5.42041                      -0.55807                      89.00654
                      -5.15437                      -0.71358                      88.90134
                      -4.85051                      -0.80327                      88.82612
                      -4.52793                      -0.82149                      88.78560
                      -4.20690                      -0.76710                      88.78234
                      -3.90758                      -0.64352                      88.81654
                      -3.64879                      -0.45851                      88.88605
                      -3.44679                      -0.22369                      88.98649
                      -3.31426                       0.04617                      89.11157
                      -3.18457                       0.27745                      89.35810
                      -3.21241                       0.57971                      89.51525
                      -3.32379                       0.86298                      89.67077
                      -3.51170                       1.10946                      89.81489
                      -3.76433                       1.30365                      89.93856
                      -4.06582                       1.43337                      90.03400
                      -4.39722                       1.49045                      90.09523
                      -4.73770                       1.47132                      90.11839
                      -5.06588                       1.37717                      90.10202
                      -5.36112                       1.21392                      90.04716
                      -5.60489                       0.99182                      89.95725
                      -5.78186                       0.72484                      89.83795
                      -5.88092                       0.42975                      89.69674
                      -5.89583                       0.12508                      89.54250
                      -5.82567                      -0.17001                      89.38493
                      -5.67484                      -0.43698                      89.23392
                      -5.45281                      -0.65907                      89.09896
                      -5.17355                      -0.82231                      88.98853
                      -4.85459                      -0.91646                      88.90957
                      -4.51598                      -0.93558                      88.86704
                      -4.17899                      -0.87849                      88.86362
                      -3.86480                      -0.74876                      88.89952
                      -3.59315                      -0.55456                      88.97247
                      -3.38111                      -0.30808                      89.07791
                      -3.24200                      -0.02481                      89.20920
                      -3.12345                       0.22079                      89.46413
                      -3.15233                       0.53427                      89.62711
                      -3.26784                       0.82805                      89.78840
                      -3.46272                       1.08368                      89.93787
                      -3.72474                       1.28508                      90.06613
                      -4.03742                       1.41961                      90.16512
                      -4.38112                       1.47882                      90.22862
                      -4.73425                       1.45897                      90.25264
                      -5.07461                       1.36133                      90.23566
                      -5.38081                       1.19201                      90.17877
                      -5.63363                       0.96168                      90.08552
                      -5.81717                       0.68478                      89.96179
                      -5.91990                       0.37873                      89.81534
                      -5.93537                       0.06276                      89.65538
                      -5.86260                      -0.24329                      89.49195
                      -5.70617                      -0.52018                      89.33533
                      -5.47591                      -0.75051                      89.19536
                      -5.18627                      -0.91981                      89.08083
                      -4.85547                      -1.01745                      88.99894
                      -4.50429                      -1.03728                      88.95484
                      -4.15479                      -0.97807                      88.95129
                      -3.82894                      -0.84353                      88.98852
                      -3.54721                      -0.64212                      89.06418
                      -3.32729                      -0.38649                      89.17354
                      -3.18302                      -0.09270                      89.30970
                      -3.07474                       0.16412                      89.57135
                      -3.10440                       0.48606                      89.73873
                      -3.22303                       0.78777                      89.90437
                      -3.42317                       1.05029                      90.05788
                      -3.69226                       1.25713                      90.18960
                      -4.01337                       1.39529                      90.29126
                      -4.36635                       1.45609                      90.35647
                      -4.72900                       1.43571                      90.38114
                      -5.07854                       1.33543                      90.36371
                      -5.39301                       1.16155                      90.30528
                      -5.65265                       0.92500                      90.20951
                      -5.84114                       0.64063                      90.08244
                      -5.94665                       0.32633                      89.93204
                      -5.96253                       0.00183                      89.76776
                      -5.88780                      -0.31248                      89.59993
                      -5.72715                      -0.59683                      89.43908
                      -5.49067                      -0.83338                      89.29534
                      -5.19322                      -1.00725                      89.17772
                      -4.85350                      -1.10752                      89.09362
                      -4.49284                      -1.12789                      89.04832
                      -4.13391                      -1.06708                      89.04468
                      -3.79927                      -0.92891                      89.08291
                      -3.50993                      -0.72207                      89.16062
                      -3.28409                      -0.45954                      89.27292
                      -3.13592                      -0.15782                      89.41276
                      -3.03749                       0.10745                      89.67969
                      -3.06769                       0.43530                      89.85013
                      -3.18849                       0.74254                      90.01882
                      -3.39231                       1.00988                      90.17514
                      -3.66633                       1.22052                      90.30928
                      -3.99334                       1.36122                      90.41280
                      -4.35279                       1.42313                      90.47921
                      -4.72210                       1.40238                      90.50433
                      -5.07806                       1.30026                      90.48658
                      -5.39830                       1.12319                      90.42708
                      -5.66270                       0.88229                      90.32956
                      -5.85465                       0.59271                      90.20015
                      -5.96209                       0.27264                      90.04699
                      -5.97827                      -0.05782                      89.87970
                      -5.90217                      -0.37789                      89.70878
                      -5.73857                      -0.66747                      89.54499
                      -5.49775                      -0.90835                      89.39860
                      -5.19484                      -1.08541                      89.27883
                      -4.84888                      -1.18753                      89.19319
                      -4.48161                      -1.20827                      89.14706
                      -4.11610                      -1.14634                      89.14335
                      -3.77531                      -1.00564                      89.18228
                      -3.48067                      -0.79500                      89.26142
                      -3.25067                      -0.52765                      89.37578
                      -3.09979                      -0.22040                      89.51818
                      -3.01107                       0.05078                      89.78907
                      -3.04160                       0.38212                      89.96133
                      -3.16369                       0.69264                      90.13181
                      -3.36968                       0.96283                      90.28980
                      -3.64662                       1.17571                      90.42537
                      -3.97711                       1.31791                      90.53000
                      -4.34040                       1.38049                      90.59712
                      -4.71364                       1.35951                      90.62250
                      -5.07339                       1.25630                      90.60456
                      -5.39704                       1.07734                      90.54442
                      -5.66426                       0.83388                      90.44587
                      -5.85826                       0.54121                      90.31508
                      -5.96684                       0.21773                      90.16029
                      -5.98319                      -0.11625                      89.99121
                      -5.90628                      -0.43973                      89.81848
                      -5.74094                      -0.73239                      89.65294
                      -5.49755                      -0.97585                      89.50499
                      -5.19142                      -1.15480                      89.38394
                      -4.84177                      -1.25799                      89.29738
                      -4.47058                      -1.27896                      89.25076
                      -4.10117                      -1.21637                      89.24701
                      -3.75676                      -1.07417                      89.28636
                      -3.45897                      -0.86128                      89.36634
                      -3.22653                      -0.59109                      89.48192
                      -3.07404                      -0.28056                      89.62585
                      -2.99515                      -0.00589                      89.89946
                      -3.02578                       0.32661                      90.07233
                      -3.14830                       0.63822                      90.24341
                      -3.35501                       0.90935                      90.40195
                      -3.63292                       1.12297                      90.53799
                      -3.96457                       1.26566                      90.64298
                      -4.32912                       1.32846                      90.71033
                      -4.70366                       1.30741                      90.73581
                      -5.06467                       1.20384                      90.71780
                      -5.38945                       1.02426                      90.65746
                      -5.65760                       0.77995                      90.55856
                      -5.85228                       0.48626                      90.42731
                      -5.96124                       0.16164                      90.27198
                      -5.97765                      -0.17350                      90.10231
                      -5.90046                      -0.49811                      89.92898
                      -5.73454                      -0.79179                      89.76286
                      -5.49031                      -1.03610                      89.61440
                      -5.18311                      -1.21567                      89.49292
                      -4.83224                      -1.31923                      89.40606
                      -4.45976                      -1.34027                      89.35928
                      -4.08906                      -1.27747                      89.35552
                      -3.74344                      -1.13476                      89.39500
                      -3.44461                      -0.92113                      89.47526
                      -3.21136                      -0.64999                      89.59125
                      -3.05834                      -0.33839                      89.73567
                      -2.98962                      -0.06255                      90.01087
                      -3.02014                       0.26879                      90.18313
                      -3.14223                       0.57931                      90.35361
                      -3.34822                       0.84950                      90.51160
                      -3.62516                       1.06238                      90.64717
                      -3.95566                       1.20457                      90.75180
                      -4.31894                       1.26715                      90.81891
                      -4.69218                       1.24617                      90.84430
                      -5.05193                       1.14296                      90.82636
                      -5.37559                       0.96401                      90.76622
                      -5.64281                       0.72055                      90.66766
                      -5.83680                       0.42788                      90.53688
                      -5.94539                       0.10439                      90.38209
                      -5.96174                      -0.22958                      90.21301
                      -5.88482                      -0.55307                      90.04028
                      -5.71948                      -0.84573                      89.87473
                      -5.47610                      -1.08918                      89.72679
                      -5.16996                      -1.26813                      89.60574
                      -4.82032                      -1.37133                      89.51918
                      -4.44913                      -1.39230                      89.47256
                      -4.07972                      -1.32971                      89.46881
                      -3.73530                      -1.18751                      89.50816
                      -3.43752                      -0.97462                      89.58814
                      -3.20508                      -0.70442                      89.70372
                      -3.05258                      -0.39390                      89.84764
                      -2.99458                      -0.11922                      90.12328
                      -3.02478                       0.20862                      90.29373
                      -3.14559                       0.51587                      90.46241
                      -3.34940                       0.78321                      90.61874
                      -3.62342                       0.99385                      90.75288
                      -3.95043                       1.13454                      90.85640
                      -4.30989                       1.19646                      90.92281
                      -4.67919                       1.17570                      90.94793
                      -5.03515                       1.07358                      90.93018
                      -5.35539                       0.89651                      90.87067
                      -5.61979                       0.65562                      90.77315
                      -5.81174                       0.36604                      90.64375
                      -5.91918                       0.04596                      90.49059
                      -5.93536                      -0.28449                      90.32330
                      -5.85926                      -0.60456                      90.15238
                      -5.69566                      -0.89414                      89.98859
                      -5.45484                      -1.13503                      89.84220
                      -5.15193                      -1.31209                      89.72242
                      -4.80597                      -1.41420                      89.63678
                      -4.43870                      -1.43494                      89.59066
                      -4.07319                      -1.37302                      89.58694
                      -3.73240                      -1.23231                      89.62588
                      -3.43776                      -1.02167                      89.70501
                      -3.20777                      -0.75432                      89.81938
                      -3.05688                      -0.44707                      89.96178
                      -3.01038                      -0.17589                      90.23675
                      -3.04004                       0.14605                      90.40412
                      -3.15866                       0.44776                      90.56977
                      -3.35881                       0.71028                      90.72327
                      -3.62789                       0.91712                      90.85500
                      -3.94901                       1.05528                      90.95666
                      -4.30198                       1.11608                      91.02187
                      -4.66464                       1.09570                      91.04653
                      -5.01418                       0.99542                      91.02910
                      -5.32865                       0.82154                      90.97067
                      -5.58829                       0.58499                      90.87491
                      -5.77678                       0.30062                      90.74784
                      -5.88228                      -0.01368                      90.59744
                      -5.89817                      -0.33818                      90.43316
                      -5.82344                      -0.65248                      90.26532
                      -5.66278                      -0.93684                      90.10448
                      -5.42631                      -1.17339                      89.96073
                      -5.12886                      -1.34726                      89.84311
                      -4.78913                      -1.44753                      89.75901
                      -4.42848                      -1.46790                      89.71372
                      -4.06955                      -1.40709                      89.71007
                      -3.73491                      -1.26892                      89.74831
                      -3.44557                      -1.06208                      89.82601
                      -3.21972                      -0.79955                      89.93832
                      -3.07156                      -0.49783                      90.07816
                      -3.03763                      -0.23256                      90.35132
                      -3.06651                       0.08092                      90.51430
                      -3.18202                       0.37471                      90.67559
                      -3.37691                       0.63033                      90.82507
                      -3.63892                       0.83174                      90.95333
                      -3.95160                       0.96627                      91.05232
                      -4.29530                       1.02547                      91.11581
                      -4.64843                       1.00563                      91.13983
                      -4.98879                       0.90798                      91.12286
                      -5.29500                       0.73867                      91.06596
                      -5.54781                       0.50833                      90.97272
                      -5.73135                       0.23144                      90.84898
                      -5.83409                      -0.07461                      90.70253
                      -5.84955                      -0.39059                      90.54257
                      -5.77679                      -0.69663                      90.37914
                      -5.62035                      -0.97352                      90.22253
                      -5.39009                      -1.20385                      90.08256
                      -5.10046                      -1.37316                      89.96803
                      -4.76966                      -1.47079                      89.88614
                      -4.41847                      -1.49063                      89.84203
                      -4.06898                      -1.43142                      89.83848
                      -3.74312                      -1.29688                      89.87571
                      -3.46139                      -1.09546                      89.95138
                      -3.24147                      -0.83983                      90.06073
                      -3.09720                      -0.54604                      90.19690
                      -3.07729                      -0.28923                      90.46709
                      -3.10514                       0.01303                      90.62424
                      -3.21651                       0.29630                      90.77976
                      -3.40442                       0.54277                      90.92388
                      -3.65706                       0.73697                      91.04755
                      -3.95855                       0.86669                      91.14300
                      -4.28994                       0.92377                      91.20422
                      -4.63043                       0.90463                      91.22738
                      -4.95860                       0.81048                      91.21101
                      -5.25385                       0.64723                      91.15615
                      -5.49762                       0.42514                      91.06625
                      -5.67459                       0.15816                      90.94694
                      -5.77364                      -0.13693                      90.80573
                      -5.78856                      -0.44160                      90.65150
                      -5.71839                      -0.73669                      90.49392
                      -5.56756                      -1.00367                      90.34291
                      -5.34554                      -1.22575                      90.20795
                      -5.06627                      -1.38900                      90.09752
                      -4.74732                      -1.48314                      90.01856
                      -4.40871                      -1.50226                      89.97604
                      -4.07172                      -1.44517                      89.97261
                      -3.75753                      -1.31545                      90.00851
                      -3.48588                      -1.12124                      90.08147
                      -3.27384                      -0.87476                      90.18690
                      -3.13473                      -0.59149                      90.31820
                      -3.13082                      -0.34590                      90.58421
                      -3.15734                      -0.05795                      90.73391
                      -3.26345                       0.21191                      90.88207
                      -3.44246                       0.44672                      91.01937
                      -3.68314                       0.63172                      91.13719
                      -3.97035                       0.75530                      91.22811
                      -4.28606                       0.80968                      91.28644
                      -4.61043                       0.79145                      91.30850
                      -4.92307                       0.70176                      91.29291
                      -5.20434                       0.54623                      91.24065
                      -5.43657                       0.33465                      91.15500
                      -5.60516                       0.08031                      91.04134
                      -5.69952                      -0.20081                      90.90682
                      -5.71373                      -0.49105                      90.75988
                      -5.64689                      -0.77218                      90.60977
                      -5.50320                      -1.02651                      90.46590
                      -5.29169                      -1.23809                      90.33733
                      -5.02564                      -1.39360                      90.23213
                      -4.72178                      -1.48329                      90.15691
                      -4.39920                      -1.50151                      90.11640
                      -4.07817                      -1.44712                      90.11313
                      -3.77885                      -1.32354                      90.14733
                      -3.52006                      -1.13853                      90.21684
                      -3.31806                      -0.90371                      90.31728
                      -3.18553                      -0.63385                      90.44236
                      -3.20040                      -0.40257                      90.70287
                      -3.22528                      -0.13250                      90.84328
                      -3.32479                       0.12059                      90.98224
                      -3.49269                       0.34082                      91.11101
                      -3.71842                       0.51433                      91.22150
                      -3.98779                       0.63023                      91.30678
                      -4.28389                       0.68123                      91.36149
                      -4.58811                       0.66413                      91.38218
                      -4.88133                       0.58001                      91.36756
                      -5.14513                       0.43415                      91.31854
                      -5.36293                       0.23571                      91.23821
                      -5.52105                      -0.00283                      91.13161
                      -5.60956                      -0.26649                      91.00544
                      -5.62288                      -0.53871                      90.86764
                      -5.56019                      -0.80237                      90.72685
                      -5.42543                      -1.04091                      90.59192
                      -5.22705                      -1.23934                      90.47133
                      -4.97753                      -1.38519                      90.37267
                      -4.69255                      -1.46931                      90.30212
                      -4.39000                      -1.48640                      90.26412
                      -4.08891                      -1.43539                      90.26106
                      -3.80819                      -1.31948                      90.29313
                      -3.56547                      -1.14596                      90.35832
                      -3.37602                      -0.92573                      90.45253
                      -3.25172                      -0.67263                      90.56984
                      -3.28953                      -0.45924                      90.82343
                      -3.31236                      -0.21141                      90.95228
                      -3.40367                       0.02085                      91.07979
                      -3.55775                       0.22294                      91.19796
                      -3.76489                       0.38216                      91.29936
                      -4.01208                       0.48852                      91.37762
                      -4.28380                       0.53533                      91.42782
                      -4.56297                       0.51964                      91.44680
                      -4.83205                       0.44244                      91.43339
                      -5.07413                       0.30859                      91.38841
                      -5.27400                       0.12649                      91.31469
                      -5.41910                      -0.09241                      91.21687
                      -5.50032                      -0.33437                      91.10109
                      -5.51255                      -0.58417                      90.97463
                      -5.45502                      -0.82612                      90.84543
                      -5.33135                      -1.04502                      90.72161
                      -5.14931                      -1.22711                      90.61095
                      -4.92033                      -1.36096                      90.52041
                      -4.65881                      -1.43815                      90.45567
                      -4.38118                      -1.45383                      90.42080
                      -4.10487                      -1.40702                      90.41800
                      -3.84727                      -1.30065                      90.44743
                      -3.62453                      -1.14142                      90.50725
                      -3.45068                      -0.93933                      90.59370
                      -3.33662                      -0.70707                      90.70135
                      -3.40409                      -0.51591                      90.94645
                      -3.42435                      -0.29598                      91.06079
                      -3.50539                      -0.08987                      91.17395
                      -3.64211                       0.08946                      91.27881
                      -3.82593                       0.23076                      91.36879
                      -4.04530                       0.32514                      91.43824
                      -4.28642                       0.36668                      91.48279
                      -4.53416                       0.35276                      91.49964
                      -4.77295                       0.28425                      91.48773
                      -4.98777                       0.16547                      91.44781
                      -5.16514                       0.00387                      91.38240
                      -5.29390                      -0.19038                      91.29559
                      -5.36597                      -0.40510                      91.19285
                      -5.37683                      -0.62677                      91.08062
                      -5.32577                      -0.84148                      90.96597
                      -5.21603                      -1.03574                      90.85609
                      -5.05448                      -1.19733                      90.75789
                      -4.85129                      -1.31610                      90.67755
                      -4.61921                      -1.38460                      90.62010
                      -4.37284                      -1.39852                      90.58915
                      -4.12764                      -1.35698                      90.58666
                      -3.89904                      -1.26259                      90.61278
                      -3.70138                      -1.12129                      90.66587
                      -3.54710                      -0.94194                      90.74258
                      -3.44588                      -0.73583                      90.83811
                      -3.55561                      -0.57258                      91.07304
                      -3.57254                      -0.38878                      91.16860
                      -3.64026                      -0.21654                      91.26316
                      -3.75452                      -0.06666                      91.35080
                      -3.90814                       0.05142                      91.42600
                      -4.09147                       0.13030                      91.48404
                      -4.29298                       0.16501                      91.52127
                      -4.50002                       0.15337                      91.53535
                      -4.69957                       0.09612                      91.52540
                      -4.87910                      -0.00314                      91.49204
                      -5.02733                      -0.13819                      91.43737
                      -5.13494                      -0.30053                      91.36482
                      -5.19517                      -0.47997                      91.27896
                      -5.20424                      -0.66523                      91.18517
                      -5.16158                      -0.84466                      91.08935
                      -5.06986                      -1.00700                      90.99753
                      -4.93486                      -1.14205                      90.91546
                      -4.76504                      -1.24131                      90.84832
                      -4.57110                      -1.29856                      90.80030
                      -4.36520                      -1.31019                      90.77444
                      -4.16029                      -1.27547                      90.77236
                      -3.96924                      -1.19659                      90.79419
                      -3.80406                      -1.07850                      90.83855
                      -3.67512                      -0.92862                      90.90267
                      -3.59053                      -0.75637                      90.98250
                      -3.77349                      -0.62925                      91.20605
                      -3.78573                      -0.49636                      91.27514
                      -3.83470                      -0.37183                      91.34351
                      -3.91731                      -0.26347                      91.40687
                      -4.02837                      -0.17810                      91.46124
                      -4.16092                      -0.12107                      91.50320
                      -4.30661                      -0.09597                      91.53012
                      -4.45630                      -0.10439                      91.54030
                      -4.60058                      -0.14578                      91.53310
                      -4.73038                      -0.21755                      91.50899
                      -4.83754                      -0.31519                      91.46946
                      -4.91535                      -0.43256                      91.41701
                      -4.95889                      -0.56229                      91.35493
                      -4.96545                      -0.69623                      91.28712
                      -4.93461                      -0.82597                      91.21785
                      -4.86829                      -0.94334                      91.15146
                      -4.77069                      -1.04098                      91.09212
                      -4.64791                      -1.11274                      91.04358
                      -4.50769                      -1.15413                      91.00886
                      -4.35882                      -1.16254                      90.99017
                      -4.21067                      -1.13744                      90.98866
                      -4.07254                      -1.08041                      91.00444
                      -3.95312                      -0.99503                      91.03652
                      -3.85990                      -0.88667                      91.08287
                      -3.79874                      -0.76213                      91.14059
                      -4.35946                      -0.68592                      91.37467
                      -4.35946                      -0.68592                      91.37467
                      -4.35946                      -0.68592                      91.37467
                      -4.35946                      -0.68592                      91.37467
                      -4.35946                      -0.68592                      91.37467
                      -4.35946                      -0.68592                      91.37467
                      -4.35946                      -0.68592                      91.37467
                      -4.35946                      -0.68592                      91.37467
                      -4.35946                      -0.68592                      91.37467
                      -4.35946                      -0.68592                      91.37467
                      -4.35946                      -0.68592                      91.37467
                      -4.35946                      -0.68592                      91.37467
                      -4.35946                      -0.68592                      91.37467
                      -4.35946                      -0.68592                      91.37467
                      -4.35946                      -0.68592                      91.37467
                      -4.35946                      -0.68592                      91.37467
                      -4.35946                      -0.68592                      91.37467
                      -4.35946                      -0.68592                      91.37467
                      -4.35946                      -0.68592                      91.37467
                      -4.35946                      -0.68592                      91.37467
                      -4.35946                      -0.68592                      91.37467
                      -4.35946                      -0.68592                      91.37467
                      -4.35946                      -0.68592                      91.37467
                      -4.35946                      -0.68592                      91.37467
                      -4.35946                      -0.68592                      91.37467
        </DataArray>
      </Points>
      <Polys>
        <DataArray type="Int32" Name="connectivity" format="ascii">
      0      1     26     25
      1      2     27     26
      2      3     28     27
      3      4     29     28
      4      5     30     29
      5      6     31     30
      6      7     32     31
      7      8     33     32
      8      9     34     33
      9     10     35     34
     10     11     36     35
     11     12     37     36
     12     13     38     37
     13     14     39     38
     14     15     40     39
     15     16     41     40
     16     17     42     41
     17     18     43     42
     18     19     44     43
     19     20     45     44
     20     21     46     45
     21     22     47     46
     22     23     48     47
     23     24     49     48
     24      0     25     49
     25     26     51     50
     26     27     52     51
     27     28     53     52
     28     29     54     53
     29     30     55     54
     30     31     56     55
     31     32     57     56
     32     33     58     57
     33     34     59     58
     34     35     60     59
     35     36     61     60
     36     37     62     61
     37     38     63     62
     38     39     64     63
     39     40     65     64
     40     41     66     65
     41     42     67     66
     42     43     68     67
     43     44     69     68
     44     45     70     69
     45     46     71     70
     46     47     72     71
     47     48     73     72
     48     49     74     73
     49     25     50     74
     50     51     76     75
     51     52     77     76
     52     53     78     77
     53     54     79     78
     54     55     80     79
     55     56     81     80
     56     57     82     81
     57     58     83     82
     58     59     84     83
     59     60     85     84
     60     61     86     85
     61     62     87     86
     62     63     88     87
     63     64     89     88
     64     65     90     89
     65     66     91     90
     66     67     92     91
     67     68     93     92
     68     69     94     93
     69     70     95     94
     70     71     96     95
     71     72     97     96
     72     73     98     97
     73     74     99     98
     74     50     75     99
     75     76    101    100
     76     77    102    101
     77     78    103    102
     78     79    104    103
     79     80    105    104
     80     81    106    105
     81     82    107    106
     82     83    108    107
     83     84    109    108
     84     85    110    109
     85     86    111    110
     86     87    112    111
     87     88    113    112
     88     89    114    113
     89     90    115    114
     90     91    116    115
     91     92    117    116
     92     93    118    117
     93     94    119    118
     94     95    120    119
     95     96    121    120
     96     97    122    121
     97     98    123    122
     98     99    124    123
     99     75    100    124
    100    101    126    125
    101    102    127    126
    102    103    128    127
    103    104    129    128
    104    105    130    129
    105    106    131    130
    106    107    132    131
    107    108    133    132
    108    109    134    133
    109    110    135    134
    110    111    136    135
    111    112    137    136
    112    113    138    137
    113    114    139    138
    114    115    140    139
    115    116    141    140
    116    117    142    141
    117    118    143    142
    118    119    144    143
    119    120    145    144
    120    121    146    145
    121    122    147    146
    122    123    148    147
    123    124    149    148
    124    100    125    149
    125    126    151    150
    126    127    152    151
    127    128    153    152
    128    129    154    153
    129    130    155    154
    130    131    156    155
    131    132    157    156
    132    133    158    157
    133    134    159    158
    134    135    160    159
    135    136    161    160
    136    137    162    161
    137    138    163    162
    138    139    164    163
    139    140    165    164
    140    141    166    165
    141    142    167    166
    142    143    168    167
    143    144    169    168
    144    145    170    169
    145    146    171    170
    146    147    172    171
    147    148    173    172
    148    149    174    173
    149    125    150    174
    150    151    176    175
    151    152    177    176
    152    153    178    177
    153    154    179    178
    154    155    180    179
    155    156    181    180
    156    157    182    181
    157    158    183    182
    158    159    184    183
    159    160    185    184
    160    161    186    185
    161    162    187    186
    162    163    188    187
    163    164    189    188
    164    165    190    189
    165    166    191    190
    166    167    192    191
    167    168    193    192
    168    169    194    193
    169    170    195    194
    170    171    196    195
    171    172    197    196
    172    173    198    197
    173    174    199    198
    174    150    175    199
    175    176    201    200
    176    177    202    201
    177    178    203    202
    178    179    204    203
    179    180    205    204
    180    181    206    205
    181    182    207    206
    182    183    208    207
    183    184    209    208
    184    185    210    209
    185    186    211    210
    186    187    212    211
    187    188    213    212
    188    189    214    213
    189    190    215    214
    190    191    216    215
    191    192    217    216
    192    193    218    217
    193    194    219    218
    194    195    220    219
    195    196    221    220
    196    197    222    221
    197    198    223    222
    198    199    224    223
    199    175    200    224
    200    201    226    225
    201    202    227    226
    202    203    228    227
    203    204    229    228
    204    205    230    229
    205    206    231    230
    206    207    232    231
    207    208    233    232
    208    209    234    233
    209    210    235    234
    210    211    236    235
    211    212    237    236
    212    213    238    237
    213    214    239    238
    214    215    240    239
    215    216    241    240
    216    217    242    241
    217    218    243    242
    218    219    244    243
    219    220    245    244
    220    221    246    245
    221    222    247    246
    222    223    248    247
    223    224    249    248
    224    200    225    249
    225    226    251    250
    226    227    252    251
    227    228    253    252
    228    229    254    253
    229    230    255    254
    230    231    256    255
    231    232    257    256
    232    233    258    257
    233    234    259    258
    234    235    260    259
    235    236    261    260
    236    237    262    261
    237    238    263    262
    238    239    264    263
    239    240    265    264
    240    241    266    265
    241    242    267    266
    242    243    268    267
    243    244    269    268
    244    245    270    269
    245    246    271    270
    246    247    272    271
    247    248    273    272
    248    249    274    273
    249    225    250    274
    250    251    276    275
    251    252    277    276
    252    253    278    277
    253    254    279    278
    254    255    280    279
    255    256    281    280
    256    257    282    281
    257    258    283    282
    258    259    284    283
    259    260    285    284
    260    261    286    285
    261    262    287    286
    262    263    288    287
    263    264    289    288
    264    265    290    289
    265    266    291    290
    266    267    292    291
    267    268    293    292
    268    269    294    293
    269    270    295    294
    270    271    296    295
    271    272    297    296
    272    273    298    297
    273    274    299    298
    274    250    275    299
    275    276    301    300
    276    277    302    301
    277    278    303    302
    278    279    304    303
    279    280    305    304
    280    281    306    305
    281    282    307    306
    282    283    308    307
    283    284    309    308
    284    285    310    309
    285    286    311    310
    286    287    312    311
    287    288    313    312
    288    289    314    313
    289    290    315    314
    290    291    316    315
    291    292    317    316
    292    293    318    317
    293    294    319    318
    294    295    320    319
    295    296    321    320
    296    297    322    321
    297    298    323    322
    298    299    324    323
    299    275    300    324
    300    301    326    325
    301    302    327    326
    302    303    328    327
    303    304    329    328
    304    305    330    329
    305    306    331    330
    306    307    332    331
    307    308    333    332
    308    309    334    333
    309    310    335    334
    310    311    336    335
    311    312    337    336
    312    313    338    337
    313    314    339    338
    314    315    340    339
    315    316    341    340
    316    317    342    341
    317    318    343    342
    318    319    344    343
    319    320    345    344
    320    321    346    345
    321    322    347    346
    322    323    348    347
    323    324    349    348
    324    300    325    349
    325    326    351    350
    326    327    352    351
    327    328    353    352
    328    329    354    353
    329    330    355    354
    330    331    356    355
    331    332    357    356
    332    333    358    357
    333    334    359    358
    334    335    360    359
    335    336    361    360
    336    337    362    361
    337    338    363    362
    338    339    364    363
    339    340    365    364
    340    341    366    365
    341    342    367    366
    342    343    368    367
    343    344    369    368
    344    345    370    369
    345    346    371    370
    346    347    372    371
    347    348    373    372
    348    349    374    373
    349    325    350    374
    350    351    376    375
    351    352    377    376
    352    353    378    377
    353    354    379    378
    354    355    380    379
    355    356    381    380
    356    357    382    381
    357    358    383    382
    358    359    384    383
    359    360    385    384
    360    361    386    385
    361    362    387    386
    362    363    388    387
    363    364    389    388
    364    365    390    389
    365    366    391    390
    366    367    392    391
    367    368    393    392
    368    369    394    393
    369    370    395    394
    370    371    396    395
    371    372    397    396
    372    373    398    397
    373    374    399    398
    374    350    375    399
    375    376    401    400
    376    377    402    401
    377    378    403    402
    378    379    404    403
    379    380    405    404
    380    381    406    405
    381    382    407    406
    382    383    408    407
    383    384    409    408
    384    385    410    409
    385    386    411    410
    386    387    412    411
    387    388    413    412
    388    389    414    413
    389    390    415    414
    390    391    416    415
    391    392    417    416
    392    393    418    417
    393    394    419    418
    394    395    420    419
    395    396    421    420
    396    397    422    421
    397    398    423    422
    398    399    424    423
    399    375    400    424
    400    401    426    425
    401    402    427    426
    402    403    428    427
    403    404    429    428
    404    405    430    429
    405    406    431    430
    406    407    432    431
    407    408    433    432
    408    409    434    433
    409    410    435    434
    410    411    436    435
    411    412    437    436
    412    413    438    437
    413    414    439    438
    414    415    440    439
    415    416    441    440
    416    417    442    441
    417    418    443    442
    418    419    444    443
    419    420    445    444
    420    421    446    445
    421    422    447    446
    422    423    448    447
    423    424    449    448
    424    400    425    449
    425    426    451    450
    426    427    452    451
    427    428    453    452
    428    429    454    453
    429    430    455    454
    430    431    456    455
    431    432    457    456
    432    433    458    457
    433    434    459    458
    434    435    460    459
    435    436    461    460
    436    437    462    461
    437    438    463    462
    438    439    464    463
    439    440    465    464
    440    441    466    465
    441    442    467    466
    442    443    468    467
    443    444    469    468
    444    445    470    469
    445    446    471    470
    446    447    472    471
    447    448    473    472
    448    449    474    473
    449    425    450    474
    450    451    476    475
    451    452    477    476
    452    453    478    477
    453    454    479    478
    454    455    480    479
    455    456    481    480
    456    457    482    481
    457    458    483    482
    458    459    484    483
    459    460    485    484
    460    461    486    485
    461    462    487    486
    462    463    488    487
    463    464    489    488
    464    465    490    489
    465    466    491    490
    466    467    492    491
    467    468    493    492
    468    469    494    493
    469    470    495    494
    470    471    496    495
    471    472    497    496
    472    473    498    497
    473    474    499    498
    474    450    475    499
    475    476    501    500
    476    477    502    501
    477    478    503    502
    478    479    504    503
    479    480    505    504
    480    481    506    505
    481    482    507    506
    482    483    508    507
    483    484    509    508
    484    485    510    509
    485    486    511    510
    486    487    512    511
    487    488    513    512
    488    489    514    513
    489    490    515    514
    490    491    516    515
    491    492    517    516
    492    493    518    517
    493    494    519    518
    494    495    520    519
    495    496    521    520
    496    497    522    521
    497    498    523    522
    498    499    524    523
    499    475    500    524
    500    501    526    525
    501    502    527    526
    502    503    528    527
    503    504    529    528
    504    505    530    529
    505    506    531    530
    506    507    532    531
    507    508    533    532
    508    509    534    533
    509    510    535    534
    510    511    536    535
    511    512    537    536
    512    513    538    537
    513    514    539    538
    514    515    540    539
    515    516    541    540
    516    517    542    541
    517    518    543    542
    518    519    544    543
    519    520    545    544
    520    521    546    545
    521    522    547    546
    522    523    548    547
    523    524    549    548
    524    500    525    549
    525    526    551    550
    526    527    552    551
    527    528    553    552
    528    529    554    553
    529    530    555    554
    530    531    556    555
    531    532    557    556
    532    533    558    557
    533    534    559    558
    534    535    560    559
    535    536    561    560
    536    537    562    561
    537    538    563    562
    538    539    564    563
    539    540    565    564
    540    541    566    565
    541    542    567    566
    542    543    568    567
    543    544    569    568
    544    545    570    569
    545    546    571    570
    546    547    572    571
    547    548    573    572
    548    549    574    573
    549    525    550    574
    550    551    576    575
    551    552    577    576
    552    553    578    577
    553    554    579    578
    554    555    580    579
    555    556    581    580
    556    557    582    581
    557    558    583    582
    558    559    584    583
    559    560    585    584
    560    561    586    585
    561    562    587    586
    562    563    588    587
    563    564    589    588
    564    565    590    589
    565    566    591    590
    566    567    592    591
    567    568    593    592
    568    569    594    593
    569    570    595    594
    570    571    596    595
    571    572    597    596
    572    573    598    597
    573    574    599    598
    574    550    575    599
    575    576    601    600
    576    577    602    601
    577    578    603    602
    578    579    604    603
    579    580    605    604
    580    581    606    605
    581    582    607    606
    582    583    608    607
    583    584    609    608
    584    585    610    609
    585    586    611    610
    586    587    612    611
    587    588    613    612
    588    589    614    613
    589    590    615    614
    590    591    616    615
    591    592    617    616
    592    593    618    617
    593    594    619    618
    594    595    620    619
    595    596    621    620
    596    597    622    621
    597    598    623    622
    598    599    624    623
    599    575    600    624
        </DataArray>
        <DataArray type="Int32" Name="offsets" format="ascii">
      4
      8
     12
     16
     20
     24
     28
     32
     36
     40
     44
     48
     52
     56
     60
     64
     68
     72
     76
     80
     84
     88
     92
     96
    100
    104
    108
    112
    116
    120
    124
    128
    132
    136
    140
    144
    148
    152
    156
    160
    164
    168
    172
    176
    180
    184
    188
    192
    196
    200
    204
    208
    212
    216
    220
    224
    228
    232
    236
    240
    244
    248
    252
    256
    260
    264
    268
    272
    276
    280
    284
    288
    292
    296
    300
    304
    308
    312
    316
    320
    324
    328
    332
    336
    340
    344
    348
    352
    356
    360
    364
    368
    372
    376
    380
    384
    388
    392
    396
    400
    404
    408
    412
    416
    420
    424
    428
    432
    436
    440
    444
    448
    452
    456
    460
    464
    468
    472
    476
    480
    484
    488
    492
    496
    500
    504
    508
    512
    516
    520
    524
    528
    532
    536
    540
    544
    548
    552
    556
    560
    564
    568
    572
    576
    580
    584
    588
    592
    596
    600
    604
    608
    612
    616
    620
    624
    628
    632
    636
    640
    644
    648
    652
    656
    660
    664
    668
    672
    676
    680
    684
    688
    692
    696
    700
    704
    708
    712
    716
    720
    724
    728
    732
    736
    740
    744
    748
    752
    756
    760
    764
    768
    772
    776
    780
    784
    788
    792
    796
    800
    804
    808
    812
    816
    820
    824
    828
    832
    836
    840
    844
    848
    852
    856
    860
    864
    868
    872
    876
    880
    884
    888
    892
    896
    900
    904
    908
    912
    916
    920
    924
    928
    932
    936
    940
    944
    948
    952
    956
    960
    964
    968
    972
    976
    980
    984
    988
    992
    996
   1000
   1004
   1008
   1012
   1016
   1020
   1024
   1028
   1032
   1036
   1040
   1044
   1048
   1052
   1056
   1060
   1064
   1068
   1072
   1076
   1080
   1084
   1088
   1092
   1096
   1100
   1104
   1108
   1112
   1116
   1120
   1124
   1128
   1132
   1136
   1140
   1144
   1148
   1152
   1156
   1160
   1164
   1168
   1172
   1176
   1180
   1184
   1188
   1192
   1196
   1200
   1204
   1208
   1212
   1216
   1220
   1224
   1228
   1232
   1236
   1240
   1244
   1248
   1252
   1256
   1260
   1264
   1268
   1272
   1276
   1280
   1284
   1288
   1292
   1296
   1300
   1304
   1308
   1312
   1316
   1320
   1324
   1328
   1332
   1336
   1340
   1344
   1348
   1352
   1356
   1360
   1364
   1368
   1372
   1376
   1380
   1384
   1388
   1392
   1396
   1400
   1404
   1408
   1412
   1416
   1420
   1424
   1428
   1432
   1436
   1440
   1444
   1448
   1452
   1456
   1460
   1464
   1468
   1472
   1476
   1480
   1484
   1488
   1492
   1496
   1500
   1504
   1508
   1512
   1516
   1520
   1524
   1528
   1532
   1536
   1540
   1544
   1548
   1552
   1556
   1560
   1564
   1568
   1572
   1576
   1580
   1584
   1588
   1592
   1596
   1600
   1604
   1608
   1612
   1616
   1620
   1624
   1628
   1632
   1636
   1640
   1644
   1648
   1652
   1656
   1660
   1664
   1668
   1672
   1676
   1680
   1684
   1688
   1692
   1696
   1700
   1704
   1708
   1712
   1716
   1720
   1724
   1728
   1732
   1736
   1740
   1744
   1748
   1752
   1756
   1760
   1764
   1768
   1772
   1776
   1780
   1784
   1788
   1792
   1796
   1800
   1804
   1808
   1812
   1816
   1820
   1824
   1828
   1832
   1836
   1840
   1844
   1848
   1852
   1856
   1860
   1864
   1868
   1872
   1876
   1880
   1884
   1888
   1892
   1896
   1900
   1904
   1908
   1912
   1916
   1920
   1924
   1928
   1932
   1936
   1940
   1944
   1948
   1952
   1956
   1960
   1964
   1968
   1972
   1976
   1980
   1984
   1988
   1992
   1996
   2000
   2004
   2008
   2012
   2016
   2020
   2024
   2028
   2032
   2036
   2040
   2044
   2048
   2052
   2056
   2060
   2064
   2068
   2072
   2076
   2080
   2084
   2088
   2092
   2096
   2100
   2104
   2108
   2112
   2116
   2120
   2124
   2128
   2132
   2136
   2140
   2144
   2148
   2152
   2156
   2160
   2164
   2168
   2172
   2176
   2180
   2184
   2188
   2192
   2196
   2200
   2204
   2208
   2212
   2216
   2220
   2224
   2228
   2232
   2236
   2240
   2244
   2248
   2252
   2256
   2260
   2264
   2268
   2272
   2276
   2280
   2284
   2288
   2292
   2296
   2300
   2304
   2308
   2312
   2316
   2320
   2324
   2328
   2332
   2336
   2340
   2344
   2348
   2352
   2356
   2360
   2364
   2368
   2372
   2376
   2380
   2384
   2388
   2392
   2396
   2400
        </DataArray>
      </Polys>
    </Piece>
  </PolyData>
</VTKFile>
