<?xml version="1.0"?>
<VTKFile type="PolyData" version="0.1" byte_order="LittleEndian">
  <PolyData>
    <Piece NumberOfPoints="    550" NumberOfVerts="  0" NumberOfLines="     21"
           NumberOfStrips="  0" NumberOfPolys="    567">
      <Points>
        <DataArray type="Float32" NumberOfComponents="3" format="ascii">
                       2.97358                      -0.00001                       2.18943
                       2.88016                       0.73944                       2.18945
                       2.60579                       1.43243                       2.18951
                       2.16770                       2.03541                       2.18960
                       1.59342                       2.51049                       2.18971
                       0.91903                       2.82784                       2.18985
                       0.18690                       2.96750                       2.18999
                      -0.55695                       2.92070                       2.19013
                      -1.26580                       2.69038                       2.19027
                      -1.89510                       2.29102                       2.19038
                      -2.40531                       1.74770                       2.19048
                      -2.76437                       1.09456                       2.19054
                      -2.94973                       0.37265                       2.19057
                      -2.94973                      -0.37267                       2.19056
                      -2.76437                      -1.09458                       2.19052
                      -2.40531                      -1.74772                       2.19045
                      -1.89510                      -2.29103                       2.19035
                      -1.26580                      -2.69040                       2.19022
                      -0.55695                      -2.92072                       2.19008
                       0.18690                      -2.96752                       2.18994
                       0.91903                      -2.82786                       2.18980
                       1.59342                      -2.51051                       2.18967
                       2.16770                      -2.03542                       2.18957
                       2.60579                      -1.43244                       2.18949
                       2.88016                      -0.73946                       2.18944
                       2.92217                      -0.00008                       6.56806
                       2.83043                       0.72613                       6.56814
                       2.56097                       1.40670                       6.56833
                       2.13072                       1.99888                       6.56863
                       1.56673                       2.46546                       6.56902
                       0.90441                       2.77713                       6.56946
                       0.18540                       2.91428                       6.56994
                      -0.54513                       2.86832                       6.57043
                      -1.24128                       2.64213                       6.57089
                      -1.85931                       2.24992                       6.57129
                      -2.36039                       1.71633                       6.57161
                      -2.71302                       1.07489                       6.57183
                      -2.89505                       0.36591                       6.57193
                      -2.89505                      -0.36607                       6.57191
                      -2.71302                      -1.07505                       6.57178
                      -2.36039                      -1.71649                       6.57153
                      -1.85931                      -2.25007                       6.57118
                      -1.24128                      -2.64229                       6.57076
                      -0.54513                      -2.86848                       6.57030
                       0.18540                      -2.91444                       6.56981
                       0.90441                      -2.77728                       6.56934
                       1.56672                      -2.46562                       6.56890
                       2.13072                      -1.99904                       6.56854
                       2.56097                      -1.40686                       6.56827
                       2.83043                      -0.72628                       6.56810
                       2.87299                      -0.00021                      10.94655
                       2.78292                       0.71275                      10.94669
                       2.51838                       1.38092                      10.94703
                       2.09598                       1.96230                      10.94756
                       1.54226                       2.42037                      10.94824
                       0.89203                       2.72635                      10.94903
                       0.18613                       2.86101                      10.94988
                      -0.53108                       2.81589                      10.95074
                      -1.21454                       2.59382                      10.95156
                      -1.82130                       2.20876                      10.95227
                      -2.31323                       1.68490                      10.95285
                      -2.65943                       1.05516                      10.95324
                      -2.83815                       0.35911                      10.95343
                      -2.83815                      -0.35952                      10.95340
                      -2.65943                      -1.05558                      10.95316
                      -2.31323                      -1.68532                      10.95272
                      -1.82130                      -2.20917                      10.95211
                      -1.21454                      -2.59423                      10.95137
                      -0.53108                      -2.81630                      10.95054
                       0.18613                      -2.86143                      10.94968
                       0.89203                      -2.72677                      10.94883
                       1.54226                      -2.42079                      10.94806
                       2.09598                      -1.96272                      10.94741
                       2.51838                      -1.38134                      10.94693
                       2.78292                      -0.71317                      10.94663
                       2.82623                      -0.00039                      15.32503
                       2.73783                       0.69933                      15.32522
                       2.47820                       1.35508                      15.32571
                       2.06365                       1.92567                      15.32647
                       1.52022                       2.37523                      15.32745
                       0.88206                       2.67552                      15.32859
                       0.18928                       2.80768                      15.32982
                      -0.51461                       2.76339                      15.33106
                      -1.18537                       2.54545                      15.33223
                      -1.78086                       2.16754                      15.33326
                      -2.26366                       1.65341                      15.33409
                      -2.60343                       1.03537                      15.33465
                      -2.77883                       0.35225                      15.33493
                      -2.77883                      -0.35303                      15.33490
                      -2.60343                      -1.03616                      15.33455
                      -2.26366                      -1.65420                      15.33393
                      -1.78086                      -2.16833                      15.33305
                      -1.18537                      -2.54624                      15.33198
                      -0.51461                      -2.76418                      15.33079
                       0.18928                      -2.80847                      15.32955
                       0.88206                      -2.67631                      15.32833
                       1.52022                      -2.37602                      15.32722
                       2.06365                      -1.92645                      15.32628
                       2.47820                      -1.35587                      15.32558
                       2.73783                      -0.70011                      15.32515
                       2.78192                      -0.00063                      19.70358
                       2.69520                       0.68585                      19.70382
                       2.44048                       1.32919                      19.70445
                       2.03378                       1.88898                      19.70543
                       1.50063                       2.33003                      19.70669
                       0.87455                       2.62464                      19.70816
                       0.19488                       2.75430                      19.70975
                      -0.49569                       2.71085                      19.71135
                      -1.15375                       2.49703                      19.71286
                      -1.73797                       2.12627                      19.71419
                      -2.21163                       1.62188                      19.71526
                      -2.54497                       1.01553                      19.71600
                      -2.71705                       0.34534                      19.71636
                      -2.71705                      -0.34660                      19.71631
                      -2.54497                      -1.01679                      19.71588
                      -2.21163                      -1.62314                      19.71507
                      -1.73797                      -2.12754                      19.71394
                      -1.15375                      -2.49829                      19.71256
                      -0.49569                      -2.71211                      19.71102
                       0.19488                      -2.75556                      19.70941
                       0.87455                      -2.62590                      19.70785
                       1.50063                      -2.33129                      19.70641
                       2.03377                      -1.89024                      19.70520
                       2.44048                      -1.33045                      19.70429
                       2.69520                      -0.68711                      19.70374
                       2.74002                      -0.00092                      24.08223
                       2.65497                       0.67231                      24.08252
                       2.40516                       1.30325                      24.08328
                       2.00630                       1.85223                      24.08446
                       1.48345                       2.28478                      24.08599
                       0.86945                       2.57371                      24.08776
                       0.20288                       2.70086                      24.08968
                      -0.47436                       2.65825                      24.09161
                      -1.11973                       2.44856                      24.09344
                      -1.69268                       2.08495                      24.09505
                      -2.15720                       1.59029                      24.09634
                      -2.48411                       0.99564                      24.09724
                      -2.65287                       0.33837                      24.09767
                      -2.65287                      -0.34022                      24.09762
                      -2.48411                      -0.99748                      24.09709
                      -2.15720                      -1.59213                      24.09611
                      -1.69268                      -2.08680                      24.09475
                      -1.11973                      -2.45040                      24.09308
                      -0.47436                      -2.66010                      24.09122
                       0.20288                      -2.70271                      24.08929
                       0.86945                      -2.57555                      24.08739
                       1.48345                      -2.28662                      24.08566
                       2.00630                      -1.85408                      24.08419
                       2.40516                      -1.30509                      24.08309
                       2.65497                      -0.67416                      24.08242
                       2.70043                      -0.00127                      28.46098
                       2.61705                       0.65872                      28.46132
                       2.37216                       1.27724                      28.46220
                       1.98115                       1.81543                      28.46357
                       1.46857                       2.23947                      28.46534
                       0.86665                       2.52272                      28.46739
                       0.21320                       2.64737                      28.46961
                      -0.45072                       2.60560                      28.47185
                      -1.08339                       2.40003                      28.47397
                      -1.64507                       2.04358                      28.47584
                      -2.10045                       1.55864                      28.47733
                      -2.42093                       0.97569                      28.47836
                      -2.58637                       0.33135                      28.47887
                      -2.58637                      -0.33389                      28.47881
                      -2.42093                      -0.97823                      28.47820
                      -2.10045                      -1.56118                      28.47706
                      -1.64507                      -2.04612                      28.47548
                      -1.08339                      -2.40257                      28.47356
                      -0.45072                      -2.60814                      28.47140
                       0.21320                      -2.64991                      28.46916
                       0.86665                      -2.52525                      28.46696
                       1.46857                      -2.24201                      28.46495
                       1.98115                      -1.81797                      28.46326
                       2.37216                      -1.27978                      28.46198
                       2.61705                      -0.66126                      28.46121
                       2.66307                      -0.00168                      32.83983
                       2.58137                       0.64507                      32.84021
                       2.34139                       1.25119                      32.84120
                       1.95822                       1.77857                      32.84274
                       1.45594                       2.19410                      32.84473
                       0.86610                       2.47167                      32.84705
                       0.22576                       2.59382                      32.84954
                      -0.42484                       2.55288                      32.85206
                      -1.04482                       2.35144                      32.85445
                      -1.59522                       2.00214                      32.85655
                      -2.04147                       1.52693                      32.85823
                      -2.35552                       0.95568                      32.85940
                      -2.51764                       0.32427                      32.85996
                      -2.51764                      -0.32762                      32.85990
                      -2.35552                      -0.95903                      32.85921
                      -2.04147                      -1.53029                      32.85793
                      -1.59522                      -2.00549                      32.85615
                      -1.04482                      -2.35479                      32.85398
                      -0.42484                      -2.55624                      32.85155
                       0.22576                      -2.59717                      32.84903
                       0.86609                      -2.47502                      32.84655
                       1.45594                      -2.19746                      32.84429
                       1.95822                      -1.78193                      32.84238
                       2.34139                      -1.25454                      32.84095
                       2.58137                      -0.64842                      32.84008
                       2.62790                      -0.00215                      37.21873
                       2.54787                       0.63136                      37.21915
                       2.31281                       1.22506                      37.22025
                       1.93749                       1.74165                      37.22195
                       1.44549                       2.14867                      37.22415
                       0.86773                       2.42055                      37.22671
                       0.24050                       2.54020                      37.22947
                      -0.39677                       2.50011                      37.23226
                      -1.00406                       2.30279                      37.23489
                      -1.54319                       1.96064                      37.23722
                      -1.98030                       1.49516                      37.23908
                      -2.28792                       0.93561                      37.24036
                      -2.44671                       0.31712                      37.24098
                      -2.44671                      -0.32142                      37.24091
                      -2.28792                      -0.93990                      37.24014
                      -1.98030                      -1.49946                      37.23873
                      -1.54319                      -1.96493                      37.23676
                      -1.00406                      -2.30708                      37.23436
                      -0.39678                      -2.50440                      37.23168
                       0.24050                      -2.54449                      37.22889
                       0.86772                      -2.42484                      37.22616
                       1.44549                      -2.15297                      37.22366
                       1.93749                      -1.74594                      37.22155
                       2.31281                      -1.22935                      37.21997
                       2.54787                      -0.63565                      37.21900
                       2.59493                      -0.00268                      41.59765
                       2.51657                       0.61758                      41.59812
                       2.28642                       1.19887                      41.59932
                       1.91895                       1.70466                      41.60118
                       1.43723                       2.10318                      41.60358
                       0.87155                       2.36937                      41.60638
                       0.25744                       2.48652                      41.60939
                      -0.36652                       2.44726                      41.61244
                      -0.96110                       2.25407                      41.61531
                      -1.48897                       1.91907                      41.61785
                      -1.91693                       1.46333                      41.61988
                      -2.21812                       0.91546                      41.62128
                      -2.37360                       0.30991                      41.62196
                      -2.37360                      -0.31528                      41.62188
                      -2.21812                      -0.92083                      41.62104
                      -1.91694                      -1.46869                      41.61950
                      -1.48897                      -1.92444                      41.61735
                      -0.96110                      -2.25944                      41.61472
                      -0.36652                      -2.45263                      41.61180
                       0.25744                      -2.49189                      41.60874
                       0.87155                      -2.37474                      41.60576
                       1.43723                      -2.10854                      41.60303
                       1.91895                      -1.71003                      41.60073
                       2.28642                      -1.20424                      41.59900
                       2.51657                      -0.62295                      41.59795
                       2.56420                      -0.00329                      45.97658
                       2.48752                       0.60373                      45.97708
                       2.26228                       1.17261                      45.97838
                       1.90266                       1.66760                      45.98040
                       1.43123                       2.05761                      45.98301
                       0.87762                       2.31812                      45.98604
                       0.27662                       2.43277                      45.98931
                      -0.33401                       2.39435                      45.99260
                      -0.91590                       2.20528                      45.99572
                      -1.43249                       1.87743                      45.99847
                      -1.85132                       1.43142                      46.00067
                      -2.14607                       0.89525                      46.00218
                      -2.29823                       0.30263                      46.00292
                      -2.29823                      -0.30922                      46.00282
                      -2.14608                      -0.90184                      46.00191
                      -1.85132                      -1.43800                      46.00024
                      -1.43249                      -1.88402                      45.99791
                      -0.91590                      -2.21186                      45.99507
                      -0.33401                      -2.40093                      45.99189
                       0.27662                      -2.43935                      45.98859
                       0.87762                      -2.32470                      45.98535
                       1.43123                      -2.06419                      45.98240
                       1.90265                      -1.67419                      45.97991
                       2.26228                      -1.17919                      45.97803
                       2.48752                      -0.61031                      45.97690
                       2.53582                      -0.00398                      50.35548
                       2.46081                       0.58980                      50.35602
                       2.24050                       1.14627                      50.35743
                       1.88871                       1.63046                      50.35960
                       1.42757                       2.01196                      50.36242
                       0.88604                       2.26679                      50.36568
                       0.29816                       2.37894                      50.36920
                      -0.29915                       2.34136                      50.37276
                      -0.86834                       2.15641                      50.37612
                      -1.37366                       1.83572                      50.37908
                      -1.78335                       1.39943                      50.38144
                      -2.07168                       0.87496                      50.38308
                      -2.22052                       0.29527                      50.38387
                      -2.22052                      -0.30323                      50.38377
                      -2.07168                      -0.88292                      50.38278
                      -1.78336                      -1.40739                      50.38098
                      -1.37366                      -1.84368                      50.37847
                      -0.86834                      -2.16437                      50.37540
                      -0.29915                      -2.34931                      50.37198
                       0.29816                      -2.38689                      50.36842
                       0.88604                      -2.27474                      50.36493
                       1.42757                      -2.01992                      50.36175
                       1.88871                      -1.63842                      50.35906
                       2.24049                      -1.15422                      50.35705
                       2.46081                      -0.59776                      50.35583
                       2.50992                      -0.00474                      54.73436
                       2.43658                       0.57580                      54.73495
                       2.22118                       1.11985                      54.73645
                       1.87724                       1.59325                      54.73879
                       1.42639                       1.96624                      54.74180
                       0.89694                       2.21538                      54.74531
                       0.32217                       2.32503                      54.74909
                      -0.26182                       2.28829                      54.75290
                      -0.81831                       2.10746                      54.75650
                      -1.31236                       1.79392                      54.75967
                      -1.71292                       1.36737                      54.76221
                      -1.99481                       0.85460                      54.76396
                      -2.14033                       0.28783                      54.76481
                      -2.14033                      -0.29732                      54.76470
                      -1.99481                      -0.86408                      54.76365
                      -1.71292                      -1.37685                      54.76171
                      -1.31236                      -1.80341                      54.75901
                      -0.81832                      -2.11695                      54.75573
                      -0.26182                      -2.29777                      54.75206
                       0.32216                      -2.33451                      54.74823
                       0.89694                      -2.22486                      54.74450
                       1.42638                      -1.97572                      54.74108
                       1.87724                      -1.60273                      54.73820
                       2.22118                      -1.12933                      54.73604
                       2.43658                      -0.58528                      54.73473
                       2.48659                      -0.00558                      59.11324
                       2.41493                       0.56171                      59.11387
                       2.20444                       1.09336                      59.11548
                       1.86835                       1.55596                      59.11797
                       1.42778                       1.92044                      59.12118
                       0.91041                       2.16390                      59.12492
                       0.34876                       2.27104                      59.12895
                      -0.22190                       2.23514                      59.13302
                      -0.76571                       2.05844                      59.13686
                      -1.24848                       1.75205                      59.14024
                      -1.63990                       1.33523                      59.14295
                      -1.91536                       0.83415                      59.14481
                      -2.05756                       0.28032                      59.14572
                      -2.05756                      -0.29149                      59.14560
                      -1.91536                      -0.84532                      59.14448
                      -1.63990                      -1.34640                      59.14241
                      -1.24848                      -1.76322                      59.13953
                      -0.76571                      -2.06961                      59.13603
                      -0.22191                      -2.24630                      59.13211
                       0.34875                      -2.28221                      59.12804
                       0.91041                      -2.17506                      59.12405
                       1.42778                      -1.93160                      59.12041
                       1.86835                      -1.56712                      59.11734
                       2.20444                      -1.10452                      59.11503
                       2.41493                      -0.57287                      59.11364
                       2.46589                      -0.00650                      63.49217
                       2.39590                       0.54755                      63.49283
                       2.19033                       1.06679                      63.49454
                       1.86209                       1.51858                      63.49717
                       1.43180                       1.87455                      63.50058
                       0.92652                       2.11233                      63.50454
                       0.37797                       2.21698                      63.50880
                      -0.17936                       2.18191                      63.51310
                      -0.71047                       2.00934                      63.51717
                      -1.18197                       1.71010                      63.52075
                      -1.56425                       1.30301                      63.52362
                      -1.83328                       0.81363                      63.52559
                      -1.97216                       0.27272                      63.52654
                      -1.97216                      -0.28573                      63.52642
                      -1.83328                      -0.82664                      63.52523
                      -1.56425                      -1.31602                      63.52304
                      -1.18198                      -1.72311                      63.52000
                      -0.71047                      -2.02235                      63.51629
                      -0.17937                      -2.19492                      63.51214
                       0.37797                      -2.22998                      63.50783
                       0.92651                      -2.12534                      63.50361
                       1.43180                      -1.88756                      63.49975
                       1.86209                      -1.53159                      63.49651
                       2.19033                      -1.07979                      63.49407
                       2.39590                      -0.56055                      63.49259
                       2.44775                      -0.00750                      67.87122
                       2.37943                       0.53331                      67.87191
                       2.17877                       1.04014                      67.87370
                       1.85838                       1.48114                      67.87646
                       1.43838                       1.82860                      67.88002
                       0.94517                       2.06069                      67.88417
                       0.40974                       2.16284                      67.88863
                      -0.13427                       2.12861                      67.89314
                      -0.65268                       1.96016                      67.89739
                      -1.11291                       1.66808                      67.90114
                      -1.48605                       1.27071                      67.90414
                      -1.74865                       0.79303                      67.90621
                      -1.88421                       0.26505                      67.90721
                      -1.88421                      -0.28005                      67.90708
                      -1.74865                      -0.80803                      67.90583
                      -1.48605                      -1.28571                      67.90354
                      -1.11291                      -1.68308                      67.90035
                      -0.65268                      -1.97516                      67.89647
                      -0.13427                      -2.14360                      67.89213
                       0.40974                      -2.17783                      67.88761
                       0.94517                      -2.07569                      67.88319
                       1.43838                      -1.84359                      67.87916
                       1.85838                      -1.49613                      67.87576
                       2.17877                      -1.05513                      67.87320
                       2.37943                      -0.54830                      67.87166
                       2.43189                      -0.00856                      72.25050
                       2.36525                       0.51900                      72.25122
                       2.16950                       1.01342                      72.25306
                       1.85696                       1.44362                      72.25590
                       1.44725                       1.78257                      72.25958
                       0.96612                       2.00898                      72.26385
                       0.44380                       2.10863                      72.26846
                      -0.08689                       2.07524                      72.27310
                      -0.59260                       1.91091                      72.27749
                      -1.04156                       1.62598                      72.28136
                      -1.40556                       1.23835                      72.28445
                      -1.66173                       0.77236                      72.28658
                      -1.79397                       0.25731                      72.28761
                      -1.79397                      -0.27444                      72.28747
                      -1.66173                      -0.78950                      72.28619
                      -1.40556                      -1.25548                      72.28382
                      -1.04157                      -1.64311                      72.28054
                      -0.59261                      -1.92804                      72.27653
                      -0.08689                      -2.09236                      72.27206
                       0.44379                      -2.12575                      72.26740
                       0.96611                      -2.02611                      72.26284
                       1.44724                      -1.79970                      72.25868
                       1.85695                      -1.46074                      72.25518
                       2.16950                      -1.03054                      72.25254
                       2.36525                      -0.53613                      72.25095
                       2.41778                      -0.00969                      76.63015
                       2.35281                       0.50463                      76.63088
                       2.16198                       0.98664                      76.63274
                       1.85728                       1.40604                      76.63561
                       1.45786                       1.73648                      76.63933
                       0.98880                       1.95721                      76.64364
                       0.47960                       2.05435                      76.64829
                      -0.03777                       2.02180                      76.65297
                      -0.53078                       1.86160                      76.65740
                      -0.96847                       1.58382                      76.66130
                      -1.32334                       1.20592                      76.66442
                      -1.57307                       0.75163                      76.66657
                      -1.70199                       0.24951                      76.66761
                      -1.70199                      -0.26890                      76.66747
                      -1.57307                      -0.77102                      76.66617
                      -1.32334                      -1.22531                      76.66378
                      -0.96848                      -1.60321                      76.66046
                      -0.53079                      -1.88099                      76.65642
                      -0.03777                      -2.04118                      76.65190
                       0.47959                      -2.07374                      76.64720
                       0.98880                      -1.97659                      76.64260
                       1.45785                      -1.75587                      76.63840
                       1.85728                      -1.42542                      76.63487
                       2.16198                      -1.00602                      76.63221
                       2.35281                      -0.52401                      76.63061
                       2.40450                      -0.01087                      81.01036
                       2.34120                       0.49021                      81.01108
                       2.15528                       0.95980                      81.01290
                       1.85843                       1.36841                      81.01572
                       1.46929                       1.69034                      81.01936
                       1.01231                       1.90539                      81.02359
                       0.51622                       2.00003                      81.02814
                       0.01218                       1.96831                      81.03273
                      -0.46815                       1.81224                      81.03706
                      -0.89457                       1.54161                      81.04088
                      -1.24029                       1.17344                      81.04393
                      -1.48360                       0.73085                      81.04603
                      -1.60920                       0.24165                      81.04704
                      -1.60920                      -0.26341                      81.04690
                      -1.48360                      -0.75260                      81.04562
                      -1.24029                      -1.19519                      81.04328
                      -0.89457                      -1.56336                      81.04003
                      -0.46815                      -1.83399                      81.03606
                       0.01217                      -1.99006                      81.03164
                       0.51621                      -2.02177                      81.02703
                       1.01231                      -1.92713                      81.02253
                       1.46928                      -1.71209                      81.01842
                       1.85843                      -1.39015                      81.01496
                       2.15528                      -0.98154                      81.01237
                       2.34120                      -0.51195                      81.01080
                       2.39064                      -0.01209                      85.39133
                       2.32901                       0.47574                      85.39201
                       2.14801                       0.93293                      85.39373
                       1.85900                       1.33073                      85.39638
                       1.48014                       1.64416                      85.39980
                       1.03524                       1.85352                      85.40377
                       0.55226                       1.94566                      85.40803
                       0.06153                       1.91478                      85.41234
                      -0.40610                       1.76283                      85.41640
                      -0.82125                       1.49936                      85.41997
                      -1.15784                       1.14092                      85.42283
                      -1.39472                       0.71002                      85.42479
                      -1.51700                       0.23376                      85.42572
                      -1.51700                      -0.25796                      85.42559
                      -1.39472                      -0.73422                      85.42438
                      -1.15784                      -1.16511                      85.42217
                      -0.82125                      -1.52356                      85.41912
                      -0.40610                      -1.78703                      85.41540
                       0.06153                      -1.93898                      85.41125
                       0.55225                      -1.96985                      85.40693
                       1.03524                      -1.87771                      85.40271
                       1.48013                      -1.66835                      85.39886
                       1.85899                      -1.35492                      85.39562
                       2.14800                      -0.95711                      85.39320
                       2.32901                      -0.49993                      85.39174
                       2.38288                      -0.01272                      87.58218
                       2.32210                       0.46850                      87.58283
                       2.14355                       0.91948                      87.58446
                       1.85846                       1.31188                      87.58698
                       1.48474                       1.62106                      87.59021
                       1.04588                       1.82758                      87.59397
                       0.56945                       1.91846                      87.59801
                       0.08539                       1.88801                      87.60207
                      -0.37590                       1.73812                      87.60592
                      -0.78542                       1.47822                      87.60929
                      -1.11744                       1.12464                      87.61199
                      -1.35110                       0.69960                      87.61383
                      -1.47172                       0.22980                      87.61472
                      -1.47172                      -0.25524                      87.61458
                      -1.35110                      -0.72504                      87.61343
                      -1.11744                      -1.15009                      87.61134
                      -0.78542                      -1.50366                      87.60844
                      -0.37590                      -1.76356                      87.60492
                       0.08538                      -1.91345                      87.60099
                       0.56945                      -1.94390                      87.59690
                       1.04588                      -1.85301                      87.59292
                       1.48474                      -1.64649                      87.58928
                       1.85846                      -1.33732                      87.58622
                       2.14354                      -0.94491                      87.58393
                       2.32209                      -0.49393                      87.58256
                       3.00000                       0.00000                       0.00000
                       2.90575                       0.74607                       0.00000
                       2.62892                       1.44526                       0.00000
                       2.18691                       2.05364                       0.00000
                       1.60748                       2.53298                       0.00000
                       0.92705                       2.85317                       0.00000
                       0.18837                       2.99408                       0.00000
                      -0.56214                       2.94686                       0.00000
                      -1.27734                       2.71448                       0.00000
                      -1.91227                       2.31154                       0.00000
                      -2.42705                       1.76336                       0.00000
                      -2.78933                       1.10437                       0.00000
                      -2.97634                       0.37600                       0.00000
                      -2.97634                      -0.37600                       0.00000
                      -2.78933                      -1.10437                       0.00000
                      -2.42705                      -1.76336                       0.00000
                      -1.91227                      -2.31154                       0.00000
                      -1.27734                      -2.71448                       0.00000
                      -0.56214                      -2.94686                       0.00000
                       0.18837                      -2.99408                       0.00000
                       0.92705                      -2.85317                       0.00000
                       1.60748                      -2.53298                       0.00000
                       2.18691                      -2.05364                       0.00000
                       2.62892                      -1.44526                       0.00000
                       2.90575                      -0.74607                       0.00000
        </DataArray>
      </Points>
      <Polys>
        <DataArray type="Int32" Name="connectivity" format="ascii">
      0      1     26     25
      1      2     27     26
      2      3     28     27
      3      4     29     28
      4      5     30     29
      5      6     31     30
      6      7     32     31
      7      8     33     32
      8      9     34     33
      9     10     35     34
     10     11     36     35
     11     12     37     36
     12     13     38     37
     13     14     39     38
     14     15     40     39
     15     16     41     40
     16     17     42     41
     17     18     43     42
     18     19     44     43
     19     20     45     44
     20     21     46     45
     21     22     47     46
     22     23     48     47
     23     24     49     48
     24      0     25     49
     24     23     22     21     20     19     18     17     16     15     14     13     12     11     10      9      8      7      6      5      4      3      2      1      0
     25     26     27     28     29     30     31     32     33     34     35     36     37     38     39     40     41     42     43     44     45     46     47     48     49
     25     26     51     50
     26     27     52     51
     27     28     53     52
     28     29     54     53
     29     30     55     54
     30     31     56     55
     31     32     57     56
     32     33     58     57
     33     34     59     58
     34     35     60     59
     35     36     61     60
     36     37     62     61
     37     38     63     62
     38     39     64     63
     39     40     65     64
     40     41     66     65
     41     42     67     66
     42     43     68     67
     43     44     69     68
     44     45     70     69
     45     46     71     70
     46     47     72     71
     47     48     73     72
     48     49     74     73
     49     25     50     74
     49     48     47     46     45     44     43     42     41     40     39     38     37     36     35     34     33     32     31     30     29     28     27     26     25
     50     51     52     53     54     55     56     57     58     59     60     61     62     63     64     65     66     67     68     69     70     71     72     73     74
     50     51     76     75
     51     52     77     76
     52     53     78     77
     53     54     79     78
     54     55     80     79
     55     56     81     80
     56     57     82     81
     57     58     83     82
     58     59     84     83
     59     60     85     84
     60     61     86     85
     61     62     87     86
     62     63     88     87
     63     64     89     88
     64     65     90     89
     65     66     91     90
     66     67     92     91
     67     68     93     92
     68     69     94     93
     69     70     95     94
     70     71     96     95
     71     72     97     96
     72     73     98     97
     73     74     99     98
     74     50     75     99
     74     73     72     71     70     69     68     67     66     65     64     63     62     61     60     59     58     57     56     55     54     53     52     51     50
     75     76     77     78     79     80     81     82     83     84     85     86     87     88     89     90     91     92     93     94     95     96     97     98     99
     75     76    101    100
     76     77    102    101
     77     78    103    102
     78     79    104    103
     79     80    105    104
     80     81    106    105
     81     82    107    106
     82     83    108    107
     83     84    109    108
     84     85    110    109
     85     86    111    110
     86     87    112    111
     87     88    113    112
     88     89    114    113
     89     90    115    114
     90     91    116    115
     91     92    117    116
     92     93    118    117
     93     94    119    118
     94     95    120    119
     95     96    121    120
     96     97    122    121
     97     98    123    122
     98     99    124    123
     99     75    100    124
     99     98     97     96     95     94     93     92     91     90     89     88     87     86     85     84     83     82     81     80     79     78     77     76     75
    100    101    102    103    104    105    106    107    108    109    110    111    112    113    114    115    116    117    118    119    120    121    122    123    124
    100    101    126    125
    101    102    127    126
    102    103    128    127
    103    104    129    128
    104    105    130    129
    105    106    131    130
    106    107    132    131
    107    108    133    132
    108    109    134    133
    109    110    135    134
    110    111    136    135
    111    112    137    136
    112    113    138    137
    113    114    139    138
    114    115    140    139
    115    116    141    140
    116    117    142    141
    117    118    143    142
    118    119    144    143
    119    120    145    144
    120    121    146    145
    121    122    147    146
    122    123    148    147
    123    124    149    148
    124    100    125    149
    124    123    122    121    120    119    118    117    116    115    114    113    112    111    110    109    108    107    106    105    104    103    102    101    100
    125    126    127    128    129    130    131    132    133    134    135    136    137    138    139    140    141    142    143    144    145    146    147    148    149
    125    126    151    150
    126    127    152    151
    127    128    153    152
    128    129    154    153
    129    130    155    154
    130    131    156    155
    131    132    157    156
    132    133    158    157
    133    134    159    158
    134    135    160    159
    135    136    161    160
    136    137    162    161
    137    138    163    162
    138    139    164    163
    139    140    165    164
    140    141    166    165
    141    142    167    166
    142    143    168    167
    143    144    169    168
    144    145    170    169
    145    146    171    170
    146    147    172    171
    147    148    173    172
    148    149    174    173
    149    125    150    174
    149    148    147    146    145    144    143    142    141    140    139    138    137    136    135    134    133    132    131    130    129    128    127    126    125
    150    151    152    153    154    155    156    157    158    159    160    161    162    163    164    165    166    167    168    169    170    171    172    173    174
    150    151    176    175
    151    152    177    176
    152    153    178    177
    153    154    179    178
    154    155    180    179
    155    156    181    180
    156    157    182    181
    157    158    183    182
    158    159    184    183
    159    160    185    184
    160    161    186    185
    161    162    187    186
    162    163    188    187
    163    164    189    188
    164    165    190    189
    165    166    191    190
    166    167    192    191
    167    168    193    192
    168    169    194    193
    169    170    195    194
    170    171    196    195
    171    172    197    196
    172    173    198    197
    173    174    199    198
    174    150    175    199
    174    173    172    171    170    169    168    167    166    165    164    163    162    161    160    159    158    157    156    155    154    153    152    151    150
    175    176    177    178    179    180    181    182    183    184    185    186    187    188    189    190    191    192    193    194    195    196    197    198    199
    175    176    201    200
    176    177    202    201
    177    178    203    202
    178    179    204    203
    179    180    205    204
    180    181    206    205
    181    182    207    206
    182    183    208    207
    183    184    209    208
    184    185    210    209
    185    186    211    210
    186    187    212    211
    187    188    213    212
    188    189    214    213
    189    190    215    214
    190    191    216    215
    191    192    217    216
    192    193    218    217
    193    194    219    218
    194    195    220    219
    195    196    221    220
    196    197    222    221
    197    198    223    222
    198    199    224    223
    199    175    200    224
    199    198    197    196    195    194    193    192    191    190    189    188    187    186    185    184    183    182    181    180    179    178    177    176    175
    200    201    202    203    204    205    206    207    208    209    210    211    212    213    214    215    216    217    218    219    220    221    222    223    224
    200    201    226    225
    201    202    227    226
    202    203    228    227
    203    204    229    228
    204    205    230    229
    205    206    231    230
    206    207    232    231
    207    208    233    232
    208    209    234    233
    209    210    235    234
    210    211    236    235
    211    212    237    236
    212    213    238    237
    213    214    239    238
    214    215    240    239
    215    216    241    240
    216    217    242    241
    217    218    243    242
    218    219    244    243
    219    220    245    244
    220    221    246    245
    221    222    247    246
    222    223    248    247
    223    224    249    248
    224    200    225    249
    224    223    222    221    220    219    218    217    216    215    214    213    212    211    210    209    208    207    206    205    204    203    202    201    200
    225    226    227    228    229    230    231    232    233    234    235    236    237    238    239    240    241    242    243    244    245    246    247    248    249
    225    226    251    250
    226    227    252    251
    227    228    253    252
    228    229    254    253
    229    230    255    254
    230    231    256    255
    231    232    257    256
    232    233    258    257
    233    234    259    258
    234    235    260    259
    235    236    261    260
    236    237    262    261
    237    238    263    262
    238    239    264    263
    239    240    265    264
    240    241    266    265
    241    242    267    266
    242    243    268    267
    243    244    269    268
    244    245    270    269
    245    246    271    270
    246    247    272    271
    247    248    273    272
    248    249    274    273
    249    225    250    274
    249    248    247    246    245    244    243    242    241    240    239    238    237    236    235    234    233    232    231    230    229    228    227    226    225
    250    251    252    253    254    255    256    257    258    259    260    261    262    263    264    265    266    267    268    269    270    271    272    273    274
    250    251    276    275
    251    252    277    276
    252    253    278    277
    253    254    279    278
    254    255    280    279
    255    256    281    280
    256    257    282    281
    257    258    283    282
    258    259    284    283
    259    260    285    284
    260    261    286    285
    261    262    287    286
    262    263    288    287
    263    264    289    288
    264    265    290    289
    265    266    291    290
    266    267    292    291
    267    268    293    292
    268    269    294    293
    269    270    295    294
    270    271    296    295
    271    272    297    296
    272    273    298    297
    273    274    299    298
    274    250    275    299
    274    273    272    271    270    269    268    267    266    265    264    263    262    261    260    259    258    257    256    255    254    253    252    251    250
    275    276    277    278    279    280    281    282    283    284    285    286    287    288    289    290    291    292    293    294    295    296    297    298    299
    275    276    301    300
    276    277    302    301
    277    278    303    302
    278    279    304    303
    279    280    305    304
    280    281    306    305
    281    282    307    306
    282    283    308    307
    283    284    309    308
    284    285    310    309
    285    286    311    310
    286    287    312    311
    287    288    313    312
    288    289    314    313
    289    290    315    314
    290    291    316    315
    291    292    317    316
    292    293    318    317
    293    294    319    318
    294    295    320    319
    295    296    321    320
    296    297    322    321
    297    298    323    322
    298    299    324    323
    299    275    300    324
    299    298    297    296    295    294    293    292    291    290    289    288    287    286    285    284    283    282    281    280    279    278    277    276    275
    300    301    302    303    304    305    306    307    308    309    310    311    312    313    314    315    316    317    318    319    320    321    322    323    324
    300    301    326    325
    301    302    327    326
    302    303    328    327
    303    304    329    328
    304    305    330    329
    305    306    331    330
    306    307    332    331
    307    308    333    332
    308    309    334    333
    309    310    335    334
    310    311    336    335
    311    312    337    336
    312    313    338    337
    313    314    339    338
    314    315    340    339
    315    316    341    340
    316    317    342    341
    317    318    343    342
    318    319    344    343
    319    320    345    344
    320    321    346    345
    321    322    347    346
    322    323    348    347
    323    324    349    348
    324    300    325    349
    324    323    322    321    320    319    318    317    316    315    314    313    312    311    310    309    308    307    306    305    304    303    302    301    300
    325    326    327    328    329    330    331    332    333    334    335    336    337    338    339    340    341    342    343    344    345    346    347    348    349
    325    326    351    350
    326    327    352    351
    327    328    353    352
    328    329    354    353
    329    330    355    354
    330    331    356    355
    331    332    357    356
    332    333    358    357
    333    334    359    358
    334    335    360    359
    335    336    361    360
    336    337    362    361
    337    338    363    362
    338    339    364    363
    339    340    365    364
    340    341    366    365
    341    342    367    366
    342    343    368    367
    343    344    369    368
    344    345    370    369
    345    346    371    370
    346    347    372    371
    347    348    373    372
    348    349    374    373
    349    325    350    374
    349    348    347    346    345    344    343    342    341    340    339    338    337    336    335    334    333    332    331    330    329    328    327    326    325
    350    351    352    353    354    355    356    357    358    359    360    361    362    363    364    365    366    367    368    369    370    371    372    373    374
    350    351    376    375
    351    352    377    376
    352    353    378    377
    353    354    379    378
    354    355    380    379
    355    356    381    380
    356    357    382    381
    357    358    383    382
    358    359    384    383
    359    360    385    384
    360    361    386    385
    361    362    387    386
    362    363    388    387
    363    364    389    388
    364    365    390    389
    365    366    391    390
    366    367    392    391
    367    368    393    392
    368    369    394    393
    369    370    395    394
    370    371    396    395
    371    372    397    396
    372    373    398    397
    373    374    399    398
    374    350    375    399
    374    373    372    371    370    369    368    367    366    365    364    363    362    361    360    359    358    357    356    355    354    353    352    351    350
    375    376    377    378    379    380    381    382    383    384    385    386    387    388    389    390    391    392    393    394    395    396    397    398    399
    375    376    401    400
    376    377    402    401
    377    378    403    402
    378    379    404    403
    379    380    405    404
    380    381    406    405
    381    382    407    406
    382    383    408    407
    383    384    409    408
    384    385    410    409
    385    386    411    410
    386    387    412    411
    387    388    413    412
    388    389    414    413
    389    390    415    414
    390    391    416    415
    391    392    417    416
    392    393    418    417
    393    394    419    418
    394    395    420    419
    395    396    421    420
    396    397    422    421
    397    398    423    422
    398    399    424    423
    399    375    400    424
    399    398    397    396    395    394    393    392    391    390    389    388    387    386    385    384    383    382    381    380    379    378    377    376    375
    400    401    402    403    404    405    406    407    408    409    410    411    412    413    414    415    416    417    418    419    420    421    422    423    424
    400    401    426    425
    401    402    427    426
    402    403    428    427
    403    404    429    428
    404    405    430    429
    405    406    431    430
    406    407    432    431
    407    408    433    432
    408    409    434    433
    409    410    435    434
    410    411    436    435
    411    412    437    436
    412    413    438    437
    413    414    439    438
    414    415    440    439
    415    416    441    440
    416    417    442    441
    417    418    443    442
    418    419    444    443
    419    420    445    444
    420    421    446    445
    421    422    447    446
    422    423    448    447
    423    424    449    448
    424    400    425    449
    424    423    422    421    420    419    418    417    416    415    414    413    412    411    410    409    408    407    406    405    404    403    402    401    400
    425    426    427    428    429    430    431    432    433    434    435    436    437    438    439    440    441    442    443    444    445    446    447    448    449
    425    426    451    450
    426    427    452    451
    427    428    453    452
    428    429    454    453
    429    430    455    454
    430    431    456    455
    431    432    457    456
    432    433    458    457
    433    434    459    458
    434    435    460    459
    435    436    461    460
    436    437    462    461
    437    438    463    462
    438    439    464    463
    439    440    465    464
    440    441    466    465
    441    442    467    466
    442    443    468    467
    443    444    469    468
    444    445    470    469
    445    446    471    470
    446    447    472    471
    447    448    473    472
    448    449    474    473
    449    425    450    474
    449    448    447    446    445    444    443    442    441    440    439    438    437    436    435    434    433    432    431    430    429    428    427    426    425
    450    451    452    453    454    455    456    457    458    459    460    461    462    463    464    465    466    467    468    469    470    471    472    473    474
    450    451    476    475
    451    452    477    476
    452    453    478    477
    453    454    479    478
    454    455    480    479
    455    456    481    480
    456    457    482    481
    457    458    483    482
    458    459    484    483
    459    460    485    484
    460    461    486    485
    461    462    487    486
    462    463    488    487
    463    464    489    488
    464    465    490    489
    465    466    491    490
    466    467    492    491
    467    468    493    492
    468    469    494    493
    469    470    495    494
    470    471    496    495
    471    472    497    496
    472    473    498    497
    473    474    499    498
    474    450    475    499
    474    473    472    471    470    469    468    467    466    465    464    463    462    461    460    459    458    457    456    455    454    453    452    451    450
    475    476    477    478    479    480    481    482    483    484    485    486    487    488    489    490    491    492    493    494    495    496    497    498    499
    475    476    501    500
    476    477    502    501
    477    478    503    502
    478    479    504    503
    479    480    505    504
    480    481    506    505
    481    482    507    506
    482    483    508    507
    483    484    509    508
    484    485    510    509
    485    486    511    510
    486    487    512    511
    487    488    513    512
    488    489    514    513
    489    490    515    514
    490    491    516    515
    491    492    517    516
    492    493    518    517
    493    494    519    518
    494    495    520    519
    495    496    521    520
    496    497    522    521
    497    498    523    522
    498    499    524    523
    499    475    500    524
    499    498    497    496    495    494    493    492    491    490    489    488    487    486    485    484    483    482    481    480    479    478    477    476    475
    500    501    502    503    504    505    506    507    508    509    510    511    512    513    514    515    516    517    518    519    520    521    522    523    524
    525    526      1      0
    526    527      2      1
    527    528      3      2
    528    529      4      3
    529    530      5      4
    530    531      6      5
    531    532      7      6
    532    533      8      7
    533    534      9      8
    534    535     10      9
    535    536     11     10
    536    537     12     11
    537    538     13     12
    538    539     14     13
    539    540     15     14
    540    541     16     15
    541    542     17     16
    542    543     18     17
    543    544     19     18
    544    545     20     19
    545    546     21     20
    546    547     22     21
    547    548     23     22
    548    549     24     23
    549    525      0     24
    549    548    547    546    545    544    543    542    541    540    539    538    537    536    535    534    533    532    531    530    529    528    527    526    525
      0      1      2      3      4      5      6      7      8      9     10     11     12     13     14     15     16     17     18     19     20     21     22     23     24
        </DataArray>
        <DataArray type="Int32" Name="offsets" format="ascii">
      4
      8
     12
     16
     20
     24
     28
     32
     36
     40
     44
     48
     52
     56
     60
     64
     68
     72
     76
     80
     84
     88
     92
     96
    100
    125
    150
    154
    158
    162
    166
    170
    174
    178
    182
    186
    190
    194
    198
    202
    206
    210
    214
    218
    222
    226
    230
    234
    238
    242
    246
    250
    275
    300
    304
    308
    312
    316
    320
    324
    328
    332
    336
    340
    344
    348
    352
    356
    360
    364
    368
    372
    376
    380
    384
    388
    392
    396
    400
    425
    450
    454
    458
    462
    466
    470
    474
    478
    482
    486
    490
    494
    498
    502
    506
    510
    514
    518
    522
    526
    530
    534
    538
    542
    546
    550
    575
    600
    604
    608
    612
    616
    620
    624
    628
    632
    636
    640
    644
    648
    652
    656
    660
    664
    668
    672
    676
    680
    684
    688
    692
    696
    700
    725
    750
    754
    758
    762
    766
    770
    774
    778
    782
    786
    790
    794
    798
    802
    806
    810
    814
    818
    822
    826
    830
    834
    838
    842
    846
    850
    875
    900
    904
    908
    912
    916
    920
    924
    928
    932
    936
    940
    944
    948
    952
    956
    960
    964
    968
    972
    976
    980
    984
    988
    992
    996
   1000
   1025
   1050
   1054
   1058
   1062
   1066
   1070
   1074
   1078
   1082
   1086
   1090
   1094
   1098
   1102
   1106
   1110
   1114
   1118
   1122
   1126
   1130
   1134
   1138
   1142
   1146
   1150
   1175
   1200
   1204
   1208
   1212
   1216
   1220
   1224
   1228
   1232
   1236
   1240
   1244
   1248
   1252
   1256
   1260
   1264
   1268
   1272
   1276
   1280
   1284
   1288
   1292
   1296
   1300
   1325
   1350
   1354
   1358
   1362
   1366
   1370
   1374
   1378
   1382
   1386
   1390
   1394
   1398
   1402
   1406
   1410
   1414
   1418
   1422
   1426
   1430
   1434
   1438
   1442
   1446
   1450
   1475
   1500
   1504
   1508
   1512
   1516
   1520
   1524
   1528
   1532
   1536
   1540
   1544
   1548
   1552
   1556
   1560
   1564
   1568
   1572
   1576
   1580
   1584
   1588
   1592
   1596
   1600
   1625
   1650
   1654
   1658
   1662
   1666
   1670
   1674
   1678
   1682
   1686
   1690
   1694
   1698
   1702
   1706
   1710
   1714
   1718
   1722
   1726
   1730
   1734
   1738
   1742
   1746
   1750
   1775
   1800
   1804
   1808
   1812
   1816
   1820
   1824
   1828
   1832
   1836
   1840
   1844
   1848
   1852
   1856
   1860
   1864
   1868
   1872
   1876
   1880
   1884
   1888
   1892
   1896
   1900
   1925
   1950
   1954
   1958
   1962
   1966
   1970
   1974
   1978
   1982
   1986
   1990
   1994
   1998
   2002
   2006
   2010
   2014
   2018
   2022
   2026
   2030
   2034
   2038
   2042
   2046
   2050
   2075
   2100
   2104
   2108
   2112
   2116
   2120
   2124
   2128
   2132
   2136
   2140
   2144
   2148
   2152
   2156
   2160
   2164
   2168
   2172
   2176
   2180
   2184
   2188
   2192
   2196
   2200
   2225
   2250
   2254
   2258
   2262
   2266
   2270
   2274
   2278
   2282
   2286
   2290
   2294
   2298
   2302
   2306
   2310
   2314
   2318
   2322
   2326
   2330
   2334
   2338
   2342
   2346
   2350
   2375
   2400
   2404
   2408
   2412
   2416
   2420
   2424
   2428
   2432
   2436
   2440
   2444
   2448
   2452
   2456
   2460
   2464
   2468
   2472
   2476
   2480
   2484
   2488
   2492
   2496
   2500
   2525
   2550
   2554
   2558
   2562
   2566
   2570
   2574
   2578
   2582
   2586
   2590
   2594
   2598
   2602
   2606
   2610
   2614
   2618
   2622
   2626
   2630
   2634
   2638
   2642
   2646
   2650
   2675
   2700
   2704
   2708
   2712
   2716
   2720
   2724
   2728
   2732
   2736
   2740
   2744
   2748
   2752
   2756
   2760
   2764
   2768
   2772
   2776
   2780
   2784
   2788
   2792
   2796
   2800
   2825
   2850
   2854
   2858
   2862
   2866
   2870
   2874
   2878
   2882
   2886
   2890
   2894
   2898
   2902
   2906
   2910
   2914
   2918
   2922
   2926
   2930
   2934
   2938
   2942
   2946
   2950
   2975
   3000
   3004
   3008
   3012
   3016
   3020
   3024
   3028
   3032
   3036
   3040
   3044
   3048
   3052
   3056
   3060
   3064
   3068
   3072
   3076
   3080
   3084
   3088
   3092
   3096
   3100
   3125
   3150
        </DataArray>
      </Polys>
    </Piece>
  </PolyData>
</VTKFile>
