<?xml version="1.0"?>
<VTKFile type="PolyData" version="0.1" byte_order="LittleEndian">
  <PolyData>
    <Piece NumberOfPoints="     22" NumberOfVerts="  0" NumberOfLines="     21"
           NumberOfStrips="  0" NumberOfPolys="      0">
      <Points>
        <DataArray type="Float32" NumberOfComponents="3" format="ascii">
                       0.00012                       0.00000                       2.19000
                       0.00118                       0.00000                       6.57000
                       0.00355                       0.00000                      10.95000
                       0.00731                       0.00001                      15.33000
                       0.01250                       0.00001                      19.70999
                       0.01909                       0.00001                      24.08999
                       0.02703                       0.00000                      28.46998
                       0.03627                      -0.00001                      32.84997
                       0.04679                      -0.00003                      37.22996
                       0.05859                      -0.00006                      41.60994
                       0.07171                      -0.00010                      45.98992
                       0.08621                      -0.00016                      50.36990
                       0.10217                      -0.00023                      54.74987
                       0.11964                      -0.00032                      59.12984
                       0.13865                      -0.00043                      63.50979
                       0.15917                      -0.00056                      67.88975
                       0.18103                      -0.00071                      72.26969
                       0.20393                      -0.00087                      76.64963
                       0.22731                      -0.00106                      81.02957
                       0.25036                      -0.00126                      85.40951
                       0.26141                      -0.00136                      87.59948
                       0.00000                       0.00000                       0.00000
        </DataArray>
      </Points>
      <PointData>
        <DataArray type="Float32" Name="TranslationalVelocity" NumberOfComponents="3" format="ascii">
                       0.00003                      -0.00001                      -0.00000
                       0.00025                      -0.00008                      -0.00000
                       0.00070                      -0.00022                      -0.00000
                       0.00134                      -0.00041                      -0.00000
                       0.00215                      -0.00065                      -0.00000
                       0.00305                      -0.00094                      -0.00000
                       0.00400                      -0.00127                      -0.00000
                       0.00491                      -0.00165                      -0.00001
                       0.00571                      -0.00207                      -0.00001
                       0.00632                      -0.00254                      -0.00001
                       0.00666                      -0.00304                      -0.00001
                       0.00666                      -0.00359                      -0.00001
                       0.00625                      -0.00417                      -0.00001
                       0.00538                      -0.00479                      -0.00001
                       0.00402                      -0.00544                      -0.00000
                       0.00214                      -0.00611                       0.00001
                      -0.00024                      -0.00681                       0.00002
                      -0.00309                      -0.00752                       0.00004
                      -0.00634                      -0.00824                       0.00005
                      -0.00989                      -0.00897                       0.00007
                      -0.01173                      -0.00934                       0.00008
                       0.00000                      -0.00000                       0.00000
        </DataArray>
        <DataArray type="Float32" Name="RotationalVelocity" NumberOfComponents="3" format="ascii">
                       0.00001                       0.00003                       0.00000
                       0.00002                       0.00008                       0.00000
                       0.00004                       0.00013                       0.00000
                       0.00005                       0.00017                       0.00000
                       0.00006                       0.00020                       0.00000
                       0.00007                       0.00021                       0.00000
                       0.00008                       0.00021                       0.00000
                       0.00009                       0.00020                       0.00000
                       0.00010                       0.00016                       0.00000
                       0.00011                       0.00011                       0.00000
                       0.00012                       0.00004                       0.00000
                       0.00013                      -0.00004                       0.00000
                       0.00014                      -0.00014                       0.00000
                       0.00014                      -0.00025                       0.00000
                       0.00015                      -0.00037                       0.00000
                       0.00016                      -0.00049                       0.00000
                       0.00016                      -0.00060                       0.00000
                       0.00016                      -0.00070                       0.00000
                       0.00017                      -0.00078                       0.00000
                       0.00017                      -0.00083                       0.00000
                       0.00017                      -0.00085                       0.00000
                       0.00000                      -0.00000                       0.00000
        </DataArray>
        <DataArray type="Float32" Name="TranslationalAcceleration" NumberOfComponents="3" format="ascii">
                      -0.00006                      -0.00008                       0.00000
                      -0.00058                      -0.00065                       0.00000
                      -0.00163                      -0.00170                       0.00000
                      -0.00316                      -0.00311                       0.00000
                      -0.00510                      -0.00481                       0.00000
                      -0.00734                      -0.00673                       0.00001
                      -0.00976                      -0.00879                       0.00001
                      -0.01221                      -0.01090                       0.00002
                      -0.01453                      -0.01299                       0.00002
                      -0.01656                      -0.01496                       0.00003
                      -0.01816                      -0.01672                       0.00003
                      -0.01919                      -0.01815                       0.00003
                      -0.01952                      -0.01917                       0.00004
                      -0.01906                      -0.01967                       0.00003
                      -0.01773                      -0.01957                       0.00003
                      -0.01550                      -0.01881                       0.00002
                      -0.01238                      -0.01734                      -0.00000
                      -0.00840                      -0.01519                      -0.00002
                      -0.00368                      -0.01241                      -0.00005
                       0.00165                      -0.00913                      -0.00008
                       0.00448                      -0.00738                      -0.00010
                       0.00000                      -0.00000                       0.00000
        </DataArray>
        <DataArray type="Float32" Name="RotationalAcceleration" NumberOfComponents="3" format="ascii">
                       0.00007                      -0.00006                       0.00000
                       0.00019                      -0.00018                       0.00000
                       0.00028                      -0.00030                       0.00000
                       0.00036                      -0.00040                       0.00000
                       0.00042                      -0.00048                       0.00000
                       0.00046                      -0.00054                       0.00000
                       0.00048                      -0.00056                       0.00000
                       0.00048                      -0.00055                       0.00000
                       0.00047                      -0.00050                       0.00000
                       0.00043                      -0.00042                       0.00000
                       0.00037                      -0.00030                       0.00000
                       0.00028                      -0.00016                       0.00000
                       0.00018                       0.00001                       0.00000
                       0.00005                       0.00020                       0.00000
                      -0.00010                       0.00041                       0.00000
                      -0.00025                       0.00061                       0.00000
                      -0.00041                       0.00081                       0.00000
                      -0.00057                       0.00100                       0.00000
                      -0.00070                       0.00115                       0.00000
                      -0.00079                       0.00127                       0.00000
                      -0.00081                       0.00131                       0.00000
                       0.00000                      -0.00000                       0.00000
        </DataArray>
        <DataArray type="Float32" Name="OrientationX" NumberOfComponents="3" format="ascii">
                       1.00000                      -0.00000                      -0.00011
                       1.00000                      -0.00000                      -0.00038
                       1.00000                      -0.00000                      -0.00070
                       1.00000                      -0.00000                      -0.00102
                       1.00000                       0.00000                      -0.00135
                       1.00000                       0.00000                      -0.00166
                       1.00000                       0.00000                      -0.00196
                       1.00000                       0.00000                      -0.00226
                       1.00000                       0.00000                      -0.00255
                       1.00000                       0.00000                      -0.00284
                       1.00000                       0.00000                      -0.00315
                       0.99999                       0.00000                      -0.00347
                       0.99999                       0.00000                      -0.00381
                       0.99999                       0.00000                      -0.00416
                       0.99999                       0.00000                      -0.00452
                       0.99999                       0.00000                      -0.00485
                       0.99999                       0.00000                      -0.00513
                       0.99999                       0.00000                      -0.00531
                       0.99999                       0.00000                      -0.00534
                       0.99999                       0.00000                      -0.00514
                       0.99999                       0.00000                      -0.00493
                       1.00000                      -0.00000                       0.00000
        </DataArray>
        <DataArray type="Float32" Name="OrientationY" NumberOfComponents="3" format="ascii">
                      -0.00000                       1.00000                      -0.00000
                      -0.00000                       1.00000                      -0.00000
                      -0.00000                       1.00000                      -0.00000
                      -0.00000                       1.00000                      -0.00000
                       0.00000                       1.00000                       0.00000
                       0.00000                       1.00000                       0.00000
                       0.00000                       1.00000                       0.00000
                       0.00000                       1.00000                       0.00000
                       0.00000                       1.00000                       0.00001
                       0.00000                       1.00000                       0.00001
                       0.00000                       1.00000                       0.00001
                       0.00000                       1.00000                       0.00001
                       0.00000                       1.00000                       0.00002
                       0.00000                       1.00000                       0.00002
                       0.00000                       1.00000                       0.00003
                       0.00000                       1.00000                       0.00003
                       0.00000                       1.00000                       0.00004
                       0.00000                       1.00000                       0.00004
                       0.00000                       1.00000                       0.00004
                       0.00000                       1.00000                       0.00005
                       0.00000                       1.00000                       0.00005
                      -0.00000                       1.00000                      -0.00000
        </DataArray>
        <DataArray type="Float32" Name="OrientationZ" NumberOfComponents="3" format="ascii">
                       0.00011                       0.00000                       1.00000
                       0.00038                       0.00000                       1.00000
                       0.00070                       0.00000                       1.00000
                       0.00102                       0.00000                       1.00000
                       0.00135                      -0.00000                       1.00000
                       0.00166                      -0.00000                       1.00000
                       0.00196                      -0.00000                       1.00000
                       0.00226                      -0.00000                       1.00000
                       0.00255                      -0.00001                       1.00000
                       0.00284                      -0.00001                       1.00000
                       0.00315                      -0.00001                       1.00000
                       0.00347                      -0.00001                       0.99999
                       0.00381                      -0.00002                       0.99999
                       0.00416                      -0.00002                       0.99999
                       0.00452                      -0.00003                       0.99999
                       0.00485                      -0.00003                       0.99999
                       0.00513                      -0.00004                       0.99999
                       0.00531                      -0.00004                       0.99999
                       0.00534                      -0.00004                       0.99999
                       0.00514                      -0.00005                       0.99999
                       0.00493                      -0.00005                       0.99999
                       0.00000                      -0.00000                       1.00000
        </DataArray>
      </PointData>
      <Lines>
        <DataArray type="Int32" Name="connectivity" format="ascii">
      0      1
      1      2
      2      3
      3      4
      4      5
      5      6
      6      7
      7      8
      8      9
      9     10
     10     11
     11     12
     12     13
     13     14
     14     15
     15     16
     16     17
     17     18
     18     19
     19     20
     21      0
        </DataArray>
        <DataArray type="Int32" Name="offsets" format="ascii">
      2
      4
      6
      8
     10
     12
     14
     16
     18
     20
     22
     24
     26
     28
     30
     32
     34
     36
     38
     40
     42
        </DataArray>
      </Lines>
    </Piece>
  </PolyData>
</VTKFile>
