<?xml version="1.0"?>
<VTKFile type="PolyData" version="0.1" byte_order="LittleEndian">
  <PolyData>
    <Piece NumberOfPoints="     19" NumberOfVerts="  0" NumberOfLines="     18"
           NumberOfStrips="  0" NumberOfPolys="      0">
      <Points>
        <DataArray type="Float32" NumberOfComponents="3" format="ascii">
                      -5.00369                      -1.05903                      88.96023
                      -5.15080                      -2.01843                      87.99756
                      -5.47153                      -3.86884                      86.00750
                      -5.80250                      -5.68648                      83.98573
                      -6.21821                      -7.93838                      81.43809
                      -6.64477                     -10.74220                      78.47125
                      -7.02560                     -13.63732                      75.58831
                      -7.39453                     -16.53248                      72.70315
                      -7.74993                     -19.42914                      69.81699
                      -8.09496                     -22.32618                      66.92909
                      -8.43490                     -25.22128                      64.03786
                      -8.77405                     -28.11587                      61.14539
                      -9.11979                     -31.01036                      58.25327
                      -9.48126                     -33.90519                      55.36354
                      -9.86700                     -36.80059                      52.47821
                     -10.21648                     -39.21422                      50.07926
                     -10.51777                     -41.15124                      48.17029
                     -10.83294                     -43.12787                      46.30368
                     -11.01163                     -44.08688                      45.34508
        </DataArray>
      </Points>
      <PointData>
        <DataArray type="Float32" Name="TranslationalVelocity" NumberOfComponents="3" format="ascii">
                      -0.26517                       2.98496                      -2.95736
                      -0.50634                       5.71701                      -5.64327
                      -0.97231                      11.36690                     -10.82174
                      -1.43285                      17.10493                     -15.90546
                      -2.00974                      24.33002                     -22.19862
                      -2.73874                      32.72193                     -30.02626
                      -3.50283                      40.86030                     -38.09989
                      -4.27788                      48.99485                     -46.16505
                      -5.06280                      57.12248                     -54.22704
                      -5.85689                      65.24691                     -62.28373
                      -6.66119                      73.37475                     -70.32944
                      -7.48081                      81.50207                     -78.36823
                      -8.32473                      89.62698                     -86.40031
                      -9.20701                      97.74660                     -94.42468
                     -10.14760                     105.85747                    -102.43807
                     -10.99698                     112.60598                    -109.10389
                     -11.73349                     117.97999                    -114.44124
                     -12.54691                     123.23691                    -119.87367
                     -12.96921                     125.94069                    -122.50296
        </DataArray>
        <DataArray type="Float32" Name="RotationalVelocity" NumberOfComponents="3" format="ascii">
                       2.79987                      -0.00035                      -0.25282
                       2.79942                      -0.00035                      -0.25267
                       2.79813                      -0.00007                      -0.25300
                       2.79650                       0.00070                      -0.25380
                       2.79423                       0.00235                      -0.25490
                       2.79143                       0.00504                      -0.25603
                       2.78875                       0.00788                      -0.25709
                       2.78626                       0.01004                      -0.25868
                       2.78391                       0.01070                      -0.26176
                       2.78155                       0.00923                      -0.26740
                       2.77901                       0.00539                      -0.27658
                       2.77605                      -0.00056                      -0.29002
                       2.77247                      -0.00760                      -0.30798
                       2.76809                      -0.01382                      -0.33005
                       2.76281                      -0.01621                      -0.35497
                       2.75774                      -0.01253                      -0.37631
                       2.75325                      -0.00339                      -0.39240
                       2.74847                       0.01341                      -0.40614
                       2.74600                       0.02536                      -0.41163
        </DataArray>
        <DataArray type="Float32" Name="TranslationalAcceleration" NumberOfComponents="3" format="ascii">
                       0.84666                       8.33023                       8.44989
                       0.89656                      10.04008                      10.19827
                       2.25965                      28.16924                      29.74655
                       3.29777                      44.51319                      48.02309
                       4.54790                      63.34212                      69.52633
                       6.31835                      85.43032                      93.13830
                       8.59576                     107.60466                     115.31207
                      11.44613                     129.67235                     137.30660
                      14.65887                     151.91428                     159.44936
                      17.92598                     174.40332                     181.90006
                      20.92757                     197.07219                     204.67843
                      23.40485                     219.80814                     227.67154
                      25.25313                     242.47530                     250.70552
                      26.60229                     264.97995                     273.57898
                      27.89803                     287.32534                     296.10248
                      29.56782                     305.93893                     314.48919
                      31.79564                     321.00048                     328.86753
                      35.28170                     336.64911                     342.70855
                      37.73320                     344.42246                     349.77023
        </DataArray>
        <DataArray type="Float32" Name="OrientationX" NumberOfComponents="3" format="ascii">
                       0.95099                       0.13350                      -0.27892
                       0.95102                       0.13376                      -0.27870
                       0.95106                       0.13467                      -0.27813
                       0.95107                       0.13605                      -0.27742
                       0.95102                       0.13840                      -0.27643
                       0.95965                       0.11986                      -0.25439
                       0.96501                       0.10860                      -0.23869
                       0.96892                       0.10057                      -0.22601
                       0.97234                       0.09302                      -0.21427
                       0.97507                       0.08637                      -0.20440
                       0.97675                       0.08186                      -0.19813
                       0.97762                       0.07856                      -0.19514
                       0.97738                       0.07737                      -0.19681
                       0.97557                       0.07952                      -0.20480
                       0.97305                       0.08114                      -0.21585
                       0.97057                       0.08118                      -0.22673
                       0.96829                       0.08020                      -0.23660
                       0.96509                       0.08019                      -0.24934
                       0.96297                       0.08095                      -0.25716
        </DataArray>
        <DataArray type="Float32" Name="OrientationY" NumberOfComponents="3" format="ascii">
                       0.29004                      -0.69783                       0.65491
                       0.29006                      -0.69788                       0.65484
                       0.29028                      -0.69797                       0.65466
                       0.29073                      -0.69800                       0.65442
                       0.29168                      -0.69796                       0.65404
                       0.26312                      -0.70191                       0.66188
                       0.24414                      -0.70426                       0.66665
                       0.22956                      -0.70593                       0.67005
                       0.21598                      -0.70739                       0.67302
                       0.20435                      -0.70859                       0.67538
                       0.19673                      -0.70942                       0.67677
                       0.19228                      -0.71000                       0.67744
                       0.19257                      -0.71022                       0.67713
                       0.19965                      -0.70991                       0.67540
                       0.20849                      -0.70945                       0.67321
                       0.21611                      -0.70905                       0.67122
                       0.22231                      -0.70872                       0.66955
                       0.23120                      -0.70818                       0.66710
                       0.23719                      -0.70779                       0.66541
        </DataArray>
        <DataArray type="Float32" Name="OrientationZ" NumberOfComponents="3" format="ascii">
                      -0.10721                      -0.70371                      -0.70235
                      -0.10690                      -0.70361                      -0.70250
                      -0.10596                      -0.70335                      -0.70290
                      -0.10460                      -0.70305                      -0.70340
                      -0.10242                      -0.70263                      -0.70415
                      -0.09923                      -0.70210                      -0.70513
                      -0.09570                      -0.70159                      -0.70613
                      -0.09216                      -0.70111                      -0.70707
                      -0.08897                      -0.70068                      -0.70791
                      -0.08650                      -0.70031                      -0.70858
                      -0.08516                      -0.70001                      -0.70904
                      -0.08533                      -0.69980                      -0.70922
                      -0.08739                      -0.69972                      -0.70905
                      -0.09168                      -0.69979                      -0.70844
                      -0.09852                      -0.70007                      -0.70725
                      -0.10627                      -0.70047                      -0.70573
                      -0.11399                      -0.70091                      -0.70408
                      -0.12308                      -0.70146                      -0.70200
                      -0.12815                      -0.70177                      -0.70079
        </DataArray>
        <DataArray type="Float32" Name="Force" NumberOfComponents="3" format="ascii">
                       1.74853                     -19.59170                      19.36263
                     178.71385                    -108.69015                      81.69790
                     303.62431                    -303.20169                     257.95491
                     322.41565                    -433.93165                     386.65346
                    1482.68452                     194.89165                    -410.93236
                    1348.87594                     122.99797                    -313.09178
                    1199.80412                      51.76414                    -214.56856
                    1825.40629                      91.14642                    -329.35406
                    2265.82220                      89.45946                    -374.53917
                    2489.58453                      68.62754                    -372.89178
                    4082.99494                     104.97724                    -595.91199
                    4311.04077                      79.37851                    -598.68930
                    3311.55421                      11.17932                    -419.89758
                    1787.97261                     -85.65484                    -146.10311
                    1481.45408                     -47.37790                    -159.27236
                     186.89053                    -162.09062                     134.19312
                   -1345.76196                    -192.51916                     411.18108
                   -2480.32819                    -157.50658                     593.29076
                  -19576.44926                     725.16355                    2852.38577
        </DataArray>
        <DataArray type="Float32" Name="Moment" NumberOfComponents="3" format="ascii">
                       0.00000                       0.00000                       0.00000
                       0.00000                       0.00000                       0.00000
                       0.00000                       0.00000                       0.00000
                       0.00000                       0.00000                       0.00000
                     137.81278                     948.14342                     946.91524
                     249.18935                    1770.76818                    1769.21420
                     320.80511                    2365.50513                    2364.51991
                     493.77769                    3783.62508                    3783.79662
                     707.14342                    5616.99063                    5619.58377
                     778.98170                    6367.75747                    6372.74517
                     855.60276                    7107.57812                    7114.39898
                     909.99870                    7546.14131                    7553.23836
                     701.53342                    5680.07649                    5683.92257
                     722.40631                    5572.80378                    5573.49586
                     735.26260                    5274.10557                    5270.10295
                     745.94048                    4955.15264                    4946.41242
                     707.61544                    4377.81360                    4365.70415
                     383.80348                    2196.28467                    2187.60848
                     363.25572                    1995.08133                    1985.88038
        </DataArray>
      </PointData>
      <Lines>
        <DataArray type="Int32" Name="connectivity" format="ascii">
      0      1
      1      2
      2      3
      3      4
      4      5
      5      6
      6      7
      7      8
      8      9
      9     10
     10     11
     11     12
     12     13
     13     14
     14     15
     15     16
     16     17
     17     18
        </DataArray>
        <DataArray type="Int32" Name="offsets" format="ascii">
      2
      4
      6
      8
     10
     12
     14
     16
     18
     20
     22
     24
     26
     28
     30
     32
     34
     36
        </DataArray>
      </Lines>
    </Piece>
  </PolyData>
</VTKFile>
