<?xml version="1.0"?>
<VTKFile type="PolyData" version="0.1" byte_order="LittleEndian">
  <PolyData>
    <Piece NumberOfPoints="     22" NumberOfVerts="  0" NumberOfLines="     21"
           NumberOfStrips="  0" NumberOfPolys="      0">
      <Points>
        <DataArray type="Float32" NumberOfComponents="3" format="ascii">
                       0.00007                      -0.00000                       2.19000
                       0.00074                      -0.00001                       6.57000
                       0.00222                      -0.00003                      10.95000
                       0.00457                      -0.00005                      15.33000
                       0.00781                      -0.00008                      19.71000
                       0.01191                      -0.00012                      24.09000
                       0.01684                      -0.00017                      28.46999
                       0.02257                      -0.00024                      32.84999
                       0.02907                      -0.00031                      37.22998
                       0.03634                      -0.00039                      41.60998
                       0.04441                      -0.00049                      45.98997
                       0.05329                      -0.00061                      50.36996
                       0.06304                      -0.00074                      54.74995
                       0.07369                      -0.00090                      59.12994
                       0.08525                      -0.00107                      63.50992
                       0.09769                      -0.00126                      67.88991
                       0.11092                      -0.00146                      72.26989
                       0.12475                      -0.00169                      76.64986
                       0.13886                      -0.00192                      81.02984
                       0.15273                      -0.00217                      85.40982
                       0.15938                      -0.00230                      87.59981
                       0.00000                       0.00000                       0.00000
        </DataArray>
      </Points>
      <PointData>
        <DataArray type="Float32" Name="TranslationalVelocity" NumberOfComponents="3" format="ascii">
                      -0.00007                       0.00002                       0.00000
                      -0.00061                       0.00013                       0.00000
                      -0.00170                       0.00034                       0.00000
                      -0.00330                       0.00064                       0.00000
                      -0.00534                       0.00100                       0.00000
                      -0.00771                       0.00142                       0.00001
                      -0.01028                       0.00190                       0.00001
                      -0.01289                       0.00243                       0.00001
                      -0.01539                       0.00299                       0.00002
                      -0.01763                       0.00359                       0.00002
                      -0.01944                       0.00422                       0.00002
                      -0.02069                       0.00485                       0.00002
                      -0.02127                       0.00549                       0.00003
                      -0.02105                       0.00612                       0.00003
                      -0.01999                       0.00674                       0.00002
                      -0.01804                       0.00732                       0.00002
                      -0.01521                       0.00788                       0.00001
                      -0.01152                       0.00839                      -0.00000
                      -0.00709                       0.00887                      -0.00002
                      -0.00204                       0.00931                      -0.00003
                       0.00066                       0.00953                      -0.00004
                       0.00000                      -0.00000                       0.00000
        </DataArray>
        <DataArray type="Float32" Name="RotationalVelocity" NumberOfComponents="3" format="ascii">
                      -0.00001                      -0.00006                       0.00000
                      -0.00004                      -0.00019                       0.00000
                      -0.00006                      -0.00031                       0.00000
                      -0.00008                      -0.00042                       0.00000
                      -0.00009                      -0.00051                       0.00000
                      -0.00010                      -0.00057                       0.00000
                      -0.00012                      -0.00060                       0.00000
                      -0.00013                      -0.00059                       0.00000
                      -0.00013                      -0.00055                       0.00000
                      -0.00014                      -0.00047                       0.00000
                      -0.00014                      -0.00036                       0.00000
                      -0.00015                      -0.00021                       0.00000
                      -0.00015                      -0.00004                       0.00000
                      -0.00014                       0.00014                       0.00000
                      -0.00014                       0.00034                       0.00000
                      -0.00013                       0.00055                       0.00000
                      -0.00012                       0.00075                       0.00000
                      -0.00011                       0.00093                       0.00000
                      -0.00010                       0.00109                       0.00000
                      -0.00010                       0.00121                       0.00000
                      -0.00010                       0.00125                       0.00000
                       0.00000                      -0.00000                       0.00000
        </DataArray>
        <DataArray type="Float32" Name="TranslationalAcceleration" NumberOfComponents="3" format="ascii">
                      -0.00068                      -0.00006                       0.00000
                      -0.00630                      -0.00053                       0.00000
                      -0.01764                      -0.00137                       0.00000
                      -0.03429                      -0.00252                       0.00001
                      -0.05547                      -0.00392                       0.00003
                      -0.08002                      -0.00551                       0.00005
                      -0.10655                      -0.00723                       0.00008
                      -0.13351                      -0.00903                       0.00011
                      -0.15927                      -0.01085                       0.00015
                      -0.18216                      -0.01262                       0.00018
                      -0.20058                      -0.01427                       0.00022
                      -0.21307                      -0.01574                       0.00024
                      -0.21834                      -0.01695                       0.00025
                      -0.21535                      -0.01782                       0.00024
                      -0.20337                      -0.01829                       0.00021
                      -0.18200                      -0.01833                       0.00015
                      -0.15128                      -0.01788                       0.00005
                      -0.11167                      -0.01697                      -0.00007
                      -0.06413                      -0.01563                      -0.00023
                      -0.01015                      -0.01396                      -0.00041
                       0.01864                      -0.01303                      -0.00050
                       0.00000                      -0.00000                       0.00000
        </DataArray>
        <DataArray type="Float32" Name="RotationalAcceleration" NumberOfComponents="3" format="ascii">
                       0.00006                      -0.00063                       0.00000
                       0.00015                      -0.00194                       0.00000
                       0.00023                      -0.00322                       0.00000
                       0.00029                      -0.00436                       0.00000
                       0.00034                      -0.00527                       0.00000
                       0.00038                      -0.00589                       0.00000
                       0.00040                      -0.00617                       0.00000
                       0.00042                      -0.00608                       0.00000
                       0.00041                      -0.00562                       0.00000
                       0.00039                      -0.00478                       0.00000
                       0.00036                      -0.00358                       0.00000
                       0.00031                      -0.00207                       0.00000
                       0.00024                      -0.00029                       0.00000
                       0.00016                       0.00169                       0.00000
                       0.00006                       0.00380                       0.00000
                      -0.00005                       0.00596                       0.00000
                      -0.00015                       0.00806                       0.00000
                      -0.00026                       0.00999                       0.00000
                      -0.00035                       0.01166                       0.00000
                      -0.00041                       0.01292                       0.00000
                      -0.00043                       0.01335                       0.00000
                       0.00000                      -0.00000                       0.00000
        </DataArray>
        <DataArray type="Float32" Name="OrientationX" NumberOfComponents="3" format="ascii">
                       1.00000                       0.00000                      -0.00007
                       1.00000                       0.00000                      -0.00024
                       1.00000                       0.00000                      -0.00044
                       1.00000                       0.00000                      -0.00064
                       1.00000                       0.00000                      -0.00084
                       1.00000                       0.00000                      -0.00103
                       1.00000                       0.00000                      -0.00122
                       1.00000                       0.00000                      -0.00140
                       1.00000                       0.00000                      -0.00157
                       1.00000                       0.00000                      -0.00175
                       1.00000                       0.00000                      -0.00193
                       1.00000                       0.00000                      -0.00213
                       1.00000                       0.00000                      -0.00233
                       1.00000                       0.00000                      -0.00253
                       1.00000                       0.00000                      -0.00274
                       1.00000                       0.00000                      -0.00294
                       1.00000                       0.00000                      -0.00310
                       0.99999                       0.00000                      -0.00320
                       0.99999                       0.00000                      -0.00322
                       1.00000                       0.00000                      -0.00309
                       1.00000                       0.00000                      -0.00296
                       1.00000                      -0.00000                       0.00000
        </DataArray>
        <DataArray type="Float32" Name="OrientationY" NumberOfComponents="3" format="ascii">
                       0.00000                       1.00000                       0.00000
                       0.00000                       1.00000                       0.00000
                       0.00000                       1.00000                       0.00000
                       0.00000                       1.00000                       0.00001
                       0.00000                       1.00000                       0.00001
                       0.00000                       1.00000                       0.00001
                       0.00000                       1.00000                       0.00001
                       0.00000                       1.00000                       0.00002
                       0.00000                       1.00000                       0.00002
                       0.00000                       1.00000                       0.00002
                       0.00000                       1.00000                       0.00002
                       0.00000                       1.00000                       0.00003
                       0.00000                       1.00000                       0.00003
                       0.00000                       1.00000                       0.00004
                       0.00000                       1.00000                       0.00004
                       0.00000                       1.00000                       0.00005
                       0.00000                       1.00000                       0.00005
                       0.00000                       1.00000                       0.00005
                       0.00000                       1.00000                       0.00006
                       0.00000                       1.00000                       0.00006
                       0.00000                       1.00000                       0.00006
                      -0.00000                       1.00000                      -0.00000
        </DataArray>
        <DataArray type="Float32" Name="OrientationZ" NumberOfComponents="3" format="ascii">
                       0.00007                      -0.00000                       1.00000
                       0.00024                      -0.00000                       1.00000
                       0.00044                      -0.00000                       1.00000
                       0.00064                      -0.00001                       1.00000
                       0.00084                      -0.00001                       1.00000
                       0.00103                      -0.00001                       1.00000
                       0.00122                      -0.00001                       1.00000
                       0.00140                      -0.00002                       1.00000
                       0.00157                      -0.00002                       1.00000
                       0.00175                      -0.00002                       1.00000
                       0.00193                      -0.00002                       1.00000
                       0.00213                      -0.00003                       1.00000
                       0.00233                      -0.00003                       1.00000
                       0.00253                      -0.00004                       1.00000
                       0.00274                      -0.00004                       1.00000
                       0.00294                      -0.00005                       1.00000
                       0.00310                      -0.00005                       1.00000
                       0.00320                      -0.00005                       0.99999
                       0.00322                      -0.00006                       0.99999
                       0.00309                      -0.00006                       1.00000
                       0.00296                      -0.00006                       1.00000
                       0.00000                      -0.00000                       1.00000
        </DataArray>
      </PointData>
      <Lines>
        <DataArray type="Int32" Name="connectivity" format="ascii">
      0      1
      1      2
      2      3
      3      4
      4      5
      5      6
      6      7
      7      8
      8      9
      9     10
     10     11
     11     12
     12     13
     13     14
     14     15
     15     16
     16     17
     17     18
     18     19
     19     20
     21      0
        </DataArray>
        <DataArray type="Int32" Name="offsets" format="ascii">
      2
      4
      6
      8
     10
     12
     14
     16
     18
     20
     22
     24
     26
     28
     30
     32
     34
     36
     38
     40
     42
        </DataArray>
      </Lines>
    </Piece>
  </PolyData>
</VTKFile>
