<?xml version="1.0"?>
<VTKFile type="PolyData" version="0.1" byte_order="LittleEndian">
  <PolyData>
    <Piece NumberOfPoints="     22" NumberOfVerts="  0" NumberOfLines="     21"
           NumberOfStrips="  0" NumberOfPolys="      0">
      <Points>
        <DataArray type="Float32" NumberOfComponents="3" format="ascii">
                       0.00012                      -0.00000                       2.19000
                       0.00122                      -0.00004                       6.57000
                       0.00364                      -0.00011                      10.95000
                       0.00748                      -0.00021                      15.33000
                       0.01277                      -0.00034                      19.70999
                       0.01946                      -0.00050                      24.08999
                       0.02750                      -0.00070                      28.46998
                       0.03683                      -0.00093                      32.84997
                       0.04741                      -0.00120                      37.22996
                       0.05923                      -0.00151                      41.60994
                       0.07232                      -0.00188                      45.98992
                       0.08673                      -0.00229                      50.36990
                       0.10251                      -0.00275                      54.74987
                       0.11973                      -0.00327                      59.12984
                       0.13840                      -0.00385                      63.50980
                       0.15848                      -0.00448                      67.88975
                       0.17982                      -0.00516                      72.26970
                       0.20210                      -0.00588                      76.64964
                       0.22481                      -0.00665                      81.02958
                       0.24713                      -0.00744                      85.40953
                       0.25781                      -0.00785                      87.59950
                       0.00000                       0.00000                       0.00000
        </DataArray>
      </Points>
      <PointData>
        <DataArray type="Float32" Name="TranslationalVelocity" NumberOfComponents="3" format="ascii">
                      -0.00015                       0.00002                       0.00000
                      -0.00144                       0.00014                       0.00000
                      -0.00423                       0.00035                       0.00000
                      -0.00857                       0.00065                       0.00001
                      -0.01441                       0.00100                       0.00001
                      -0.02165                       0.00138                       0.00002
                      -0.03015                       0.00178                       0.00004
                      -0.03974                       0.00219                       0.00006
                      -0.05028                       0.00256                       0.00009
                      -0.06166                       0.00289                       0.00012
                      -0.07378                       0.00315                       0.00015
                      -0.08657                       0.00330                       0.00020
                      -0.10001                       0.00333                       0.00024
                      -0.11407                       0.00322                       0.00030
                      -0.12870                       0.00293                       0.00036
                      -0.14386                       0.00246                       0.00043
                      -0.15941                       0.00180                       0.00051
                      -0.17513                       0.00096                       0.00059
                      -0.19065                      -0.00005                       0.00067
                      -0.20541                      -0.00120                       0.00074
                      -0.21227                      -0.00181                       0.00078
                       0.00000                      -0.00000                       0.00000
        </DataArray>
        <DataArray type="Float32" Name="RotationalVelocity" NumberOfComponents="3" format="ascii">
                      -0.00001                      -0.00014                       0.00000
                      -0.00004                      -0.00046                       0.00000
                      -0.00006                      -0.00081                       0.00000
                      -0.00007                      -0.00117                       0.00000
                      -0.00008                      -0.00150                       0.00000
                      -0.00009                      -0.00180                       0.00000
                      -0.00009                      -0.00207                       0.00000
                      -0.00009                      -0.00230                       0.00000
                      -0.00008                      -0.00251                       0.00000
                      -0.00007                      -0.00269                       0.00000
                      -0.00005                      -0.00285                       0.00000
                      -0.00002                      -0.00300                       0.00000
                       0.00001                      -0.00314                       0.00000
                       0.00005                      -0.00328                       0.00000
                       0.00009                      -0.00340                       0.00000
                       0.00013                      -0.00351                       0.00000
                       0.00017                      -0.00358                       0.00000
                       0.00021                      -0.00358                       0.00000
                       0.00025                      -0.00348                       0.00000
                       0.00027                      -0.00323                       0.00000
                       0.00028                      -0.00302                       0.00000
                       0.00000                      -0.00000                       0.00000
        </DataArray>
        <DataArray type="Float32" Name="TranslationalAcceleration" NumberOfComponents="3" format="ascii">
                       0.00002                       0.00016                      -0.00000
                       0.00005                       0.00135                      -0.00000
                      -0.00017                       0.00350                      -0.00000
                      -0.00088                       0.00642                      -0.00001
                      -0.00234                       0.00993                      -0.00001
                      -0.00480                       0.01389                      -0.00002
                      -0.00855                       0.01812                      -0.00003
                      -0.01394                       0.02247                      -0.00004
                      -0.02137                       0.02676                      -0.00005
                      -0.03128                       0.03079                      -0.00005
                      -0.04412                       0.03437                      -0.00004
                      -0.06037                       0.03728                      -0.00003
                      -0.08045                       0.03930                       0.00001
                      -0.10474                       0.04025                       0.00006
                      -0.13345                       0.03993                       0.00013
                      -0.16663                       0.03823                       0.00023
                      -0.20406                       0.03506                       0.00036
                      -0.24520                       0.03046                       0.00051
                      -0.28907                       0.02454                       0.00068
                      -0.33417                       0.01760                       0.00086
                      -0.35654                       0.01387                       0.00094
                       0.00000                      -0.00000                       0.00000
        </DataArray>
        <DataArray type="Float32" Name="RotationalAcceleration" NumberOfComponents="3" format="ascii">
                      -0.00014                       0.00001                       0.00000
                      -0.00039                      -0.00001                       0.00000
                      -0.00059                      -0.00010                       0.00000
                      -0.00074                      -0.00024                       0.00000
                      -0.00086                      -0.00044                       0.00000
                      -0.00094                      -0.00070                       0.00000
                      -0.00099                      -0.00103                       0.00000
                      -0.00099                      -0.00145                       0.00000
                      -0.00096                      -0.00196                       0.00000
                      -0.00088                      -0.00258                       0.00000
                      -0.00075                      -0.00330                       0.00000
                      -0.00057                      -0.00413                       0.00000
                      -0.00035                      -0.00505                       0.00000
                      -0.00008                      -0.00604                       0.00000
                       0.00023                      -0.00707                       0.00000
                       0.00055                      -0.00808                       0.00000
                       0.00089                      -0.00900                       0.00000
                       0.00121                      -0.00975                       0.00000
                       0.00148                      -0.01022                       0.00000
                       0.00167                      -0.01029                       0.00000
                       0.00172                      -0.01012                       0.00000
                       0.00000                      -0.00000                       0.00000
        </DataArray>
        <DataArray type="Float32" Name="OrientationX" NumberOfComponents="3" format="ascii">
                       1.00000                       0.00000                      -0.00011
                       1.00000                       0.00000                      -0.00039
                       1.00000                       0.00000                      -0.00071
                       1.00000                       0.00000                      -0.00104
                       1.00000                       0.00000                      -0.00137
                       1.00000                       0.00000                      -0.00168
                       1.00000                       0.00000                      -0.00198
                       1.00000                       0.00000                      -0.00227
                       1.00000                       0.00000                      -0.00256
                       1.00000                       0.00000                      -0.00284
                       1.00000                       0.00000                      -0.00314
                       0.99999                       0.00000                      -0.00344
                       0.99999                       0.00000                      -0.00377
                       0.99999                       0.00000                      -0.00410
                       0.99999                       0.00000                      -0.00443
                       0.99999                       0.00000                      -0.00474
                       0.99999                       0.00000                      -0.00499
                       0.99999                       0.00000                      -0.00516
                       0.99999                       0.00000                      -0.00518
                       0.99999                       0.00000                      -0.00497
                       0.99999                       0.00000                      -0.00476
                       1.00000                      -0.00000                       0.00000
        </DataArray>
        <DataArray type="Float32" Name="OrientationY" NumberOfComponents="3" format="ascii">
                       0.00000                       1.00000                       0.00000
                       0.00000                       1.00000                       0.00001
                       0.00000                       1.00000                       0.00002
                       0.00000                       1.00000                       0.00003
                       0.00000                       1.00000                       0.00003
                       0.00000                       1.00000                       0.00004
                       0.00000                       1.00000                       0.00005
                       0.00000                       1.00000                       0.00006
                       0.00000                       1.00000                       0.00007
                       0.00000                       1.00000                       0.00008
                       0.00000                       1.00000                       0.00009
                       0.00000                       1.00000                       0.00010
                       0.00000                       1.00000                       0.00011
                       0.00000                       1.00000                       0.00012
                       0.00000                       1.00000                       0.00014
                       0.00000                       1.00000                       0.00015
                       0.00000                       1.00000                       0.00016
                       0.00000                       1.00000                       0.00017
                       0.00000                       1.00000                       0.00018
                       0.00000                       1.00000                       0.00018
                       0.00000                       1.00000                       0.00019
                      -0.00000                       1.00000                      -0.00000
        </DataArray>
        <DataArray type="Float32" Name="OrientationZ" NumberOfComponents="3" format="ascii">
                       0.00011                      -0.00000                       1.00000
                       0.00039                      -0.00001                       1.00000
                       0.00071                      -0.00002                       1.00000
                       0.00104                      -0.00003                       1.00000
                       0.00137                      -0.00003                       1.00000
                       0.00168                      -0.00004                       1.00000
                       0.00198                      -0.00005                       1.00000
                       0.00227                      -0.00006                       1.00000
                       0.00256                      -0.00007                       1.00000
                       0.00284                      -0.00008                       1.00000
                       0.00314                      -0.00009                       1.00000
                       0.00344                      -0.00010                       0.99999
                       0.00377                      -0.00011                       0.99999
                       0.00410                      -0.00012                       0.99999
                       0.00443                      -0.00014                       0.99999
                       0.00474                      -0.00015                       0.99999
                       0.00499                      -0.00016                       0.99999
                       0.00516                      -0.00017                       0.99999
                       0.00518                      -0.00018                       0.99999
                       0.00497                      -0.00018                       0.99999
                       0.00476                      -0.00019                       0.99999
                       0.00000                      -0.00000                       1.00000
        </DataArray>
      </PointData>
      <Lines>
        <DataArray type="Int32" Name="connectivity" format="ascii">
      0      1
      1      2
      2      3
      3      4
      4      5
      5      6
      6      7
      7      8
      8      9
      9     10
     10     11
     11     12
     12     13
     13     14
     14     15
     15     16
     16     17
     17     18
     18     19
     19     20
     21      0
        </DataArray>
        <DataArray type="Int32" Name="offsets" format="ascii">
      2
      4
      6
      8
     10
     12
     14
     16
     18
     20
     22
     24
     26
     28
     30
     32
     34
     36
     38
     40
     42
        </DataArray>
      </Lines>
    </Piece>
  </PolyData>
</VTKFile>
