<?xml version="1.0"?>
<VTKFile type="PolyData" version="0.1" byte_order="LittleEndian">
  <PolyData>
    <Piece NumberOfPoints="     22" NumberOfVerts="  0" NumberOfLines="     21"
           NumberOfStrips="  0" NumberOfPolys="      0">
      <Points>
        <DataArray type="Float32" NumberOfComponents="3" format="ascii">
                       0.00006                      -0.00000                       2.19000
                       0.00065                      -0.00004                       6.57000
                       0.00196                      -0.00011                      10.95000
                       0.00405                      -0.00021                      15.33000
                       0.00694                      -0.00034                      19.71000
                       0.01062                      -0.00049                      24.09000
                       0.01506                      -0.00068                      28.46999
                       0.02026                      -0.00089                      32.84999
                       0.02619                      -0.00113                      37.22999
                       0.03288                      -0.00141                      41.60998
                       0.04035                      -0.00173                      45.98998
                       0.04864                      -0.00207                      50.36997
                       0.05779                      -0.00246                      54.74996
                       0.06786                      -0.00288                      59.12995
                       0.07886                      -0.00334                      63.50993
                       0.09077                      -0.00383                      67.88992
                       0.10349                      -0.00436                      72.26990
                       0.11685                      -0.00491                      76.64988
                       0.13053                      -0.00548                      81.02986
                       0.14405                      -0.00608                      85.40984
                       0.15054                      -0.00638                      87.59983
                       0.00000                       0.00000                       0.00000
        </DataArray>
      </Points>
      <PointData>
        <DataArray type="Float32" Name="TranslationalVelocity" NumberOfComponents="3" format="ascii">
                       0.00003                       0.00002                      -0.00000
                       0.00025                       0.00013                      -0.00000
                       0.00070                       0.00034                      -0.00000
                       0.00137                       0.00063                      -0.00000
                       0.00220                       0.00099                      -0.00000
                       0.00317                       0.00139                      -0.00000
                       0.00421                       0.00183                      -0.00000
                       0.00525                       0.00230                      -0.00000
                       0.00623                       0.00278                      -0.00001
                       0.00708                       0.00326                      -0.00001
                       0.00772                       0.00373                      -0.00001
                       0.00811                       0.00416                      -0.00001
                       0.00818                       0.00454                      -0.00001
                       0.00790                       0.00485                      -0.00001
                       0.00722                       0.00508                      -0.00001
                       0.00613                       0.00522                      -0.00000
                       0.00464                       0.00526                       0.00000
                       0.00277                       0.00520                       0.00001
                       0.00057                       0.00505                       0.00001
                      -0.00191                       0.00483                       0.00002
                      -0.00321                       0.00470                       0.00003
                       0.00000                      -0.00000                       0.00000
        </DataArray>
        <DataArray type="Float32" Name="RotationalVelocity" NumberOfComponents="3" format="ascii">
                      -0.00001                       0.00003                       0.00000
                      -0.00004                       0.00008                       0.00000
                      -0.00006                       0.00013                       0.00000
                      -0.00007                       0.00017                       0.00000
                      -0.00009                       0.00021                       0.00000
                      -0.00010                       0.00023                       0.00000
                      -0.00010                       0.00024                       0.00000
                      -0.00011                       0.00023                       0.00000
                      -0.00011                       0.00021                       0.00000
                      -0.00011                       0.00017                       0.00000
                      -0.00010                       0.00012                       0.00000
                      -0.00009                       0.00005                       0.00000
                      -0.00008                      -0.00002                       0.00000
                      -0.00006                      -0.00011                       0.00000
                      -0.00004                      -0.00020                       0.00000
                      -0.00002                      -0.00029                       0.00000
                       0.00000                      -0.00038                       0.00000
                       0.00002                      -0.00047                       0.00000
                       0.00004                      -0.00054                       0.00000
                       0.00006                      -0.00059                       0.00000
                       0.00006                      -0.00060                       0.00000
                       0.00000                      -0.00000                       0.00000
        </DataArray>
        <DataArray type="Float32" Name="TranslationalAcceleration" NumberOfComponents="3" format="ascii">
                       0.00070                       0.00008                      -0.00000
                       0.00648                       0.00067                      -0.00000
                       0.01814                       0.00173                      -0.00000
                       0.03531                       0.00317                      -0.00001
                       0.05715                       0.00490                      -0.00003
                       0.08251                       0.00683                      -0.00005
                       0.10997                       0.00889                      -0.00008
                       0.13795                       0.01098                      -0.00011
                       0.16478                       0.01301                      -0.00015
                       0.18878                       0.01488                      -0.00018
                       0.20833                       0.01649                      -0.00022
                       0.22194                       0.01771                      -0.00024
                       0.22830                       0.01844                      -0.00025
                       0.22637                       0.01858                      -0.00025
                       0.21539                       0.01802                      -0.00022
                       0.19498                       0.01671                      -0.00017
                       0.16515                       0.01462                      -0.00008
                       0.12635                       0.01174                       0.00004
                       0.07953                       0.00817                       0.00018
                       0.02614                       0.00404                       0.00034
                      -0.00241                       0.00183                       0.00043
                       0.00000                      -0.00000                       0.00000
        </DataArray>
        <DataArray type="Float32" Name="RotationalAcceleration" NumberOfComponents="3" format="ascii">
                      -0.00007                       0.00065                       0.00000
                      -0.00019                       0.00200                       0.00000
                      -0.00029                       0.00331                       0.00000
                      -0.00036                       0.00449                       0.00000
                      -0.00042                       0.00544                       0.00000
                      -0.00046                       0.00609                       0.00000
                      -0.00048                       0.00639                       0.00000
                      -0.00047                       0.00632                       0.00000
                      -0.00045                       0.00587                       0.00000
                      -0.00040                       0.00503                       0.00000
                      -0.00033                       0.00384                       0.00000
                      -0.00023                       0.00232                       0.00000
                      -0.00010                       0.00054                       0.00000
                       0.00004                      -0.00145                       0.00000
                       0.00021                      -0.00358                       0.00000
                       0.00039                      -0.00574                       0.00000
                       0.00057                      -0.00786                       0.00000
                       0.00074                      -0.00982                       0.00000
                       0.00089                      -0.01151                       0.00000
                       0.00099                      -0.01280                       0.00000
                       0.00102                      -0.01326                       0.00000
                       0.00000                      -0.00000                       0.00000
        </DataArray>
        <DataArray type="Float32" Name="OrientationX" NumberOfComponents="3" format="ascii">
                       1.00000                       0.00000                      -0.00006
                       1.00000                       0.00000                      -0.00021
                       1.00000                       0.00000                      -0.00039
                       1.00000                       0.00000                      -0.00057
                       1.00000                       0.00000                      -0.00075
                       1.00000                       0.00000                      -0.00093
                       1.00000                       0.00000                      -0.00110
                       1.00000                       0.00000                      -0.00127
                       1.00000                       0.00000                      -0.00144
                       1.00000                       0.00000                      -0.00161
                       1.00000                       0.00000                      -0.00180
                       1.00000                       0.00000                      -0.00199
                       1.00000                       0.00000                      -0.00219
                       1.00000                       0.00000                      -0.00240
                       1.00000                       0.00000                      -0.00262
                       1.00000                       0.00000                      -0.00282
                       1.00000                       0.00000                      -0.00299
                       1.00000                       0.00000                      -0.00310
                       1.00000                       0.00000                      -0.00313
                       1.00000                       0.00000                      -0.00302
                       1.00000                       0.00000                      -0.00290
                       1.00000                      -0.00000                       0.00000
        </DataArray>
        <DataArray type="Float32" Name="OrientationY" NumberOfComponents="3" format="ascii">
                       0.00000                       1.00000                       0.00000
                       0.00000                       1.00000                       0.00001
                       0.00000                       1.00000                       0.00002
                       0.00000                       1.00000                       0.00003
                       0.00000                       1.00000                       0.00003
                       0.00000                       1.00000                       0.00004
                       0.00000                       1.00000                       0.00005
                       0.00000                       1.00000                       0.00005
                       0.00000                       1.00000                       0.00006
                       0.00000                       1.00000                       0.00007
                       0.00000                       1.00000                       0.00008
                       0.00000                       1.00000                       0.00008
                       0.00000                       1.00000                       0.00009
                       0.00000                       1.00000                       0.00010
                       0.00000                       1.00000                       0.00011
                       0.00000                       1.00000                       0.00012
                       0.00000                       1.00000                       0.00012
                       0.00000                       1.00000                       0.00013
                       0.00000                       1.00000                       0.00013
                       0.00000                       1.00000                       0.00014
                       0.00000                       1.00000                       0.00014
                      -0.00000                       1.00000                      -0.00000
        </DataArray>
        <DataArray type="Float32" Name="OrientationZ" NumberOfComponents="3" format="ascii">
                       0.00006                      -0.00000                       1.00000
                       0.00021                      -0.00001                       1.00000
                       0.00039                      -0.00002                       1.00000
                       0.00057                      -0.00003                       1.00000
                       0.00075                      -0.00003                       1.00000
                       0.00093                      -0.00004                       1.00000
                       0.00110                      -0.00005                       1.00000
                       0.00127                      -0.00005                       1.00000
                       0.00144                      -0.00006                       1.00000
                       0.00161                      -0.00007                       1.00000
                       0.00180                      -0.00008                       1.00000
                       0.00199                      -0.00008                       1.00000
                       0.00219                      -0.00009                       1.00000
                       0.00240                      -0.00010                       1.00000
                       0.00262                      -0.00011                       1.00000
                       0.00282                      -0.00012                       1.00000
                       0.00299                      -0.00012                       1.00000
                       0.00310                      -0.00013                       1.00000
                       0.00313                      -0.00013                       1.00000
                       0.00302                      -0.00014                       1.00000
                       0.00290                      -0.00014                       1.00000
                       0.00000                      -0.00000                       1.00000
        </DataArray>
      </PointData>
      <Lines>
        <DataArray type="Int32" Name="connectivity" format="ascii">
      0      1
      1      2
      2      3
      3      4
      4      5
      5      6
      6      7
      7      8
      8      9
      9     10
     10     11
     11     12
     12     13
     13     14
     14     15
     15     16
     16     17
     17     18
     18     19
     19     20
     21      0
        </DataArray>
        <DataArray type="Int32" Name="offsets" format="ascii">
      2
      4
      6
      8
     10
     12
     14
     16
     18
     20
     22
     24
     26
     28
     30
     32
     34
     36
     38
     40
     42
        </DataArray>
      </Lines>
    </Piece>
  </PolyData>
</VTKFile>
