<?xml version="1.0"?>
<VTKFile type="PolyData" version="0.1" byte_order="LittleEndian">
  <PolyData>
    <Piece NumberOfPoints="     19" NumberOfVerts="  0" NumberOfLines="     18"
           NumberOfStrips="  0" NumberOfPolys="      0">
      <Points>
        <DataArray type="Float32" NumberOfComponents="3" format="ascii">
                      -4.84632                       1.33646                      90.69332
                      -4.85033                       2.55374                      91.31536
                      -4.87158                       4.94559                      92.64416
                      -4.89686                       7.31831                      94.01202
                      -4.92684                      10.27440                      95.74341
                      -4.91111                      13.89118                      97.68549
                      -4.86860                      17.57020                      99.50470
                      -4.81515                      21.25319                     101.31641
                      -4.74970                      24.94078                     103.11934
                      -4.67559                      28.63181                     104.91592
                      -4.59817                      32.32430                     106.71029
                      -4.52271                      36.01859                     108.50180
                      -4.45749                      39.71430                     110.29103
                      -4.41275                      43.41105                     112.07828
                      -4.39823                      47.10838                     113.86356
                      -4.41990                      50.18972                     115.34939
                      -4.46430                      52.65814                     116.52936
                      -4.53471                      55.15064                     117.65820
                      -4.58699                      56.37841                     118.25891
        </DataArray>
      </Points>
      <PointData>
        <DataArray type="Float32" Name="TranslationalVelocity" NumberOfComponents="3" format="ascii">
                       0.33456                      -1.89954                       3.74199
                       0.64210                      -3.64072                       7.15133
                       1.24806                      -7.35788                      13.85166
                       1.85154                     -11.18468                      20.50034
                       2.60727                     -16.03104                      28.78685
                       3.53832                     -21.48253                      38.93016
                       4.49401                     -26.59902                      49.25327
                       5.46207                     -31.69977                      59.59247
                       6.44556                     -36.78122                      69.94875
                       7.44765                     -41.84911                      80.31798
                       8.47185                     -46.91324                      90.69380
                       9.52270                     -51.97001                     101.07639
                      10.60507                     -57.01838                     111.46426
                      11.72425                     -62.05590                     121.85628
                      12.88600                     -67.07943                     132.25155
                      13.89204                     -71.25051                     140.91705
                      14.72385                     -74.55492                     147.86081
                      15.58649                     -77.70790                     154.87457
                      16.02434                     -79.38125                     158.33089
        </DataArray>
        <DataArray type="Float32" Name="RotationalVelocity" NumberOfComponents="3" format="ascii">
                       2.80045                      -0.00060                      -0.25292
                       2.80072                      -0.00051                      -0.25309
                       2.80142                      -0.00021                      -0.25364
                       2.80228                       0.00022                      -0.25440
                       2.80349                       0.00090                      -0.25560
                       2.80498                       0.00193                      -0.25734
                       2.80637                       0.00326                      -0.25940
                       2.80759                       0.00499                      -0.26188
                       2.80860                       0.00728                      -0.26488
                       2.80939                       0.01028                      -0.26856
                       2.81000                       0.01411                      -0.27307
                       2.81047                       0.01888                      -0.27852
                       2.81086                       0.02462                      -0.28501
                       2.81123                       0.03126                      -0.29254
                       2.81165                       0.03863                      -0.30103
                       2.81205                       0.04512                      -0.30870
                       2.81244                       0.05037                      -0.31511
                       2.81286                       0.05547                      -0.32163
                       2.81310                       0.05790                      -0.32487
        </DataArray>
        <DataArray type="Float32" Name="TranslationalAcceleration" NumberOfComponents="3" format="ascii">
                      -0.50592                     -10.57698                      -5.32589
                      -0.59309                     -12.77871                      -6.46541
                      -1.74312                     -36.24265                     -19.15153
                      -2.81342                     -57.65800                     -31.16339
                      -4.05539                     -82.57388                     -45.42055
                      -5.33646                    -111.44466                     -60.65625
                      -6.45058                    -140.09576                     -74.53288
                      -7.50900                    -168.74008                     -88.29145
                      -8.52936                    -197.73062                    -102.10708
                      -9.52234                    -227.16464                    -116.05965
                     -10.49423                    -256.95971                    -130.15238
                     -11.44603                    -286.94880                    -144.29666
                     -12.38136                    -316.92780                    -158.39127
                     -13.30929                    -346.73181                    -172.34542
                     -14.24848                    -376.30563                    -186.11494
                     -15.06343                    -400.85867                    -197.46622
                     -15.74657                    -420.59537                    -206.45778
                     -16.42883                    -440.76683                    -215.10547
                     -16.83829                    -450.87501                    -219.76837
        </DataArray>
        <DataArray type="Float32" Name="OrientationX" NumberOfComponents="3" format="ascii">
                       0.98848                      -0.06600                       0.13620
                       0.98848                      -0.06623                       0.13611
                       0.98844                      -0.06702                       0.13596
                       0.98838                      -0.06825                       0.13583
                       0.98824                      -0.07035                       0.13578
                       0.99238                      -0.05949                       0.10790
                       0.99462                      -0.05348                       0.08874
                       0.99605                      -0.04953                       0.07364
                       0.99717                      -0.04575                       0.05968
                       0.99796                      -0.04217                       0.04795
                       0.99840                      -0.03934                       0.04057
                       0.99865                      -0.03649                       0.03696
                       0.99867                      -0.03393                       0.03876
                       0.99833                      -0.03224                       0.04800
                       0.99777                      -0.02884                       0.06018
                       0.99715                      -0.02408                       0.07156
                       0.99650                      -0.01882                       0.08146
                       0.99544                      -0.01342                       0.09440
                       0.99467                      -0.01092                       0.10251
        </DataArray>
        <DataArray type="Float32" Name="OrientationY" NumberOfComponents="3" format="ascii">
                       0.15133                       0.44815                      -0.88106
                       0.15135                       0.44791                      -0.88117
                       0.15157                       0.44724                      -0.88148
                       0.15201                       0.44634                      -0.88186
                       0.15291                       0.44499                      -0.88238
                       0.12312                       0.44526                      -0.88690
                       0.10329                       0.44472                      -0.88969
                       0.08801                       0.44398                      -0.89171
                       0.07381                       0.44333                      -0.89332
                       0.06169                       0.44279                      -0.89450
                       0.05381                       0.44230                      -0.89525
                       0.04930                       0.44191                      -0.89570
                       0.04977                       0.44153                      -0.89586
                       0.05731                       0.44109                      -0.89563
                       0.06673                       0.44073                      -0.89516
                       0.07484                       0.44053                      -0.89461
                       0.08140                       0.44046                      -0.89407
                       0.09064                       0.44047                      -0.89318
                       0.09681                       0.44052                      -0.89251
        </DataArray>
        <DataArray type="Float32" Name="OrientationZ" NumberOfComponents="3" format="ascii">
                      -0.00289                       0.89152                       0.45297
                      -0.00260                       0.89162                       0.45277
                      -0.00172                       0.89190                       0.45223
                      -0.00044                       0.89226                       0.45153
                       0.00165                       0.89277                       0.45052
                       0.00472                       0.89342                       0.44919
                       0.00811                       0.89407                       0.44785
                       0.01147                       0.89467                       0.44658
                       0.01441                       0.89519                       0.44545
                       0.01649                       0.89563                       0.44449
                       0.01728                       0.89600                       0.44371
                       0.01635                       0.89632                       0.44311
                       0.01328                       0.89660                       0.44264
                       0.00770                       0.89689                       0.44220
                      -0.00071                       0.89718                       0.44167
                      -0.00999                       0.89741                       0.44108
                      -0.01905                       0.89757                       0.44045
                      -0.02959                       0.89767                       0.43968
                      -0.03541                       0.89768                       0.43923
        </DataArray>
        <DataArray type="Float32" Name="Force" NumberOfComponents="3" format="ascii">
                      -0.91694                       5.15528                     -10.15221
                     172.19788                      55.33923                    -107.93912
                     243.34480                     160.08061                    -314.24450
                     233.49531                     240.79784                    -473.99976
                    1514.80609                    -106.32144                     203.29101
                    1486.94916                     -67.58083                     116.75783
                    1395.24830                     -28.94277                      30.87486
                    2090.71280                     -48.09252                      39.66473
                    2536.46787                     -41.20798                      -2.61289
                    2790.36657                     -26.74489                     -52.88889
                    4341.08496                     -29.13145                    -115.14287
                    4527.47592                      -4.70663                    -162.02773
                    3402.21238                      34.89024                    -174.92307
                    1763.91289                      80.65144                    -192.53205
                    1890.67545                      37.48791                     -74.90718
                    -242.71712                     100.21398                    -201.77090
                   -2029.31088                      65.42796                    -208.28534
                   -3245.50618                     -12.03046                    -178.42243
                  -19562.03806                   -1195.82767                     875.11102
        </DataArray>
        <DataArray type="Float32" Name="Moment" NumberOfComponents="3" format="ascii">
                       0.00000                       0.00000                       0.00000
                       0.00000                       0.00000                       0.00000
                       0.00000                       0.00000                       0.00000
                       0.00000                       0.00000                       0.00000
                      -2.34250                   -1134.24445                    -575.75624
                     -12.03517                   -2143.04659                   -1087.14919
                     -27.62341                   -2899.79472                   -1470.01696
                     -62.52507                   -4668.84184                   -2365.18443
                    -116.59783                   -6953.69826                   -3520.54767
                    -152.06025                   -7929.40189                   -4012.80573
                    -178.74074                   -8878.76777                   -4492.48270
                    -181.15352                   -9459.42198                   -4787.12021
                    -112.97730                   -7159.62481                   -3625.44389
                     -67.60199                   -7035.46550                   -3566.49422
                      -1.92662                   -6648.35800                   -3375.85329
                      62.44964                   -6244.73604                   -3176.70900
                     110.45869                   -5505.26194                   -2805.54118
                      87.86135                   -2764.59130                   -1411.79132
                      96.29656                   -2516.96660                   -1286.80969
        </DataArray>
      </PointData>
      <Lines>
        <DataArray type="Int32" Name="connectivity" format="ascii">
      0      1
      1      2
      2      3
      3      4
      4      5
      5      6
      6      7
      7      8
      8      9
      9     10
     10     11
     11     12
     12     13
     13     14
     14     15
     15     16
     16     17
     17     18
        </DataArray>
        <DataArray type="Int32" Name="offsets" format="ascii">
      2
      4
      6
      8
     10
     12
     14
     16
     18
     20
     22
     24
     26
     28
     30
     32
     34
     36
        </DataArray>
      </Lines>
    </Piece>
  </PolyData>
</VTKFile>
