<?xml version="1.0"?>
<VTKFile type="PolyData" version="0.1" byte_order="LittleEndian">
  <PolyData>
    <Piece NumberOfPoints="    550" NumberOfVerts="  0" NumberOfLines="     21"
           NumberOfStrips="  0" NumberOfPolys="    567">
      <Points>
        <DataArray type="Float32" NumberOfComponents="3" format="ascii">
                       2.97341                       0.00000                       2.18990
                       2.88000                       0.73945                       2.18990
                       2.60563                       1.43244                       2.18991
                       2.16753                       2.03542                       2.18992
                       1.59325                       2.51051                       2.18994
                       0.91886                       2.82785                       2.18996
                       0.18674                       2.96751                       2.18999
                      -0.55712                       2.92071                       2.19002
                      -1.26596                       2.69039                       2.19004
                      -1.89526                       2.29103                       2.19006
                      -2.40547                       1.74771                       2.19008
                      -2.76454                       1.09457                       2.19010
                      -2.94989                       0.37266                       2.19010
                      -2.94989                      -0.37266                       2.19010
                      -2.76454                      -1.09457                       2.19010
                      -2.40547                      -1.74770                       2.19009
                      -1.89526                      -2.29102                       2.19007
                      -1.26596                      -2.69039                       2.19005
                      -0.55712                      -2.92071                       2.19002
                       0.18674                      -2.96751                       2.19000
                       0.91886                      -2.82785                       2.18997
                       1.59325                      -2.51050                       2.18995
                       2.16753                      -2.03541                       2.18993
                       2.60563                      -1.43243                       2.18991
                       2.88000                      -0.73945                       2.18990
                       2.92050                       0.00001                       6.56965
                       2.82876                       0.72622                       6.56966
                       2.55930                       1.40679                       6.56969
                       2.12905                       1.99898                       6.56974
                       1.56505                       2.46556                       6.56980
                       0.90274                       2.77722                       6.56988
                       0.18373                       2.91438                       6.56997
                      -0.54680                       2.86841                       6.57006
                      -1.24296                       2.64222                       6.57014
                      -1.86099                       2.25001                       6.57022
                      -2.36206                       1.71642                       6.57028
                      -2.71469                       1.07498                       6.57032
                      -2.89673                       0.36600                       6.57035
                      -2.89673                      -0.36598                       6.57035
                      -2.71469                      -1.07496                       6.57033
                      -2.36206                      -1.71639                       6.57029
                      -1.86099                      -2.24998                       6.57023
                      -1.24296                      -2.64220                       6.57016
                      -0.54680                      -2.86839                       6.57008
                       0.18373                      -2.91435                       6.56999
                       0.90274                      -2.77719                       6.56990
                       1.56505                      -2.46553                       6.56982
                       2.12905                      -1.99895                       6.56975
                       2.55930                      -1.40677                       6.56970
                       2.82876                      -0.72619                       6.56966
                       2.86798                       0.00003                      10.94938
                       2.77791                       0.71299                      10.94940
                       2.51336                       1.38116                      10.94945
                       2.09096                       1.96254                      10.94954
                       1.53725                       2.42061                      10.94966
                       0.88702                       2.72659                      10.94980
                       0.18111                       2.86125                      10.94995
                      -0.53610                       2.81613                      10.95010
                      -1.21955                       2.59406                      10.95025
                      -1.82631                       2.20900                      10.95038
                      -2.31825                       1.68514                      10.95049
                      -2.66445                       1.05540                      10.95057
                      -2.84317                       0.35935                      10.95061
                      -2.84317                      -0.35928                      10.95061
                      -2.66445                      -1.05534                      10.95058
                      -2.31825                      -1.68508                      10.95051
                      -1.82631                      -2.20893                      10.95040
                      -1.21955                      -2.59399                      10.95027
                      -0.53610                      -2.81606                      10.95013
                       0.18112                      -2.86119                      10.94998
                       0.88702                      -2.72653                      10.94982
                       1.53725                      -2.42055                      10.94968
                       2.09096                      -1.96248                      10.94956
                       2.51336                      -1.38110                      10.94947
                       2.77791                      -0.71293                      10.94941
                       2.81588                       0.00005                      15.32912
                       2.72748                       0.69977                      15.32915
                       2.46785                       1.35553                      15.32922
                       2.05330                       1.92611                      15.32935
                       1.50987                       2.37568                      15.32952
                       0.87171                       2.67597                      15.32971
                       0.17892                       2.80813                      15.32993
                      -0.52497                       2.76384                      15.33015
                      -1.19573                       2.54590                      15.33036
                      -1.79122                       2.16799                      15.33055
                      -2.27402                       1.65386                      15.33070
                      -2.61379                       1.03582                      15.33081
                      -2.78918                       0.35269                      15.33087
                      -2.78918                      -0.35259                      15.33087
                      -2.61379                      -1.03571                      15.33082
                      -2.27402                      -1.65375                      15.33072
                      -1.79122                      -2.16788                      15.33057
                      -1.19573                      -2.54579                      15.33039
                      -0.52497                      -2.76373                      15.33018
                       0.17892                      -2.80802                      15.32996
                       0.87171                      -2.67586                      15.32974
                       1.50987                      -2.37557                      15.32954
                       2.05330                      -1.92601                      15.32937
                       2.46785                      -1.35542                      15.32924
                       2.72748                      -0.69967                      15.32915
                       2.76420                       0.00008                      19.70888
                       2.67748                       0.68655                      19.70891
                       2.42276                       1.32990                      19.70901
                       2.01605                       1.88968                      19.70917
                       1.48291                       2.33074                      19.70939
                       0.85683                       2.62535                      19.70964
                       0.17715                       2.75501                      19.70991
                      -0.51342                       2.71156                      19.71020
                      -1.17148                       2.49774                      19.71046
                      -1.75570                       2.12698                      19.71070
                      -2.22936                       1.62259                      19.71090
                      -2.56271                       1.01624                      19.71104
                      -2.73478                       0.34604                      19.71111
                      -2.73478                      -0.34589                      19.71111
                      -2.56271                      -1.01608                      19.71105
                      -2.22936                      -1.62243                      19.71091
                      -1.75570                      -2.12683                      19.71072
                      -1.17148                      -2.49758                      19.71049
                      -0.51342                      -2.71140                      19.71022
                       0.17715                      -2.75485                      19.70994
                       0.85683                      -2.62519                      19.70967
                       1.48291                      -2.33058                      19.70941
                       2.01605                      -1.88953                      19.70919
                       2.42276                      -1.32974                      19.70903
                       2.67748                      -0.68640                      19.70892
                       2.71292                       0.00010                      24.08866
                       2.62788                       0.67333                      24.08870
                       2.37807                       1.30427                      24.08882
                       1.97921                       1.85325                      24.08902
                       1.45635                       2.28580                      24.08927
                       0.84235                       2.57473                      24.08957
                       0.17578                       2.70188                      24.08990
                      -0.50146                       2.65927                      24.09024
                      -1.14684                       2.44958                      24.09056
                      -1.71979                       2.08597                      24.09084
                      -2.18431                       1.59131                      24.09108
                      -2.51122                       0.99666                      24.09124
                      -2.67998                       0.33939                      24.09133
                      -2.67998                      -0.33919                      24.09133
                      -2.51122                      -0.99646                      24.09125
                      -2.18431                      -1.59111                      24.09109
                      -1.71979                      -2.08578                      24.09086
                      -1.14684                      -2.44938                      24.09058
                      -0.50146                      -2.65908                      24.09026
                       0.17578                      -2.70168                      24.08993
                       0.84235                      -2.57453                      24.08960
                       1.45635                      -2.28560                      24.08929
                       1.97921                      -1.85306                      24.08903
                       2.37807                      -1.30407                      24.08883
                       2.62788                      -0.67314                      24.08870
                       2.66202                       0.00011                      28.46847
                       2.57865                       0.66010                      28.46851
                       2.33376                       1.27863                      28.46865
                       1.94274                       1.81681                      28.46888
                       1.43017                       2.24085                      28.46917
                       0.82824                       2.52410                      28.46952
                       0.17479                       2.64875                      28.46990
                      -0.48914                       2.60698                      28.47028
                      -1.12181                       2.40141                      28.47065
                      -1.68349                       2.04496                      28.47097
                      -2.13888                       1.56002                      28.47124
                      -2.45936                       0.97707                      28.47142
                      -2.62480                       0.33273                      28.47152
                      -2.62480                      -0.33251                      28.47152
                      -2.45936                      -0.97685                      28.47143
                      -2.13888                      -1.55980                      28.47124
                      -1.68349                      -2.04473                      28.47098
                      -1.12181                      -2.40119                      28.47066
                      -0.48914                      -2.60676                      28.47029
                       0.17479                      -2.64853                      28.46991
                       0.82824                      -2.52387                      28.46953
                       1.43017                      -2.24063                      28.46918
                       1.94274                      -1.81659                      28.46888
                       2.33376                      -1.27840                      28.46866
                       2.57865                      -0.65988                      28.46852
                       2.61148                       0.00011                      32.84829
                       2.52977                       0.64686                      32.84835
                       2.28980                       1.25297                      32.84851
                       1.90662                       1.78036                      32.84876
                       1.40433                       2.19589                      32.84909
                       0.81449                       2.47345                      32.84948
                       0.17415                       2.59561                      32.84989
                      -0.47646                       2.55467                      32.85032
                      -1.09644                       2.35323                      32.85073
                      -1.64685                       2.00393                      32.85109
                      -2.09310                       1.52872                      32.85138
                      -2.40715                       0.95747                      32.85158
                      -2.56927                       0.32606                      32.85169
                      -2.56927                      -0.32583                      32.85169
                      -2.40715                      -0.95724                      32.85158
                      -2.09310                      -1.52850                      32.85137
                      -1.64685                      -2.00370                      32.85108
                      -1.09644                      -2.35300                      32.85072
                      -0.47646                      -2.55445                      32.85031
                       0.17415                      -2.59538                      32.84989
                       0.81449                      -2.47323                      32.84947
                       1.40433                      -2.19567                      32.84908
                       1.90662                      -1.78014                      32.84875
                       2.28980                      -1.25275                      32.84850
                       2.52977                      -0.64664                      32.84835
                       2.56125                       0.00009                      37.22814
                       2.48122                       0.63360                      37.22820
                       2.24616                       1.22730                      37.22838
                       1.87084                       1.74389                      37.22866
                       1.37883                       2.15091                      37.22902
                       0.80106                       2.42279                      37.22944
                       0.17383                       2.54244                      37.22990
                      -0.46345                       2.50235                      37.23036
                      -1.07074                       2.30503                      37.23080
                      -1.60988                       1.96288                      37.23119
                      -2.04699                       1.49740                      37.23151
                      -2.35461                       0.93785                      37.23173
                      -2.51341                       0.31937                      37.23184
                      -2.51341                      -0.31918                      37.23183
                      -2.35461                      -0.93766                      37.23171
                      -2.04699                      -1.49721                      37.23149
                      -1.60988                      -1.96269                      37.23117
                      -1.07074                      -2.30484                      37.23077
                      -0.46345                      -2.50216                      37.23033
                       0.17383                      -2.54225                      37.22986
                       0.80106                      -2.42260                      37.22941
                       1.37883                      -2.15073                      37.22899
                       1.87084                      -1.74370                      37.22863
                       2.24616                      -1.22711                      37.22836
                       2.48122                      -0.63341                      37.22820
                       2.51135                       0.00005                      41.60800
                       2.43299                       0.62032                      41.60807
                       2.20284                       1.20161                      41.60826
                       1.83536                       1.70740                      41.60856
                       1.35364                       2.10591                      41.60895
                       0.78795                       2.37211                      41.60941
                       0.17383                       2.48926                      41.60990
                      -0.45013                       2.45000                      41.61040
                      -1.04472                       2.25681                      41.61087
                      -1.57259                       1.92181                      41.61129
                      -2.00057                       1.46606                      41.61163
                      -2.30175                       0.91820                      41.61186
                      -2.45723                       0.31265                      41.61198
                      -2.45723                      -0.31254                      41.61197
                      -2.30175                      -0.91809                      41.61184
                      -2.00057                      -1.46596                      41.61159
                      -1.57259                      -1.92170                      41.61124
                      -1.04472                      -2.25670                      41.61082
                      -0.45013                      -2.44989                      41.61034
                       0.17383                      -2.48915                      41.60984
                       0.78795                      -2.37200                      41.60935
                       1.35364                      -2.10581                      41.60890
                       1.83536                      -1.70729                      41.60852
                       2.20284                      -1.20150                      41.60823
                       2.43299                      -0.62021                      41.60806
                       2.46175                      -0.00002                      45.98787
                       2.38507                       0.60700                      45.98795
                       2.15983                       1.17588                      45.98816
                       1.80020                       1.67088                      45.98848
                       1.32876                       2.06088                      45.98890
                       0.77515                       2.32139                      45.98938
                       0.17414                       2.43604                      45.98991
                      -0.43650                       2.39762                      45.99044
                      -1.01840                       2.20855                      45.99094
                      -1.53499                       1.88071                      45.99138
                      -1.95383                       1.43469                      45.99174
                      -2.24859                       0.89853                      45.99198
                      -2.40075                       0.30591                      45.99211
                      -2.40075                      -0.30594                      45.99209
                      -2.24859                      -0.89856                      45.99195
                      -1.95383                      -1.43473                      45.99168
                      -1.53499                      -1.88074                      45.99131
                      -1.01840                      -2.20859                      45.99085
                      -0.43650                      -2.39766                      45.99034
                       0.17414                      -2.43607                      45.98981
                       0.77515                      -2.32143                      45.98929
                       1.32876                      -2.06092                      45.98882
                       1.80020                      -1.67091                      45.98841
                       2.15983                      -1.17592                      45.98811
                       2.38507                      -0.60704                      45.98793
                       2.41247                      -0.00012                      50.36774
                       2.33745                       0.59366                      50.36783
                       2.11713                       1.15013                      50.36805
                       1.76535                       1.63432                      50.36840
                       1.30420                       2.01582                      50.36884
                       0.76266                       2.27064                      50.36936
                       0.17476                       2.38279                      50.36992
                      -0.42255                       2.34521                      50.37048
                      -0.99176                       2.16027                      50.37101
                      -1.49709                       1.83957                      50.37148
                      -1.90679                       1.40329                      50.37185
                      -2.19511                       0.87882                      50.37211
                      -2.34395                       0.29913                      50.37223
                      -2.34395                      -0.29937                      50.37221
                      -2.19511                      -0.87907                      50.37206
                      -1.90679                      -1.40353                      50.37177
                      -1.49709                      -1.83982                      50.37137
                      -0.99176                      -2.16051                      50.37089
                      -0.42255                      -2.34546                      50.37035
                       0.17476                      -2.38304                      50.36978
                       0.76266                      -2.27089                      50.36923
                       1.30420                      -2.01606                      50.36873
                       1.76535                      -1.63456                      50.36831
                       2.11713                      -1.15037                      50.36799
                       2.33745                      -0.59390                      50.36780
                       2.36350                      -0.00027                      54.74762
                       2.29016                       0.58027                      54.74772
                       2.07476                       1.12433                      54.74796
                       1.73081                       1.59772                      54.74832
                       1.27995                       1.97071                      54.74880
                       0.75049                       2.21985                      54.74934
                       0.17570                       2.32950                      54.74993
                      -0.40829                       2.29276                      54.75052
                      -0.96480                       2.11194                      54.75108
                      -1.45886                       1.79840                      54.75157
                      -1.85942                       1.37184                      54.75196
                      -2.14132                       0.85907                      54.75223
                      -2.28684                       0.29231                      54.75235
                      -2.28684                      -0.29284                      54.75233
                      -2.14132                      -0.85961                      54.75216
                      -1.85942                      -1.37238                      54.75185
                      -1.45886                      -1.79894                      54.75143
                      -0.96480                      -2.11247                      54.75092
                      -0.40829                      -2.29330                      54.75035
                       0.17571                      -2.33004                      54.74975
                       0.75049                      -2.22039                      54.74917
                       1.27995                      -1.97125                      54.74864
                       1.73081                      -1.59826                      54.74820
                       2.07476                      -1.12486                      54.74787
                       2.29016                      -0.58080                      54.74767
                       2.31487                      -0.00046                      59.12750
                       2.24320                       0.56683                      59.12761
                       2.03271                       1.09848                      59.12786
                       1.69661                       1.56108                      59.12825
                       1.25603                       1.92556                      59.12875
                       0.73865                       2.16902                      59.12933
                       0.17697                       2.27616                      59.12994
                      -0.39370                       2.24026                      59.13057
                      -0.93751                       2.06356                      59.13115
                      -1.42030                       1.75718                      59.13166
                      -1.81173                       1.34035                      59.13207
                      -2.08719                       0.83928                      59.13234
                      -2.22939                       0.28544                      59.13247
                      -2.22939                      -0.28636                      59.13244
                      -2.08719                      -0.84020                      59.13226
                      -1.81173                      -1.34127                      59.13193
                      -1.42030                      -1.75810                      59.13149
                      -0.93751                      -2.06449                      59.13094
                      -0.39370                      -2.24118                      59.13034
                       0.17697                      -2.27709                      59.12972
                       0.73865                      -2.16994                      59.12911
                       1.25603                      -1.92648                      59.12856
                       1.69661                      -1.56200                      59.12810
                       2.03271                      -1.09940                      59.12775
                       2.24320                      -0.56775                      59.12755
                       2.26656                      -0.00071                      63.50739
                       2.19656                       0.55334                      63.50750
                       1.99098                       1.07258                      63.50778
                       1.66273                       1.52438                      63.50819
                       1.23244                       1.88035                      63.50871
                       0.72713                       2.11813                      63.50931
                       0.17857                       2.22277                      63.50996
                      -0.37878                       2.18771                      63.51061
                      -0.90990                       2.01514                      63.51121
                      -1.38142                       1.71590                      63.51174
                      -1.76370                       1.30881                      63.51217
                      -2.03274                       0.81943                      63.51245
                      -2.17162                       0.27852                      63.51258
                      -2.17162                      -0.27993                      63.51254
                      -2.03274                      -0.82084                      63.51235
                      -1.76370                      -1.31022                      63.51200
                      -1.38142                      -1.71731                      63.51153
                      -0.90990                      -2.01655                      63.51097
                      -0.37878                      -2.18912                      63.51034
                       0.17857                      -2.22418                      63.50968
                       0.72714                      -2.11954                      63.50905
                       1.23244                      -1.88176                      63.50848
                       1.66273                      -1.52579                      63.50800
                       1.99098                      -1.07399                      63.50764
                       2.19656                      -0.55476                      63.50744
                       2.21856                      -0.00100                      67.88730
                       2.15024                       0.53981                      67.88742
                       1.94958                       1.04663                      67.88771
                       1.62917                       1.48763                      67.88814
                       1.20916                       1.83509                      67.88868
                       0.71594                       2.06719                      67.88931
                       0.18049                       2.16933                      67.88997
                      -0.36354                       2.13510                      67.89064
                      -0.88197                       1.96666                      67.89127
                      -1.34222                       1.67458                      67.89181
                      -1.71537                       1.27721                      67.89225
                      -1.97797                       0.79953                      67.89253
                      -2.11354                       0.27155                      67.89266
                      -2.11354                      -0.27355                      67.89262
                      -1.97797                      -0.80153                      67.89242
                      -1.71537                      -1.27921                      67.89206
                      -1.34222                      -1.67658                      67.89157
                      -0.88197                      -1.96866                      67.89098
                      -0.36354                      -2.13711                      67.89033
                       0.18049                      -2.17134                      67.88965
                       0.71594                      -2.06919                      67.88900
                       1.20916                      -1.83710                      67.88841
                       1.62917                      -1.48964                      67.88792
                       1.94958                      -1.04864                      67.88755
                       2.15024                      -0.54181                      67.88734
                       2.17084                      -0.00135                      72.26725
                       2.10420                       0.52621                      72.26738
                       1.90844                       1.02063                      72.26767
                       1.59588                       1.45083                      72.26811
                       1.18616                       1.78978                      72.26867
                       0.70501                       2.01620                      72.26931
                       0.18267                       2.11584                      72.26999
                      -0.34804                       2.08245                      72.27067
                      -0.85377                       1.91813                      72.27131
                      -1.30275                       1.63320                      72.27186
                      -1.66676                       1.24556                      72.27230
                      -1.92293                       0.77958                      72.27259
                      -2.05518                       0.26453                      72.27271
                      -2.05518                      -0.26723                      72.27267
                      -1.92293                      -0.78228                      72.27245
                      -1.66676                      -1.24826                      72.27208
                      -1.30275                      -1.63590                      72.27158
                      -0.85377                      -1.92083                      72.27098
                      -0.34804                      -2.08515                      72.27031
                       0.18267                      -2.11854                      72.26962
                       0.70501                      -2.01890                      72.26896
                       1.18616                      -1.79249                      72.26836
                       1.59588                      -1.45353                      72.26786
                       1.90844                      -1.02333                      72.26750
                       2.10420                      -0.52892                      72.26729
                       2.12331                      -0.00175                      76.64725
                       2.05834                       0.51257                      76.64738
                       1.86750                       0.99457                      76.64768
                       1.56279                       1.41398                      76.64812
                       1.16335                       1.74442                      76.64868
                       0.69427                       1.96515                      76.64932
                       0.18505                       2.06229                      76.65000
                      -0.33234                       2.02974                      76.65068
                      -0.82537                       1.86954                      76.65132
                      -1.26308                       1.59177                      76.65187
                      -1.61796                       1.21386                      76.65230
                      -1.86770                       0.75958                      76.65258
                      -1.99663                       0.25745                      76.65271
                      -1.99663                      -0.26096                      76.65266
                      -1.86770                      -0.76308                      76.65244
                      -1.61796                      -1.21737                      76.65206
                      -1.26308                      -1.59527                      76.65156
                      -0.82537                      -1.87305                      76.65095
                      -0.33234                      -2.03324                      76.65029
                       0.18505                      -2.06580                      76.64960
                       0.69427                      -1.96866                      76.64894
                       1.16334                      -1.74793                      76.64834
                       1.56279                      -1.41748                      76.64785
                       1.86750                      -0.99808                      76.64749
                       2.05834                      -0.51607                      76.64728
                       2.07584                      -0.00220                      81.02733
                       2.01254                       0.49888                      81.02746
                       1.82662                       0.96848                      81.02776
                       1.52975                       1.37708                      81.02819
                       1.14059                       1.69902                      81.02873
                       0.68360                       1.91406                      81.02936
                       0.18748                       2.00870                      81.03002
                      -0.31658                       1.97699                      81.03068
                      -0.79692                       1.82092                      81.03129
                      -1.22336                       1.55029                      81.03182
                      -1.56910                       1.18212                      81.03223
                      -1.81241                       0.73953                      81.03251
                      -1.93802                       0.25033                      81.03262
                      -1.93802                      -0.25473                      81.03257
                      -1.81241                      -0.74392                      81.03235
                      -1.56910                      -1.18651                      81.03198
                      -1.22336                      -1.55469                      81.03149
                      -0.79692                      -1.82531                      81.03090
                      -0.31658                      -1.98138                      81.03026
                       0.18748                      -2.01310                      81.02959
                       0.68360                      -1.91846                      81.02895
                       1.14059                      -1.70341                      81.02837
                       1.52975                      -1.38147                      81.02790
                       1.82662                      -0.97287                      81.02755
                       2.01254                      -0.50328                      81.02736
                       2.02822                      -0.00268                      85.40752
                       1.96660                       0.48516                      85.40765
                       1.78558                       0.94234                      85.40793
                       1.49656                       1.34015                      85.40833
                       1.11769                       1.65358                      85.40884
                       0.67278                       1.86294                      85.40942
                       0.18977                       1.95508                      85.41003
                      -0.30097                       1.92420                      85.41064
                      -0.76862                       1.77225                      85.41121
                      -1.18379                       1.50878                      85.41170
                      -1.52039                       1.15033                      85.41208
                      -1.75727                       0.71944                      85.41233
                      -1.87956                       0.24318                      85.41242
                      -1.87956                      -0.24854                      85.41237
                      -1.75727                      -0.72480                      85.41216
                      -1.52039                      -1.15569                      85.41182
                      -1.18379                      -1.51414                      85.41136
                      -0.76862                      -1.77761                      85.41081
                      -0.30097                      -1.92956                      85.41021
                       0.18977                      -1.96043                      85.40959
                       0.67278                      -1.86829                      85.40900
                       1.11769                      -1.65893                      85.40847
                       1.49656                      -1.34550                      85.40803
                       1.78558                      -0.94770                      85.40771
                       1.96660                      -0.49051                      85.40754
                       2.00427                      -0.00293                      87.59766
                       1.94348                       0.47829                      87.59779
                       1.76492                       0.92926                      87.59806
                       1.47983                       1.32167                      87.59844
                       1.10610                       1.63085                      87.59892
                       0.66722                       1.83737                      87.59947
                       0.19077                       1.92825                      87.60004
                      -0.29331                       1.89780                      87.60061
                      -0.75461                       1.74791                      87.60115
                      -1.16414                       1.48801                      87.60160
                      -1.49617                       1.13444                      87.60196
                      -1.72984                       0.70939                      87.60219
                      -1.85047                       0.23959                      87.60227
                      -1.85047                      -0.24545                      87.60222
                      -1.72984                      -0.71525                      87.60202
                      -1.49617                      -1.14029                      87.60170
                      -1.16414                      -1.49387                      87.60126
                      -0.75461                      -1.75377                      87.60074
                      -0.29331                      -1.90365                      87.60018
                       0.19077                      -1.93411                      87.59960
                       0.66722                      -1.84322                      87.59904
                       1.10610                      -1.63670                      87.59855
                       1.47983                      -1.32753                      87.59814
                       1.76492                      -0.93512                      87.59784
                       1.94348                      -0.48414                      87.59768
                       3.00000                       0.00000                       0.00000
                       2.90575                       0.74607                       0.00000
                       2.62892                       1.44526                       0.00000
                       2.18691                       2.05364                       0.00000
                       1.60748                       2.53298                       0.00000
                       0.92705                       2.85317                       0.00000
                       0.18837                       2.99408                       0.00000
                      -0.56214                       2.94686                       0.00000
                      -1.27734                       2.71448                       0.00000
                      -1.91227                       2.31154                       0.00000
                      -2.42705                       1.76336                       0.00000
                      -2.78933                       1.10437                       0.00000
                      -2.97634                       0.37600                       0.00000
                      -2.97634                      -0.37600                       0.00000
                      -2.78933                      -1.10437                       0.00000
                      -2.42705                      -1.76336                       0.00000
                      -1.91227                      -2.31154                       0.00000
                      -1.27734                      -2.71448                       0.00000
                      -0.56214                      -2.94686                       0.00000
                       0.18837                      -2.99408                       0.00000
                       0.92705                      -2.85317                       0.00000
                       1.60748                      -2.53298                       0.00000
                       2.18691                      -2.05364                       0.00000
                       2.62892                      -1.44526                       0.00000
                       2.90575                      -0.74607                       0.00000
        </DataArray>
      </Points>
      <Polys>
        <DataArray type="Int32" Name="connectivity" format="ascii">
      0      1     26     25
      1      2     27     26
      2      3     28     27
      3      4     29     28
      4      5     30     29
      5      6     31     30
      6      7     32     31
      7      8     33     32
      8      9     34     33
      9     10     35     34
     10     11     36     35
     11     12     37     36
     12     13     38     37
     13     14     39     38
     14     15     40     39
     15     16     41     40
     16     17     42     41
     17     18     43     42
     18     19     44     43
     19     20     45     44
     20     21     46     45
     21     22     47     46
     22     23     48     47
     23     24     49     48
     24      0     25     49
     24     23     22     21     20     19     18     17     16     15     14     13     12     11     10      9      8      7      6      5      4      3      2      1      0
     25     26     27     28     29     30     31     32     33     34     35     36     37     38     39     40     41     42     43     44     45     46     47     48     49
     25     26     51     50
     26     27     52     51
     27     28     53     52
     28     29     54     53
     29     30     55     54
     30     31     56     55
     31     32     57     56
     32     33     58     57
     33     34     59     58
     34     35     60     59
     35     36     61     60
     36     37     62     61
     37     38     63     62
     38     39     64     63
     39     40     65     64
     40     41     66     65
     41     42     67     66
     42     43     68     67
     43     44     69     68
     44     45     70     69
     45     46     71     70
     46     47     72     71
     47     48     73     72
     48     49     74     73
     49     25     50     74
     49     48     47     46     45     44     43     42     41     40     39     38     37     36     35     34     33     32     31     30     29     28     27     26     25
     50     51     52     53     54     55     56     57     58     59     60     61     62     63     64     65     66     67     68     69     70     71     72     73     74
     50     51     76     75
     51     52     77     76
     52     53     78     77
     53     54     79     78
     54     55     80     79
     55     56     81     80
     56     57     82     81
     57     58     83     82
     58     59     84     83
     59     60     85     84
     60     61     86     85
     61     62     87     86
     62     63     88     87
     63     64     89     88
     64     65     90     89
     65     66     91     90
     66     67     92     91
     67     68     93     92
     68     69     94     93
     69     70     95     94
     70     71     96     95
     71     72     97     96
     72     73     98     97
     73     74     99     98
     74     50     75     99
     74     73     72     71     70     69     68     67     66     65     64     63     62     61     60     59     58     57     56     55     54     53     52     51     50
     75     76     77     78     79     80     81     82     83     84     85     86     87     88     89     90     91     92     93     94     95     96     97     98     99
     75     76    101    100
     76     77    102    101
     77     78    103    102
     78     79    104    103
     79     80    105    104
     80     81    106    105
     81     82    107    106
     82     83    108    107
     83     84    109    108
     84     85    110    109
     85     86    111    110
     86     87    112    111
     87     88    113    112
     88     89    114    113
     89     90    115    114
     90     91    116    115
     91     92    117    116
     92     93    118    117
     93     94    119    118
     94     95    120    119
     95     96    121    120
     96     97    122    121
     97     98    123    122
     98     99    124    123
     99     75    100    124
     99     98     97     96     95     94     93     92     91     90     89     88     87     86     85     84     83     82     81     80     79     78     77     76     75
    100    101    102    103    104    105    106    107    108    109    110    111    112    113    114    115    116    117    118    119    120    121    122    123    124
    100    101    126    125
    101    102    127    126
    102    103    128    127
    103    104    129    128
    104    105    130    129
    105    106    131    130
    106    107    132    131
    107    108    133    132
    108    109    134    133
    109    110    135    134
    110    111    136    135
    111    112    137    136
    112    113    138    137
    113    114    139    138
    114    115    140    139
    115    116    141    140
    116    117    142    141
    117    118    143    142
    118    119    144    143
    119    120    145    144
    120    121    146    145
    121    122    147    146
    122    123    148    147
    123    124    149    148
    124    100    125    149
    124    123    122    121    120    119    118    117    116    115    114    113    112    111    110    109    108    107    106    105    104    103    102    101    100
    125    126    127    128    129    130    131    132    133    134    135    136    137    138    139    140    141    142    143    144    145    146    147    148    149
    125    126    151    150
    126    127    152    151
    127    128    153    152
    128    129    154    153
    129    130    155    154
    130    131    156    155
    131    132    157    156
    132    133    158    157
    133    134    159    158
    134    135    160    159
    135    136    161    160
    136    137    162    161
    137    138    163    162
    138    139    164    163
    139    140    165    164
    140    141    166    165
    141    142    167    166
    142    143    168    167
    143    144    169    168
    144    145    170    169
    145    146    171    170
    146    147    172    171
    147    148    173    172
    148    149    174    173
    149    125    150    174
    149    148    147    146    145    144    143    142    141    140    139    138    137    136    135    134    133    132    131    130    129    128    127    126    125
    150    151    152    153    154    155    156    157    158    159    160    161    162    163    164    165    166    167    168    169    170    171    172    173    174
    150    151    176    175
    151    152    177    176
    152    153    178    177
    153    154    179    178
    154    155    180    179
    155    156    181    180
    156    157    182    181
    157    158    183    182
    158    159    184    183
    159    160    185    184
    160    161    186    185
    161    162    187    186
    162    163    188    187
    163    164    189    188
    164    165    190    189
    165    166    191    190
    166    167    192    191
    167    168    193    192
    168    169    194    193
    169    170    195    194
    170    171    196    195
    171    172    197    196
    172    173    198    197
    173    174    199    198
    174    150    175    199
    174    173    172    171    170    169    168    167    166    165    164    163    162    161    160    159    158    157    156    155    154    153    152    151    150
    175    176    177    178    179    180    181    182    183    184    185    186    187    188    189    190    191    192    193    194    195    196    197    198    199
    175    176    201    200
    176    177    202    201
    177    178    203    202
    178    179    204    203
    179    180    205    204
    180    181    206    205
    181    182    207    206
    182    183    208    207
    183    184    209    208
    184    185    210    209
    185    186    211    210
    186    187    212    211
    187    188    213    212
    188    189    214    213
    189    190    215    214
    190    191    216    215
    191    192    217    216
    192    193    218    217
    193    194    219    218
    194    195    220    219
    195    196    221    220
    196    197    222    221
    197    198    223    222
    198    199    224    223
    199    175    200    224
    199    198    197    196    195    194    193    192    191    190    189    188    187    186    185    184    183    182    181    180    179    178    177    176    175
    200    201    202    203    204    205    206    207    208    209    210    211    212    213    214    215    216    217    218    219    220    221    222    223    224
    200    201    226    225
    201    202    227    226
    202    203    228    227
    203    204    229    228
    204    205    230    229
    205    206    231    230
    206    207    232    231
    207    208    233    232
    208    209    234    233
    209    210    235    234
    210    211    236    235
    211    212    237    236
    212    213    238    237
    213    214    239    238
    214    215    240    239
    215    216    241    240
    216    217    242    241
    217    218    243    242
    218    219    244    243
    219    220    245    244
    220    221    246    245
    221    222    247    246
    222    223    248    247
    223    224    249    248
    224    200    225    249
    224    223    222    221    220    219    218    217    216    215    214    213    212    211    210    209    208    207    206    205    204    203    202    201    200
    225    226    227    228    229    230    231    232    233    234    235    236    237    238    239    240    241    242    243    244    245    246    247    248    249
    225    226    251    250
    226    227    252    251
    227    228    253    252
    228    229    254    253
    229    230    255    254
    230    231    256    255
    231    232    257    256
    232    233    258    257
    233    234    259    258
    234    235    260    259
    235    236    261    260
    236    237    262    261
    237    238    263    262
    238    239    264    263
    239    240    265    264
    240    241    266    265
    241    242    267    266
    242    243    268    267
    243    244    269    268
    244    245    270    269
    245    246    271    270
    246    247    272    271
    247    248    273    272
    248    249    274    273
    249    225    250    274
    249    248    247    246    245    244    243    242    241    240    239    238    237    236    235    234    233    232    231    230    229    228    227    226    225
    250    251    252    253    254    255    256    257    258    259    260    261    262    263    264    265    266    267    268    269    270    271    272    273    274
    250    251    276    275
    251    252    277    276
    252    253    278    277
    253    254    279    278
    254    255    280    279
    255    256    281    280
    256    257    282    281
    257    258    283    282
    258    259    284    283
    259    260    285    284
    260    261    286    285
    261    262    287    286
    262    263    288    287
    263    264    289    288
    264    265    290    289
    265    266    291    290
    266    267    292    291
    267    268    293    292
    268    269    294    293
    269    270    295    294
    270    271    296    295
    271    272    297    296
    272    273    298    297
    273    274    299    298
    274    250    275    299
    274    273    272    271    270    269    268    267    266    265    264    263    262    261    260    259    258    257    256    255    254    253    252    251    250
    275    276    277    278    279    280    281    282    283    284    285    286    287    288    289    290    291    292    293    294    295    296    297    298    299
    275    276    301    300
    276    277    302    301
    277    278    303    302
    278    279    304    303
    279    280    305    304
    280    281    306    305
    281    282    307    306
    282    283    308    307
    283    284    309    308
    284    285    310    309
    285    286    311    310
    286    287    312    311
    287    288    313    312
    288    289    314    313
    289    290    315    314
    290    291    316    315
    291    292    317    316
    292    293    318    317
    293    294    319    318
    294    295    320    319
    295    296    321    320
    296    297    322    321
    297    298    323    322
    298    299    324    323
    299    275    300    324
    299    298    297    296    295    294    293    292    291    290    289    288    287    286    285    284    283    282    281    280    279    278    277    276    275
    300    301    302    303    304    305    306    307    308    309    310    311    312    313    314    315    316    317    318    319    320    321    322    323    324
    300    301    326    325
    301    302    327    326
    302    303    328    327
    303    304    329    328
    304    305    330    329
    305    306    331    330
    306    307    332    331
    307    308    333    332
    308    309    334    333
    309    310    335    334
    310    311    336    335
    311    312    337    336
    312    313    338    337
    313    314    339    338
    314    315    340    339
    315    316    341    340
    316    317    342    341
    317    318    343    342
    318    319    344    343
    319    320    345    344
    320    321    346    345
    321    322    347    346
    322    323    348    347
    323    324    349    348
    324    300    325    349
    324    323    322    321    320    319    318    317    316    315    314    313    312    311    310    309    308    307    306    305    304    303    302    301    300
    325    326    327    328    329    330    331    332    333    334    335    336    337    338    339    340    341    342    343    344    345    346    347    348    349
    325    326    351    350
    326    327    352    351
    327    328    353    352
    328    329    354    353
    329    330    355    354
    330    331    356    355
    331    332    357    356
    332    333    358    357
    333    334    359    358
    334    335    360    359
    335    336    361    360
    336    337    362    361
    337    338    363    362
    338    339    364    363
    339    340    365    364
    340    341    366    365
    341    342    367    366
    342    343    368    367
    343    344    369    368
    344    345    370    369
    345    346    371    370
    346    347    372    371
    347    348    373    372
    348    349    374    373
    349    325    350    374
    349    348    347    346    345    344    343    342    341    340    339    338    337    336    335    334    333    332    331    330    329    328    327    326    325
    350    351    352    353    354    355    356    357    358    359    360    361    362    363    364    365    366    367    368    369    370    371    372    373    374
    350    351    376    375
    351    352    377    376
    352    353    378    377
    353    354    379    378
    354    355    380    379
    355    356    381    380
    356    357    382    381
    357    358    383    382
    358    359    384    383
    359    360    385    384
    360    361    386    385
    361    362    387    386
    362    363    388    387
    363    364    389    388
    364    365    390    389
    365    366    391    390
    366    367    392    391
    367    368    393    392
    368    369    394    393
    369    370    395    394
    370    371    396    395
    371    372    397    396
    372    373    398    397
    373    374    399    398
    374    350    375    399
    374    373    372    371    370    369    368    367    366    365    364    363    362    361    360    359    358    357    356    355    354    353    352    351    350
    375    376    377    378    379    380    381    382    383    384    385    386    387    388    389    390    391    392    393    394    395    396    397    398    399
    375    376    401    400
    376    377    402    401
    377    378    403    402
    378    379    404    403
    379    380    405    404
    380    381    406    405
    381    382    407    406
    382    383    408    407
    383    384    409    408
    384    385    410    409
    385    386    411    410
    386    387    412    411
    387    388    413    412
    388    389    414    413
    389    390    415    414
    390    391    416    415
    391    392    417    416
    392    393    418    417
    393    394    419    418
    394    395    420    419
    395    396    421    420
    396    397    422    421
    397    398    423    422
    398    399    424    423
    399    375    400    424
    399    398    397    396    395    394    393    392    391    390    389    388    387    386    385    384    383    382    381    380    379    378    377    376    375
    400    401    402    403    404    405    406    407    408    409    410    411    412    413    414    415    416    417    418    419    420    421    422    423    424
    400    401    426    425
    401    402    427    426
    402    403    428    427
    403    404    429    428
    404    405    430    429
    405    406    431    430
    406    407    432    431
    407    408    433    432
    408    409    434    433
    409    410    435    434
    410    411    436    435
    411    412    437    436
    412    413    438    437
    413    414    439    438
    414    415    440    439
    415    416    441    440
    416    417    442    441
    417    418    443    442
    418    419    444    443
    419    420    445    444
    420    421    446    445
    421    422    447    446
    422    423    448    447
    423    424    449    448
    424    400    425    449
    424    423    422    421    420    419    418    417    416    415    414    413    412    411    410    409    408    407    406    405    404    403    402    401    400
    425    426    427    428    429    430    431    432    433    434    435    436    437    438    439    440    441    442    443    444    445    446    447    448    449
    425    426    451    450
    426    427    452    451
    427    428    453    452
    428    429    454    453
    429    430    455    454
    430    431    456    455
    431    432    457    456
    432    433    458    457
    433    434    459    458
    434    435    460    459
    435    436    461    460
    436    437    462    461
    437    438    463    462
    438    439    464    463
    439    440    465    464
    440    441    466    465
    441    442    467    466
    442    443    468    467
    443    444    469    468
    444    445    470    469
    445    446    471    470
    446    447    472    471
    447    448    473    472
    448    449    474    473
    449    425    450    474
    449    448    447    446    445    444    443    442    441    440    439    438    437    436    435    434    433    432    431    430    429    428    427    426    425
    450    451    452    453    454    455    456    457    458    459    460    461    462    463    464    465    466    467    468    469    470    471    472    473    474
    450    451    476    475
    451    452    477    476
    452    453    478    477
    453    454    479    478
    454    455    480    479
    455    456    481    480
    456    457    482    481
    457    458    483    482
    458    459    484    483
    459    460    485    484
    460    461    486    485
    461    462    487    486
    462    463    488    487
    463    464    489    488
    464    465    490    489
    465    466    491    490
    466    467    492    491
    467    468    493    492
    468    469    494    493
    469    470    495    494
    470    471    496    495
    471    472    497    496
    472    473    498    497
    473    474    499    498
    474    450    475    499
    474    473    472    471    470    469    468    467    466    465    464    463    462    461    460    459    458    457    456    455    454    453    452    451    450
    475    476    477    478    479    480    481    482    483    484    485    486    487    488    489    490    491    492    493    494    495    496    497    498    499
    475    476    501    500
    476    477    502    501
    477    478    503    502
    478    479    504    503
    479    480    505    504
    480    481    506    505
    481    482    507    506
    482    483    508    507
    483    484    509    508
    484    485    510    509
    485    486    511    510
    486    487    512    511
    487    488    513    512
    488    489    514    513
    489    490    515    514
    490    491    516    515
    491    492    517    516
    492    493    518    517
    493    494    519    518
    494    495    520    519
    495    496    521    520
    496    497    522    521
    497    498    523    522
    498    499    524    523
    499    475    500    524
    499    498    497    496    495    494    493    492    491    490    489    488    487    486    485    484    483    482    481    480    479    478    477    476    475
    500    501    502    503    504    505    506    507    508    509    510    511    512    513    514    515    516    517    518    519    520    521    522    523    524
    525    526      1      0
    526    527      2      1
    527    528      3      2
    528    529      4      3
    529    530      5      4
    530    531      6      5
    531    532      7      6
    532    533      8      7
    533    534      9      8
    534    535     10      9
    535    536     11     10
    536    537     12     11
    537    538     13     12
    538    539     14     13
    539    540     15     14
    540    541     16     15
    541    542     17     16
    542    543     18     17
    543    544     19     18
    544    545     20     19
    545    546     21     20
    546    547     22     21
    547    548     23     22
    548    549     24     23
    549    525      0     24
    549    548    547    546    545    544    543    542    541    540    539    538    537    536    535    534    533    532    531    530    529    528    527    526    525
      0      1      2      3      4      5      6      7      8      9     10     11     12     13     14     15     16     17     18     19     20     21     22     23     24
        </DataArray>
        <DataArray type="Int32" Name="offsets" format="ascii">
      4
      8
     12
     16
     20
     24
     28
     32
     36
     40
     44
     48
     52
     56
     60
     64
     68
     72
     76
     80
     84
     88
     92
     96
    100
    125
    150
    154
    158
    162
    166
    170
    174
    178
    182
    186
    190
    194
    198
    202
    206
    210
    214
    218
    222
    226
    230
    234
    238
    242
    246
    250
    275
    300
    304
    308
    312
    316
    320
    324
    328
    332
    336
    340
    344
    348
    352
    356
    360
    364
    368
    372
    376
    380
    384
    388
    392
    396
    400
    425
    450
    454
    458
    462
    466
    470
    474
    478
    482
    486
    490
    494
    498
    502
    506
    510
    514
    518
    522
    526
    530
    534
    538
    542
    546
    550
    575
    600
    604
    608
    612
    616
    620
    624
    628
    632
    636
    640
    644
    648
    652
    656
    660
    664
    668
    672
    676
    680
    684
    688
    692
    696
    700
    725
    750
    754
    758
    762
    766
    770
    774
    778
    782
    786
    790
    794
    798
    802
    806
    810
    814
    818
    822
    826
    830
    834
    838
    842
    846
    850
    875
    900
    904
    908
    912
    916
    920
    924
    928
    932
    936
    940
    944
    948
    952
    956
    960
    964
    968
    972
    976
    980
    984
    988
    992
    996
   1000
   1025
   1050
   1054
   1058
   1062
   1066
   1070
   1074
   1078
   1082
   1086
   1090
   1094
   1098
   1102
   1106
   1110
   1114
   1118
   1122
   1126
   1130
   1134
   1138
   1142
   1146
   1150
   1175
   1200
   1204
   1208
   1212
   1216
   1220
   1224
   1228
   1232
   1236
   1240
   1244
   1248
   1252
   1256
   1260
   1264
   1268
   1272
   1276
   1280
   1284
   1288
   1292
   1296
   1300
   1325
   1350
   1354
   1358
   1362
   1366
   1370
   1374
   1378
   1382
   1386
   1390
   1394
   1398
   1402
   1406
   1410
   1414
   1418
   1422
   1426
   1430
   1434
   1438
   1442
   1446
   1450
   1475
   1500
   1504
   1508
   1512
   1516
   1520
   1524
   1528
   1532
   1536
   1540
   1544
   1548
   1552
   1556
   1560
   1564
   1568
   1572
   1576
   1580
   1584
   1588
   1592
   1596
   1600
   1625
   1650
   1654
   1658
   1662
   1666
   1670
   1674
   1678
   1682
   1686
   1690
   1694
   1698
   1702
   1706
   1710
   1714
   1718
   1722
   1726
   1730
   1734
   1738
   1742
   1746
   1750
   1775
   1800
   1804
   1808
   1812
   1816
   1820
   1824
   1828
   1832
   1836
   1840
   1844
   1848
   1852
   1856
   1860
   1864
   1868
   1872
   1876
   1880
   1884
   1888
   1892
   1896
   1900
   1925
   1950
   1954
   1958
   1962
   1966
   1970
   1974
   1978
   1982
   1986
   1990
   1994
   1998
   2002
   2006
   2010
   2014
   2018
   2022
   2026
   2030
   2034
   2038
   2042
   2046
   2050
   2075
   2100
   2104
   2108
   2112
   2116
   2120
   2124
   2128
   2132
   2136
   2140
   2144
   2148
   2152
   2156
   2160
   2164
   2168
   2172
   2176
   2180
   2184
   2188
   2192
   2196
   2200
   2225
   2250
   2254
   2258
   2262
   2266
   2270
   2274
   2278
   2282
   2286
   2290
   2294
   2298
   2302
   2306
   2310
   2314
   2318
   2322
   2326
   2330
   2334
   2338
   2342
   2346
   2350
   2375
   2400
   2404
   2408
   2412
   2416
   2420
   2424
   2428
   2432
   2436
   2440
   2444
   2448
   2452
   2456
   2460
   2464
   2468
   2472
   2476
   2480
   2484
   2488
   2492
   2496
   2500
   2525
   2550
   2554
   2558
   2562
   2566
   2570
   2574
   2578
   2582
   2586
   2590
   2594
   2598
   2602
   2606
   2610
   2614
   2618
   2622
   2626
   2630
   2634
   2638
   2642
   2646
   2650
   2675
   2700
   2704
   2708
   2712
   2716
   2720
   2724
   2728
   2732
   2736
   2740
   2744
   2748
   2752
   2756
   2760
   2764
   2768
   2772
   2776
   2780
   2784
   2788
   2792
   2796
   2800
   2825
   2850
   2854
   2858
   2862
   2866
   2870
   2874
   2878
   2882
   2886
   2890
   2894
   2898
   2902
   2906
   2910
   2914
   2918
   2922
   2926
   2930
   2934
   2938
   2942
   2946
   2950
   2975
   3000
   3004
   3008
   3012
   3016
   3020
   3024
   3028
   3032
   3036
   3040
   3044
   3048
   3052
   3056
   3060
   3064
   3068
   3072
   3076
   3080
   3084
   3088
   3092
   3096
   3100
   3125
   3150
        </DataArray>
      </Polys>
    </Piece>
  </PolyData>
</VTKFile>
