<?xml version="1.0"?>
<VTKFile type="PolyData" version="0.1" byte_order="LittleEndian">
  <PolyData>
    <Piece NumberOfPoints="    625" NumberOfVerts="  0" NumberOfLines="      0"
           NumberOfStrips="  0" NumberOfPolys="    600">
      <Points>
        <DataArray type="Float32" NumberOfComponents="3" format="ascii">
                      -4.74620                      -1.05673                      91.07684
                      -4.74620                      -1.05673                      91.07684
                      -4.74620                      -1.05673                      91.07684
                      -4.74620                      -1.05673                      91.07684
                      -4.74620                      -1.05673                      91.07684
                      -4.74620                      -1.05673                      91.07684
                      -4.74620                      -1.05673                      91.07684
                      -4.74620                      -1.05673                      91.07684
                      -4.74620                      -1.05673                      91.07684
                      -4.74620                      -1.05673                      91.07684
                      -4.74620                      -1.05673                      91.07684
                      -4.74620                      -1.05673                      91.07684
                      -4.74620                      -1.05673                      91.07684
                      -4.74620                      -1.05673                      91.07684
                      -4.74620                      -1.05673                      91.07684
                      -4.74620                      -1.05673                      91.07684
                      -4.74620                      -1.05673                      91.07684
                      -4.74620                      -1.05673                      91.07684
                      -4.74620                      -1.05673                      91.07684
                      -4.74620                      -1.05673                      91.07684
                      -4.74620                      -1.05673                      91.07684
                      -4.74620                      -1.05673                      91.07684
                      -4.74620                      -1.05673                      91.07684
                      -4.74620                      -1.05673                      91.07684
                      -4.74620                      -1.05673                      91.07684
                      -4.15717                      -0.96885                      90.93432
                      -4.18536                      -1.07488                      90.83164
                      -4.24930                      -1.17425                      90.73880
                      -4.34496                      -1.26071                      90.66164
                      -4.46634                      -1.32884                      90.60500
                      -4.60580                      -1.37434                      90.57245
                      -4.75459                      -1.39437                      90.56603
                      -4.90336                      -1.38766                      90.58614
                      -5.04276                      -1.35463                      90.63152
                      -5.16402                      -1.29737                      90.69932
                      -5.25953                      -1.21946                      90.78528
                      -5.32330                      -1.12581                      90.88399
                      -5.35130                      -1.02229                      90.98926
                      -5.34179                      -0.91542                      91.09447
                      -5.29536                      -0.81191                      91.19300
                      -5.21492                      -0.71825                      91.27868
                      -5.10554                      -0.64034                      91.34611
                      -4.97408                      -0.58308                      91.39106
                      -4.82881                      -0.55005                      91.41070
                      -4.67885                      -0.54334                      91.40380
                      -4.53362                      -0.56337                      91.37079
                      -4.40226                      -0.60887                      91.31375
                      -4.29301                      -0.67699                      91.23626
                      -4.21273                      -0.76345                      91.14319
                      -4.16649                      -0.86282                      91.04039
                      -3.93643                      -0.88098                      90.82510
                      -3.97543                      -1.02763                      90.68307
                      -4.06386                      -1.16507                      90.55467
                      -4.19617                      -1.28466                      90.44794
                      -4.36405                      -1.37888                      90.36961
                      -4.55695                      -1.44182                      90.32459
                      -4.76275                      -1.46952                      90.31571
                      -4.96851                      -1.46024                      90.34352
                      -5.16131                      -1.41456                      90.40629
                      -5.32904                      -1.33536                      90.50007
                      -5.46114                      -1.22760                      90.61895
                      -5.54934                      -1.09807                      90.75549
                      -5.58807                      -0.95489                      90.90109
                      -5.57491                      -0.80708                      91.04660
                      -5.51069                      -0.66390                      91.18289
                      -5.39944                      -0.53437                      91.30139
                      -5.24815                      -0.42661                      91.39465
                      -5.06633                      -0.34741                      91.45682
                      -4.86539                      -0.30173                      91.48399
                      -4.65798                      -0.29244                      91.47444
                      -4.45711                      -0.32014                      91.42879
                      -4.27542                      -0.38308                      91.34990
                      -4.12431                      -0.47730                      91.24272
                      -4.01329                      -0.59689                      91.11400
                      -3.94932                      -0.73433                      90.97181
                      -3.78210                      -0.79311                      90.72188
                      -3.82876                      -0.96859                      90.55193
                      -3.93458                      -1.13305                      90.39829
                      -4.09290                      -1.27614                      90.27058
                      -4.29379                      -1.38889                      90.17685
                      -4.52461                      -1.46420                      90.12298
                      -4.77086                      -1.49735                      90.11235
                      -5.01707                      -1.48624                      90.14564
                      -5.24777                      -1.43158                      90.22074
                      -5.44847                      -1.33681                      90.33295
                      -5.60655                      -1.20787                      90.47521
                      -5.71208                      -1.05287                      90.63859
                      -5.75843                      -0.88155                      90.81281
                      -5.74268                      -0.70467                      90.98693
                      -5.66584                      -0.53335                      91.15001
                      -5.53272                      -0.37835                      91.29180
                      -5.35168                      -0.24941                      91.40340
                      -5.13412                      -0.15464                      91.47779
                      -4.89368                      -0.09998                      91.51030
                      -4.64549                      -0.08887                      91.49888
                      -4.40514                      -0.12201                      91.44425
                      -4.18773                      -0.19732                      91.34985
                      -4.00692                      -0.31007                      91.22160
                      -3.87406                      -0.45317                      91.06757
                      -3.79752                      -0.61762                      90.89743
                      -3.66474                      -0.70523                      90.62200
                      -3.71732                      -0.90298                      90.43050
                      -3.83656                      -1.08830                      90.25736
                      -4.01498                      -1.24955                      90.11345
                      -4.24135                      -1.37660                      90.00783
                      -4.50145                      -1.46147                      89.94712
                      -4.77895                      -1.49882                      89.93514
                      -5.05640                      -1.48631                      89.97265
                      -5.31637                      -1.42472                      90.05729
                      -5.54253                      -1.31792                      90.18373
                      -5.72066                      -1.17262                      90.34404
                      -5.83958                      -0.99796                      90.52814
                      -5.89181                      -0.80490                      90.72447
                      -5.87407                      -0.60558                      90.92068
                      -5.78747                      -0.41252                      91.10445
                      -5.63746                      -0.23786                      91.26424
                      -5.43346                      -0.09256                      91.38999
                      -5.18829                       0.01424                      91.47382
                      -4.91735                       0.07583                      91.51045
                      -4.63768                       0.08835                      91.49758
                      -4.36683                       0.05100                      91.43603
                      -4.12183                      -0.03386                      91.32965
                      -3.91808                      -0.16091                      91.18513
                      -3.76837                      -0.32216                      91.01155
                      -3.68212                      -0.50749                      90.81983
                      -3.57284                      -0.61736                      90.52443
                      -3.63014                      -0.83285                      90.31574
                      -3.76008                      -1.03480                      90.12706
                      -3.95450                      -1.21052                      89.97025
                      -4.20118                      -1.34897                      89.85515
                      -4.48462                      -1.44145                      89.78899
                      -4.78702                      -1.48215                      89.77594
                      -5.08936                      -1.46852                      89.81681
                      -5.37266                      -1.40140                      89.90904
                      -5.61911                      -1.28502                      90.04683
                      -5.81323                      -1.12668                      90.22153
                      -5.94282                      -0.93635                      90.42215
                      -5.99973                      -0.72597                      90.63609
                      -5.98040                      -0.50877                      90.84991
                      -5.88603                      -0.29839                      91.05017
                      -5.72256                      -0.10805                      91.22429
                      -5.50026                       0.05028                      91.36133
                      -5.23309                       0.16667                      91.45268
                      -4.93784                       0.23379                      91.49259
                      -4.63307                       0.24743                      91.47857
                      -4.33792                       0.20673                      91.41149
                      -4.07094                       0.11425                      91.29557
                      -3.84891                      -0.02420                      91.13808
                      -3.68577                      -0.19992                      90.94893
                      -3.59178                      -0.40187                      90.74001
                      -3.50048                      -0.52949                      90.42862
                      -3.56158                      -0.75925                      90.20612
                      -3.70013                      -0.97457                      90.00494
                      -3.90742                      -1.16193                      89.83774
                      -4.17044                      -1.30955                      89.71501
                      -4.47266                      -1.40816                      89.64448
                      -4.79508                      -1.45155                      89.63056
                      -5.11744                      -1.43701                      89.67414
                      -5.41950                      -1.36545                      89.77248
                      -5.68228                      -1.24136                      89.91940
                      -5.88925                      -1.07254                      90.10566
                      -6.02742                      -0.86960                      90.31957
                      -6.08811                      -0.64529                      90.54768
                      -6.06749                      -0.41370                      90.77566
                      -5.96688                      -0.18939                      90.98918
                      -5.79258                       0.01355                      91.17483
                      -5.55555                       0.18237                      91.32095
                      -5.27069                       0.30646                      91.41835
                      -4.95589                       0.37803                      91.46091
                      -4.63093                       0.39257                      91.44596
                      -4.31624                       0.34918                      91.37443
                      -4.03158                       0.25057                      91.25083
                      -3.79484                       0.10296                      91.08292
                      -3.62089                      -0.08440                      90.88124
                      -3.52068                      -0.29972                      90.65848
                      -3.44420                      -0.44161                      90.33427
                      -3.50833                      -0.68279                      90.10071
                      -3.65376                      -0.90882                      89.88954
                      -3.87136                      -1.10548                      89.71402
                      -4.14745                      -1.26044                      89.58520
                      -4.46468                      -1.36395                      89.51116
                      -4.80312                      -1.40950                      89.49655
                      -5.14151                      -1.39424                      89.54230
                      -5.45858                      -1.31912                      89.64553
                      -5.73441                      -1.18886                      89.79974
                      -5.95167                      -1.01165                      89.99526
                      -6.09670                      -0.79863                      90.21980
                      -6.16041                      -0.56317                      90.45924
                      -6.13877                      -0.32008                      90.69855
                      -6.03315                      -0.08462                      90.92268
                      -5.85019                       0.12841                      91.11756
                      -5.60139                       0.30562                      91.27094
                      -5.30237                       0.43588                      91.37317
                      -4.97193                       0.51100                      91.41785
                      -4.63082                       0.52626                      91.40216
                      -4.30049                       0.48071                      91.32708
                      -4.00169                       0.37721                      91.19733
                      -3.75318                       0.22226                      91.02108
                      -3.57059                       0.02559                      90.80938
                      -3.46540                      -0.20043                      90.57555
                      -3.40179                      -0.35374                      90.24117
                      -3.46830                      -0.60387                      89.99894
                      -3.61913                      -0.83829                      89.77993
                      -3.84481                      -1.04226                      89.59790
                      -4.13115                      -1.20297                      89.46429
                      -4.46016                      -1.31032                      89.38750
                      -4.81116                      -1.35756                      89.37235
                      -5.16211                      -1.34173                      89.41980
                      -5.49095                      -1.26382                      89.52686
                      -5.77702                      -1.12873                      89.68680
                      -6.00235                      -0.94494                      89.88958
                      -6.15277                      -0.72401                      90.12245
                      -6.21883                      -0.47981                      90.37078
                      -6.19639                      -0.22769                      90.61897
                      -6.08686                       0.01651                      90.85143
                      -5.89711                       0.23744                      91.05354
                      -5.63906                       0.42123                      91.21261
                      -5.32895                       0.55633                      91.31865
                      -4.98623                       0.63424                      91.36498
                      -4.63247                       0.65007                      91.34870
                      -4.28987                       0.60283                      91.27084
                      -3.97997                       0.49548                      91.13628
                      -3.72224                       0.33478                      90.95348
                      -3.53287                       0.13081                      90.73392
                      -3.42377                      -0.10361                      90.49141
                      -3.37179                      -0.26587                      90.14919
                      -3.44010                      -0.52275                      89.90043
                      -3.59500                      -0.76349                      89.67551
                      -3.82677                      -0.97296                      89.48857
                      -4.12083                      -1.13801                      89.35136
                      -4.45872                      -1.24825                      89.27250
                      -4.81919                      -1.29677                      89.25694
                      -5.17961                      -1.28051                      89.30566
                      -5.51733                      -1.20050                      89.41561
                      -5.81111                      -1.06177                      89.57987
                      -6.04252                      -0.87302                      89.78811
                      -6.19700                      -0.64613                      90.02727
                      -6.26484                      -0.39534                      90.28230
                      -6.24180                      -0.13642                      90.53719
                      -6.12931                       0.11437                      90.77592
                      -5.93444                       0.34127                      90.98348
                      -5.66943                       0.53001                      91.14685
                      -5.35095                       0.66875                      91.25574
                      -4.99899                       0.74877                      91.30332
                      -4.63568                       0.76503                      91.28661
                      -4.28384                       0.71651                      91.20664
                      -3.96558                       0.60627                      91.06845
                      -3.70089                       0.44122                      90.88072
                      -3.50642                       0.23175                      90.65524
                      -3.39437                      -0.00899                      90.40618
                      -3.35325                      -0.17799                      90.05825
                      -3.42282                      -0.43959                      89.80492
                      -3.58056                      -0.68475                      89.57587
                      -3.81658                      -0.89806                      89.38551
                      -4.11604                      -1.06614                      89.24578
                      -4.46012                      -1.17840                      89.16547
                      -4.82722                      -1.22781                      89.14963
                      -5.19425                      -1.21126                      89.19925
                      -5.53816                      -1.12978                      89.31121
                      -5.83734                      -0.98850                      89.47848
                      -6.07299                      -0.79629                      89.69055
                      -6.23030                      -0.56523                      89.93409
                      -6.29940                      -0.30984                      90.19381
                      -6.27593                      -0.04617                      90.45337
                      -6.16137                       0.20922                      90.69648
                      -5.96292                       0.44028                      90.90785
                      -5.69306                       0.63249                      91.07421
                      -5.36873                       0.77378                      91.18511
                      -5.01031                       0.85526                      91.23356
                      -4.64033                       0.87181                      91.21654
                      -4.28204                       0.82241                      91.13511
                      -3.95794                       0.71014                      90.99438
                      -3.68840                       0.54207                      90.80320
                      -3.49035                       0.32876                      90.57359
                      -3.37625                       0.08360                      90.31996
                      -3.34556                      -0.09012                      89.96830
                      -3.41587                      -0.35450                      89.71226
                      -3.57529                      -0.60227                      89.48077
                      -3.81382                      -0.81787                      89.28838
                      -4.11648                      -0.98773                      89.14716
                      -4.46423                      -1.10119                      89.06599
                      -4.83523                      -1.15113                      89.04998
                      -5.20618                      -1.13440                      89.10013
                      -5.55375                      -1.05205                      89.21329
                      -5.85612                      -0.90926                      89.38234
                      -6.09428                      -0.71501                      89.59667
                      -6.25327                      -0.48149                      89.84281
                      -6.32310                      -0.22337                      90.10529
                      -6.29938                       0.04311                      90.36762
                      -6.18360                       0.30122                      90.61332
                      -5.98304                       0.53474                      90.82695
                      -5.71030                       0.72900                      90.99508
                      -5.38251                       0.87179                      91.10716
                      -5.02028                       0.95414                      91.15613
                      -4.64636                       0.97088                      91.13893
                      -4.28424                       0.92094                      91.05662
                      -3.95669                       0.80748                      90.91440
                      -3.68427                       0.63762                      90.72118
                      -3.48412                       0.42203                      90.48912
                      -3.36880                       0.17426                      90.23279
                      -3.34837                      -0.00225                      89.87929
                      -3.41892                      -0.26755                      89.62236
                      -3.57890                      -0.51619                      89.39006
                      -3.81827                      -0.73253                      89.19699
                      -4.12198                      -0.90299                      89.05528
                      -4.47094                      -1.01685                      88.97384
                      -4.84324                      -1.06696                      88.95777
                      -5.21548                      -1.05017                      89.00809
                      -5.56427                      -0.96754                      89.12164
                      -5.86769                      -0.82425                      89.29129
                      -6.10669                      -0.62932                      89.50636
                      -6.26623                      -0.39498                      89.75336
                      -6.33630                      -0.13597                      90.01676
                      -6.31250                       0.13145                      90.28001
                      -6.19632                       0.39046                      90.52656
                      -5.99506                       0.62480                      90.74094
                      -5.72136                       0.81973                      90.90966
                      -5.39243                       0.96302                      91.02212
                      -5.02893                       1.04566                      91.07127
                      -4.65371                       1.06245                      91.05400
                      -4.29033                       1.01235                      90.97141
                      -3.96163                       0.89849                      90.82869
                      -3.68827                       0.72803                      90.63480
                      -3.48741                       0.51169                      90.40193
                      -3.37169                       0.26306                      90.14470
                      -3.36158                       0.08562                      89.79122
                      -3.43188                      -0.17876                      89.53518
                      -3.59130                      -0.42653                      89.30369
                      -3.82984                      -0.64212                      89.11130
                      -4.13249                      -0.81198                      88.97008
                      -4.48024                      -0.92545                      88.88891
                      -4.85125                      -0.97538                      88.87290
                      -5.22219                      -0.95865                      88.92305
                      -5.56976                      -0.87631                      89.03621
                      -5.87213                      -0.73352                      89.20526
                      -6.11029                      -0.53926                      89.41959
                      -6.26928                      -0.30574                      89.66573
                      -6.33911                      -0.04763                      89.92821
                      -6.31539                       0.21885                      90.19054
                      -6.19962                       0.47697                      90.43624
                      -5.99906                       0.71049                      90.64987
                      -5.72631                       0.90475                      90.81800
                      -5.39853                       1.04754                      90.93008
                      -5.03629                       1.12989                      90.97905
                      -4.66237                       1.14662                      90.96185
                      -4.30025                       1.09669                      90.87955
                      -3.97270                       0.98323                      90.73732
                      -3.70029                       0.81337                      90.54410
                      -3.50013                       0.59778                      90.31204
                      -3.38481                       0.35001                      90.05571
                      -3.38528                       0.17350                      89.70410
                      -3.45484                      -0.08810                      89.45076
                      -3.61259                      -0.33326                      89.22171
                      -3.84860                      -0.54657                      89.03135
                      -4.14806                      -0.71465                      88.89162
                      -4.49215                      -0.82691                      88.81131
                      -4.85924                      -0.87632                      88.79547
                      -5.22627                      -0.85977                      88.84509
                      -5.57018                      -0.77829                      88.95705
                      -5.86936                      -0.63701                      89.12432
                      -6.10501                      -0.44480                      89.33639
                      -6.26233                      -0.21374                      89.57993
                      -6.33142                       0.04165                      89.83965
                      -6.30795                       0.30532                      90.09921
                      -6.19339                       0.56071                      90.34232
                      -5.99495                       0.79177                      90.55369
                      -5.72508                       0.98398                      90.72005
                      -5.40075                       1.12527                      90.83095
                      -5.04234                       1.20675                      90.87940
                      -4.67236                       1.22331                      90.86238
                      -4.31406                       1.17390                      90.78095
                      -3.98996                       1.06163                      90.64022
                      -3.72042                       0.89356                      90.44904
                      -3.52238                       0.68025                      90.21943
                      -3.40827                       0.43509                      89.96580
                      -3.41983                       0.26137                      89.61796
                      -3.48814                       0.00449                      89.36919
                      -3.64304                      -0.23625                      89.14427
                      -3.87480                      -0.44572                      88.95733
                      -4.16887                      -0.61077                      88.82012
                      -4.50675                      -0.72101                      88.74126
                      -4.86723                      -0.76953                      88.72570
                      -5.22765                      -0.75328                      88.77443
                      -5.56536                      -0.67327                      88.88437
                      -5.85915                      -0.53453                      89.04863
                      -6.09055                      -0.34579                      89.25688
                      -6.24503                      -0.11889                      89.49603
                      -6.31288                       0.13190                      89.75106
                      -6.28984                       0.39082                      90.00595
                      -6.17734                       0.64161                      90.24468
                      -5.98247                       0.86850                      90.45224
                      -5.71747                       1.05725                      90.61561
                      -5.39898                       1.19599                      90.72450
                      -5.04703                       1.27600                      90.77209
                      -4.68371                       1.29226                      90.75537
                      -4.33187                       1.24375                      90.67540
                      -4.01361                       1.13350                      90.53721
                      -3.74893                       0.96846                      90.34948
                      -3.55446                       0.75899                      90.12400
                      -3.44241                       0.51825                      89.87494
                      -3.46584                       0.34924                      89.53285
                      -3.53235                       0.09911                      89.29062
                      -3.68318                      -0.13531                      89.07161
                      -3.90886                      -0.33928                      88.88958
                      -4.19520                      -0.49998                      88.75598
                      -4.52421                      -0.60733                      88.67919
                      -4.87521                      -0.65458                      88.66404
                      -5.22616                      -0.63875                      88.71148
                      -5.55500                      -0.56084                      88.81854
                      -5.84107                      -0.42575                      88.97848
                      -6.06640                      -0.24196                      89.18126
                      -6.21682                      -0.02103                      89.41413
                      -6.28288                       0.22317                      89.66246
                      -6.26044                       0.47529                      89.91066
                      -6.15091                       0.71949                      90.14311
                      -5.96116                       0.94043                      90.34522
                      -5.70311                       1.12421                      90.50429
                      -5.39300                       1.25931                      90.61033
                      -5.05028                       1.33722                      90.65666
                      -4.69652                       1.35305                      90.64039
                      -4.35392                       1.30581                      90.56252
                      -4.04402                       1.19846                      90.42796
                      -3.78629                       1.03776                      90.24516
                      -3.59692                       0.83379                      90.02560
                      -3.48782                       0.59937                      89.78309
                      -3.52426                       0.43712                      89.44887
                      -3.58839                       0.19594                      89.21531
                      -3.73383                      -0.03009                      89.00414
                      -3.95142                      -0.22676                      88.82863
                      -4.22751                      -0.38171                      88.69980
                      -4.54474                      -0.48522                      88.62576
                      -4.88319                      -0.53077                      88.61116
                      -5.22157                      -0.51551                      88.65690
                      -5.53864                      -0.44039                      88.76013
                      -5.81447                      -0.31013                      88.91435
                      -6.03173                      -0.13293                      89.10986
                      -6.17677                       0.08010                      89.33440
                      -6.24047                       0.31556                      89.57384
                      -6.21883                       0.55865                      89.81315
                      -6.11321                       0.79411                      90.03728
                      -5.93026                       1.00714                      90.23216
                      -5.68145                       1.18435                      90.38554
                      -5.38243                       1.31460                      90.48778
                      -5.05199                       1.38973                      90.53245
                      -4.71089                       1.40499                      90.51676
                      -4.38055                       1.35944                      90.44168
                      -4.08175                       1.25594                      90.31194
                      -3.83324                       1.10098                      90.13568
                      -3.65066                       0.90432                      89.92398
                      -3.54546                       0.67829                      89.69015
                      -3.59656                       0.52499                      89.36615
                      -3.65765                       0.29523                      89.14364
                      -3.79620                       0.07990                      88.94246
                      -4.00350                      -0.10746                      88.77526
                      -4.26652                      -0.25508                      88.65254
                      -4.56873                      -0.35368                      88.58200
                      -4.89115                      -0.39708                      88.56809
                      -5.21352                      -0.38254                      88.61167
                      -5.51558                      -0.31098                      88.71001
                      -5.77835                      -0.18689                      88.85692
                      -5.98532                      -0.01807                      89.04319
                      -6.12350                       0.18487                      89.25709
                      -6.18418                       0.40918                      89.48520
                      -6.16357                       0.64077                      89.71318
                      -6.06295                       0.86508                      89.92670
                      -5.88865                       1.06802                      90.11236
                      -5.65163                       1.23685                      90.25847
                      -5.36676                       1.36094                      90.35587
                      -5.05196                       1.43250                      90.39843
                      -4.72701                       1.44705                      90.38348
                      -4.41231                       1.40365                      90.31196
                      -4.12765                       1.30505                      90.18835
                      -3.89091                       1.15743                      90.02044
                      -3.71697                       0.97007                      89.81877
                      -3.61675                       0.75475                      89.59600
                      -3.68492                       0.61286                      89.28487
                      -3.74222                       0.39737                      89.07619
                      -3.87217                       0.19542                      88.88751
                      -4.06659                       0.01970                      88.73069
                      -4.31327                      -0.11875                      88.61559
                      -4.59671                      -0.21123                      88.54944
                      -4.89911                      -0.25193                      88.53638
                      -5.20145                      -0.23830                      88.57726
                      -5.48475                      -0.17118                      88.66949
                      -5.73120                      -0.05480                      88.80728
                      -5.92532                       0.10354                      88.98197
                      -6.05490                       0.29387                      89.18259
                      -6.11182                       0.50425                      89.39653
                      -6.09249                       0.72145                      89.61035
                      -5.99812                       0.93183                      89.81061
                      -5.83465                       1.12217                      89.98473
                      -5.61234                       1.28050                      90.12177
                      -5.34518                       1.39688                      90.21312
                      -5.04993                       1.46401                      90.25304
                      -4.74516                       1.47764                      90.23901
                      -4.45001                       1.43695                      90.17193
                      -4.18303                       1.34447                      90.05601
                      -3.96100                       1.20602                      89.89853
                      -3.79786                       1.03030                      89.70938
                      -3.70386                       0.82835                      89.50045
                      -3.79284                       0.70073                      89.20537
                      -3.84542                       0.50299                      89.01386
                      -3.96466                       0.31766                      88.84072
                      -4.14308                       0.15641                      88.69682
                      -4.36945                       0.02936                      88.59119
                      -4.62955                      -0.05551                      88.53048
                      -4.90705                      -0.09286                      88.51851
                      -5.18450                      -0.08034                      88.55602
                      -5.44447                      -0.01875                      88.64065
                      -5.67063                       0.08805                      88.76710
                      -5.84876                       0.23334                      88.92741
                      -5.96768                       0.40801                      89.11151
                      -6.01991                       0.60106                      89.30783
                      -6.00217                       0.80038                      89.50405
                      -5.91557                       0.99344                      89.68782
                      -5.76556                       1.16810                      89.84760
                      -5.56156                       1.31340                      89.97336
                      -5.31639                       1.42020                      90.05719
                      -5.04545                       1.48180                      90.09382
                      -4.76578                       1.49431                      90.08095
                      -4.49493                       1.45697                      90.01939
                      -4.24993                       1.37210                      89.91301
                      -4.04618                       1.24505                      89.76849
                      -3.89647                       1.08380                      89.59492
                      -3.81022                       0.89848                      89.40319
                      -3.92621                       0.78860                      89.12816
                      -3.97287                       0.61312                      88.95822
                      -4.07869                       0.44866                      88.80457
                      -4.23702                       0.30557                      88.67687
                      -4.43790                       0.19282                      88.58314
                      -4.66872                       0.11751                      88.52926
                      -4.91497                       0.08436                      88.51864
                      -5.16118                       0.09547                      88.55192
                      -5.39189                       0.15013                      88.62703
                      -5.59258                       0.24490                      88.73924
                      -5.75066                       0.37384                      88.88150
                      -5.85619                       0.52884                      89.04487
                      -5.90254                       0.70016                      89.21909
                      -5.88680                       0.87704                      89.39321
                      -5.80995                       1.04836                      89.55630
                      -5.67683                       1.20336                      89.69809
                      -5.49580                       1.33229                      89.80969
                      -5.27823                       1.42707                      89.88408
                      -5.03780                       1.48173                      89.91658
                      -4.78961                       1.49284                      89.90516
                      -4.54925                       1.45970                      89.85054
                      -4.33184                       1.38439                      89.75613
                      -4.15103                       1.27164                      89.62789
                      -4.01818                       1.12854                      89.47386
                      -3.94163                       0.96409                      89.30372
                      -4.09655                       0.87648                      89.05430
                      -4.13555                       0.72982                      88.91228
                      -4.22398                       0.59239                      88.78387
                      -4.35630                       0.47280                      88.67715
                      -4.52418                       0.37857                      88.59882
                      -4.71708                       0.31563                      88.55379
                      -4.92287                       0.28794                      88.54491
                      -5.12864                       0.29722                      88.57273
                      -5.32144                       0.34289                      88.63550
                      -5.48916                       0.42210                      88.72927
                      -5.62127                       0.52985                      88.84816
                      -5.70946                       0.65939                      88.98469
                      -5.74819                       0.80256                      89.13029
                      -5.73504                       0.95038                      89.27581
                      -5.67082                       1.09355                      89.41210
                      -5.55956                       1.22309                      89.53060
                      -5.40827                       1.33084                      89.62386
                      -5.22645                       1.41005                      89.68603
                      -5.02552                       1.45573                      89.71319
                      -4.81810                       1.46501                      89.70365
                      -4.61724                       1.43731                      89.65800
                      -4.43554                       1.37438                      89.57910
                      -4.28444                       1.28015                      89.47193
                      -4.17341                       1.16057                      89.34320
                      -4.10944                       1.02313                      89.20101
                      -4.33330                       0.96435                      88.98644
                      -4.36150                       0.85832                      88.88376
                      -4.42544                       0.75895                      88.79093
                      -4.52110                       0.67249                      88.71376
                      -4.64248                       0.60436                      88.65713
                      -4.78194                       0.55886                      88.62458
                      -4.93073                       0.53883                      88.61816
                      -5.07950                       0.54554                      88.63827
                      -5.21889                       0.57857                      88.68365
                      -5.34016                       0.63583                      88.75145
                      -5.43567                       0.71374                      88.83741
                      -5.49943                       0.80739                      88.93612
                      -5.52744                       0.91091                      89.04139
                      -5.51793                       1.01778                      89.14659
                      -5.47149                       1.12130                      89.24513
                      -5.39106                       1.21495                      89.33081
                      -5.28168                       1.29286                      89.39823
                      -5.15022                       1.35012                      89.44318
                      -5.00494                       1.38315                      89.46282
                      -4.85498                       1.38986                      89.45592
                      -4.70976                       1.36983                      89.42292
                      -4.57839                       1.32433                      89.36588
                      -4.46914                       1.25621                      89.28839
                      -4.38887                       1.16975                      89.19532
                      -4.34262                       1.07038                      89.09252
                      -4.93835                       1.05222                      88.95189
                      -4.93835                       1.05222                      88.95189
                      -4.93835                       1.05222                      88.95189
                      -4.93835                       1.05222                      88.95189
                      -4.93835                       1.05222                      88.95189
                      -4.93835                       1.05222                      88.95189
                      -4.93835                       1.05222                      88.95189
                      -4.93835                       1.05222                      88.95189
                      -4.93835                       1.05222                      88.95189
                      -4.93835                       1.05222                      88.95189
                      -4.93835                       1.05222                      88.95189
                      -4.93835                       1.05222                      88.95189
                      -4.93835                       1.05222                      88.95189
                      -4.93835                       1.05222                      88.95189
                      -4.93835                       1.05222                      88.95189
                      -4.93835                       1.05222                      88.95189
                      -4.93835                       1.05222                      88.95189
                      -4.93835                       1.05222                      88.95189
                      -4.93835                       1.05222                      88.95189
                      -4.93835                       1.05222                      88.95189
                      -4.93835                       1.05222                      88.95189
                      -4.93835                       1.05222                      88.95189
                      -4.93835                       1.05222                      88.95189
                      -4.93835                       1.05222                      88.95189
                      -4.93835                       1.05222                      88.95189
        </DataArray>
      </Points>
      <Polys>
        <DataArray type="Int32" Name="connectivity" format="ascii">
      0      1     26     25
      1      2     27     26
      2      3     28     27
      3      4     29     28
      4      5     30     29
      5      6     31     30
      6      7     32     31
      7      8     33     32
      8      9     34     33
      9     10     35     34
     10     11     36     35
     11     12     37     36
     12     13     38     37
     13     14     39     38
     14     15     40     39
     15     16     41     40
     16     17     42     41
     17     18     43     42
     18     19     44     43
     19     20     45     44
     20     21     46     45
     21     22     47     46
     22     23     48     47
     23     24     49     48
     24      0     25     49
     25     26     51     50
     26     27     52     51
     27     28     53     52
     28     29     54     53
     29     30     55     54
     30     31     56     55
     31     32     57     56
     32     33     58     57
     33     34     59     58
     34     35     60     59
     35     36     61     60
     36     37     62     61
     37     38     63     62
     38     39     64     63
     39     40     65     64
     40     41     66     65
     41     42     67     66
     42     43     68     67
     43     44     69     68
     44     45     70     69
     45     46     71     70
     46     47     72     71
     47     48     73     72
     48     49     74     73
     49     25     50     74
     50     51     76     75
     51     52     77     76
     52     53     78     77
     53     54     79     78
     54     55     80     79
     55     56     81     80
     56     57     82     81
     57     58     83     82
     58     59     84     83
     59     60     85     84
     60     61     86     85
     61     62     87     86
     62     63     88     87
     63     64     89     88
     64     65     90     89
     65     66     91     90
     66     67     92     91
     67     68     93     92
     68     69     94     93
     69     70     95     94
     70     71     96     95
     71     72     97     96
     72     73     98     97
     73     74     99     98
     74     50     75     99
     75     76    101    100
     76     77    102    101
     77     78    103    102
     78     79    104    103
     79     80    105    104
     80     81    106    105
     81     82    107    106
     82     83    108    107
     83     84    109    108
     84     85    110    109
     85     86    111    110
     86     87    112    111
     87     88    113    112
     88     89    114    113
     89     90    115    114
     90     91    116    115
     91     92    117    116
     92     93    118    117
     93     94    119    118
     94     95    120    119
     95     96    121    120
     96     97    122    121
     97     98    123    122
     98     99    124    123
     99     75    100    124
    100    101    126    125
    101    102    127    126
    102    103    128    127
    103    104    129    128
    104    105    130    129
    105    106    131    130
    106    107    132    131
    107    108    133    132
    108    109    134    133
    109    110    135    134
    110    111    136    135
    111    112    137    136
    112    113    138    137
    113    114    139    138
    114    115    140    139
    115    116    141    140
    116    117    142    141
    117    118    143    142
    118    119    144    143
    119    120    145    144
    120    121    146    145
    121    122    147    146
    122    123    148    147
    123    124    149    148
    124    100    125    149
    125    126    151    150
    126    127    152    151
    127    128    153    152
    128    129    154    153
    129    130    155    154
    130    131    156    155
    131    132    157    156
    132    133    158    157
    133    134    159    158
    134    135    160    159
    135    136    161    160
    136    137    162    161
    137    138    163    162
    138    139    164    163
    139    140    165    164
    140    141    166    165
    141    142    167    166
    142    143    168    167
    143    144    169    168
    144    145    170    169
    145    146    171    170
    146    147    172    171
    147    148    173    172
    148    149    174    173
    149    125    150    174
    150    151    176    175
    151    152    177    176
    152    153    178    177
    153    154    179    178
    154    155    180    179
    155    156    181    180
    156    157    182    181
    157    158    183    182
    158    159    184    183
    159    160    185    184
    160    161    186    185
    161    162    187    186
    162    163    188    187
    163    164    189    188
    164    165    190    189
    165    166    191    190
    166    167    192    191
    167    168    193    192
    168    169    194    193
    169    170    195    194
    170    171    196    195
    171    172    197    196
    172    173    198    197
    173    174    199    198
    174    150    175    199
    175    176    201    200
    176    177    202    201
    177    178    203    202
    178    179    204    203
    179    180    205    204
    180    181    206    205
    181    182    207    206
    182    183    208    207
    183    184    209    208
    184    185    210    209
    185    186    211    210
    186    187    212    211
    187    188    213    212
    188    189    214    213
    189    190    215    214
    190    191    216    215
    191    192    217    216
    192    193    218    217
    193    194    219    218
    194    195    220    219
    195    196    221    220
    196    197    222    221
    197    198    223    222
    198    199    224    223
    199    175    200    224
    200    201    226    225
    201    202    227    226
    202    203    228    227
    203    204    229    228
    204    205    230    229
    205    206    231    230
    206    207    232    231
    207    208    233    232
    208    209    234    233
    209    210    235    234
    210    211    236    235
    211    212    237    236
    212    213    238    237
    213    214    239    238
    214    215    240    239
    215    216    241    240
    216    217    242    241
    217    218    243    242
    218    219    244    243
    219    220    245    244
    220    221    246    245
    221    222    247    246
    222    223    248    247
    223    224    249    248
    224    200    225    249
    225    226    251    250
    226    227    252    251
    227    228    253    252
    228    229    254    253
    229    230    255    254
    230    231    256    255
    231    232    257    256
    232    233    258    257
    233    234    259    258
    234    235    260    259
    235    236    261    260
    236    237    262    261
    237    238    263    262
    238    239    264    263
    239    240    265    264
    240    241    266    265
    241    242    267    266
    242    243    268    267
    243    244    269    268
    244    245    270    269
    245    246    271    270
    246    247    272    271
    247    248    273    272
    248    249    274    273
    249    225    250    274
    250    251    276    275
    251    252    277    276
    252    253    278    277
    253    254    279    278
    254    255    280    279
    255    256    281    280
    256    257    282    281
    257    258    283    282
    258    259    284    283
    259    260    285    284
    260    261    286    285
    261    262    287    286
    262    263    288    287
    263    264    289    288
    264    265    290    289
    265    266    291    290
    266    267    292    291
    267    268    293    292
    268    269    294    293
    269    270    295    294
    270    271    296    295
    271    272    297    296
    272    273    298    297
    273    274    299    298
    274    250    275    299
    275    276    301    300
    276    277    302    301
    277    278    303    302
    278    279    304    303
    279    280    305    304
    280    281    306    305
    281    282    307    306
    282    283    308    307
    283    284    309    308
    284    285    310    309
    285    286    311    310
    286    287    312    311
    287    288    313    312
    288    289    314    313
    289    290    315    314
    290    291    316    315
    291    292    317    316
    292    293    318    317
    293    294    319    318
    294    295    320    319
    295    296    321    320
    296    297    322    321
    297    298    323    322
    298    299    324    323
    299    275    300    324
    300    301    326    325
    301    302    327    326
    302    303    328    327
    303    304    329    328
    304    305    330    329
    305    306    331    330
    306    307    332    331
    307    308    333    332
    308    309    334    333
    309    310    335    334
    310    311    336    335
    311    312    337    336
    312    313    338    337
    313    314    339    338
    314    315    340    339
    315    316    341    340
    316    317    342    341
    317    318    343    342
    318    319    344    343
    319    320    345    344
    320    321    346    345
    321    322    347    346
    322    323    348    347
    323    324    349    348
    324    300    325    349
    325    326    351    350
    326    327    352    351
    327    328    353    352
    328    329    354    353
    329    330    355    354
    330    331    356    355
    331    332    357    356
    332    333    358    357
    333    334    359    358
    334    335    360    359
    335    336    361    360
    336    337    362    361
    337    338    363    362
    338    339    364    363
    339    340    365    364
    340    341    366    365
    341    342    367    366
    342    343    368    367
    343    344    369    368
    344    345    370    369
    345    346    371    370
    346    347    372    371
    347    348    373    372
    348    349    374    373
    349    325    350    374
    350    351    376    375
    351    352    377    376
    352    353    378    377
    353    354    379    378
    354    355    380    379
    355    356    381    380
    356    357    382    381
    357    358    383    382
    358    359    384    383
    359    360    385    384
    360    361    386    385
    361    362    387    386
    362    363    388    387
    363    364    389    388
    364    365    390    389
    365    366    391    390
    366    367    392    391
    367    368    393    392
    368    369    394    393
    369    370    395    394
    370    371    396    395
    371    372    397    396
    372    373    398    397
    373    374    399    398
    374    350    375    399
    375    376    401    400
    376    377    402    401
    377    378    403    402
    378    379    404    403
    379    380    405    404
    380    381    406    405
    381    382    407    406
    382    383    408    407
    383    384    409    408
    384    385    410    409
    385    386    411    410
    386    387    412    411
    387    388    413    412
    388    389    414    413
    389    390    415    414
    390    391    416    415
    391    392    417    416
    392    393    418    417
    393    394    419    418
    394    395    420    419
    395    396    421    420
    396    397    422    421
    397    398    423    422
    398    399    424    423
    399    375    400    424
    400    401    426    425
    401    402    427    426
    402    403    428    427
    403    404    429    428
    404    405    430    429
    405    406    431    430
    406    407    432    431
    407    408    433    432
    408    409    434    433
    409    410    435    434
    410    411    436    435
    411    412    437    436
    412    413    438    437
    413    414    439    438
    414    415    440    439
    415    416    441    440
    416    417    442    441
    417    418    443    442
    418    419    444    443
    419    420    445    444
    420    421    446    445
    421    422    447    446
    422    423    448    447
    423    424    449    448
    424    400    425    449
    425    426    451    450
    426    427    452    451
    427    428    453    452
    428    429    454    453
    429    430    455    454
    430    431    456    455
    431    432    457    456
    432    433    458    457
    433    434    459    458
    434    435    460    459
    435    436    461    460
    436    437    462    461
    437    438    463    462
    438    439    464    463
    439    440    465    464
    440    441    466    465
    441    442    467    466
    442    443    468    467
    443    444    469    468
    444    445    470    469
    445    446    471    470
    446    447    472    471
    447    448    473    472
    448    449    474    473
    449    425    450    474
    450    451    476    475
    451    452    477    476
    452    453    478    477
    453    454    479    478
    454    455    480    479
    455    456    481    480
    456    457    482    481
    457    458    483    482
    458    459    484    483
    459    460    485    484
    460    461    486    485
    461    462    487    486
    462    463    488    487
    463    464    489    488
    464    465    490    489
    465    466    491    490
    466    467    492    491
    467    468    493    492
    468    469    494    493
    469    470    495    494
    470    471    496    495
    471    472    497    496
    472    473    498    497
    473    474    499    498
    474    450    475    499
    475    476    501    500
    476    477    502    501
    477    478    503    502
    478    479    504    503
    479    480    505    504
    480    481    506    505
    481    482    507    506
    482    483    508    507
    483    484    509    508
    484    485    510    509
    485    486    511    510
    486    487    512    511
    487    488    513    512
    488    489    514    513
    489    490    515    514
    490    491    516    515
    491    492    517    516
    492    493    518    517
    493    494    519    518
    494    495    520    519
    495    496    521    520
    496    497    522    521
    497    498    523    522
    498    499    524    523
    499    475    500    524
    500    501    526    525
    501    502    527    526
    502    503    528    527
    503    504    529    528
    504    505    530    529
    505    506    531    530
    506    507    532    531
    507    508    533    532
    508    509    534    533
    509    510    535    534
    510    511    536    535
    511    512    537    536
    512    513    538    537
    513    514    539    538
    514    515    540    539
    515    516    541    540
    516    517    542    541
    517    518    543    542
    518    519    544    543
    519    520    545    544
    520    521    546    545
    521    522    547    546
    522    523    548    547
    523    524    549    548
    524    500    525    549
    525    526    551    550
    526    527    552    551
    527    528    553    552
    528    529    554    553
    529    530    555    554
    530    531    556    555
    531    532    557    556
    532    533    558    557
    533    534    559    558
    534    535    560    559
    535    536    561    560
    536    537    562    561
    537    538    563    562
    538    539    564    563
    539    540    565    564
    540    541    566    565
    541    542    567    566
    542    543    568    567
    543    544    569    568
    544    545    570    569
    545    546    571    570
    546    547    572    571
    547    548    573    572
    548    549    574    573
    549    525    550    574
    550    551    576    575
    551    552    577    576
    552    553    578    577
    553    554    579    578
    554    555    580    579
    555    556    581    580
    556    557    582    581
    557    558    583    582
    558    559    584    583
    559    560    585    584
    560    561    586    585
    561    562    587    586
    562    563    588    587
    563    564    589    588
    564    565    590    589
    565    566    591    590
    566    567    592    591
    567    568    593    592
    568    569    594    593
    569    570    595    594
    570    571    596    595
    571    572    597    596
    572    573    598    597
    573    574    599    598
    574    550    575    599
    575    576    601    600
    576    577    602    601
    577    578    603    602
    578    579    604    603
    579    580    605    604
    580    581    606    605
    581    582    607    606
    582    583    608    607
    583    584    609    608
    584    585    610    609
    585    586    611    610
    586    587    612    611
    587    588    613    612
    588    589    614    613
    589    590    615    614
    590    591    616    615
    591    592    617    616
    592    593    618    617
    593    594    619    618
    594    595    620    619
    595    596    621    620
    596    597    622    621
    597    598    623    622
    598    599    624    623
    599    575    600    624
        </DataArray>
        <DataArray type="Int32" Name="offsets" format="ascii">
      4
      8
     12
     16
     20
     24
     28
     32
     36
     40
     44
     48
     52
     56
     60
     64
     68
     72
     76
     80
     84
     88
     92
     96
    100
    104
    108
    112
    116
    120
    124
    128
    132
    136
    140
    144
    148
    152
    156
    160
    164
    168
    172
    176
    180
    184
    188
    192
    196
    200
    204
    208
    212
    216
    220
    224
    228
    232
    236
    240
    244
    248
    252
    256
    260
    264
    268
    272
    276
    280
    284
    288
    292
    296
    300
    304
    308
    312
    316
    320
    324
    328
    332
    336
    340
    344
    348
    352
    356
    360
    364
    368
    372
    376
    380
    384
    388
    392
    396
    400
    404
    408
    412
    416
    420
    424
    428
    432
    436
    440
    444
    448
    452
    456
    460
    464
    468
    472
    476
    480
    484
    488
    492
    496
    500
    504
    508
    512
    516
    520
    524
    528
    532
    536
    540
    544
    548
    552
    556
    560
    564
    568
    572
    576
    580
    584
    588
    592
    596
    600
    604
    608
    612
    616
    620
    624
    628
    632
    636
    640
    644
    648
    652
    656
    660
    664
    668
    672
    676
    680
    684
    688
    692
    696
    700
    704
    708
    712
    716
    720
    724
    728
    732
    736
    740
    744
    748
    752
    756
    760
    764
    768
    772
    776
    780
    784
    788
    792
    796
    800
    804
    808
    812
    816
    820
    824
    828
    832
    836
    840
    844
    848
    852
    856
    860
    864
    868
    872
    876
    880
    884
    888
    892
    896
    900
    904
    908
    912
    916
    920
    924
    928
    932
    936
    940
    944
    948
    952
    956
    960
    964
    968
    972
    976
    980
    984
    988
    992
    996
   1000
   1004
   1008
   1012
   1016
   1020
   1024
   1028
   1032
   1036
   1040
   1044
   1048
   1052
   1056
   1060
   1064
   1068
   1072
   1076
   1080
   1084
   1088
   1092
   1096
   1100
   1104
   1108
   1112
   1116
   1120
   1124
   1128
   1132
   1136
   1140
   1144
   1148
   1152
   1156
   1160
   1164
   1168
   1172
   1176
   1180
   1184
   1188
   1192
   1196
   1200
   1204
   1208
   1212
   1216
   1220
   1224
   1228
   1232
   1236
   1240
   1244
   1248
   1252
   1256
   1260
   1264
   1268
   1272
   1276
   1280
   1284
   1288
   1292
   1296
   1300
   1304
   1308
   1312
   1316
   1320
   1324
   1328
   1332
   1336
   1340
   1344
   1348
   1352
   1356
   1360
   1364
   1368
   1372
   1376
   1380
   1384
   1388
   1392
   1396
   1400
   1404
   1408
   1412
   1416
   1420
   1424
   1428
   1432
   1436
   1440
   1444
   1448
   1452
   1456
   1460
   1464
   1468
   1472
   1476
   1480
   1484
   1488
   1492
   1496
   1500
   1504
   1508
   1512
   1516
   1520
   1524
   1528
   1532
   1536
   1540
   1544
   1548
   1552
   1556
   1560
   1564
   1568
   1572
   1576
   1580
   1584
   1588
   1592
   1596
   1600
   1604
   1608
   1612
   1616
   1620
   1624
   1628
   1632
   1636
   1640
   1644
   1648
   1652
   1656
   1660
   1664
   1668
   1672
   1676
   1680
   1684
   1688
   1692
   1696
   1700
   1704
   1708
   1712
   1716
   1720
   1724
   1728
   1732
   1736
   1740
   1744
   1748
   1752
   1756
   1760
   1764
   1768
   1772
   1776
   1780
   1784
   1788
   1792
   1796
   1800
   1804
   1808
   1812
   1816
   1820
   1824
   1828
   1832
   1836
   1840
   1844
   1848
   1852
   1856
   1860
   1864
   1868
   1872
   1876
   1880
   1884
   1888
   1892
   1896
   1900
   1904
   1908
   1912
   1916
   1920
   1924
   1928
   1932
   1936
   1940
   1944
   1948
   1952
   1956
   1960
   1964
   1968
   1972
   1976
   1980
   1984
   1988
   1992
   1996
   2000
   2004
   2008
   2012
   2016
   2020
   2024
   2028
   2032
   2036
   2040
   2044
   2048
   2052
   2056
   2060
   2064
   2068
   2072
   2076
   2080
   2084
   2088
   2092
   2096
   2100
   2104
   2108
   2112
   2116
   2120
   2124
   2128
   2132
   2136
   2140
   2144
   2148
   2152
   2156
   2160
   2164
   2168
   2172
   2176
   2180
   2184
   2188
   2192
   2196
   2200
   2204
   2208
   2212
   2216
   2220
   2224
   2228
   2232
   2236
   2240
   2244
   2248
   2252
   2256
   2260
   2264
   2268
   2272
   2276
   2280
   2284
   2288
   2292
   2296
   2300
   2304
   2308
   2312
   2316
   2320
   2324
   2328
   2332
   2336
   2340
   2344
   2348
   2352
   2356
   2360
   2364
   2368
   2372
   2376
   2380
   2384
   2388
   2392
   2396
   2400
        </DataArray>
      </Polys>
    </Piece>
  </PolyData>
</VTKFile>
