<?xml version="1.0"?>
<VTKFile type="PolyData" version="0.1" byte_order="LittleEndian">
  <PolyData>
    <Piece NumberOfPoints="    625" NumberOfVerts="  0" NumberOfLines="      0"
           NumberOfStrips="  0" NumberOfPolys="    600">
      <Points>
        <DataArray type="Float32" NumberOfComponents="3" format="ascii">
                      -4.97513                       0.29280                      88.54974
                      -4.97513                       0.29280                      88.54974
                      -4.97513                       0.29280                      88.54974
                      -4.97513                       0.29280                      88.54974
                      -4.97513                       0.29280                      88.54974
                      -4.97513                       0.29280                      88.54974
                      -4.97513                       0.29280                      88.54974
                      -4.97513                       0.29280                      88.54974
                      -4.97513                       0.29280                      88.54974
                      -4.97513                       0.29280                      88.54974
                      -4.97513                       0.29280                      88.54974
                      -4.97513                       0.29280                      88.54974
                      -4.97513                       0.29280                      88.54974
                      -4.97513                       0.29280                      88.54974
                      -4.97513                       0.29280                      88.54974
                      -4.97513                       0.29280                      88.54974
                      -4.97513                       0.29280                      88.54974
                      -4.97513                       0.29280                      88.54974
                      -4.97513                       0.29280                      88.54974
                      -4.97513                       0.29280                      88.54974
                      -4.97513                       0.29280                      88.54974
                      -4.97513                       0.29280                      88.54974
                      -4.97513                       0.29280                      88.54974
                      -4.97513                       0.29280                      88.54974
                      -4.97513                       0.29280                      88.54974
                      -4.36706                       0.26795                      88.61782
                      -4.38316                       0.41406                      88.64905
                      -4.43575                       0.55098                      88.68170
                      -4.52155                       0.67012                      88.71372
                      -4.63515                       0.76399                      88.74310
                      -4.76942                       0.82670                      88.76801
                      -4.91593                       0.85429                      88.78686
                      -5.06546                       0.84504                      88.79848
                      -5.20863                       0.79953                      88.80214
                      -5.33643                       0.72062                      88.79760
                      -5.44084                       0.61327                      88.78516
                      -5.51529                       0.48421                      88.76559
                      -5.55511                       0.34157                      88.74012
                      -5.55780                       0.19430                      88.71036
                      -5.52318                       0.05166                      88.67817
                      -5.45343                      -0.07739                      88.64557
                      -5.35294                      -0.18474                      88.61462
                      -5.22802                      -0.26365                      88.58726
                      -5.08651                      -0.30916                      88.56521
                      -4.93732                      -0.31840                      88.54985
                      -4.78981                      -0.29080                      88.54216
                      -4.65325                      -0.22810                      88.54260
                      -4.53622                      -0.13423                      88.55116
                      -4.44608                      -0.01508                      88.56729
                      -4.38849                       0.12184                      88.58999
                      -4.12730                       0.24309                      88.71917
                      -4.14956                       0.44518                      88.76236
                      -4.22230                       0.63456                      88.80752
                      -4.34097                       0.79935                      88.85181
                      -4.49810                       0.92919                      88.89245
                      -4.68381                       1.01591                      88.92689
                      -4.88645                       1.05408                      88.95297
                      -5.09327                       1.04128                      88.96904
                      -5.29129                       0.97834                      88.97410
                      -5.46805                       0.86919                      88.96783
                      -5.61246                       0.72071                      88.95062
                      -5.71544                       0.54221                      88.92355
                      -5.77052                       0.34492                      88.88832
                      -5.77424                       0.14123                      88.84716
                      -5.72636                      -0.05606                      88.80263
                      -5.62989                      -0.23455                      88.75755
                      -5.49090                      -0.38304                      88.71475
                      -5.31811                      -0.49218                      88.67690
                      -5.12239                      -0.55512                      88.64640
                      -4.91603                      -0.56790                      88.62516
                      -4.71201                      -0.52973                      88.61451
                      -4.52313                      -0.44301                      88.61513
                      -4.36126                      -0.31317                      88.62696
                      -4.23658                      -0.14838                      88.64928
                      -4.15693                       0.04101                      88.68067
                      -3.95394                       0.21824                      88.82652
                      -3.98057                       0.46005                      88.87819
                      -4.06762                       0.68666                      88.93223
                      -4.20961                       0.88385                      88.98523
                      -4.39763                       1.03921                      89.03386
                      -4.61986                       1.14298                      89.07508
                      -4.86233                       1.18865                      89.10628
                      -5.10981                       1.17334                      89.12551
                      -5.34675                       1.09802                      89.13156
                      -5.55827                       0.96742                      89.12406
                      -5.73107                       0.78974                      89.10346
                      -5.85429                       0.57616                      89.07107
                      -5.92020                       0.34008                      89.02892
                      -5.92464                       0.09635                      88.97966
                      -5.86735                      -0.13973                      88.92639
                      -5.75192                      -0.35331                      88.87244
                      -5.58560                      -0.53098                      88.82122
                      -5.37885                      -0.66158                      88.77594
                      -5.14466                      -0.73689                      88.73945
                      -4.89773                      -0.75219                      88.71403
                      -4.65359                      -0.70652                      88.70128
                      -4.42758                      -0.60274                      88.70202
                      -4.23390                      -0.44738                      88.71618
                      -4.08471                      -0.25019                      88.74289
                      -3.98939                      -0.02357                      88.78045
                      -3.81755                       0.19338                      88.93720
                      -3.84757                       0.46587                      88.99543
                      -3.94566                       0.72124                      89.05632
                      -4.10567                       0.94344                      89.11605
                      -4.31754                       1.11851                      89.17085
                      -4.56796                       1.23545                      89.21730
                      -4.84119                       1.28691                      89.25246
                      -5.12007                       1.26966                      89.27413
                      -5.38708                       1.18478                      89.28095
                      -5.62543                       1.03761                      89.27249
                      -5.82015                       0.83739                      89.24928
                      -5.95901                       0.59671                      89.21278
                      -6.03327                       0.33068                      89.16528
                      -6.03828                       0.05603                      89.10978
                      -5.97372                      -0.21000                      89.04974
                      -5.84365                      -0.45068                      88.98896
                      -5.65623                      -0.65089                      88.93124
                      -5.42325                      -0.79806                      88.88021
                      -5.15934                      -0.88293                      88.83908
                      -4.88109                      -0.90017                      88.81044
                      -4.60597                      -0.84870                      88.79608
                      -4.35129                      -0.73176                      88.79691
                      -4.13303                      -0.55668                      88.81287
                      -3.96492                      -0.33448                      88.84296
                      -3.85751                      -0.07911                      88.88529
                      -3.70663                       0.16852                      89.05019
                      -3.73933                       0.46546                      89.11364
                      -3.84623                       0.74374                      89.18000
                      -4.02059                       0.98588                      89.24508
                      -4.25147                       1.17665                      89.30480
                      -4.52436                       1.30409                      89.35541
                      -4.82211                       1.36017                      89.39373
                      -5.12601                       1.34137                      89.41734
                      -5.41698                       1.24888                      89.42478
                      -5.67671                       1.08850                      89.41556
                      -5.88891                       0.87032                      89.39027
                      -6.04022                       0.60804                      89.35049
                      -6.12115                       0.31814                      89.29873
                      -6.12661                       0.01885                      89.23824
                      -6.05626                      -0.27105                      89.17282
                      -5.91451                      -0.53333                      89.10658
                      -5.71028                      -0.75150                      89.04368
                      -5.45639                      -0.91187                      88.98808
                      -5.16880                      -1.00436                      88.94326
                      -4.86558                      -1.02315                      88.91205
                      -4.56579                      -0.96706                      88.89640
                      -4.28825                      -0.83962                      88.89730
                      -4.05041                      -0.64884                      88.91470
                      -3.86721                      -0.40670                      88.94749
                      -3.75016                      -0.12842                      88.99362
                      -3.61525                       0.14366                      89.16494
                      -3.65012                       0.46027                      89.23259
                      -3.76409                       0.75698                      89.30334
                      -3.95000                       1.01515                      89.37274
                      -4.19617                       1.21856                      89.43641
                      -4.48714                       1.35443                      89.49037
                      -4.80461                       1.41423                      89.53123
                      -5.12864                       1.39419                      89.55641
                      -5.43887                       1.29557                      89.56433
                      -5.71581                       1.12457                      89.55450
                      -5.94205                       0.89194                      89.52754
                      -6.10339                       0.61229                      89.48513
                      -6.18968                       0.30320                      89.42994
                      -6.19550                      -0.01593                      89.36545
                      -6.12049                      -0.32502                      89.29569
                      -5.96935                      -0.60467                      89.22507
                      -5.75159                      -0.83729                      89.15800
                      -5.48089                      -1.00828                      89.09872
                      -5.17426                      -1.10689                      89.05093
                      -4.85096                      -1.12693                      89.01765
                      -4.53131                      -1.06713                      89.00097
                      -4.23539                      -0.93125                      89.00193
                      -3.98180                      -0.72783                      89.02047
                      -3.78646                      -0.46965                      89.05544
                      -3.66167                      -0.17294                      89.10462
                      -3.53994                       0.11881                      89.28114
                      -3.57654                       0.45114                      89.35216
                      -3.69618                       0.76260                      89.42642
                      -3.89133                       1.03360                      89.49926
                      -4.14973                       1.24712                      89.56610
                      -4.45515                       1.38974                      89.62275
                      -4.78840                       1.45251                      89.66563
                      -5.12853                       1.43147                      89.69206
                      -5.45418                       1.32795                      89.70038
                      -5.74488                       1.14846                      89.69006
                      -5.98237                       0.90427                      89.66176
                      -6.15172                       0.61072                      89.61724
                      -6.24230                       0.28626                      89.55931
                      -6.24841                      -0.04871                      89.49161
                      -6.16967                      -0.37317                      89.41839
                      -6.01102                      -0.66671                      89.34426
                      -5.78244                      -0.91090                      89.27386
                      -5.49829                      -1.09038                      89.21163
                      -5.17642                      -1.19389                      89.16147
                      -4.83705                      -1.21492                      89.12653
                      -4.50152                      -1.15215                      89.10902
                      -4.19090                      -1.00952                      89.11003
                      -3.92470                      -0.79599                      89.12949
                      -3.71966                      -0.52499                      89.16619
                      -3.58867                      -0.21353                      89.21782
                      -3.47850                       0.09395                      89.39859
                      -3.51646                       0.43862                      89.47225
                      -3.64054                       0.76164                      89.54927
                      -3.84294                       1.04270                      89.62481
                      -4.11093                       1.26415                      89.69414
                      -4.42769                       1.41207                      89.75288
                      -4.77331                       1.47716                      89.79736
                      -5.12607                       1.45534                      89.82477
                      -5.46381                       1.34798                      89.83340
                      -5.76530                       1.16183                      89.82270
                      -6.01161                       0.90857                      89.79334
                      -6.18725                       0.60412                      89.74717
                      -6.28119                       0.26762                      89.68709
                      -6.28753                      -0.07979                      89.61688
                      -6.20586                      -0.41629                      89.54094
                      -6.04133                      -0.72073                      89.46405
                      -5.80426                      -0.97398                      89.39104
                      -5.50956                      -1.16013                      89.32650
                      -5.17574                      -1.26749                      89.27448
                      -4.82377                      -1.28930                      89.23825
                      -4.47578                      -1.22420                      89.22008
                      -4.15363                      -1.07627                      89.22113
                      -3.87755                      -0.85482                      89.24132
                      -3.66490                      -0.57375                      89.27938
                      -3.52904                      -0.25073                      89.33293
                      -3.42948                       0.06909                      89.51717
                      -3.46847                       0.42306                      89.59281
                      -3.59589                       0.75479                      89.67191
                      -3.80375                       1.04344                      89.74949
                      -4.07898                       1.27086                      89.82069
                      -4.40428                       1.42277                      89.88102
                      -4.75923                       1.48962                      89.92669
                      -5.12150                       1.46722                      89.95485
                      -5.46835                       1.35696                      89.96370
                      -5.77798                       1.16578                      89.95271
                      -6.03093                       0.90569                      89.92257
                      -6.21131                       0.59303                      89.87515
                      -6.30779                       0.24745                      89.81345
                      -6.31429                      -0.10934                      89.74134
                      -6.23043                      -0.45492                      89.66336
                      -6.06145                      -0.76757                      89.58439
                      -5.81799                      -1.02765                      89.50941
                      -5.51534                      -1.21883                      89.44313
                      -5.17251                      -1.32908                      89.38970
                      -4.81105                      -1.35148                      89.35250
                      -4.45367                      -1.28462                      89.33384
                      -4.12282                      -1.13270                      89.33492
                      -3.83930                      -0.90527                      89.35565
                      -3.62091                      -0.61662                      89.39474
                      -3.48138                      -0.28489                      89.44973
                      -3.39192                       0.04423                      89.63677
                      -3.43162                       0.40470                      89.71381
                      -3.56139                       0.74252                      89.79436
                      -3.77306                       1.03646                      89.87336
                      -4.05333                       1.26806                      89.94586
                      -4.38461                       1.42275                      90.00730
                      -4.74607                       1.49083                      90.05382
                      -5.11499                       1.46801                      90.08249
                      -5.46821                       1.35573                      90.09151
                      -5.78351                       1.16104                      90.08032
                      -6.04111                       0.89618                      90.04961
                      -6.22480                       0.57779                      90.00133
                      -6.32304                       0.22586                      89.93850
                      -6.32967                      -0.13747                      89.86507
                      -6.24426                      -0.48939                      89.78565
                      -6.07219                      -0.80778                      89.70524
                      -5.82426                      -1.07264                      89.62888
                      -5.51605                      -1.26732                      89.56138
                      -5.16693                      -1.37959                      89.50697
                      -4.79884                      -1.40240                      89.46908
                      -4.43490                      -1.33432                      89.45009
                      -4.09798                      -1.17961                      89.45118
                      -3.80925                      -0.94801                      89.47229
                      -3.58686                      -0.65406                      89.51210
                      -3.44477                      -0.31624                      89.56810
                      -3.36520                       0.01937                      89.75736
                      -3.40533                       0.38368                      89.83522
                      -3.53647                       0.72510                      89.91663
                      -3.75040                       1.02218                      89.99647
                      -4.03367                       1.25624                      90.06975
                      -4.36847                       1.41259                      90.13184
                      -4.73378                       1.48139                      90.17885
                      -5.10664                       1.45833                      90.20783
                      -5.46362                       1.34485                      90.21694
                      -5.78229                       1.14809                      90.20563
                      -6.04262                       0.88040                      90.17460
                      -6.22827                       0.55861                      90.12580
                      -6.32756                       0.20294                      90.06230
                      -6.33426                      -0.16427                      89.98809
                      -6.24794                      -0.51994                      89.90782
                      -6.07404                      -0.84172                      89.82655
                      -5.82346                      -1.10940                      89.74938
                      -5.51197                      -1.30616                      89.68116
                      -5.15913                      -1.41963                      89.62618
                      -4.78712                      -1.44268                      89.58788
                      -4.41930                      -1.37387                      89.56869
                      -4.07879                      -1.21751                      89.56979
                      -3.78698                      -0.98344                      89.59113
                      -3.56222                      -0.68636                      89.63136
                      -3.41862                      -0.34494                      89.68796
                      -3.34899                      -0.00549                      89.87890
                      -3.38925                       0.36009                      89.95703
                      -3.52086                       0.70271                      90.03872
                      -3.73553                       1.00082                      90.11885
                      -4.01978                       1.23570                      90.19238
                      -4.35576                       1.39259                      90.25468
                      -4.72234                       1.46163                      90.30186
                      -5.09650                       1.43849                      90.33093
                      -5.45473                       1.32462                      90.34008
                      -5.77451                       1.12717                      90.32873
                      -6.03575                       0.85855                      90.29760
                      -6.22205                       0.53564                      90.24863
                      -6.32169                       0.17872                      90.18490
                      -6.32841                      -0.18977                      90.11043
                      -6.24179                      -0.54668                      90.02989
                      -6.06728                      -0.86959                      89.94833
                      -5.81583                      -1.13820                      89.87089
                      -5.50325                      -1.33564                      89.80244
                      -5.14918                      -1.44951                      89.74726
                      -4.77586                      -1.47264                      89.70883
                      -4.40676                      -1.40359                      89.68957
                      -4.06507                      -1.24669                      89.69067
                      -3.77224                      -1.01180                      89.71209
                      -3.54669                      -0.71369                      89.75246
                      -3.40259                      -0.37107                      89.80925
                      -3.34316                      -0.03035                      90.00138
                      -3.38329                       0.33396                      90.07923
                      -3.51444                       0.67538                      90.16064
                      -3.72836                       0.97246                      90.24049
                      -4.01163                       1.20652                      90.31376
                      -4.34643                       1.36287                      90.37585
                      -4.71174                       1.43167                      90.42286
                      -5.08460                       1.40861                      90.45184
                      -5.44158                       1.29513                      90.46096
                      -5.76025                       1.09837                      90.44965
                      -6.02059                       0.83068                      90.41862
                      -6.20623                       0.50890                      90.36982
                      -6.30552                       0.15322                      90.30632
                      -6.31222                      -0.21398                      90.23210
                      -6.22591                      -0.56965                      90.15184
                      -6.05200                      -0.89144                      90.07057
                      -5.80143                      -1.15912                      89.99340
                      -5.48993                      -1.35587                      89.92518
                      -5.13710                      -1.46934                      89.87019
                      -4.76508                      -1.49240                      89.83190
                      -4.39726                      -1.42359                      89.81270
                      -4.05675                      -1.26723                      89.81381
                      -3.76495                      -1.03316                      89.83514
                      -3.54018                      -0.73608                      89.87538
                      -3.39658                      -0.39466                      89.93197
                      -3.34784                      -0.05521                      90.12480
                      -3.38755                       0.30526                      90.20183
                      -3.51731                       0.64308                      90.28238
                      -3.72898                       0.93702                      90.36139
                      -4.00926                       1.16862                      90.43389
                      -4.34053                       1.32332                      90.49533
                      -4.70199                       1.39139                      90.54184
                      -5.07092                       1.36858                      90.57051
                      -5.42413                       1.25630                      90.57953
                      -5.73944                       1.06161                      90.56834
                      -5.99703                       0.79674                      90.53764
                      -6.18072                       0.47835                      90.48936
                      -6.27897                       0.12643                      90.42652
                      -6.28559                      -0.23691                      90.35309
                      -6.20019                      -0.58883                      90.27368
                      -6.02811                      -0.90722                      90.19326
                      -5.78018                      -1.17207                      90.11691
                      -5.47198                      -1.36676                      90.04941
                      -5.12286                      -1.47903                      89.99500
                      -4.75477                      -1.50184                      89.95711
                      -4.39083                      -1.43375                      89.93811
                      -4.05391                      -1.27905                      89.93921
                      -3.76518                      -1.04745                      89.96032
                      -3.54279                      -0.75350                      90.00013
                      -3.40070                      -0.41568                      90.05613
                      -3.36337                      -0.08007                      90.24921
                      -3.40236                       0.27391                      90.32485
                      -3.52978                       0.60564                      90.40395
                      -3.73764                       0.89429                      90.48153
                      -4.01287                       1.12171                      90.55273
                      -4.33817                       1.27362                      90.61306
                      -4.69311                       1.34047                      90.65873
                      -5.05539                       1.31806                      90.68689
                      -5.40224                       1.20780                      90.69574
                      -5.71187                       1.01662                      90.68475
                      -5.96482                       0.75653                      90.65460
                      -6.14520                       0.44388                      90.60719
                      -6.24167                       0.09830                      90.54549
                      -6.24818                      -0.25849                      90.47338
                      -6.16431                      -0.60407                      90.39540
                      -5.99534                      -0.91672                      90.31643
                      -5.75188                      -1.17681                      90.24145
                      -5.44923                      -1.36798                      90.17517
                      -5.10640                      -1.47823                      90.12174
                      -4.74494                      -1.50063                      90.08453
                      -4.38756                      -1.43377                      90.06588
                      -4.05671                      -1.28185                      90.06696
                      -3.77318                      -1.05443                      90.08769
                      -3.55480                      -0.76578                      90.12678
                      -3.41527                      -0.43404                      90.18177
                      -3.39035                      -0.10493                      90.37464
                      -3.42831                       0.23975                      90.44830
                      -3.55239                       0.56277                      90.52532
                      -3.75479                       0.84383                      90.60087
                      -4.02279                       1.06528                      90.67019
                      -4.33954                       1.21320                      90.72894
                      -4.68516                       1.27829                      90.77341
                      -5.03792                       1.25647                      90.80083
                      -5.37566                       1.14911                      90.80945
                      -5.67715                       0.96295                      90.79875
                      -5.92346                       0.70970                      90.76939
                      -6.09910                       0.40525                      90.72322
                      -6.19304                       0.06875                      90.66315
                      -6.19938                      -0.27866                      90.59293
                      -6.11771                      -0.61516                      90.51699
                      -5.95318                      -0.91960                      90.44010
                      -5.71611                      -1.17286                      90.36709
                      -5.42141                      -1.35901                      90.30255
                      -5.08759                      -1.46636                      90.25053
                      -4.73562                      -1.48817                      90.21430
                      -4.38763                      -1.42307                      90.19614
                      -4.06548                      -1.27514                      90.19718
                      -3.78940                      -1.05369                      90.21737
                      -3.57675                      -0.77262                      90.25543
                      -3.44089                      -0.44960                      90.30898
                      -3.42975                      -0.12978                      90.50120
                      -3.46636                       0.20255                      90.57222
                      -3.58599                       0.51401                      90.64649
                      -3.78114                       0.78501                      90.71933
                      -4.03955                       0.99853                      90.78617
                      -4.34497                       1.14115                      90.84281
                      -4.67821                       1.20392                      90.88570
                      -5.01835                       1.18288                      90.91213
                      -5.34399                       1.07936                      90.92045
                      -5.63469                       0.89987                      90.91013
                      -5.87218                       0.65568                      90.88182
                      -6.04154                       0.36213                      90.83731
                      -6.13211                       0.03767                      90.77938
                      -6.13822                      -0.29730                      90.71168
                      -6.05948                      -0.62176                      90.63846
                      -5.90084                      -0.91530                      90.56432
                      -5.67226                      -1.15949                      90.49392
                      -5.38811                      -1.33897                      90.43169
                      -5.06623                      -1.44248                      90.38153
                      -4.72687                      -1.46351                      90.34660
                      -4.39133                      -1.40074                      90.32909
                      -4.08071                      -1.25811                      90.33009
                      -3.81452                      -1.04458                      90.34956
                      -3.60948                      -0.77358                      90.38626
                      -3.47848                      -0.46212                      90.43789
                      -3.48302                      -0.15464                      90.62902
                      -3.51789                       0.16196                      90.69667
                      -3.63187                       0.45867                      90.76742
                      -3.81778                       0.71684                      90.83682
                      -4.06395                       0.92025                      90.90049
                      -4.35491                       1.05613                      90.95445
                      -4.67238                       1.11592                      90.99531
                      -4.99641                       1.09588                      91.02049
                      -5.30665                       0.99726                      91.02841
                      -5.58358                       0.82626                      91.01858
                      -5.80983                       0.59363                      90.99162
                      -5.97117                       0.31398                      90.94921
                      -6.05746                       0.00489                      90.89402
                      -6.06328                      -0.31423                      90.82953
                      -5.98826                      -0.62333                      90.75977
                      -5.83713                      -0.90297                      90.68915
                      -5.61937                      -1.13560                      90.62208
                      -5.34867                      -1.30659                      90.56279
                      -5.04204                      -1.40520                      90.51501
                      -4.71874                      -1.42524                      90.48173
                      -4.39908                      -1.36544                      90.46505
                      -4.10316                      -1.22956                      90.46601
                      -3.84957                      -1.02614                      90.48455
                      -3.65424                      -0.76796                      90.51951
                      -3.52944                      -0.47125                      90.56870
                      -3.55237                      -0.17950                      90.75828
                      -3.58507                       0.11743                      90.82174
                      -3.69196                       0.39571                      90.88809
                      -3.86633                       0.63785                      90.95317
                      -4.09721                       0.82863                      91.01289
                      -4.37010                       0.95606                      91.06350
                      -4.66785                       1.01214                      91.10182
                      -4.97175                       0.99334                      91.12544
                      -5.26272                       0.90085                      91.13287
                      -5.52245                       0.74048                      91.12365
                      -5.73465                       0.52229                      91.09836
                      -5.88596                       0.26001                      91.05858
                      -5.96689                      -0.02988                      91.00683
                      -5.97235                      -0.32918                      90.94634
                      -5.90200                      -0.61908                      90.88092
                      -5.76025                      -0.88135                      90.81468
                      -5.55602                      -1.09953                      90.75178
                      -5.30213                      -1.25990                      90.69617
                      -5.01454                      -1.35238                      90.65136
                      -4.71132                      -1.37117                      90.62014
                      -4.41153                      -1.31509                      90.60450
                      -4.13399                      -1.18765                      90.60540
                      -3.89615                      -0.99687                      90.62279
                      -3.71295                      -0.75473                      90.65558
                      -3.59590                      -0.47644                      90.70171
                      -3.64126                      -0.20436                      90.88931
                      -3.67127                       0.06812                      90.94754
                      -3.76936                       0.32349                      91.00843
                      -3.92937                       0.54569                      91.06815
                      -4.14124                       0.72076                      91.12296
                      -4.39166                       0.83770                      91.16940
                      -4.66489                       0.88916                      91.20456
                      -4.94378                       0.87191                      91.22624
                      -5.21078                       0.78704                      91.23306
                      -5.44913                       0.63987                      91.22460
                      -5.64385                       0.43965                      91.20139
                      -5.78271                       0.19897                      91.16489
                      -5.85698                      -0.06706                      91.11739
                      -5.86199                      -0.34172                      91.06188
                      -5.79742                      -0.60774                      91.00185
                      -5.66735                      -0.84842                      90.94106
                      -5.47993                      -1.04864                      90.88334
                      -5.24695                      -1.19580                      90.83232
                      -4.98304                      -1.28067                      90.79119
                      -4.70479                      -1.29792                      90.76255
                      -4.42968                      -1.24645                      90.74819
                      -4.17499                      -1.12950                      90.74901
                      -3.95673                      -0.95443                      90.76497
                      -3.78862                      -0.73222                      90.79507
                      -3.68121                      -0.47685                      90.83740
                      -3.75560                      -0.22923                      91.02264
                      -3.78224                       0.01259                      91.07431
                      -3.86929                       0.23920                      91.12835
                      -4.01128                       0.43638                      91.18135
                      -4.19930                       0.59174                      91.22998
                      -4.42152                       0.69552                      91.27120
                      -4.66399                       0.74118                      91.30240
                      -4.91148                       0.72588                      91.32163
                      -5.14842                       0.65056                      91.32768
                      -5.35994                       0.51996                      91.32017
                      -5.53273                       0.34228                      91.29958
                      -5.65596                       0.12870                      91.26719
                      -5.72186                      -0.10738                      91.22504
                      -5.72631                      -0.35111                      91.17578
                      -5.66901                      -0.58719                      91.12251
                      -5.55358                      -0.80077                      91.06856
                      -5.38727                      -0.97844                      91.01734
                      -5.18052                      -1.10904                      90.97206
                      -4.94632                      -1.18435                      90.93556
                      -4.69940                      -1.19966                      90.91015
                      -4.45526                      -1.15398                      90.89740
                      -4.22925                      -1.05020                      90.89814
                      -4.03556                      -0.89484                      90.91230
                      -3.88637                      -0.69765                      90.93900
                      -3.79106                      -0.47104                      90.97657
                      -3.90693                      -0.25409                      91.15931
                      -3.92918                      -0.05200                      91.20249
                      -4.00193                       0.13738                      91.24765
                      -4.12060                       0.30217                      91.29194
                      -4.27772                       0.43201                      91.33258
                      -4.46344                       0.51873                      91.36703
                      -4.66608                       0.55690                      91.39310
                      -4.87290                       0.54410                      91.40918
                      -5.07092                       0.48116                      91.41423
                      -5.24768                       0.37201                      91.40796
                      -5.39209                       0.22353                      91.39075
                      -5.49507                       0.04503                      91.36368
                      -5.55015                      -0.15226                      91.32845
                      -5.55386                      -0.35595                      91.28729
                      -5.50598                      -0.55324                      91.24277
                      -5.40952                      -0.73173                      91.19769
                      -5.27052                      -0.88022                      91.15488
                      -5.09774                      -0.98936                      91.11704
                      -4.90202                      -1.05230                      91.08654
                      -4.69566                      -1.06509                      91.06530
                      -4.49163                      -1.02692                      91.05465
                      -4.30275                      -0.94019                      91.05526
                      -4.14089                      -0.81035                      91.06710
                      -4.01621                      -0.64556                      91.08941
                      -3.93656                      -0.45617                      91.12081
                      -4.12465                      -0.27895                      91.30197
                      -4.14075                      -0.13284                      91.33319
                      -4.19334                       0.00408                      91.36584
                      -4.27914                       0.12323                      91.39786
                      -4.39274                       0.21710                      91.42725
                      -4.52701                       0.27980                      91.45215
                      -4.67352                       0.30739                      91.47101
                      -4.82305                       0.29814                      91.48263
                      -4.96622                       0.25263                      91.48628
                      -5.09402                       0.17372                      91.48175
                      -5.19843                       0.06637                      91.46930
                      -5.27288                      -0.06269                      91.44973
                      -5.31270                      -0.20533                      91.42426
                      -5.31539                      -0.35259                      91.39450
                      -5.28077                      -0.49524                      91.36231
                      -5.21102                      -0.62429                      91.32972
                      -5.11053                      -0.73164                      91.29877
                      -4.98561                      -0.81055                      91.27141
                      -4.84411                      -0.85605                      91.24936
                      -4.69491                      -0.86530                      91.23400
                      -4.54740                      -0.83770                      91.22630
                      -4.41084                      -0.77500                      91.22674
                      -4.29381                      -0.68112                      91.23530
                      -4.20367                      -0.56198                      91.25144
                      -4.14608                      -0.42505                      91.27414
                      -4.71068                      -0.30381                      91.47790
                      -4.71068                      -0.30381                      91.47790
                      -4.71068                      -0.30381                      91.47790
                      -4.71068                      -0.30381                      91.47790
                      -4.71068                      -0.30381                      91.47790
                      -4.71068                      -0.30381                      91.47790
                      -4.71068                      -0.30381                      91.47790
                      -4.71068                      -0.30381                      91.47790
                      -4.71068                      -0.30381                      91.47790
                      -4.71068                      -0.30381                      91.47790
                      -4.71068                      -0.30381                      91.47790
                      -4.71068                      -0.30381                      91.47790
                      -4.71068                      -0.30381                      91.47790
                      -4.71068                      -0.30381                      91.47790
                      -4.71068                      -0.30381                      91.47790
                      -4.71068                      -0.30381                      91.47790
                      -4.71068                      -0.30381                      91.47790
                      -4.71068                      -0.30381                      91.47790
                      -4.71068                      -0.30381                      91.47790
                      -4.71068                      -0.30381                      91.47790
                      -4.71068                      -0.30381                      91.47790
                      -4.71068                      -0.30381                      91.47790
                      -4.71068                      -0.30381                      91.47790
                      -4.71068                      -0.30381                      91.47790
                      -4.71068                      -0.30381                      91.47790
        </DataArray>
      </Points>
      <Polys>
        <DataArray type="Int32" Name="connectivity" format="ascii">
      0      1     26     25
      1      2     27     26
      2      3     28     27
      3      4     29     28
      4      5     30     29
      5      6     31     30
      6      7     32     31
      7      8     33     32
      8      9     34     33
      9     10     35     34
     10     11     36     35
     11     12     37     36
     12     13     38     37
     13     14     39     38
     14     15     40     39
     15     16     41     40
     16     17     42     41
     17     18     43     42
     18     19     44     43
     19     20     45     44
     20     21     46     45
     21     22     47     46
     22     23     48     47
     23     24     49     48
     24      0     25     49
     25     26     51     50
     26     27     52     51
     27     28     53     52
     28     29     54     53
     29     30     55     54
     30     31     56     55
     31     32     57     56
     32     33     58     57
     33     34     59     58
     34     35     60     59
     35     36     61     60
     36     37     62     61
     37     38     63     62
     38     39     64     63
     39     40     65     64
     40     41     66     65
     41     42     67     66
     42     43     68     67
     43     44     69     68
     44     45     70     69
     45     46     71     70
     46     47     72     71
     47     48     73     72
     48     49     74     73
     49     25     50     74
     50     51     76     75
     51     52     77     76
     52     53     78     77
     53     54     79     78
     54     55     80     79
     55     56     81     80
     56     57     82     81
     57     58     83     82
     58     59     84     83
     59     60     85     84
     60     61     86     85
     61     62     87     86
     62     63     88     87
     63     64     89     88
     64     65     90     89
     65     66     91     90
     66     67     92     91
     67     68     93     92
     68     69     94     93
     69     70     95     94
     70     71     96     95
     71     72     97     96
     72     73     98     97
     73     74     99     98
     74     50     75     99
     75     76    101    100
     76     77    102    101
     77     78    103    102
     78     79    104    103
     79     80    105    104
     80     81    106    105
     81     82    107    106
     82     83    108    107
     83     84    109    108
     84     85    110    109
     85     86    111    110
     86     87    112    111
     87     88    113    112
     88     89    114    113
     89     90    115    114
     90     91    116    115
     91     92    117    116
     92     93    118    117
     93     94    119    118
     94     95    120    119
     95     96    121    120
     96     97    122    121
     97     98    123    122
     98     99    124    123
     99     75    100    124
    100    101    126    125
    101    102    127    126
    102    103    128    127
    103    104    129    128
    104    105    130    129
    105    106    131    130
    106    107    132    131
    107    108    133    132
    108    109    134    133
    109    110    135    134
    110    111    136    135
    111    112    137    136
    112    113    138    137
    113    114    139    138
    114    115    140    139
    115    116    141    140
    116    117    142    141
    117    118    143    142
    118    119    144    143
    119    120    145    144
    120    121    146    145
    121    122    147    146
    122    123    148    147
    123    124    149    148
    124    100    125    149
    125    126    151    150
    126    127    152    151
    127    128    153    152
    128    129    154    153
    129    130    155    154
    130    131    156    155
    131    132    157    156
    132    133    158    157
    133    134    159    158
    134    135    160    159
    135    136    161    160
    136    137    162    161
    137    138    163    162
    138    139    164    163
    139    140    165    164
    140    141    166    165
    141    142    167    166
    142    143    168    167
    143    144    169    168
    144    145    170    169
    145    146    171    170
    146    147    172    171
    147    148    173    172
    148    149    174    173
    149    125    150    174
    150    151    176    175
    151    152    177    176
    152    153    178    177
    153    154    179    178
    154    155    180    179
    155    156    181    180
    156    157    182    181
    157    158    183    182
    158    159    184    183
    159    160    185    184
    160    161    186    185
    161    162    187    186
    162    163    188    187
    163    164    189    188
    164    165    190    189
    165    166    191    190
    166    167    192    191
    167    168    193    192
    168    169    194    193
    169    170    195    194
    170    171    196    195
    171    172    197    196
    172    173    198    197
    173    174    199    198
    174    150    175    199
    175    176    201    200
    176    177    202    201
    177    178    203    202
    178    179    204    203
    179    180    205    204
    180    181    206    205
    181    182    207    206
    182    183    208    207
    183    184    209    208
    184    185    210    209
    185    186    211    210
    186    187    212    211
    187    188    213    212
    188    189    214    213
    189    190    215    214
    190    191    216    215
    191    192    217    216
    192    193    218    217
    193    194    219    218
    194    195    220    219
    195    196    221    220
    196    197    222    221
    197    198    223    222
    198    199    224    223
    199    175    200    224
    200    201    226    225
    201    202    227    226
    202    203    228    227
    203    204    229    228
    204    205    230    229
    205    206    231    230
    206    207    232    231
    207    208    233    232
    208    209    234    233
    209    210    235    234
    210    211    236    235
    211    212    237    236
    212    213    238    237
    213    214    239    238
    214    215    240    239
    215    216    241    240
    216    217    242    241
    217    218    243    242
    218    219    244    243
    219    220    245    244
    220    221    246    245
    221    222    247    246
    222    223    248    247
    223    224    249    248
    224    200    225    249
    225    226    251    250
    226    227    252    251
    227    228    253    252
    228    229    254    253
    229    230    255    254
    230    231    256    255
    231    232    257    256
    232    233    258    257
    233    234    259    258
    234    235    260    259
    235    236    261    260
    236    237    262    261
    237    238    263    262
    238    239    264    263
    239    240    265    264
    240    241    266    265
    241    242    267    266
    242    243    268    267
    243    244    269    268
    244    245    270    269
    245    246    271    270
    246    247    272    271
    247    248    273    272
    248    249    274    273
    249    225    250    274
    250    251    276    275
    251    252    277    276
    252    253    278    277
    253    254    279    278
    254    255    280    279
    255    256    281    280
    256    257    282    281
    257    258    283    282
    258    259    284    283
    259    260    285    284
    260    261    286    285
    261    262    287    286
    262    263    288    287
    263    264    289    288
    264    265    290    289
    265    266    291    290
    266    267    292    291
    267    268    293    292
    268    269    294    293
    269    270    295    294
    270    271    296    295
    271    272    297    296
    272    273    298    297
    273    274    299    298
    274    250    275    299
    275    276    301    300
    276    277    302    301
    277    278    303    302
    278    279    304    303
    279    280    305    304
    280    281    306    305
    281    282    307    306
    282    283    308    307
    283    284    309    308
    284    285    310    309
    285    286    311    310
    286    287    312    311
    287    288    313    312
    288    289    314    313
    289    290    315    314
    290    291    316    315
    291    292    317    316
    292    293    318    317
    293    294    319    318
    294    295    320    319
    295    296    321    320
    296    297    322    321
    297    298    323    322
    298    299    324    323
    299    275    300    324
    300    301    326    325
    301    302    327    326
    302    303    328    327
    303    304    329    328
    304    305    330    329
    305    306    331    330
    306    307    332    331
    307    308    333    332
    308    309    334    333
    309    310    335    334
    310    311    336    335
    311    312    337    336
    312    313    338    337
    313    314    339    338
    314    315    340    339
    315    316    341    340
    316    317    342    341
    317    318    343    342
    318    319    344    343
    319    320    345    344
    320    321    346    345
    321    322    347    346
    322    323    348    347
    323    324    349    348
    324    300    325    349
    325    326    351    350
    326    327    352    351
    327    328    353    352
    328    329    354    353
    329    330    355    354
    330    331    356    355
    331    332    357    356
    332    333    358    357
    333    334    359    358
    334    335    360    359
    335    336    361    360
    336    337    362    361
    337    338    363    362
    338    339    364    363
    339    340    365    364
    340    341    366    365
    341    342    367    366
    342    343    368    367
    343    344    369    368
    344    345    370    369
    345    346    371    370
    346    347    372    371
    347    348    373    372
    348    349    374    373
    349    325    350    374
    350    351    376    375
    351    352    377    376
    352    353    378    377
    353    354    379    378
    354    355    380    379
    355    356    381    380
    356    357    382    381
    357    358    383    382
    358    359    384    383
    359    360    385    384
    360    361    386    385
    361    362    387    386
    362    363    388    387
    363    364    389    388
    364    365    390    389
    365    366    391    390
    366    367    392    391
    367    368    393    392
    368    369    394    393
    369    370    395    394
    370    371    396    395
    371    372    397    396
    372    373    398    397
    373    374    399    398
    374    350    375    399
    375    376    401    400
    376    377    402    401
    377    378    403    402
    378    379    404    403
    379    380    405    404
    380    381    406    405
    381    382    407    406
    382    383    408    407
    383    384    409    408
    384    385    410    409
    385    386    411    410
    386    387    412    411
    387    388    413    412
    388    389    414    413
    389    390    415    414
    390    391    416    415
    391    392    417    416
    392    393    418    417
    393    394    419    418
    394    395    420    419
    395    396    421    420
    396    397    422    421
    397    398    423    422
    398    399    424    423
    399    375    400    424
    400    401    426    425
    401    402    427    426
    402    403    428    427
    403    404    429    428
    404    405    430    429
    405    406    431    430
    406    407    432    431
    407    408    433    432
    408    409    434    433
    409    410    435    434
    410    411    436    435
    411    412    437    436
    412    413    438    437
    413    414    439    438
    414    415    440    439
    415    416    441    440
    416    417    442    441
    417    418    443    442
    418    419    444    443
    419    420    445    444
    420    421    446    445
    421    422    447    446
    422    423    448    447
    423    424    449    448
    424    400    425    449
    425    426    451    450
    426    427    452    451
    427    428    453    452
    428    429    454    453
    429    430    455    454
    430    431    456    455
    431    432    457    456
    432    433    458    457
    433    434    459    458
    434    435    460    459
    435    436    461    460
    436    437    462    461
    437    438    463    462
    438    439    464    463
    439    440    465    464
    440    441    466    465
    441    442    467    466
    442    443    468    467
    443    444    469    468
    444    445    470    469
    445    446    471    470
    446    447    472    471
    447    448    473    472
    448    449    474    473
    449    425    450    474
    450    451    476    475
    451    452    477    476
    452    453    478    477
    453    454    479    478
    454    455    480    479
    455    456    481    480
    456    457    482    481
    457    458    483    482
    458    459    484    483
    459    460    485    484
    460    461    486    485
    461    462    487    486
    462    463    488    487
    463    464    489    488
    464    465    490    489
    465    466    491    490
    466    467    492    491
    467    468    493    492
    468    469    494    493
    469    470    495    494
    470    471    496    495
    471    472    497    496
    472    473    498    497
    473    474    499    498
    474    450    475    499
    475    476    501    500
    476    477    502    501
    477    478    503    502
    478    479    504    503
    479    480    505    504
    480    481    506    505
    481    482    507    506
    482    483    508    507
    483    484    509    508
    484    485    510    509
    485    486    511    510
    486    487    512    511
    487    488    513    512
    488    489    514    513
    489    490    515    514
    490    491    516    515
    491    492    517    516
    492    493    518    517
    493    494    519    518
    494    495    520    519
    495    496    521    520
    496    497    522    521
    497    498    523    522
    498    499    524    523
    499    475    500    524
    500    501    526    525
    501    502    527    526
    502    503    528    527
    503    504    529    528
    504    505    530    529
    505    506    531    530
    506    507    532    531
    507    508    533    532
    508    509    534    533
    509    510    535    534
    510    511    536    535
    511    512    537    536
    512    513    538    537
    513    514    539    538
    514    515    540    539
    515    516    541    540
    516    517    542    541
    517    518    543    542
    518    519    544    543
    519    520    545    544
    520    521    546    545
    521    522    547    546
    522    523    548    547
    523    524    549    548
    524    500    525    549
    525    526    551    550
    526    527    552    551
    527    528    553    552
    528    529    554    553
    529    530    555    554
    530    531    556    555
    531    532    557    556
    532    533    558    557
    533    534    559    558
    534    535    560    559
    535    536    561    560
    536    537    562    561
    537    538    563    562
    538    539    564    563
    539    540    565    564
    540    541    566    565
    541    542    567    566
    542    543    568    567
    543    544    569    568
    544    545    570    569
    545    546    571    570
    546    547    572    571
    547    548    573    572
    548    549    574    573
    549    525    550    574
    550    551    576    575
    551    552    577    576
    552    553    578    577
    553    554    579    578
    554    555    580    579
    555    556    581    580
    556    557    582    581
    557    558    583    582
    558    559    584    583
    559    560    585    584
    560    561    586    585
    561    562    587    586
    562    563    588    587
    563    564    589    588
    564    565    590    589
    565    566    591    590
    566    567    592    591
    567    568    593    592
    568    569    594    593
    569    570    595    594
    570    571    596    595
    571    572    597    596
    572    573    598    597
    573    574    599    598
    574    550    575    599
    575    576    601    600
    576    577    602    601
    577    578    603    602
    578    579    604    603
    579    580    605    604
    580    581    606    605
    581    582    607    606
    582    583    608    607
    583    584    609    608
    584    585    610    609
    585    586    611    610
    586    587    612    611
    587    588    613    612
    588    589    614    613
    589    590    615    614
    590    591    616    615
    591    592    617    616
    592    593    618    617
    593    594    619    618
    594    595    620    619
    595    596    621    620
    596    597    622    621
    597    598    623    622
    598    599    624    623
    599    575    600    624
        </DataArray>
        <DataArray type="Int32" Name="offsets" format="ascii">
      4
      8
     12
     16
     20
     24
     28
     32
     36
     40
     44
     48
     52
     56
     60
     64
     68
     72
     76
     80
     84
     88
     92
     96
    100
    104
    108
    112
    116
    120
    124
    128
    132
    136
    140
    144
    148
    152
    156
    160
    164
    168
    172
    176
    180
    184
    188
    192
    196
    200
    204
    208
    212
    216
    220
    224
    228
    232
    236
    240
    244
    248
    252
    256
    260
    264
    268
    272
    276
    280
    284
    288
    292
    296
    300
    304
    308
    312
    316
    320
    324
    328
    332
    336
    340
    344
    348
    352
    356
    360
    364
    368
    372
    376
    380
    384
    388
    392
    396
    400
    404
    408
    412
    416
    420
    424
    428
    432
    436
    440
    444
    448
    452
    456
    460
    464
    468
    472
    476
    480
    484
    488
    492
    496
    500
    504
    508
    512
    516
    520
    524
    528
    532
    536
    540
    544
    548
    552
    556
    560
    564
    568
    572
    576
    580
    584
    588
    592
    596
    600
    604
    608
    612
    616
    620
    624
    628
    632
    636
    640
    644
    648
    652
    656
    660
    664
    668
    672
    676
    680
    684
    688
    692
    696
    700
    704
    708
    712
    716
    720
    724
    728
    732
    736
    740
    744
    748
    752
    756
    760
    764
    768
    772
    776
    780
    784
    788
    792
    796
    800
    804
    808
    812
    816
    820
    824
    828
    832
    836
    840
    844
    848
    852
    856
    860
    864
    868
    872
    876
    880
    884
    888
    892
    896
    900
    904
    908
    912
    916
    920
    924
    928
    932
    936
    940
    944
    948
    952
    956
    960
    964
    968
    972
    976
    980
    984
    988
    992
    996
   1000
   1004
   1008
   1012
   1016
   1020
   1024
   1028
   1032
   1036
   1040
   1044
   1048
   1052
   1056
   1060
   1064
   1068
   1072
   1076
   1080
   1084
   1088
   1092
   1096
   1100
   1104
   1108
   1112
   1116
   1120
   1124
   1128
   1132
   1136
   1140
   1144
   1148
   1152
   1156
   1160
   1164
   1168
   1172
   1176
   1180
   1184
   1188
   1192
   1196
   1200
   1204
   1208
   1212
   1216
   1220
   1224
   1228
   1232
   1236
   1240
   1244
   1248
   1252
   1256
   1260
   1264
   1268
   1272
   1276
   1280
   1284
   1288
   1292
   1296
   1300
   1304
   1308
   1312
   1316
   1320
   1324
   1328
   1332
   1336
   1340
   1344
   1348
   1352
   1356
   1360
   1364
   1368
   1372
   1376
   1380
   1384
   1388
   1392
   1396
   1400
   1404
   1408
   1412
   1416
   1420
   1424
   1428
   1432
   1436
   1440
   1444
   1448
   1452
   1456
   1460
   1464
   1468
   1472
   1476
   1480
   1484
   1488
   1492
   1496
   1500
   1504
   1508
   1512
   1516
   1520
   1524
   1528
   1532
   1536
   1540
   1544
   1548
   1552
   1556
   1560
   1564
   1568
   1572
   1576
   1580
   1584
   1588
   1592
   1596
   1600
   1604
   1608
   1612
   1616
   1620
   1624
   1628
   1632
   1636
   1640
   1644
   1648
   1652
   1656
   1660
   1664
   1668
   1672
   1676
   1680
   1684
   1688
   1692
   1696
   1700
   1704
   1708
   1712
   1716
   1720
   1724
   1728
   1732
   1736
   1740
   1744
   1748
   1752
   1756
   1760
   1764
   1768
   1772
   1776
   1780
   1784
   1788
   1792
   1796
   1800
   1804
   1808
   1812
   1816
   1820
   1824
   1828
   1832
   1836
   1840
   1844
   1848
   1852
   1856
   1860
   1864
   1868
   1872
   1876
   1880
   1884
   1888
   1892
   1896
   1900
   1904
   1908
   1912
   1916
   1920
   1924
   1928
   1932
   1936
   1940
   1944
   1948
   1952
   1956
   1960
   1964
   1968
   1972
   1976
   1980
   1984
   1988
   1992
   1996
   2000
   2004
   2008
   2012
   2016
   2020
   2024
   2028
   2032
   2036
   2040
   2044
   2048
   2052
   2056
   2060
   2064
   2068
   2072
   2076
   2080
   2084
   2088
   2092
   2096
   2100
   2104
   2108
   2112
   2116
   2120
   2124
   2128
   2132
   2136
   2140
   2144
   2148
   2152
   2156
   2160
   2164
   2168
   2172
   2176
   2180
   2184
   2188
   2192
   2196
   2200
   2204
   2208
   2212
   2216
   2220
   2224
   2228
   2232
   2236
   2240
   2244
   2248
   2252
   2256
   2260
   2264
   2268
   2272
   2276
   2280
   2284
   2288
   2292
   2296
   2300
   2304
   2308
   2312
   2316
   2320
   2324
   2328
   2332
   2336
   2340
   2344
   2348
   2352
   2356
   2360
   2364
   2368
   2372
   2376
   2380
   2384
   2388
   2392
   2396
   2400
        </DataArray>
      </Polys>
    </Piece>
  </PolyData>
</VTKFile>
