<?xml version="1.0"?>
<VTKFile type="PolyData" version="0.1" byte_order="LittleEndian">
  <PolyData>
    <Piece NumberOfPoints="     19" NumberOfVerts="  0" NumberOfLines="     18"
           NumberOfStrips="  0" NumberOfPolys="      0">
      <Points>
        <DataArray type="Float32" NumberOfComponents="3" format="ascii">
                      -4.77872                       0.44776                      91.44366
                      -4.72100                       0.85523                      92.74726
                      -4.62327                       1.57999                      95.38395
                      -4.53106                       2.26260                      98.03472
                      -4.41397                       3.09159                     101.35659
                      -4.21120                       4.22530                     105.29660
                      -3.97091                       5.48513                     109.19511
                      -3.71492                       6.74917                     113.09169
                      -3.44134                       8.01892                     116.98572
                      -3.15286                       9.29232                     120.87802
                      -2.85435                      10.56571                     124.77004
                      -2.55038                      11.84047                     128.66160
                      -2.24875                      13.11677                     132.55301
                      -1.95932                      14.39503                     136.44455
                      -1.69168                      15.67571                     140.33630
                      -1.49580                      16.74562                     143.57968
                      -1.36176                      17.61118                     146.17197
                      -1.24735                      18.53106                     148.74721
                      -1.20812                      18.95298                     150.04768
        </DataArray>
      </Points>
      <PointData>
        <DataArray type="Float32" Name="TranslationalVelocity" NumberOfComponents="3" format="ascii">
                       0.11342                      -4.02112                       1.26345
                       0.21750                      -7.68674                       2.40460
                       0.40396                     -15.09962                       4.43522
                       0.58224                     -22.55597                       6.34885
                       0.80435                     -31.90952                       8.67441
                       1.11633                     -43.03373                      11.85756
                       1.47385                     -54.06618                      15.39880
                       1.84779                     -65.11201                      18.95578
                       2.23958                     -76.16863                      22.53212
                       2.64942                     -87.23593                      26.12131
                       3.07694                     -98.31483                      29.71237
                       3.52298                    -109.40162                      33.30851
                       3.98827                    -120.49341                      36.90976
                       4.47391                    -131.58704                      40.51725
                       4.98149                    -142.67958                      44.13243
                       5.42340                    -151.92025                      47.15392
                       5.79191                    -159.30244                      49.59961
                       6.18673                    -166.63417                      52.20062
                       6.37931                    -170.33300                      53.39454
        </DataArray>
        <DataArray type="Float32" Name="RotationalVelocity" NumberOfComponents="3" format="ascii">
                       2.80006                       0.00037                      -0.25317
                       2.80068                       0.00057                      -0.25325
                       2.80233                       0.00125                      -0.25364
                       2.80441                       0.00230                      -0.25423
                       2.80737                       0.00406                      -0.25514
                       2.81114                       0.00674                      -0.25634
                       2.81485                       0.00993                      -0.25759
                       2.81828                       0.01349                      -0.25891
                       2.82130                       0.01730                      -0.26036
                       2.82386                       0.02126                      -0.26204
                       2.82596                       0.02531                      -0.26402
                       2.82766                       0.02943                      -0.26633
                       2.82905                       0.03364                      -0.26892
                       2.83024                       0.03804                      -0.27161
                       2.83135                       0.04278                      -0.27409
                       2.83229                       0.04715                      -0.27566
                       2.83309                       0.05107                      -0.27630
                       2.83396                       0.05549                      -0.27610
                       2.83443                       0.05793                      -0.27560
        </DataArray>
        <DataArray type="Float32" Name="TranslationalAcceleration" NumberOfComponents="3" format="ascii">
                      -1.09275                      -3.57901                     -11.32460
                      -1.29224                      -4.29286                     -13.63924
                      -3.75350                     -11.57391                     -39.25828
                      -6.03961                     -17.88556                     -62.95704
                      -8.68850                     -24.99550                     -90.75634
                     -11.59145                     -34.12142                    -122.12381
                     -14.32071                     -44.03838                    -152.45335
                     -17.03295                     -53.99575                    -182.76474
                     -19.84500                     -64.10844                    -213.42593
                     -22.84829                     -74.38115                    -244.55218
                     -26.09398                     -84.74990                    -276.07538
                     -29.57768                     -95.16158                    -307.80362
                     -33.22719                    -105.55137                    -339.51261
                     -36.88931                    -115.88108                    -371.01806
                     -40.31782                    -126.16586                    -402.25148
                     -42.73007                    -134.77212                    -428.15142
                     -44.17764                    -141.81633                    -448.89858
                     -44.94081                    -149.47117                    -469.75051
                     -45.11227                    -153.07708                    -480.43769
        </DataArray>
        <DataArray type="Float32" Name="OrientationX" NumberOfComponents="3" format="ascii">
                       0.97815                      -0.20676                       0.02170
                       0.97813                      -0.20689                       0.02138
                       0.97804                      -0.20742                       0.02044
                       0.97788                      -0.20831                       0.01910
                       0.97757                      -0.20994                       0.01697
                       0.98309                      -0.18305                       0.00423
                       0.98616                      -0.16568                      -0.00594
                       0.98817                      -0.15264                      -0.01485
                       0.98980                      -0.14053                      -0.02323
                       0.99103                      -0.13016                      -0.03035
                       0.99173                      -0.12342                      -0.03513
                       0.99215                      -0.11935                      -0.03741
                       0.99219                      -0.11935                      -0.03626
                       0.99165                      -0.12526                      -0.03062
                       0.99100                      -0.13207                      -0.02168
                       0.99046                      -0.13726                      -0.01189
                       0.99001                      -0.14095                      -0.00233
                       0.98914                      -0.14669                       0.00967
                       0.98842                      -0.15084                       0.01677
        </DataArray>
        <DataArray type="Float32" Name="OrientationY" NumberOfComponents="3" format="ascii">
                       0.20354                       0.93113                      -0.30260
                       0.20356                       0.93108                      -0.30273
                       0.20376                       0.93091                      -0.30313
                       0.20418                       0.93064                      -0.30369
                       0.20505                       0.93016                      -0.30455
                       0.17555                       0.93569                      -0.30605
                       0.15587                       0.93879                      -0.30720
                       0.14071                       0.94088                      -0.30812
                       0.12659                       0.94267                      -0.30879
                       0.11452                       0.94407                      -0.30921
                       0.10663                       0.94490                      -0.30950
                       0.10205                       0.94535                      -0.30968
                       0.10238                       0.94525                      -0.30988
                       0.10971                       0.94433                      -0.31017
                       0.11890                       0.94316                      -0.31035
                       0.12683                       0.94212                      -0.31037
                       0.13328                       0.94126                      -0.31027
                       0.14243                       0.94000                      -0.31003
                       0.14857                       0.93912                      -0.30980
        </DataArray>
        <DataArray type="Float32" Name="OrientationZ" NumberOfComponents="3" format="ascii">
                       0.04236                       0.30040                       0.95287
                       0.04272                       0.30046                       0.95284
                       0.04385                       0.30064                       0.95273
                       0.04549                       0.30087                       0.95258
                       0.04815                       0.30120                       0.95235
                       0.05206                       0.30162                       0.95201
                       0.05647                       0.30202                       0.95163
                       0.06101                       0.30239                       0.95123
                       0.06529                       0.30270                       0.95085
                       0.06890                       0.30297                       0.95051
                       0.07139                       0.30320                       0.95025
                       0.07232                       0.30343                       0.95010
                       0.07126                       0.30375                       0.95008
                       0.06777                       0.30422                       0.95019
                       0.06144                       0.30498                       0.95038
                       0.05381                       0.30590                       0.95054
                       0.04593                       0.30686                       0.95065
                       0.03639                       0.30804                       0.95068
                       0.03098                       0.30871                       0.95065
        </DataArray>
        <DataArray type="Float32" Name="Force" NumberOfComponents="3" format="ascii">
                      -0.44464                      15.65826                      -4.91666
                     183.81473                     116.97003                     -45.11918
                     270.83588                     343.83146                    -120.87746
                     269.94458                     517.65376                    -176.13603
                    1596.46248                    -341.57614                      27.01873
                    1559.49733                    -243.86416                      -8.35106
                    1494.30202                    -150.48438                     -41.18232
                    2234.21729                    -221.21884                     -73.44764
                    2658.31893                    -209.08620                    -116.48684
                    2930.89312                    -180.88448                    -155.27431
                    4501.10668                    -243.10209                    -261.28973
                    4728.17065                    -209.37794                    -293.70350
                    3753.74410                    -112.10825                    -246.08937
                    2177.85495                      42.03121                    -168.60611
                    1749.58658                      -1.66704                    -112.59984
                     444.51573                     191.68037                     -85.67219
                   -1255.32706                     298.07824                     -33.28402
                   -2579.75666                     319.97295                      -1.81633
                  -19746.80934                     -70.81297                     668.31631
        </DataArray>
        <DataArray type="Float32" Name="Moment" NumberOfComponents="3" format="ascii">
                       0.00000                       0.00000                       0.00000
                       0.00000                       0.00000                       0.00000
                       0.00000                       0.00000                       0.00000
                       0.00000                       0.00000                       0.00000
                     -63.23086                    -394.44191                   -1250.47527
                    -128.89564                    -743.58377                   -2356.46170
                    -188.68288                   -1003.59573                   -3179.12441
                    -326.84429                   -1609.23647                   -5095.43597
                    -519.82237                   -2391.67521                   -7569.84519
                    -625.01019                   -2725.25286                   -8622.68945
                    -724.48389                   -3048.71057                   -9643.82114
                    -782.03646                   -3248.20782                  -10273.96254
                    -583.80705                   -2460.77395                   -7784.12004
                    -546.95249                   -2423.59802                   -7669.05741
                    -469.69351                   -2294.27171                   -7264.17411
                    -386.14010                   -2151.68383                   -6817.62545
                    -291.26543                   -1899.00865                   -6021.50155
                    -115.75771                    -950.40969                   -3016.33586
                     -89.58328                    -862.36372                   -2738.29975
        </DataArray>
      </PointData>
      <Lines>
        <DataArray type="Int32" Name="connectivity" format="ascii">
      0      1
      1      2
      2      3
      3      4
      4      5
      5      6
      6      7
      7      8
      8      9
      9     10
     10     11
     11     12
     12     13
     13     14
     14     15
     15     16
     16     17
     17     18
        </DataArray>
        <DataArray type="Int32" Name="offsets" format="ascii">
      2
      4
      6
      8
     10
     12
     14
     16
     18
     20
     22
     24
     26
     28
     30
     32
     34
     36
        </DataArray>
      </Lines>
    </Piece>
  </PolyData>
</VTKFile>
