<?xml version="1.0"?>
<VTKFile type="PolyData" version="0.1" byte_order="LittleEndian">
  <PolyData>
    <Piece NumberOfPoints="     19" NumberOfVerts="  0" NumberOfLines="     18"
           NumberOfStrips="  0" NumberOfPolys="      0">
      <Points>
        <DataArray type="Float32" NumberOfComponents="3" format="ascii">
                      -4.77471                      -0.22483                      91.49634
                      -4.71285                      -0.42724                      92.84687
                      -4.61050                      -0.92592                      95.53532
                      -4.51520                      -1.46932                      98.21793
                      -4.39475                      -2.17558                     101.56779
                      -4.18116                      -2.88269                     105.60539
                      -3.92344                      -3.46228                     109.65982
                      -3.64839                      -4.04029                     113.71380
                      -3.35395                      -4.61497                     117.76740
                      -3.04282                      -5.18815                     121.82053
                      -2.71999                      -5.76324                     125.87297
                      -2.38994                      -6.33843                     129.92523
                      -2.06044                      -6.91312                     133.97781
                      -1.74130                      -7.48641                     138.03128
                      -1.44204                      -8.05743                     142.08608
                      -1.21822                      -8.53043                     145.46670
                      -1.06042                      -8.89860                     148.17345
                      -0.91892                      -9.21018                     150.88892
                      -0.86747                      -9.40523                     152.24171
        </DataArray>
      </Points>
      <PointData>
        <DataArray type="Float32" Name="TranslationalVelocity" NumberOfComponents="3" format="ascii">
                      -0.05821                      -4.16794                      -0.61530
                      -0.11055                      -7.96606                      -1.18214
                      -0.23899                     -15.52515                      -2.57942
                      -0.37907                     -23.07133                      -4.10327
                      -0.56167                     -32.50323                      -6.08611
                      -0.74576                     -43.90173                      -8.07436
                      -0.89678                     -55.37327                      -9.70661
                      -1.04471                     -66.86228                     -11.33639
                      -1.18711                     -78.36847                     -12.95874
                      -1.32271                     -89.88933                     -14.57876
                      -1.45124                    -101.42130                     -16.20594
                      -1.57215                    -112.96283                     -17.83495
                      -1.68656                    -124.51157                     -19.46376
                      -1.79724                    -136.06518                     -21.08940
                      -1.90903                    -147.62127                     -22.70887
                      -2.00832                    -157.25190                     -24.05003
                      -2.09392                    -164.95883                     -25.09344
                      -2.17923                    -172.68743                     -25.97562
                      -2.23542                    -176.53388                     -26.52764
        </DataArray>
        <DataArray type="Float32" Name="RotationalVelocity" NumberOfComponents="3" format="ascii">
                       2.80012                      -0.00078                      -0.25291
                       2.80072                      -0.00077                      -0.25296
                       2.80231                      -0.00085                      -0.25303
                       2.80431                      -0.00097                      -0.25314
                       2.80714                      -0.00107                      -0.25333
                       2.81072                      -0.00099                      -0.25359
                       2.81425                      -0.00059                      -0.25368
                       2.81756                       0.00014                      -0.25333
                       2.82060                       0.00116                      -0.25221
                       2.82333                       0.00235                      -0.25000
                       2.82580                       0.00352                      -0.24647
                       2.82804                       0.00440                      -0.24148
                       2.83005                       0.00469                      -0.23507
                       2.83182                       0.00400                      -0.22751
                       2.83324                       0.00190                      -0.21933
                       2.83403                      -0.00123                      -0.21263
                       2.83428                      -0.00490                      -0.20783
                       2.83405                      -0.00980                      -0.20402
                       2.83371                      -0.01275                      -0.20265
        </DataArray>
        <DataArray type="Float32" Name="TranslationalAcceleration" NumberOfComponents="3" format="ascii">
                      -0.95146                       1.76798                     -11.62588
                      -1.23903                       2.12671                     -14.10261
                      -3.58260                       6.84793                     -40.26342
                      -5.77935                      11.62442                     -64.28852
                      -8.38956                      17.53021                     -92.34609
                     -11.43639                      23.25098                    -124.48396
                     -14.49931                      27.83965                    -156.02386
                     -17.66774                      32.40826                    -187.54674
                     -21.01237                      37.00404                    -219.43426
                     -24.56509                      41.66374                    -251.79714
                     -28.30857                      46.40607                    -284.55424
                     -32.16580                      51.18527                    -317.51927
                     -35.98948                      55.95171                    -350.47188
                     -39.55137                      60.64844                    -383.23797
                     -42.53142                      65.22238                    -415.76765
                     -44.24400                      68.90219                    -442.79924
                     -44.91596                      71.68668                    -464.53060
                     -44.78676                      73.95051                    -486.62541
                     -44.33678                      75.37556                    -497.81898
        </DataArray>
        <DataArray type="Float32" Name="OrientationX" NumberOfComponents="3" format="ascii">
                       0.96904                      -0.23390                      -0.07903
                       0.96902                      -0.23387                      -0.07942
                       0.96891                      -0.23392                      -0.08063
                       0.96871                      -0.23413                      -0.08242
                       0.96833                      -0.23464                      -0.08534
                       0.97499                      -0.20512                      -0.08556
                       0.97879                      -0.18519                      -0.08761
                       0.98134                      -0.16967                      -0.09042
                       0.98347                      -0.15524                      -0.09315
                       0.98511                      -0.14294                      -0.09550
                       0.98606                      -0.13494                      -0.09734
                       0.98659                      -0.13046                      -0.09810
                       0.98655                      -0.13115                      -0.09757
                       0.98565                      -0.13911                      -0.09558
                       0.98459                      -0.14931                      -0.09102
                       0.98372                      -0.15838                      -0.08491
                       0.98303                      -0.16594                      -0.07826
                       0.98181                      -0.17635                      -0.07030
                       0.98087                      -0.18315                      -0.06589
        </DataArray>
        <DataArray type="Float32" Name="OrientationY" NumberOfComponents="3" format="ascii">
                       0.24267                       0.96130                       0.13040
                       0.24269                       0.96131                       0.13036
                       0.24291                       0.96128                       0.13016
                       0.24336                       0.96121                       0.12984
                       0.24427                       0.96105                       0.12927
                       0.21510                       0.96775                       0.13114
                       0.19568                       0.97172                       0.13216
                       0.18074                       0.97452                       0.13286
                       0.16686                       0.97689                       0.13360
                       0.15504                       0.97874                       0.13430
                       0.14739                       0.97985                       0.13477
                       0.14308                       0.98045                       0.13507
                       0.14368                       0.98037                       0.13500
                       0.15125                       0.97932                       0.13436
                       0.16065                       0.97792                       0.13366
                       0.16873                       0.97663                       0.13315
                       0.17525                       0.97552                       0.13281
                       0.18441                       0.97389                       0.13238
                       0.19051                       0.97275                       0.13212
        </DataArray>
        <DataArray type="Float32" Name="OrientationZ" NumberOfComponents="3" format="ascii">
                       0.04547                      -0.14554                       0.98831
                       0.04586                      -0.14559                       0.98828
                       0.04706                      -0.14570                       0.98821
                       0.04882                      -0.14584                       0.98810
                       0.05169                      -0.14602                       0.98793
                       0.05590                      -0.14626                       0.98767
                       0.06065                      -0.14650                       0.98735
                       0.06557                      -0.14673                       0.98700
                       0.07025                      -0.14693                       0.98665
                       0.07428                      -0.14711                       0.98633
                       0.07720                      -0.14724                       0.98608
                       0.07857                      -0.14729                       0.98597
                       0.07795                      -0.14721                       0.98603
                       0.07491                      -0.14689                       0.98631
                       0.06906                      -0.14623                       0.98684
                       0.06184                      -0.14531                       0.98745
                       0.05430                      -0.14427                       0.98805
                       0.04512                      -0.14293                       0.98870
                       0.03990                      -0.14215                       0.98904
        </DataArray>
        <DataArray type="Float32" Name="Force" NumberOfComponents="3" format="ascii">
                       0.27136                      20.50503                       3.00723
                     192.49766                     127.42415                       9.83387
                     291.41684                     369.60824                      40.56024
                     297.28548                     552.14443                      66.64740
                    1619.16503                    -389.46524                    -142.10449
                    1574.41300                    -281.30817                    -130.58557
                    1522.88942                    -181.40304                    -120.31152
                    2293.06498                    -265.46192                    -191.51380
                    2743.76323                    -254.90158                    -233.00002
                    3059.62140                    -227.82918                    -264.05071
                    4699.24454                    -307.47143                    -413.29147
                    4992.13288                    -278.37223                    -438.90750
                    4069.12233                    -179.10189                    -348.11291
                    2521.82252                     -12.33585                    -193.34728
                     672.10478                     158.69256                     -23.61014
                     946.36290                     147.08921                     -37.56642
                    -692.59567                     286.94773                      80.35060
                   -2036.95393                     352.55703                     144.84537
                  -20412.36671                     428.55342                     886.01371
        </DataArray>
        <DataArray type="Float32" Name="Moment" NumberOfComponents="3" format="ascii">
                       0.00000                       0.00000                       0.00000
                       0.00000                       0.00000                       0.00000
                       0.00000                       0.00000                       0.00000
                       0.00000                       0.00000                       0.00000
                     -69.29421                     195.15148                   -1324.40211
                    -141.04228                     367.29770                   -2491.71967
                    -206.23295                     495.04487                   -3356.89081
                    -356.93068                     792.62019                   -5372.33203
                    -567.48848                    1176.30403                   -7969.50920
                    -683.01059                    1339.18387                   -9069.69334
                    -793.31872                    1496.69535                  -10133.74348
                    -859.84777                    1593.94571                  -10790.84904
                    -646.90992                    1208.76637                   -8183.68952
                    -613.06384                    1191.97087                   -8072.22223
                    -535.23354                    1128.85782                   -7648.90420
                    -448.64399                    1056.69655                   -7164.68055
                    -347.78887                     932.81645                   -6329.09553
                    -144.19548                     465.45842                   -3160.75132
                    -115.14818                     420.40589                   -2856.17835
        </DataArray>
      </PointData>
      <Lines>
        <DataArray type="Int32" Name="connectivity" format="ascii">
      0      1
      1      2
      2      3
      3      4
      4      5
      5      6
      6      7
      7      8
      8      9
      9     10
     10     11
     11     12
     12     13
     13     14
     14     15
     15     16
     16     17
     17     18
        </DataArray>
        <DataArray type="Int32" Name="offsets" format="ascii">
      2
      4
      6
      8
     10
     12
     14
     16
     18
     20
     22
     24
     26
     28
     30
     32
     34
     36
        </DataArray>
      </Lines>
    </Piece>
  </PolyData>
</VTKFile>
