<?xml version="1.0"?>
<VTKFile type="PolyData" version="0.1" byte_order="LittleEndian">
  <PolyData>
    <Piece NumberOfPoints="     19" NumberOfVerts="  0" NumberOfLines="     18"
           NumberOfStrips="  0" NumberOfPolys="      0">
      <Points>
        <DataArray type="Float32" NumberOfComponents="3" format="ascii">
                      -4.54943                      -1.47738                      90.29294
                      -4.58804                      -2.82519                      90.51754
                      -4.69124                      -5.53569                      90.87397
                      -4.80097                      -8.25385                      91.18469
                      -4.93193                     -11.65717                      91.54303
                      -4.99532                     -15.72189                      92.10167
                      -4.98395                     -19.76848                      92.77700
                      -4.92629                     -23.81622                      93.44518
                      -4.81034                     -27.86400                      94.10689
                      -4.62774                     -31.91094                      94.75950
                      -4.37148                     -35.95612                      95.39873
                      -4.03306                     -39.99749                      96.02521
                      -3.60705                     -44.03300                      96.63819
                      -3.09002                     -48.06038                      97.23694
                      -2.47858                     -52.07685                      97.82016
                      -1.89597                     -55.41328                      98.29331
                      -1.38515                     -58.07321                      98.67111
                      -0.82922                     -60.71641                      99.09472
                      -0.54501                     -62.04125                      99.26284
        </DataArray>
      </Points>
      <PointData>
        <DataArray type="Float32" Name="TranslationalVelocity" NumberOfComponents="3" format="ascii">
                      -0.33125                      -0.51509                      -3.11607
                      -0.60514                      -0.98043                      -5.95504
                      -1.15649                      -1.71036                     -11.66489
                      -1.71104                      -2.34262                     -17.39175
                      -2.40898                      -3.07080                     -24.56356
                      -3.24898                      -4.23504                     -33.13124
                      -4.09268                      -5.66117                     -41.66301
                      -4.94395                      -7.08244                     -50.19943
                      -5.80211                      -8.50283                     -58.73783
                      -6.66670                      -9.91861                     -67.27580
                      -7.53779                     -11.32250                     -75.81072
                      -8.41612                     -12.71793                     -84.33734
                      -9.30381                     -14.10519                     -92.85018
                     -10.20470                     -15.48434                    -101.34314
                     -11.12467                     -16.85476                    -109.80878
                     -11.91254                     -17.98964                    -116.83635
                     -12.56029                     -18.90924                    -122.43524
                     -13.22579                     -19.93918                    -127.99487
                     -13.56942                     -20.36517                    -130.77971
        </DataArray>
        <DataArray type="Float32" Name="RotationalVelocity" NumberOfComponents="3" format="ascii">
                       2.10623                      -0.00050                      -0.20307
                       2.10634                      -0.00051                      -0.20315
                       2.10660                      -0.00054                      -0.20358
                       2.10693                      -0.00056                      -0.20431
                       2.10739                      -0.00057                      -0.20551
                       2.10796                      -0.00050                      -0.20719
                       2.10852                      -0.00034                      -0.20895
                       2.10900                      -0.00006                      -0.21072
                       2.10936                       0.00031                      -0.21247
                       2.10957                       0.00076                      -0.21428
                       2.10957                       0.00126                      -0.21630
                       2.10933                       0.00178                      -0.21876
                       2.10881                       0.00228                      -0.22200
                       2.10796                       0.00274                      -0.22643
                       2.10673                       0.00313                      -0.23253
                       2.10538                       0.00339                      -0.23926
                       2.10406                       0.00355                      -0.24606
                       2.10248                       0.00368                      -0.25434
                       2.10160                       0.00373                      -0.25911
        </DataArray>
        <DataArray type="Float32" Name="TranslationalAcceleration" NumberOfComponents="3" format="ascii">
                      -0.14969                       6.56497                      -1.15976
                      -0.14224                       7.97894                      -1.40494
                      -0.36788                      22.91343                      -3.58694
                      -0.55527                      36.70278                      -5.33031
                      -0.76139                      52.85216                      -7.14981
                      -1.05341                      71.13978                      -9.72445
                      -1.39330                      88.88242                     -12.73329
                      -1.72961                     106.59207                     -15.70342
                      -2.06139                     124.48083                     -18.70012
                      -2.38378                     142.61011                     -21.74661
                      -2.69096                     160.93213                     -24.83849
                      -2.98172                     179.32863                     -27.97963
                      -3.25881                     197.66010                     -31.15862
                      -3.53214                     215.80859                     -34.36079
                      -3.82140                     233.72007                     -37.57343
                      -4.09943                     248.49803                     -40.25585
                      -4.36496                     260.28830                     -42.44185
                      -4.69871                     272.12012                     -44.88376
                      -4.88388                     278.14028                     -45.92747
        </DataArray>
        <DataArray type="Float32" Name="OrientationX" NumberOfComponents="3" format="ascii">
                       0.94661                      -0.07956                      -0.31242
                       0.94662                      -0.07883                      -0.31257
                       0.94664                      -0.07649                      -0.31309
                       0.94664                      -0.07308                      -0.31391
                       0.94656                      -0.06751                      -0.31539
                       0.95611                      -0.05422                      -0.28795
                       0.96211                      -0.04034                      -0.26967
                       0.96659                      -0.02496                      -0.25511
                       0.97061                      -0.00739                      -0.24056
                       0.97392                       0.01236                      -0.22656
                       0.97606                       0.03396                      -0.21484
                       0.97722                       0.05737                      -0.20431
                       0.97709                       0.08188                      -0.19645
                       0.97533                       0.10636                      -0.19342
                       0.97296                       0.13045                      -0.19059
                       0.97080                       0.14929                      -0.18775
                       0.96909                       0.16265                      -0.18548
                       0.96711                       0.17323                      -0.18623
                       0.96598                       0.17713                      -0.18844
        </DataArray>
        <DataArray type="Float32" Name="OrientationY" NumberOfComponents="3" format="ascii">
                       0.32119                       0.14940                       0.93515
                       0.32122                       0.14934                       0.93515
                       0.32134                       0.14931                       0.93512
                       0.32159                       0.14938                       0.93502
                       0.32214                       0.14964                       0.93479
                       0.29292                       0.15211                       0.94396
                       0.27265                       0.15385                       0.94973
                       0.25584                       0.15537                       0.95415
                       0.23872                       0.15679                       0.95835
                       0.22183                       0.15800                       0.96220
                       0.20695                       0.15892                       0.96536
                       0.19305                       0.15948                       0.96814
                       0.18171                       0.15970                       0.97030
                       0.17522                       0.15989                       0.97146
                       0.16911                       0.15971                       0.97257
                       0.16381                       0.15918                       0.97357
                       0.15986                       0.15859                       0.97432
                       0.15926                       0.15844                       0.97444
                       0.16092                       0.15870                       0.97412
        </DataArray>
        <DataArray type="Float32" Name="OrientationZ" NumberOfComponents="3" format="ascii">
                      -0.02772                      -0.98557                       0.16697
                      -0.02703                      -0.98564                       0.16669
                      -0.02478                      -0.98583                       0.16592
                      -0.02144                      -0.98608                       0.16491
                      -0.01591                      -0.98643                       0.16339
                      -0.00739                      -0.98688                       0.16131
                       0.00318                      -0.98727                       0.15902
                       0.01582                      -0.98754                       0.15657
                       0.03064                      -0.98760                       0.15395
                       0.04769                      -0.98736                       0.15114
                       0.06693                      -0.98671                       0.14809
                       0.08813                      -0.98553                       0.14477
                       0.11082                      -0.98376                       0.14117
                       0.13425                      -0.98139                       0.13731
                       0.15731                      -0.97851                       0.13333
                       0.17523                      -0.97590                       0.13008
                       0.18789                      -0.97386                       0.12768
                       0.19831                      -0.97205                       0.12564
                       0.20245                      -0.97131                       0.12480
        </DataArray>
        <DataArray type="Float32" Name="Force" NumberOfComponents="3" format="ascii">
                       1.90974                       3.30209                      19.80784
                     191.28618                      10.18929                      91.12502
                     275.03208                      34.32069                     243.69380
                     273.71976                      52.37090                     345.30118
                    1791.54073                    -154.80660                    -750.92146
                    1974.70832                    -126.06070                    -669.12890
                    2202.04608                     -97.87194                    -637.60413
                    3040.15268                     -81.35804                    -799.45906
                    3424.64983                     -21.48797                    -796.71348
                    4024.95273                      57.72491                    -866.57158
                    5466.25413                     203.30905                   -1082.20908
                    6345.37167                     386.49350                   -1193.62724
                    7370.14993                     625.20955                   -1381.83275
                    7981.70910                     878.14366                   -1475.17910
                    8520.02591                    1149.03163                   -1561.42458
                    8852.63940                    1367.10926                   -1607.29530
                    8672.56029                    1461.66481                   -1553.70271
                    6242.52098                    1121.88503                   -1128.02617
                     875.85287                     174.06564                     -71.70848
        </DataArray>
        <DataArray type="Float32" Name="Moment" NumberOfComponents="3" format="ascii">
                       0.00000                       0.00000                       0.00000
                       0.00000                       0.00000                       0.00000
                       0.00000                       0.00000                       0.00000
                       0.00000                       0.00000                       0.00000
                      14.82341                     932.70676                    -156.91710
                      12.30119                    1728.46205                    -289.33119
                      -8.52543                    2291.70469                    -381.21923
                     -57.16475                    3432.34113                    -566.68083
                    -156.74994                    4930.01822                    -806.75144
                    -274.26291                    5573.08704                    -902.62515
                    -420.35859                    6102.48938                    -976.79421
                    -587.37726                    6481.40528                   -1023.85901
                    -580.95237                    5094.97404                    -793.35189
                    -703.00170                    5080.79201                    -779.22049
                    -800.53081                    4925.07319                    -743.85812
                    -851.02233                    4688.32605                    -699.52288
                    -813.19588                    4169.46746                    -616.67295
                    -432.22703                    2095.67357                    -307.68923
                    -395.13883                    1875.15076                    -274.50252
        </DataArray>
      </PointData>
      <Lines>
        <DataArray type="Int32" Name="connectivity" format="ascii">
      0      1
      1      2
      2      3
      3      4
      4      5
      5      6
      6      7
      7      8
      8      9
      9     10
     10     11
     11     12
     12     13
     13     14
     14     15
     15     16
     16     17
     17     18
        </DataArray>
        <DataArray type="Int32" Name="offsets" format="ascii">
      2
      4
      6
      8
     10
     12
     14
     16
     18
     20
     22
     24
     26
     28
     30
     32
     34
     36
        </DataArray>
      </Lines>
    </Piece>
  </PolyData>
</VTKFile>
