<?xml version="1.0"?>
<VTKFile type="PolyData" version="0.1" byte_order="LittleEndian">
  <PolyData>
    <Piece NumberOfPoints="      8" NumberOfVerts="  0" NumberOfLines="      0"
           NumberOfStrips="  0" NumberOfPolys="      6">
      <Points>
        <DataArray type="Float32" NumberOfComponents="3" format="ascii">
                      -3.22669                       2.39996                      87.61771
                       3.77321                       2.39996                      87.58124
                       3.77321                      -2.40005                      87.58115
                      -3.22669                      -2.40005                      87.61762
                      -3.20168                      -2.40014                      92.41757
                       3.79823                      -2.40014                      92.38109
                       3.79823                       2.39987                      92.38118
                      -3.20168                       2.39987                      92.41765
        </DataArray>
      </Points>
      <Polys>
        <DataArray type="Int32" Name="connectivity" format="ascii">
      0      1      2      3
      4      5      6      7
      7      6      1      0
      6      5      2      1
      5      4      3      2
      4      7      0      3
        </DataArray>
        <DataArray type="Int32" Name="offsets" format="ascii">
      4
      8
     12
     16
     20
     24
        </DataArray>
      </Polys>
    </Piece>
  </PolyData>
</VTKFile>
