<?xml version="1.0"?>
<VTKFile type="PolyData" version="0.1" byte_order="LittleEndian">
  <PolyData>
    <Piece NumberOfPoints="      8" NumberOfVerts="  0" NumberOfLines="      0"
           NumberOfStrips="  0" NumberOfPolys="      6">
      <Points>
        <DataArray type="Float32" NumberOfComponents="3" format="ascii">
                      -3.34903                       2.39295                      87.60992
                       3.65095                       2.39295                      87.59052
                       3.65095                      -2.40705                      87.58974
                      -3.34903                      -2.40706                      87.60913
                      -3.33573                      -2.40784                      92.40912
                       3.66425                      -2.40784                      92.38973
                       3.66425                       2.39217                      92.39051
                      -3.33573                       2.39217                      92.40991
        </DataArray>
      </Points>
      <Polys>
        <DataArray type="Int32" Name="connectivity" format="ascii">
      0      1      2      3
      4      5      6      7
      7      6      1      0
      6      5      2      1
      5      4      3      2
      4      7      0      3
        </DataArray>
        <DataArray type="Int32" Name="offsets" format="ascii">
      4
      8
     12
     16
     20
     24
        </DataArray>
      </Polys>
    </Piece>
  </PolyData>
</VTKFile>
