<?xml version="1.0"?>
<VTKFile type="PolyData" version="0.1" byte_order="LittleEndian">
  <PolyData>
    <Piece NumberOfPoints="     19" NumberOfVerts="  0" NumberOfLines="     18"
           NumberOfStrips="  0" NumberOfPolys="      0">
      <Points>
        <DataArray type="Float32" NumberOfComponents="3" format="ascii">
                      -4.84891                      -1.47359                      90.29530
                      -4.88635                      -2.81710                      90.54493
                      -4.98962                      -5.52093                      90.95183
                      -5.10329                      -8.23324                      91.31349
                      -5.24617                     -11.62942                      91.73629
                      -5.33787                     -15.68271                      92.37364
                      -5.37532                     -19.71551                      93.12963
                      -5.39420                     -23.74972                      93.88149
                      -5.39135                     -27.78499                      94.63099
                      -5.36833                     -31.82147                      95.37680
                      -5.32889                     -35.85956                      96.11622
                      -5.27566                     -39.89869                      96.85166
                      -5.21442                     -43.93847                      97.58446
                      -5.15285                     -47.97841                      98.31626
                      -5.09813                     -52.01798                      99.04836
                      -5.06606                     -55.38355                      99.66012
                      -5.05257                     -58.07378                     100.15900
                      -5.04318                     -60.75374                     100.71291
                      -5.05706                     -62.10018                     100.95127
        </DataArray>
      </Points>
      <PointData>
        <DataArray type="Float32" Name="TranslationalVelocity" NumberOfComponents="3" format="ascii">
                      -0.37763                      -0.76615                      -4.08536
                      -0.71672                      -1.44866                      -7.80937
                      -1.39991                      -2.55058                     -15.30424
                      -2.08632                      -3.52450                     -22.82306
                      -2.94746                      -4.66052                     -32.23822
                      -3.97811                      -6.40425                     -43.47572
                      -5.00757                      -8.49069                     -54.65682
                      -6.04263                     -10.57044                     -65.84191
                      -7.08475                     -12.64922                     -77.02952
                      -8.13585                     -14.72289                     -88.21953
                      -9.19817                     -16.78302                     -99.41240
                     -10.27395                     -18.83552                    -110.60595
                     -11.36571                     -20.88251                    -121.79840
                     -12.47611                     -22.92630                    -132.98771
                     -13.60796                     -24.96845                    -144.17169
                     -14.57012                     -26.67059                    -153.48579
                     -15.35249                     -28.05475                    -160.92823
                     -16.14512                     -29.58975                    -168.33959
                     -16.54828                     -30.24501                    -172.06218
        </DataArray>
        <DataArray type="Float32" Name="RotationalVelocity" NumberOfComponents="3" format="ascii">
                       2.77173                      -0.00026                      -0.25234
                       2.77180                      -0.00027                      -0.25242
                       2.77194                      -0.00032                      -0.25270
                       2.77207                      -0.00039                      -0.25308
                       2.77222                      -0.00049                      -0.25368
                       2.77237                      -0.00063                      -0.25457
                       2.77245                      -0.00079                      -0.25568
                       2.77245                      -0.00099                      -0.25708
                       2.77232                      -0.00123                      -0.25886
                       2.77206                      -0.00153                      -0.26114
                       2.77164                      -0.00192                      -0.26400
                       2.77104                      -0.00240                      -0.26751
                       2.77026                      -0.00299                      -0.27171
                       2.76930                      -0.00371                      -0.27658
                       2.76817                      -0.00454                      -0.28201
                       2.76713                      -0.00533                      -0.28684
                       2.76623                      -0.00602                      -0.29080
                       2.76530                      -0.00675                      -0.29472
                       2.76482                      -0.00713                      -0.29663
        </DataArray>
        <DataArray type="Float32" Name="TranslationalAcceleration" NumberOfComponents="3" format="ascii">
                      -0.26697                      11.40594                      -2.19848
                      -0.25399                      13.80927                      -2.53954
                      -0.64848                      39.64977                      -6.52242
                      -0.96393                      63.48774                      -9.75046
                      -1.30283                      91.37991                     -13.17428
                      -1.79113                     122.92995                     -17.97367
                      -2.37672                     153.50738                     -23.52447
                      -2.98106                     184.01056                     -28.98673
                      -3.60591                     214.81903                     -34.44178
                      -4.24245                     246.05495                     -39.89899
                      -4.87607                     277.65306                     -45.32658
                      -5.49463                     309.42685                     -50.71983
                      -6.08732                     341.15188                     -56.06692
                      -6.64926                     372.63889                     -61.37597
                      -7.18494                     403.80922                     -66.68896
                      -7.62314                     429.61029                     -71.18557
                      -7.98703                     450.25013                     -74.94815
                      -8.40689                     471.01225                     -79.28971
                      -8.60522                     481.59137                     -81.23172
        </DataArray>
        <DataArray type="Float32" Name="OrientationX" NumberOfComponents="3" format="ascii">
                       0.94839                      -0.08369                      -0.30585
                       0.94840                      -0.08325                      -0.30596
                       0.94836                      -0.08196                      -0.30644
                       0.94825                      -0.08012                      -0.30725
                       0.94800                      -0.07720                      -0.30876
                       0.95716                      -0.06768                      -0.28153
                       0.96277                      -0.05922                      -0.26377
                       0.96681                      -0.05122                      -0.25032
                       0.97035                      -0.04339                      -0.23776
                       0.97323                      -0.03624                      -0.22694
                       0.97507                      -0.03047                      -0.21981
                       0.97616                      -0.02631                      -0.21546
                       0.97623                      -0.02444                      -0.21536
                       0.97484                      -0.02562                      -0.22143
                       0.97306                      -0.02941                      -0.22868
                       0.97150                      -0.03464                      -0.23450
                       0.97020                      -0.04045                      -0.23893
                       0.96815                      -0.04830                      -0.24568
                       0.96667                      -0.05312                      -0.25047
        </DataArray>
        <DataArray type="Float32" Name="OrientationY" NumberOfComponents="3" format="ascii">
                       0.31595                       0.16747                       0.93388
                       0.31597                       0.16735                       0.93389
                       0.31620                       0.16706                       0.93387
                       0.31665                       0.16675                       0.93377
                       0.31759                       0.16638                       0.93352
                       0.28908                       0.16824                       0.94240
                       0.27009                       0.16922                       0.94785
                       0.25543                       0.16981                       0.95180
                       0.24168                       0.17027                       0.95530
                       0.22978                       0.17055                       0.95818
                       0.22176                       0.17060                       0.96006
                       0.21676                       0.17049                       0.96122
                       0.21634                       0.17021                       0.96137
                       0.22253                       0.16973                       0.96004
                       0.23033                       0.16916                       0.95830
                       0.23696                       0.16863                       0.95677
                       0.24232                       0.16817                       0.95551
                       0.25034                       0.16754                       0.95355
                       0.25589                       0.16710                       0.95215
        </DataArray>
        <DataArray type="Float32" Name="OrientationZ" NumberOfComponents="3" format="ascii">
                      -0.02693                      -0.98232                       0.18527
                      -0.02655                      -0.98238                       0.18502
                      -0.02534                      -0.98254                       0.18434
                      -0.02358                      -0.98274                       0.18349
                      -0.02070                      -0.98304                       0.18224
                      -0.01642                      -0.98342                       0.18060
                      -0.01150                      -0.98380                       0.17891
                      -0.00625                      -0.98414                       0.17726
                      -0.00097                      -0.98444                       0.17571
                       0.00398                      -0.98468                       0.17431
                       0.00825                      -0.98487                       0.17310
                       0.01144                      -0.98501                       0.17213
                       0.01316                      -0.98510                       0.17146
                       0.01299                      -0.98516                       0.17116
                       0.01050                      -0.98515                       0.17137
                       0.00640                      -0.98507                       0.17203
                       0.00153                      -0.98493                       0.17296
                      -0.00489                      -0.98468                       0.17429
                      -0.00872                      -0.98451                       0.17512
        </DataArray>
        <DataArray type="Float32" Name="Force" NumberOfComponents="3" format="ascii">
                       2.65973                       5.43664                      29.21185
                     207.03540                      18.55157                     128.03082
                     325.08279                      61.49162                     370.67312
                     341.63986                      95.39054                     549.92478
                    1569.37048                    -126.27359                    -497.75450
                    1481.12535                     -95.58065                    -380.37004
                    1407.74844                     -67.25120                    -274.87389
                    2147.51183                     -91.24602                    -422.42562
                    2610.42099                     -86.56771                    -460.70783
                    2939.64328                     -73.03825                    -469.60857
                    4621.77079                     -88.36058                    -707.20716
                    5015.91529                     -71.31512                    -725.73809
                    4356.85097                     -47.44900                    -594.94115
                    3084.85375                     -18.53240                    -337.32898
                    1389.32838                      14.54041                      -9.05188
                    2182.94531                     -36.92004                    -287.12401
                     827.36854                      18.31099                      87.46599
                    -718.88676                      57.36991                     291.75858
                  -17847.00407                     471.28510                    1752.48203
        </DataArray>
        <DataArray type="Float32" Name="Moment" NumberOfComponents="3" format="ascii">
                       0.00000                       0.00000                       0.00000
                       0.00000                       0.00000                       0.00000
                       0.00000                       0.00000                       0.00000
                       0.00000                       0.00000                       0.00000
                      27.63133                    1326.43255                    -249.37919
                      40.57825                    2481.14402                    -465.46223
                      37.28697                    3319.44642                    -621.17965
                      30.62348                    5301.05825                    -989.37221
                       2.44347                    7855.50473                   -1462.21638
                     -42.93277                    8916.03377                   -1655.46074
                     -91.77387                    9941.84803                   -1841.92883
                    -132.62190                   10571.87016                   -1955.46352
                    -114.80392                    8003.07992                   -1479.00635
                    -112.24039                    7902.98671                   -1460.61134
                     -87.66206                    7510.82705                   -1389.86406
                     -52.48474                    7019.71417                   -1301.66557
                     -15.36643                    6194.61374                   -1151.48512
                      12.73754                    3092.39655                    -576.68800
                      22.67968                    2813.92584                    -525.76684
        </DataArray>
      </PointData>
      <Lines>
        <DataArray type="Int32" Name="connectivity" format="ascii">
      0      1
      1      2
      2      3
      3      4
      4      5
      5      6
      6      7
      7      8
      8      9
      9     10
     10     11
     11     12
     12     13
     13     14
     14     15
     15     16
     16     17
     17     18
        </DataArray>
        <DataArray type="Int32" Name="offsets" format="ascii">
      2
      4
      6
      8
     10
     12
     14
     16
     18
     20
     22
     24
     26
     28
     30
     32
     34
     36
        </DataArray>
      </Lines>
    </Piece>
  </PolyData>
</VTKFile>
