<?xml version="1.0"?>
<VTKFile type="PolyData" version="0.1" byte_order="LittleEndian">
  <PolyData>
    <Piece NumberOfPoints="    550" NumberOfVerts="  0" NumberOfLines="     21"
           NumberOfStrips="  0" NumberOfPolys="    567">
      <Points>
        <DataArray type="Float32" NumberOfComponents="3" format="ascii">
                       2.97360                      -0.00000                       2.18936
                       2.88019                       0.73945                       2.18939
                       2.60581                       1.43243                       2.18945
                       2.16772                       2.03541                       2.18954
                       1.59344                       2.51050                       2.18967
                       0.91905                       2.82784                       2.18981
                       0.18693                       2.96750                       2.18997
                      -0.55693                       2.92071                       2.19013
                      -1.26578                       2.69039                       2.19028
                      -1.89507                       2.29102                       2.19041
                      -2.40528                       1.74770                       2.19052
                      -2.76435                       1.09457                       2.19059
                      -2.94970                       0.37266                       2.19063
                      -2.94970                      -0.37267                       2.19063
                      -2.76435                      -1.09458                       2.19059
                      -2.40528                      -1.74771                       2.19051
                      -1.89507                      -2.29103                       2.19040
                      -1.26578                      -2.69039                       2.19026
                      -0.55693                      -2.92071                       2.19011
                       0.18693                      -2.96751                       2.18995
                       0.91905                      -2.82785                       2.18980
                       1.59344                      -2.51051                       2.18965
                       2.16772                      -2.03542                       2.18953
                       2.60581                      -1.43244                       2.18944
                       2.88019                      -0.73945                       2.18938
                       2.92240                      -0.00003                       6.56785
                       2.83065                       0.72618                       6.56792
                       2.56120                       1.40675                       6.56812
                       2.13095                       1.99894                       6.56845
                       1.56695                       2.46552                       6.56887
                       0.90464                       2.77718                       6.56936
                       0.18563                       2.91434                       6.56989
                      -0.54491                       2.86837                       6.57043
                      -1.24106                       2.64218                       6.57094
                      -1.85909                       2.24997                       6.57139
                      -2.36016                       1.71638                       6.57175
                      -2.71279                       1.07494                       6.57201
                      -2.89483                       0.36596                       6.57214
                      -2.89483                      -0.36602                       6.57213
                      -2.71279                      -1.07500                       6.57199
                      -2.36016                      -1.71643                       6.57173
                      -1.85909                      -2.25002                       6.57135
                      -1.24106                      -2.64223                       6.57089
                      -0.54491                      -2.86843                       6.57038
                       0.18563                      -2.91439                       6.56984
                       0.90464                      -2.77723                       6.56931
                       1.56695                      -2.46557                       6.56883
                       2.13095                      -1.99899                       6.56841
                       2.56120                      -1.40681                       6.56810
                       2.83065                      -0.72623                       6.56791
                       2.87366                      -0.00007                      10.94617
                       2.78359                       0.71289                      10.94630
                       2.51905                       1.38105                      10.94666
                       2.09665                       1.96244                      10.94723
                       1.54294                       2.42051                      10.94798
                       0.89270                       2.72649                      10.94885
                       0.18680                       2.86114                      10.94979
                      -0.53041                       2.81602                      10.95075
                      -1.21386                       2.59395                      10.95166
                      -1.82062                       2.20889                      10.95246
                      -2.31256                       1.68503                      10.95311
                      -2.65876                       1.05529                      10.95357
                      -2.83748                       0.35924                      10.95380
                      -2.83748                      -0.35939                      10.95379
                      -2.65876                      -1.05544                      10.95354
                      -2.31256                      -1.68518                      10.95307
                      -1.82062                      -2.20904                      10.95241
                      -1.21386                      -2.59410                      10.95159
                      -0.53041                      -2.81617                      10.95068
                       0.18680                      -2.86129                      10.94972
                       0.89270                      -2.72663                      10.94878
                       1.54294                      -2.42066                      10.94792
                       2.09665                      -1.96258                      10.94718
                       2.51905                      -1.38120                      10.94663
                       2.78359                      -0.71304                      10.94628
                       2.82761                      -0.00014                      15.32449
                       2.73922                       0.69958                      15.32468
                       2.47958                       1.35533                      15.32519
                       2.06503                       1.92592                      15.32602
                       1.52160                       2.37548                      15.32709
                       0.88345                       2.67577                      15.32834
                       0.19066                       2.80793                      15.32970
                      -0.51323                       2.76365                      15.33107
                      -1.18399                       2.54570                      15.33238
                      -1.77948                       2.16779                      15.33354
                      -2.26228                       1.65367                      15.33447
                      -2.60205                       1.03562                      15.33512
                      -2.77744                       0.35250                      15.33545
                      -2.77744                      -0.35278                      15.33544
                      -2.60205                      -1.03591                      15.33509
                      -2.26228                      -1.65395                      15.33441
                      -1.77948                      -2.16808                      15.33346
                      -1.18399                      -2.54599                      15.33229
                      -0.51323                      -2.76393                      15.33097
                       0.19066                      -2.80821                      15.32959
                       0.88345                      -2.67606                      15.32824
                       1.52160                      -2.37576                      15.32700
                       2.06503                      -1.92620                      15.32595
                       2.47958                      -1.35562                      15.32515
                       2.73922                      -0.69986                      15.32465
                       2.78427                      -0.00023                      19.70288
                       2.69755                       0.68624                      19.70312
                       2.44284                       1.32959                      19.70379
                       2.03613                       1.88937                      19.70485
                       1.50299                       2.33043                      19.70623
                       0.87691                       2.62504                      19.70785
                       0.19723                       2.75469                      19.70960
                      -0.49333                       2.71125                      19.71137
                      -1.15140                       2.49743                      19.71306
                      -1.73561                       2.12667                      19.71455
                      -2.20927                       1.62227                      19.71576
                      -2.54261                       1.01593                      19.71660
                      -2.71469                       0.34573                      19.71703
                      -2.71469                      -0.34620                      19.71701
                      -2.54261                      -1.01640                      19.71655
                      -2.20927                      -1.62274                      19.71568
                      -1.73561                      -2.12714                      19.71445
                      -1.15140                      -2.49790                      19.71294
                      -0.49333                      -2.71172                      19.71124
                       0.19723                      -2.75516                      19.70947
                       0.87691                      -2.62551                      19.70772
                       1.50299                      -2.33090                      19.70612
                       2.03613                      -1.88984                      19.70476
                       2.44284                      -1.33006                      19.70373
                       2.69755                      -0.68671                      19.70309
                       2.74359                      -0.00035                      24.08139
                       2.65855                       0.67288                      24.08168
                       2.40874                       1.30381                      24.08249
                       2.00988                       1.85280                      24.08377
                       1.48703                       2.28535                      24.08544
                       0.87303                       2.57427                      24.08739
                       0.20646                       2.70143                      24.08951
                      -0.47078                       2.65882                      24.09165
                      -1.11615                       2.44913                      24.09369
                      -1.68909                       2.08552                      24.09549
                      -2.15362                       1.59085                      24.09695
                      -2.48053                       0.99621                      24.09796
                      -2.64928                       0.33894                      24.09848
                      -2.64928                      -0.33965                      24.09846
                      -2.48053                      -0.99691                      24.09790
                      -2.15362                      -1.59156                      24.09685
                      -1.68909                      -2.08623                      24.09536
                      -1.11615                      -2.44983                      24.09354
                      -0.47078                      -2.65953                      24.09149
                       0.20646                      -2.70214                      24.08934
                       0.87303                      -2.57498                      24.08723
                       1.48703                      -2.28606                      24.08530
                       2.00988                      -1.85351                      24.08365
                       2.40874                      -1.30452                      24.08241
                       2.65855                      -0.67359                      24.08164
                       2.70547                      -0.00050                      28.46001
                       2.62209                       0.65949                      28.46035
                       2.37721                       1.27801                      28.46129
                       1.98619                       1.81620                      28.46277
                       1.47362                       2.24024                      28.46470
                       0.87170                       2.52348                      28.46697
                       0.21825                       2.64813                      28.46941
                      -0.44567                       2.60636                      28.47189
                      -1.07834                       2.40079                      28.47425
                      -1.64002                       2.04434                      28.47634
                      -2.09540                       1.55940                      28.47802
                      -2.41588                       0.97645                      28.47920
                      -2.58132                       0.33211                      28.47979
                      -2.58132                      -0.33312                      28.47977
                      -2.41588                      -0.97746                      28.47912
                      -2.09540                      -1.56041                      28.47790
                      -1.64002                      -2.04535                      28.47618
                      -1.07834                      -2.40180                      28.47407
                      -0.44567                      -2.60737                      28.47169
                       0.21825                      -2.64914                      28.46921
                       0.87170                      -2.52449                      28.46677
                       1.47362                      -2.24125                      28.46453
                       1.98619                      -1.81721                      28.46263
                       2.37721                      -1.27902                      28.46119
                       2.62209                      -0.66050                      28.46030
                       2.66981                      -0.00069                      32.83874
                       2.58811                       0.64606                      32.83912
                       2.34813                       1.25217                      32.84018
                       1.96496                       1.77956                      32.84185
                       1.46268                       2.19509                      32.84402
                       0.87284                       2.47265                      32.84657
                       0.23250                       2.59480                      32.84932
                      -0.41810                       2.55387                      32.85211
                      -1.03807                       2.35242                      32.85476
                      -1.58848                       2.00312                      32.85711
                      -2.03472                       1.52792                      32.85900
                      -2.34877                       0.95666                      32.86032
                      -2.51089                       0.32525                      32.86099
                      -2.51089                      -0.32664                      32.86096
                      -2.34877                      -0.95805                      32.86023
                      -2.03472                      -1.52930                      32.85886
                      -1.58848                      -2.00451                      32.85692
                      -1.03807                      -2.35381                      32.85454
                      -0.41810                      -2.55525                      32.85187
                       0.23250                      -2.59619                      32.84907
                       0.87284                      -2.47403                      32.84633
                       1.46268                      -2.19647                      32.84381
                       1.96496                      -1.78094                      32.84168
                       2.34813                      -1.25355                      32.84006
                       2.58811                      -0.64744                      32.83906
                       2.63656                      -0.00092                      37.21752
                       2.55653                       0.63258                      37.21795
                       2.32147                       1.22628                      37.21912
                       1.94614                       1.74287                      37.22097
                       1.45415                       2.14990                      37.22337
                       0.87638                       2.42177                      37.22618
                       0.24916                       2.54142                      37.22923
                      -0.38811                       2.50133                      37.23231
                      -0.99540                       2.30401                      37.23524
                      -1.53453                       1.96186                      37.23783
                      -1.97164                       1.49639                      37.23992
                      -2.27925                       0.93683                      37.24137
                      -2.43805                       0.31835                      37.24210
                      -2.43805                      -0.32019                      37.24207
                      -2.27925                      -0.93868                      37.24126
                      -1.97164                      -1.49823                      37.23974
                      -1.53453                      -1.96371                      37.23760
                      -0.99540                      -2.30586                      37.23497
                      -0.38812                      -2.50318                      37.23202
                       0.24916                      -2.54327                      37.22893
                       0.87638                      -2.42362                      37.22590
                       1.45415                      -2.15174                      37.22312
                       1.94614                      -1.74472                      37.22076
                       2.32147                      -1.22813                      37.21898
                       2.55653                      -0.63443                      37.21787
                       2.60571                      -0.00120                      41.59634
                       2.52735                       0.61906                      41.59681
                       2.29721                       1.20035                      41.59809
                       1.92973                       1.70614                      41.60011
                       1.44802                       2.10466                      41.60273
                       0.88234                       2.37085                      41.60580
                       0.26822                       2.48800                      41.60913
                      -0.35573                       2.44874                      41.61249
                      -0.95031                       2.25555                      41.61568
                      -1.47817                       1.92055                      41.61851
                      -1.90614                       1.46481                      41.62078
                      -2.20733                       0.91694                      41.62237
                      -2.36280                       0.31139                      41.62317
                      -2.36280                      -0.31380                      41.62312
                      -2.20733                      -0.91935                      41.62224
                      -1.90614                      -1.46721                      41.62058
                      -1.47817                      -1.92296                      41.61824
                      -0.95031                      -2.25796                      41.61537
                      -0.35573                      -2.45115                      41.61215
                       0.26822                      -2.49041                      41.60878
                       0.88233                      -2.37326                      41.60547
                       1.44802                      -2.10706                      41.60244
                       1.92973                      -1.70855                      41.59987
                       2.29721                      -1.20276                      41.59792
                       2.52735                      -0.62147                      41.59672
                       2.57733                      -0.00154                      45.97516
                       2.50064                       0.60548                      45.97567
                       2.27541                       1.17436                      45.97706
                       1.91578                       1.66935                      45.97925
                       1.44436                       2.05936                      45.98209
                       0.89075                       2.31987                      45.98542
                       0.28976                       2.43452                      45.98901
                      -0.32087                       2.39610                      45.99265
                      -0.90276                       2.20703                      45.99611
                      -1.41935                       1.87919                      45.99917
                      -1.83818                       1.43317                      46.00163
                      -2.13293                       0.89701                      46.00334
                      -2.28509                       0.30438                      46.00420
                      -2.28509                      -0.30746                      46.00415
                      -2.13293                      -0.90009                      46.00319
                      -1.83818                      -1.43625                      46.00139
                      -1.41935                      -1.88227                      45.99885
                      -0.90276                      -2.21011                      45.99574
                      -0.32087                      -2.39918                      45.99225
                       0.28975                      -2.43760                      45.98861
                       0.89075                      -2.32295                      45.98503
                       1.44436                      -2.06244                      45.98175
                       1.91578                      -1.67243                      45.97897
                       2.27541                      -1.17744                      45.97686
                       2.50064                      -0.60856                      45.97557
                       2.55151                      -0.00194                      50.35395
                       2.47650                       0.59184                      50.35450
                       2.25619                       1.14831                      50.35601
                       1.90441                       1.63251                      50.35836
                       1.44327                       2.01400                      50.36143
                       0.90174                       2.26883                      50.36501
                       0.31386                       2.38098                      50.36889
                      -0.28345                       2.34340                      50.37281
                      -0.85264                       2.15845                      50.37653
                      -1.35796                       1.83776                      50.37982
                      -1.76765                       1.40147                      50.38247
                      -2.05597                       0.87701                      50.38431
                      -2.20481                       0.29731                      50.38523
                      -2.20481                      -0.30119                      50.38517
                      -2.05597                      -0.88088                      50.38414
                      -1.76765                      -1.40535                      50.38219
                      -1.35796                      -1.84163                      50.37946
                      -0.85264                      -2.16232                      50.37611
                      -0.28345                      -2.34727                      50.37235
                       0.31386                      -2.38485                      50.36842
                       0.90174                      -2.27270                      50.36457
                       1.44326                      -2.01788                      50.36104
                       1.90441                      -1.63638                      50.35804
                       2.25619                      -1.15218                      50.35578
                       2.47650                      -0.59571                      50.35439
                       2.52840                      -0.00240                      54.73272
                       2.45507                       0.57813                      54.73332
                       2.23966                       1.12219                      54.73493
                       1.89573                       1.59559                      54.73746
                       1.44488                       1.96858                      54.74075
                       0.91543                       2.21772                      54.74459
                       0.34066                       2.32737                      54.74875
                      -0.24332                       2.29062                      54.75295
                      -0.79981                       2.10980                      54.75693
                      -1.29386                       1.79626                      54.76045
                      -1.69441                       1.36971                      54.76329
                      -1.97630                       0.85694                      54.76526
                      -2.12182                       0.29017                      54.76625
                      -2.12182                      -0.29498                      54.76618
                      -1.97630                      -0.86174                      54.76507
                      -1.69441                      -1.37451                      54.76298
                      -1.29386                      -1.80107                      54.76004
                      -0.79982                      -2.11461                      54.75645
                      -0.24332                      -2.29543                      54.75242
                       0.34066                      -2.33217                      54.74821
                       0.91543                      -2.22252                      54.74409
                       1.44487                      -1.97338                      54.74030
                       1.89573                      -1.60039                      54.73710
                       2.23966                      -1.12699                      54.73468
                       2.45507                      -0.58294                      54.73319
                       2.50811                      -0.00294                      59.11149
                       2.43645                       0.56436                      59.11213
                       2.22596                       1.09600                      59.11385
                       1.88987                       1.55860                      59.11655
                       1.44931                       1.92308                      59.12006
                       0.93194                       2.16654                      59.12416
                       0.37028                       2.27369                      59.12858
                      -0.20037                       2.23778                      59.13306
                      -0.74417                       2.06108                      59.13731
                      -1.22694                       1.75470                      59.14106
                      -1.61836                       1.33787                      59.14408
                      -1.89382                       0.83680                      59.14618
                      -2.03601                       0.28296                      59.14722
                      -2.03601                      -0.28884                      59.14715
                      -1.89382                      -0.84268                      59.14596
                      -1.61836                      -1.34375                      59.14373
                      -1.22695                      -1.76058                      59.14060
                      -0.74417                      -2.06696                      59.13677
                      -0.20037                      -2.24366                      59.13247
                       0.37028                      -2.27956                      59.12799
                       0.93194                      -2.17242                      59.12359
                       1.44930                      -1.92896                      59.11956
                       1.88987                      -1.56447                      59.11615
                       2.22596                      -1.10188                      59.11357
                       2.43645                      -0.57023                      59.11198
                       2.49068                      -0.00355                      63.49031
                       2.42069                       0.55050                      63.49099
                       2.21512                       1.06974                      63.49282
                       1.88688                       1.52154                      63.49568
                       1.45660                       1.87751                      63.49939
                       0.95132                       2.11529                      63.50372
                       0.40277                       2.21993                      63.50840
                      -0.15456                       2.18486                      63.51314
                      -0.68566                       2.01229                      63.51763
                      -1.15716                       1.71306                      63.52160
                      -1.53943                       1.30596                      63.52479
                      -1.80846                       0.81659                      63.52700
                      -1.94734                       0.27568                      63.52810
                      -1.94734                      -0.28278                      63.52802
                      -1.80846                      -0.82369                      63.52676
                      -1.53944                      -1.31306                      63.52440
                      -1.15716                      -1.72016                      63.52109
                      -0.68566                      -2.01939                      63.51703
                      -0.15456                      -2.19196                      63.51249
                       0.40277                      -2.22703                      63.50774
                       0.95131                      -2.12238                      63.50309
                       1.45660                      -1.88461                      63.49883
                       1.88688                      -1.52863                      63.49522
                       2.21512                      -1.07683                      63.49250
                       2.42069                      -0.55760                      63.49083
                       2.47604                      -0.00423                      67.86927
                       2.40773                       0.53658                      67.86998
                       2.20707                       1.04340                      67.87189
                       1.88668                       1.48440                      67.87488
                       1.46668                       1.83186                      67.87877
                       0.97348                       2.06396                      67.88331
                       0.43805                       2.16610                      67.88821
                      -0.10596                       2.13187                      67.89316
                      -0.62436                       1.96343                      67.89786
                      -1.08459                       1.67134                      67.90201
                      -1.45773                       1.27398                      67.90534
                      -1.72032                       0.79630                      67.90766
                      -1.85588                       0.26832                      67.90881
                      -1.85588                      -0.27679                      67.90872
                      -1.72032                      -0.80477                      67.90740
                      -1.45773                      -1.28245                      67.90492
                      -1.08459                      -1.67981                      67.90146
                      -0.62436                      -1.97189                      67.89721
                      -0.10596                      -2.14034                      67.89246
                       0.43805                      -2.17457                      67.88749
                       0.97348                      -2.07242                      67.88263
                       1.46668                      -1.84033                      67.87817
                       1.88668                      -1.49287                      67.87439
                       2.20707                      -1.05187                      67.87155
                       2.40773                      -0.54504                      67.86980
                       2.46390                      -0.00499                      72.24847
                       2.39726                       0.52258                      72.24920
                       2.20151                       1.01699                      72.25118
                       1.88897                       1.44719                      72.25427
                       1.47926                       1.78615                      72.25828
                       0.99813                       2.01256                      72.26295
                       0.47582                       2.11220                      72.26800
                      -0.05486                       2.07881                      72.27311
                      -0.56057                       1.91449                      72.27795
                      -1.00953                       1.62956                      72.28222
                      -1.37353                       1.24192                      72.28566
                      -1.62969                       0.77594                      72.28804
                      -1.76193                       0.26089                      72.28922
                      -1.76193                      -0.27087                      72.28912
                      -1.62969                      -0.78592                      72.28776
                      -1.37353                      -1.25191                      72.28521
                      -1.00953                      -1.63954                      72.28163
                      -0.56058                      -1.92447                      72.27725
                      -0.05487                      -2.08879                      72.27235
                       0.47582                      -2.12218                      72.26723
                       0.99813                      -2.02254                      72.26222
                       1.47926                      -1.79613                      72.25763
                       1.88896                      -1.45717                      72.25374
                       2.20151                      -1.02697                      72.25081
                       2.39725                      -0.53255                      72.24901
                       2.45365                      -0.00581                      76.62808
                       2.38868                       0.50851                      76.62883
                       2.19785                       0.99051                      76.63082
                       1.89315                       1.40991                      76.63394
                       1.49373                       1.74036                      76.63799
                       1.02468                       1.96109                      76.64271
                       0.51548                       2.05823                      76.64780
                      -0.00188                       2.02568                      76.65295
                      -0.49489                       1.86548                      76.65783
                      -0.93258                       1.58770                      76.66214
                      -1.28744                       1.20979                      76.66560
                      -1.53717                       0.75551                      76.66800
                      -1.66609                       0.25339                      76.66919
                      -1.66609                      -0.26502                      76.66909
                      -1.53717                      -0.76715                      76.66771
                      -1.28744                      -1.22143                      76.66513
                      -0.93258                      -1.59934                      76.66152
                      -0.49490                      -1.87711                      76.65710
                      -0.00188                      -2.03731                      76.65215
                       0.51548                      -2.06986                      76.64699
                       1.02468                      -1.97272                      76.64194
                       1.49373                      -1.75199                      76.63730
                       1.89315                      -1.42154                      76.63339
                       2.19785                      -1.00214                      76.63043
                       2.38868                      -0.52014                      76.62863
                       2.44429                      -0.00670                      81.00829
                       2.38099                       0.49438                      81.00903
                       2.19508                       0.96397                      81.01099
                       1.89822                       1.37258                      81.01405
                       1.50909                       1.69452                      81.01801
                       1.05212                       1.90956                      81.02263
                       0.55603                       2.00420                      81.02762
                       0.05199                       1.97248                      81.03266
                      -0.42833                       1.81641                      81.03744
                      -0.85475                       1.54579                      81.04165
                      -1.20047                       1.17761                      81.04504
                      -1.44377                       0.73502                      81.04739
                      -1.56937                       0.24583                      81.04854
                      -1.56937                      -0.25923                      81.04844
                      -1.44378                      -0.74843                      81.04708
                      -1.20047                      -1.19102                      81.04455
                      -0.85475                      -1.55919                      81.04101
                      -0.42834                      -1.82981                      81.03668
                       0.05198                      -1.98589                      81.03184
                       0.55602                      -2.01760                      81.02679
                       1.05211                      -1.92296                      81.02184
                       1.50908                      -1.70792                      81.01731
                       1.89822                      -1.38598                      81.01348
                       2.19507                      -0.97737                      81.01059
                       2.38099                      -0.50778                      81.00882
                       2.43427                      -0.00763                      85.38935
                       2.37265                       0.48021                      85.39005
                       2.19164                       0.93739                      85.39190
                       1.90263                       1.33520                      85.39477
                       1.52378                       1.64862                      85.39849
                       1.07889                       1.85799                      85.40282
                       0.59590                       1.95012                      85.40750
                       0.10518                       1.91925                      85.41222
                      -0.36244                       1.76730                      85.41669
                      -0.77759                       1.50383                      85.42064
                      -1.11418                       1.14538                      85.42380
                      -1.35105                       0.71449                      85.42599
                      -1.47333                       0.23822                      85.42707
                      -1.47333                      -0.25349                      85.42696
                      -1.35105                      -0.72976                      85.42568
                      -1.11418                      -1.16065                      85.42331
                      -0.77759                      -1.51909                      85.41998
                      -0.36245                      -1.78256                      85.41593
                       0.10518                      -1.93451                      85.41139
                       0.59590                      -1.96538                      85.40665
                       1.07888                      -1.87325                      85.40201
                       1.52378                      -1.66388                      85.39777
                       1.90263                      -1.35045                      85.39419
                       2.19164                      -0.95265                      85.39149
                       2.37265                      -0.49547                      85.38984
                       2.42835                      -0.00811                      87.58028
                       2.36757                       0.47311                      87.58095
                       2.18902                       0.92409                      87.58270
                       1.90393                       1.31649                      87.58542
                       1.53022                       1.62567                      87.58894
                       1.09136                       1.83219                      87.59304
                       0.61493                       1.92307                      87.59746
                       0.13087                       1.89262                      87.60192
                      -0.33041                       1.74273                      87.60615
                      -0.73992                       1.48283                      87.60988
                      -1.07194                       1.12925                      87.61287
                      -1.30560                       0.70421                      87.61494
                      -1.42622                       0.23441                      87.61595
                      -1.42622                      -0.25063                      87.61584
                      -1.30560                      -0.72043                      87.61462
                      -1.07195                      -1.14547                      87.61237
                      -0.73993                      -1.49905                      87.60923
                      -0.33041                      -1.75895                      87.60539
                       0.13087                      -1.90883                      87.60109
                       0.61493                      -1.93929                      87.59661
                       1.09136                      -1.84840                      87.59223
                       1.53022                      -1.64188                      87.58822
                       1.90393                      -1.33271                      87.58484
                       2.18902                      -0.94030                      87.58229
                       2.36756                      -0.48932                      87.58074
                       3.00000                       0.00000                       0.00000
                       2.90575                       0.74607                       0.00000
                       2.62892                       1.44526                       0.00000
                       2.18691                       2.05364                       0.00000
                       1.60748                       2.53298                       0.00000
                       0.92705                       2.85317                       0.00000
                       0.18837                       2.99408                       0.00000
                      -0.56214                       2.94686                       0.00000
                      -1.27734                       2.71448                       0.00000
                      -1.91227                       2.31154                       0.00000
                      -2.42705                       1.76336                       0.00000
                      -2.78933                       1.10437                       0.00000
                      -2.97634                       0.37600                       0.00000
                      -2.97634                      -0.37600                       0.00000
                      -2.78933                      -1.10437                       0.00000
                      -2.42705                      -1.76336                       0.00000
                      -1.91227                      -2.31154                       0.00000
                      -1.27734                      -2.71448                       0.00000
                      -0.56214                      -2.94686                       0.00000
                       0.18837                      -2.99408                       0.00000
                       0.92705                      -2.85317                       0.00000
                       1.60748                      -2.53298                       0.00000
                       2.18691                      -2.05364                       0.00000
                       2.62892                      -1.44526                       0.00000
                       2.90575                      -0.74607                       0.00000
        </DataArray>
      </Points>
      <Polys>
        <DataArray type="Int32" Name="connectivity" format="ascii">
      0      1     26     25
      1      2     27     26
      2      3     28     27
      3      4     29     28
      4      5     30     29
      5      6     31     30
      6      7     32     31
      7      8     33     32
      8      9     34     33
      9     10     35     34
     10     11     36     35
     11     12     37     36
     12     13     38     37
     13     14     39     38
     14     15     40     39
     15     16     41     40
     16     17     42     41
     17     18     43     42
     18     19     44     43
     19     20     45     44
     20     21     46     45
     21     22     47     46
     22     23     48     47
     23     24     49     48
     24      0     25     49
     24     23     22     21     20     19     18     17     16     15     14     13     12     11     10      9      8      7      6      5      4      3      2      1      0
     25     26     27     28     29     30     31     32     33     34     35     36     37     38     39     40     41     42     43     44     45     46     47     48     49
     25     26     51     50
     26     27     52     51
     27     28     53     52
     28     29     54     53
     29     30     55     54
     30     31     56     55
     31     32     57     56
     32     33     58     57
     33     34     59     58
     34     35     60     59
     35     36     61     60
     36     37     62     61
     37     38     63     62
     38     39     64     63
     39     40     65     64
     40     41     66     65
     41     42     67     66
     42     43     68     67
     43     44     69     68
     44     45     70     69
     45     46     71     70
     46     47     72     71
     47     48     73     72
     48     49     74     73
     49     25     50     74
     49     48     47     46     45     44     43     42     41     40     39     38     37     36     35     34     33     32     31     30     29     28     27     26     25
     50     51     52     53     54     55     56     57     58     59     60     61     62     63     64     65     66     67     68     69     70     71     72     73     74
     50     51     76     75
     51     52     77     76
     52     53     78     77
     53     54     79     78
     54     55     80     79
     55     56     81     80
     56     57     82     81
     57     58     83     82
     58     59     84     83
     59     60     85     84
     60     61     86     85
     61     62     87     86
     62     63     88     87
     63     64     89     88
     64     65     90     89
     65     66     91     90
     66     67     92     91
     67     68     93     92
     68     69     94     93
     69     70     95     94
     70     71     96     95
     71     72     97     96
     72     73     98     97
     73     74     99     98
     74     50     75     99
     74     73     72     71     70     69     68     67     66     65     64     63     62     61     60     59     58     57     56     55     54     53     52     51     50
     75     76     77     78     79     80     81     82     83     84     85     86     87     88     89     90     91     92     93     94     95     96     97     98     99
     75     76    101    100
     76     77    102    101
     77     78    103    102
     78     79    104    103
     79     80    105    104
     80     81    106    105
     81     82    107    106
     82     83    108    107
     83     84    109    108
     84     85    110    109
     85     86    111    110
     86     87    112    111
     87     88    113    112
     88     89    114    113
     89     90    115    114
     90     91    116    115
     91     92    117    116
     92     93    118    117
     93     94    119    118
     94     95    120    119
     95     96    121    120
     96     97    122    121
     97     98    123    122
     98     99    124    123
     99     75    100    124
     99     98     97     96     95     94     93     92     91     90     89     88     87     86     85     84     83     82     81     80     79     78     77     76     75
    100    101    102    103    104    105    106    107    108    109    110    111    112    113    114    115    116    117    118    119    120    121    122    123    124
    100    101    126    125
    101    102    127    126
    102    103    128    127
    103    104    129    128
    104    105    130    129
    105    106    131    130
    106    107    132    131
    107    108    133    132
    108    109    134    133
    109    110    135    134
    110    111    136    135
    111    112    137    136
    112    113    138    137
    113    114    139    138
    114    115    140    139
    115    116    141    140
    116    117    142    141
    117    118    143    142
    118    119    144    143
    119    120    145    144
    120    121    146    145
    121    122    147    146
    122    123    148    147
    123    124    149    148
    124    100    125    149
    124    123    122    121    120    119    118    117    116    115    114    113    112    111    110    109    108    107    106    105    104    103    102    101    100
    125    126    127    128    129    130    131    132    133    134    135    136    137    138    139    140    141    142    143    144    145    146    147    148    149
    125    126    151    150
    126    127    152    151
    127    128    153    152
    128    129    154    153
    129    130    155    154
    130    131    156    155
    131    132    157    156
    132    133    158    157
    133    134    159    158
    134    135    160    159
    135    136    161    160
    136    137    162    161
    137    138    163    162
    138    139    164    163
    139    140    165    164
    140    141    166    165
    141    142    167    166
    142    143    168    167
    143    144    169    168
    144    145    170    169
    145    146    171    170
    146    147    172    171
    147    148    173    172
    148    149    174    173
    149    125    150    174
    149    148    147    146    145    144    143    142    141    140    139    138    137    136    135    134    133    132    131    130    129    128    127    126    125
    150    151    152    153    154    155    156    157    158    159    160    161    162    163    164    165    166    167    168    169    170    171    172    173    174
    150    151    176    175
    151    152    177    176
    152    153    178    177
    153    154    179    178
    154    155    180    179
    155    156    181    180
    156    157    182    181
    157    158    183    182
    158    159    184    183
    159    160    185    184
    160    161    186    185
    161    162    187    186
    162    163    188    187
    163    164    189    188
    164    165    190    189
    165    166    191    190
    166    167    192    191
    167    168    193    192
    168    169    194    193
    169    170    195    194
    170    171    196    195
    171    172    197    196
    172    173    198    197
    173    174    199    198
    174    150    175    199
    174    173    172    171    170    169    168    167    166    165    164    163    162    161    160    159    158    157    156    155    154    153    152    151    150
    175    176    177    178    179    180    181    182    183    184    185    186    187    188    189    190    191    192    193    194    195    196    197    198    199
    175    176    201    200
    176    177    202    201
    177    178    203    202
    178    179    204    203
    179    180    205    204
    180    181    206    205
    181    182    207    206
    182    183    208    207
    183    184    209    208
    184    185    210    209
    185    186    211    210
    186    187    212    211
    187    188    213    212
    188    189    214    213
    189    190    215    214
    190    191    216    215
    191    192    217    216
    192    193    218    217
    193    194    219    218
    194    195    220    219
    195    196    221    220
    196    197    222    221
    197    198    223    222
    198    199    224    223
    199    175    200    224
    199    198    197    196    195    194    193    192    191    190    189    188    187    186    185    184    183    182    181    180    179    178    177    176    175
    200    201    202    203    204    205    206    207    208    209    210    211    212    213    214    215    216    217    218    219    220    221    222    223    224
    200    201    226    225
    201    202    227    226
    202    203    228    227
    203    204    229    228
    204    205    230    229
    205    206    231    230
    206    207    232    231
    207    208    233    232
    208    209    234    233
    209    210    235    234
    210    211    236    235
    211    212    237    236
    212    213    238    237
    213    214    239    238
    214    215    240    239
    215    216    241    240
    216    217    242    241
    217    218    243    242
    218    219    244    243
    219    220    245    244
    220    221    246    245
    221    222    247    246
    222    223    248    247
    223    224    249    248
    224    200    225    249
    224    223    222    221    220    219    218    217    216    215    214    213    212    211    210    209    208    207    206    205    204    203    202    201    200
    225    226    227    228    229    230    231    232    233    234    235    236    237    238    239    240    241    242    243    244    245    246    247    248    249
    225    226    251    250
    226    227    252    251
    227    228    253    252
    228    229    254    253
    229    230    255    254
    230    231    256    255
    231    232    257    256
    232    233    258    257
    233    234    259    258
    234    235    260    259
    235    236    261    260
    236    237    262    261
    237    238    263    262
    238    239    264    263
    239    240    265    264
    240    241    266    265
    241    242    267    266
    242    243    268    267
    243    244    269    268
    244    245    270    269
    245    246    271    270
    246    247    272    271
    247    248    273    272
    248    249    274    273
    249    225    250    274
    249    248    247    246    245    244    243    242    241    240    239    238    237    236    235    234    233    232    231    230    229    228    227    226    225
    250    251    252    253    254    255    256    257    258    259    260    261    262    263    264    265    266    267    268    269    270    271    272    273    274
    250    251    276    275
    251    252    277    276
    252    253    278    277
    253    254    279    278
    254    255    280    279
    255    256    281    280
    256    257    282    281
    257    258    283    282
    258    259    284    283
    259    260    285    284
    260    261    286    285
    261    262    287    286
    262    263    288    287
    263    264    289    288
    264    265    290    289
    265    266    291    290
    266    267    292    291
    267    268    293    292
    268    269    294    293
    269    270    295    294
    270    271    296    295
    271    272    297    296
    272    273    298    297
    273    274    299    298
    274    250    275    299
    274    273    272    271    270    269    268    267    266    265    264    263    262    261    260    259    258    257    256    255    254    253    252    251    250
    275    276    277    278    279    280    281    282    283    284    285    286    287    288    289    290    291    292    293    294    295    296    297    298    299
    275    276    301    300
    276    277    302    301
    277    278    303    302
    278    279    304    303
    279    280    305    304
    280    281    306    305
    281    282    307    306
    282    283    308    307
    283    284    309    308
    284    285    310    309
    285    286    311    310
    286    287    312    311
    287    288    313    312
    288    289    314    313
    289    290    315    314
    290    291    316    315
    291    292    317    316
    292    293    318    317
    293    294    319    318
    294    295    320    319
    295    296    321    320
    296    297    322    321
    297    298    323    322
    298    299    324    323
    299    275    300    324
    299    298    297    296    295    294    293    292    291    290    289    288    287    286    285    284    283    282    281    280    279    278    277    276    275
    300    301    302    303    304    305    306    307    308    309    310    311    312    313    314    315    316    317    318    319    320    321    322    323    324
    300    301    326    325
    301    302    327    326
    302    303    328    327
    303    304    329    328
    304    305    330    329
    305    306    331    330
    306    307    332    331
    307    308    333    332
    308    309    334    333
    309    310    335    334
    310    311    336    335
    311    312    337    336
    312    313    338    337
    313    314    339    338
    314    315    340    339
    315    316    341    340
    316    317    342    341
    317    318    343    342
    318    319    344    343
    319    320    345    344
    320    321    346    345
    321    322    347    346
    322    323    348    347
    323    324    349    348
    324    300    325    349
    324    323    322    321    320    319    318    317    316    315    314    313    312    311    310    309    308    307    306    305    304    303    302    301    300
    325    326    327    328    329    330    331    332    333    334    335    336    337    338    339    340    341    342    343    344    345    346    347    348    349
    325    326    351    350
    326    327    352    351
    327    328    353    352
    328    329    354    353
    329    330    355    354
    330    331    356    355
    331    332    357    356
    332    333    358    357
    333    334    359    358
    334    335    360    359
    335    336    361    360
    336    337    362    361
    337    338    363    362
    338    339    364    363
    339    340    365    364
    340    341    366    365
    341    342    367    366
    342    343    368    367
    343    344    369    368
    344    345    370    369
    345    346    371    370
    346    347    372    371
    347    348    373    372
    348    349    374    373
    349    325    350    374
    349    348    347    346    345    344    343    342    341    340    339    338    337    336    335    334    333    332    331    330    329    328    327    326    325
    350    351    352    353    354    355    356    357    358    359    360    361    362    363    364    365    366    367    368    369    370    371    372    373    374
    350    351    376    375
    351    352    377    376
    352    353    378    377
    353    354    379    378
    354    355    380    379
    355    356    381    380
    356    357    382    381
    357    358    383    382
    358    359    384    383
    359    360    385    384
    360    361    386    385
    361    362    387    386
    362    363    388    387
    363    364    389    388
    364    365    390    389
    365    366    391    390
    366    367    392    391
    367    368    393    392
    368    369    394    393
    369    370    395    394
    370    371    396    395
    371    372    397    396
    372    373    398    397
    373    374    399    398
    374    350    375    399
    374    373    372    371    370    369    368    367    366    365    364    363    362    361    360    359    358    357    356    355    354    353    352    351    350
    375    376    377    378    379    380    381    382    383    384    385    386    387    388    389    390    391    392    393    394    395    396    397    398    399
    375    376    401    400
    376    377    402    401
    377    378    403    402
    378    379    404    403
    379    380    405    404
    380    381    406    405
    381    382    407    406
    382    383    408    407
    383    384    409    408
    384    385    410    409
    385    386    411    410
    386    387    412    411
    387    388    413    412
    388    389    414    413
    389    390    415    414
    390    391    416    415
    391    392    417    416
    392    393    418    417
    393    394    419    418
    394    395    420    419
    395    396    421    420
    396    397    422    421
    397    398    423    422
    398    399    424    423
    399    375    400    424
    399    398    397    396    395    394    393    392    391    390    389    388    387    386    385    384    383    382    381    380    379    378    377    376    375
    400    401    402    403    404    405    406    407    408    409    410    411    412    413    414    415    416    417    418    419    420    421    422    423    424
    400    401    426    425
    401    402    427    426
    402    403    428    427
    403    404    429    428
    404    405    430    429
    405    406    431    430
    406    407    432    431
    407    408    433    432
    408    409    434    433
    409    410    435    434
    410    411    436    435
    411    412    437    436
    412    413    438    437
    413    414    439    438
    414    415    440    439
    415    416    441    440
    416    417    442    441
    417    418    443    442
    418    419    444    443
    419    420    445    444
    420    421    446    445
    421    422    447    446
    422    423    448    447
    423    424    449    448
    424    400    425    449
    424    423    422    421    420    419    418    417    416    415    414    413    412    411    410    409    408    407    406    405    404    403    402    401    400
    425    426    427    428    429    430    431    432    433    434    435    436    437    438    439    440    441    442    443    444    445    446    447    448    449
    425    426    451    450
    426    427    452    451
    427    428    453    452
    428    429    454    453
    429    430    455    454
    430    431    456    455
    431    432    457    456
    432    433    458    457
    433    434    459    458
    434    435    460    459
    435    436    461    460
    436    437    462    461
    437    438    463    462
    438    439    464    463
    439    440    465    464
    440    441    466    465
    441    442    467    466
    442    443    468    467
    443    444    469    468
    444    445    470    469
    445    446    471    470
    446    447    472    471
    447    448    473    472
    448    449    474    473
    449    425    450    474
    449    448    447    446    445    444    443    442    441    440    439    438    437    436    435    434    433    432    431    430    429    428    427    426    425
    450    451    452    453    454    455    456    457    458    459    460    461    462    463    464    465    466    467    468    469    470    471    472    473    474
    450    451    476    475
    451    452    477    476
    452    453    478    477
    453    454    479    478
    454    455    480    479
    455    456    481    480
    456    457    482    481
    457    458    483    482
    458    459    484    483
    459    460    485    484
    460    461    486    485
    461    462    487    486
    462    463    488    487
    463    464    489    488
    464    465    490    489
    465    466    491    490
    466    467    492    491
    467    468    493    492
    468    469    494    493
    469    470    495    494
    470    471    496    495
    471    472    497    496
    472    473    498    497
    473    474    499    498
    474    450    475    499
    474    473    472    471    470    469    468    467    466    465    464    463    462    461    460    459    458    457    456    455    454    453    452    451    450
    475    476    477    478    479    480    481    482    483    484    485    486    487    488    489    490    491    492    493    494    495    496    497    498    499
    475    476    501    500
    476    477    502    501
    477    478    503    502
    478    479    504    503
    479    480    505    504
    480    481    506    505
    481    482    507    506
    482    483    508    507
    483    484    509    508
    484    485    510    509
    485    486    511    510
    486    487    512    511
    487    488    513    512
    488    489    514    513
    489    490    515    514
    490    491    516    515
    491    492    517    516
    492    493    518    517
    493    494    519    518
    494    495    520    519
    495    496    521    520
    496    497    522    521
    497    498    523    522
    498    499    524    523
    499    475    500    524
    499    498    497    496    495    494    493    492    491    490    489    488    487    486    485    484    483    482    481    480    479    478    477    476    475
    500    501    502    503    504    505    506    507    508    509    510    511    512    513    514    515    516    517    518    519    520    521    522    523    524
    525    526      1      0
    526    527      2      1
    527    528      3      2
    528    529      4      3
    529    530      5      4
    530    531      6      5
    531    532      7      6
    532    533      8      7
    533    534      9      8
    534    535     10      9
    535    536     11     10
    536    537     12     11
    537    538     13     12
    538    539     14     13
    539    540     15     14
    540    541     16     15
    541    542     17     16
    542    543     18     17
    543    544     19     18
    544    545     20     19
    545    546     21     20
    546    547     22     21
    547    548     23     22
    548    549     24     23
    549    525      0     24
    549    548    547    546    545    544    543    542    541    540    539    538    537    536    535    534    533    532    531    530    529    528    527    526    525
      0      1      2      3      4      5      6      7      8      9     10     11     12     13     14     15     16     17     18     19     20     21     22     23     24
        </DataArray>
        <DataArray type="Int32" Name="offsets" format="ascii">
      4
      8
     12
     16
     20
     24
     28
     32
     36
     40
     44
     48
     52
     56
     60
     64
     68
     72
     76
     80
     84
     88
     92
     96
    100
    125
    150
    154
    158
    162
    166
    170
    174
    178
    182
    186
    190
    194
    198
    202
    206
    210
    214
    218
    222
    226
    230
    234
    238
    242
    246
    250
    275
    300
    304
    308
    312
    316
    320
    324
    328
    332
    336
    340
    344
    348
    352
    356
    360
    364
    368
    372
    376
    380
    384
    388
    392
    396
    400
    425
    450
    454
    458
    462
    466
    470
    474
    478
    482
    486
    490
    494
    498
    502
    506
    510
    514
    518
    522
    526
    530
    534
    538
    542
    546
    550
    575
    600
    604
    608
    612
    616
    620
    624
    628
    632
    636
    640
    644
    648
    652
    656
    660
    664
    668
    672
    676
    680
    684
    688
    692
    696
    700
    725
    750
    754
    758
    762
    766
    770
    774
    778
    782
    786
    790
    794
    798
    802
    806
    810
    814
    818
    822
    826
    830
    834
    838
    842
    846
    850
    875
    900
    904
    908
    912
    916
    920
    924
    928
    932
    936
    940
    944
    948
    952
    956
    960
    964
    968
    972
    976
    980
    984
    988
    992
    996
   1000
   1025
   1050
   1054
   1058
   1062
   1066
   1070
   1074
   1078
   1082
   1086
   1090
   1094
   1098
   1102
   1106
   1110
   1114
   1118
   1122
   1126
   1130
   1134
   1138
   1142
   1146
   1150
   1175
   1200
   1204
   1208
   1212
   1216
   1220
   1224
   1228
   1232
   1236
   1240
   1244
   1248
   1252
   1256
   1260
   1264
   1268
   1272
   1276
   1280
   1284
   1288
   1292
   1296
   1300
   1325
   1350
   1354
   1358
   1362
   1366
   1370
   1374
   1378
   1382
   1386
   1390
   1394
   1398
   1402
   1406
   1410
   1414
   1418
   1422
   1426
   1430
   1434
   1438
   1442
   1446
   1450
   1475
   1500
   1504
   1508
   1512
   1516
   1520
   1524
   1528
   1532
   1536
   1540
   1544
   1548
   1552
   1556
   1560
   1564
   1568
   1572
   1576
   1580
   1584
   1588
   1592
   1596
   1600
   1625
   1650
   1654
   1658
   1662
   1666
   1670
   1674
   1678
   1682
   1686
   1690
   1694
   1698
   1702
   1706
   1710
   1714
   1718
   1722
   1726
   1730
   1734
   1738
   1742
   1746
   1750
   1775
   1800
   1804
   1808
   1812
   1816
   1820
   1824
   1828
   1832
   1836
   1840
   1844
   1848
   1852
   1856
   1860
   1864
   1868
   1872
   1876
   1880
   1884
   1888
   1892
   1896
   1900
   1925
   1950
   1954
   1958
   1962
   1966
   1970
   1974
   1978
   1982
   1986
   1990
   1994
   1998
   2002
   2006
   2010
   2014
   2018
   2022
   2026
   2030
   2034
   2038
   2042
   2046
   2050
   2075
   2100
   2104
   2108
   2112
   2116
   2120
   2124
   2128
   2132
   2136
   2140
   2144
   2148
   2152
   2156
   2160
   2164
   2168
   2172
   2176
   2180
   2184
   2188
   2192
   2196
   2200
   2225
   2250
   2254
   2258
   2262
   2266
   2270
   2274
   2278
   2282
   2286
   2290
   2294
   2298
   2302
   2306
   2310
   2314
   2318
   2322
   2326
   2330
   2334
   2338
   2342
   2346
   2350
   2375
   2400
   2404
   2408
   2412
   2416
   2420
   2424
   2428
   2432
   2436
   2440
   2444
   2448
   2452
   2456
   2460
   2464
   2468
   2472
   2476
   2480
   2484
   2488
   2492
   2496
   2500
   2525
   2550
   2554
   2558
   2562
   2566
   2570
   2574
   2578
   2582
   2586
   2590
   2594
   2598
   2602
   2606
   2610
   2614
   2618
   2622
   2626
   2630
   2634
   2638
   2642
   2646
   2650
   2675
   2700
   2704
   2708
   2712
   2716
   2720
   2724
   2728
   2732
   2736
   2740
   2744
   2748
   2752
   2756
   2760
   2764
   2768
   2772
   2776
   2780
   2784
   2788
   2792
   2796
   2800
   2825
   2850
   2854
   2858
   2862
   2866
   2870
   2874
   2878
   2882
   2886
   2890
   2894
   2898
   2902
   2906
   2910
   2914
   2918
   2922
   2926
   2930
   2934
   2938
   2942
   2946
   2950
   2975
   3000
   3004
   3008
   3012
   3016
   3020
   3024
   3028
   3032
   3036
   3040
   3044
   3048
   3052
   3056
   3060
   3064
   3068
   3072
   3076
   3080
   3084
   3088
   3092
   3096
   3100
   3125
   3150
        </DataArray>
      </Polys>
    </Piece>
  </PolyData>
</VTKFile>
