<?xml version="1.0"?>
<VTKFile type="PolyData" version="0.1" byte_order="LittleEndian">
  <PolyData>
    <Piece NumberOfPoints="    625" NumberOfVerts="  0" NumberOfLines="      0"
           NumberOfStrips="  0" NumberOfPolys="    600">
      <Points>
        <DataArray type="Float32" NumberOfComponents="3" format="ascii">
                      -4.97453                      -0.17597                      88.53102
                      -4.97453                      -0.17597                      88.53102
                      -4.97453                      -0.17597                      88.53102
                      -4.97453                      -0.17597                      88.53102
                      -4.97453                      -0.17597                      88.53102
                      -4.97453                      -0.17597                      88.53102
                      -4.97453                      -0.17597                      88.53102
                      -4.97453                      -0.17597                      88.53102
                      -4.97453                      -0.17597                      88.53102
                      -4.97453                      -0.17597                      88.53102
                      -4.97453                      -0.17597                      88.53102
                      -4.97453                      -0.17597                      88.53102
                      -4.97453                      -0.17597                      88.53102
                      -4.97453                      -0.17597                      88.53102
                      -4.97453                      -0.17597                      88.53102
                      -4.97453                      -0.17597                      88.53102
                      -4.97453                      -0.17597                      88.53102
                      -4.97453                      -0.17597                      88.53102
                      -4.97453                      -0.17597                      88.53102
                      -4.97453                      -0.17597                      88.53102
                      -4.97453                      -0.17597                      88.53102
                      -4.97453                      -0.17597                      88.53102
                      -4.97453                      -0.17597                      88.53102
                      -4.97453                      -0.17597                      88.53102
                      -4.97453                      -0.17597                      88.53102
                      -4.36631                      -0.16128                      88.60064
                      -4.38664                      -0.01323                      88.58489
                      -4.44321                       0.12552                      88.57352
                      -4.53247                       0.24625                      88.56725
                      -4.64880                       0.34137                      88.56647
                      -4.78489                       0.40490                      88.57124
                      -4.93219                       0.43287                      88.58124
                      -5.08146                       0.42350                      88.59585
                      -5.22330                       0.37738                      88.61417
                      -5.34881                       0.29742                      88.63502
                      -5.45009                       0.18864                      88.65711
                      -5.52080                       0.05787                      88.67904
                      -5.55648                      -0.08667                      88.69944
                      -5.55488                      -0.23590                      88.71703
                      -5.51613                      -0.38044                      88.73069
                      -5.44263                      -0.51121                      88.73958
                      -5.33902                      -0.61999                      88.74313
                      -5.21181                      -0.69995                      88.74112
                      -5.06899                      -0.74606                      88.73368
                      -4.91952                      -0.75543                      88.72128
                      -4.77281                      -0.72747                      88.70468
                      -4.63808                      -0.66393                      88.68494
                      -4.52378                      -0.56881                      88.66330
                      -4.43710                      -0.44808                      88.64112
                      -4.38348                      -0.30933                      88.61978
                      -4.12638                      -0.14659                      88.70357
                      -4.15451                       0.05818                      88.68179
                      -4.23275                       0.25009                      88.66607
                      -4.35620                       0.41707                      88.65740
                      -4.51710                       0.54863                      88.65632
                      -4.70533                       0.63652                      88.66291
                      -4.90907                       0.67519                      88.67674
                      -5.11552                       0.66223                      88.69696
                      -5.31171                       0.59845                      88.72228
                      -5.48530                       0.48785                      88.75113
                      -5.62540                       0.33739                      88.78168
                      -5.72319                       0.15652                      88.81201
                      -5.77254                      -0.04339                      88.84023
                      -5.77034                      -0.24980                      88.86455
                      -5.71673                      -0.44971                      88.88346
                      -5.61508                      -0.63058                      88.89575
                      -5.47177                      -0.78105                      88.90066
                      -5.29582                      -0.89164                      88.89788
                      -5.09828                      -0.95542                      88.88759
                      -4.89155                      -0.96838                      88.87043
                      -4.68863                      -0.92971                      88.84748
                      -4.50227                      -0.84182                      88.82018
                      -4.34418                      -0.71026                      88.79025
                      -4.22429                      -0.54328                      88.75956
                      -4.15014                      -0.35137                      88.73005
                      -3.95286                      -0.13191                      88.81252
                      -3.98651                       0.11312                      88.78645
                      -4.08014                       0.34276                      88.76764
                      -4.22786                       0.54257                      88.75726
                      -4.42039                       0.70000                      88.75597
                      -4.64562                       0.80515                      88.76386
                      -4.88942                       0.85143                      88.78041
                      -5.13645                       0.83592                      88.80460
                      -5.37121                       0.75960                      88.83491
                      -5.57893                       0.62727                      88.86942
                      -5.74656                       0.44723                      88.90597
                      -5.86358                       0.23080                      88.94227
                      -5.92263                      -0.00842                      88.97604
                      -5.91999                      -0.25540                      89.00514
                      -5.85584                      -0.49461                      89.02776
                      -5.73421                      -0.71104                      89.04247
                      -5.56274                      -0.89108                      89.04835
                      -5.35220                      -1.02342                      89.04503
                      -5.11582                      -1.09974                      89.03271
                      -4.86845                      -1.11525                      89.01218
                      -4.62564                      -1.06897                      88.98471
                      -4.40265                      -0.96381                      88.95205
                      -4.21348                      -0.80638                      88.91623
                      -4.07002                      -0.60657                      88.87951
                      -3.98129                      -0.37694                      88.84420
                      -3.81631                      -0.11722                      88.92481
                      -3.85423                       0.15890                      88.89543
                      -3.95974                       0.41767                      88.87423
                      -4.12620                       0.64283                      88.86254
                      -4.34315                       0.82023                      88.86109
                      -4.59697                       0.93873                      88.86997
                      -4.87169                       0.99088                      88.88863
                      -5.15007                       0.97340                      88.91589
                      -5.41461                       0.88740                      88.95003
                      -5.64868                       0.73827                      88.98893
                      -5.83758                       0.53539                      89.03012
                      -5.96945                       0.29151                      89.07103
                      -6.03599                       0.02194                      89.10907
                      -6.03302                      -0.25637                      89.14187
                      -5.96073                      -0.52594                      89.16736
                      -5.82367                      -0.76983                      89.18394
                      -5.63044                      -0.97271                      89.19056
                      -5.39318                      -1.12184                      89.18681
                      -5.12681                      -1.20784                      89.17294
                      -4.84807                      -1.22532                      89.14980
                      -4.57445                      -1.17317                      89.11885
                      -4.32317                      -1.05467                      89.08204
                      -4.11000                      -0.87726                      89.04168
                      -3.94834                      -0.65210                      89.00030
                      -3.84835                      -0.39334                      88.96051
                      -3.70522                      -0.10253                      89.03940
                      -3.74655                       0.19836                      89.00739
                      -3.86152                       0.48035                      88.98429
                      -4.04292                       0.72571                      88.97154
                      -4.27933                       0.91903                      88.96996
                      -4.55592                       1.04816                      88.97964
                      -4.85530                       1.10499                      88.99997
                      -5.15865                       1.08595                      89.02968
                      -5.44692                       0.99223                      89.06689
                      -5.70200                       0.82972                      89.10927
                      -5.90785                       0.60864                      89.15416
                      -6.05155                       0.34287                      89.19874
                      -6.12405                       0.04911                      89.24020
                      -6.12082                      -0.25417                      89.27594
                      -6.04205                      -0.54793                      89.30371
                      -5.89269                      -0.81370                      89.32178
                      -5.68212                      -1.03478                      89.32900
                      -5.42358                      -1.19729                      89.32491
                      -5.13331                      -1.29101                      89.30979
                      -4.82955                      -1.31005                      89.28457
                      -4.53138                      -1.25322                      89.25085
                      -4.25755                      -1.12409                      89.21074
                      -4.02526                      -0.93077                      89.16675
                      -3.84909                      -0.68541                      89.12166
                      -3.74013                      -0.40342                      89.07830
                      -3.61367                      -0.08784                      89.15576
                      -3.65774                       0.23298                      89.12163
                      -3.78033                       0.53364                      89.09699
                      -3.97374                       0.79525                      89.08341
                      -4.22581                       1.00137                      89.08172
                      -4.52072                       1.13906                      89.09204
                      -4.83992                       1.19965                      89.11372
                      -5.16336                       1.17935                      89.14539
                      -5.47073                       1.07942                      89.18507
                      -5.74270                       0.90615                      89.23026
                      -5.96218                       0.67042                      89.27812
                      -6.11539                       0.38705                      89.32565
                      -6.19270                       0.07384                      89.36985
                      -6.18926                      -0.24953                      89.40796
                      -6.10527                      -0.56274                      89.43758
                      -5.94601                      -0.84611                      89.45684
                      -5.72150                      -1.08183                      89.46453
                      -5.44584                      -1.25510                      89.46018
                      -5.13634                      -1.35503                      89.44406
                      -4.81247                      -1.37533                      89.41717
                      -4.49455                      -1.31474                      89.38121
                      -4.20259                      -1.17706                      89.33844
                      -3.95491                      -0.97093                      89.29155
                      -3.76708                      -0.70932                      89.24347
                      -3.65090                      -0.40866                      89.19724
                      -3.53820                      -0.07315                      89.27357
                      -3.58446                       0.26361                      89.23774
                      -3.71314                       0.57921                      89.21189
                      -3.91616                       0.85382                      89.19763
                      -4.18076                       1.07019                      89.19586
                      -4.49032                       1.21471                      89.20669
                      -4.82538                       1.27832                      89.22944
                      -5.16490                       1.25700                      89.26269
                      -5.48753                       1.15211                      89.30434
                      -5.77302                       0.97023                      89.35177
                      -6.00341                       0.72279                      89.40201
                      -6.16424                       0.42534                      89.45190
                      -6.24539                       0.09657                      89.49831
                      -6.24177                      -0.24287                      89.53831
                      -6.15361                      -0.57165                      89.56939
                      -5.98644                      -0.86910                      89.58961
                      -5.75077                      -1.11654                      89.59769
                      -5.46141                      -1.29842                      89.59312
                      -5.13653                      -1.40331                      89.57620
                      -4.79656                      -1.42462                      89.54797
                      -4.46285                      -1.36102                      89.51023
                      -4.15638                      -1.21649                      89.46533
                      -3.89639                      -1.00013                      89.41611
                      -3.69923                      -0.72552                      89.36564
                      -3.57728                      -0.40991                      89.31712
                      -3.47660                      -0.05846                      89.39264
                      -3.52457                       0.29080                      89.35548
                      -3.65803                       0.61812                      89.32867
                      -3.86858                       0.90292                      89.31388
                      -4.14301                       1.12732                      89.31204
                      -4.46406                       1.27721                      89.32328
                      -4.81156                       1.34318                      89.34687
                      -5.16369                       1.32107                      89.38135
                      -5.49830                       1.21229                      89.42455
                      -5.79438                       1.02366                      89.47375
                      -6.03333                       0.76703                      89.52585
                      -6.20013                       0.45853                      89.57759
                      -6.28429                       0.11755                      89.62572
                      -6.28054                      -0.23449                      89.66720
                      -6.18910                      -0.57547                      89.69945
                      -6.01573                      -0.88396                      89.72041
                      -5.77131                      -1.14059                      89.72879
                      -5.47121                      -1.32922                      89.72406
                      -5.13427                      -1.43800                      89.70650
                      -4.78168                      -1.46011                      89.67723
                      -4.43558                      -1.39414                      89.63808
                      -4.11773                      -1.24425                      89.59152
                      -3.84809                      -1.01985                      89.54047
                      -3.64360                      -0.73505                      89.48813
                      -3.51712                      -0.40773                      89.43780
                      -3.42741                      -0.04378                      89.51283
                      -3.47668                       0.31491                      89.47467
                      -3.61374                       0.65106                      89.44713
                      -3.82998                       0.94355                      89.43194
                      -4.11181                       1.17400                      89.43006
                      -4.44152                       1.32794                      89.44160
                      -4.79840                       1.39568                      89.46583
                      -5.16002                       1.37298                      89.50124
                      -5.50366                       1.26126                      89.54560
                      -5.80773                       1.06754                      89.59613
                      -6.05313                       0.80399                      89.64964
                      -6.22442                       0.48717                      89.70277
                      -6.31086                       0.13699                      89.75220
                      -6.30701                      -0.22455                      89.79480
                      -6.21310                      -0.57473                      89.82791
                      -6.03505                      -0.89154                      89.84945
                      -5.78404                      -1.15509                      89.85805
                      -5.47584                      -1.34881                      89.85319
                      -5.12981                      -1.46054                      89.83516
                      -4.76771                      -1.48324                      89.80510
                      -4.41227                      -1.41549                      89.76490
                      -4.08584                      -1.26156                      89.71708
                      -3.80892                      -1.03110                      89.66465
                      -3.59892                      -0.73861                      89.61090
                      -3.46903                      -0.40246                      89.55921
                      -3.38969                      -0.02909                      89.63406
                      -3.43986                       0.33618                      89.59520
                      -3.57943                       0.67850                      89.56715
                      -3.79964                       0.97636                      89.55169
                      -4.08664                       1.21104                      89.54977
                      -4.42240                       1.36780                      89.56152
                      -4.78583                       1.43679                      89.58620
                      -5.15409                       1.41367                      89.62226
                      -5.50404                       1.29990                      89.66743
                      -5.81369                       1.10262                      89.71888
                      -6.06358                       0.83423                      89.77338
                      -6.23802                       0.51160                      89.82749
                      -6.32604                       0.15500                      89.87782
                      -6.32212                      -0.21317                      89.92121
                      -6.22649                      -0.56978                      89.95492
                      -6.04517                      -0.89241                      89.97685
                      -5.78956                      -1.16080                      89.98562
                      -5.47570                      -1.35807                      89.98066
                      -5.12332                      -1.47185                      89.96230
                      -4.75457                      -1.49496                      89.93169
                      -4.39262                      -1.42597                      89.89075
                      -4.06020                      -1.26921                      89.84205
                      -3.77820                      -1.03453                      89.78866
                      -3.56434                      -0.73667                      89.73393
                      -3.43207                      -0.39436                      89.68129
                      -3.36280                      -0.01440                      89.75627
                      -3.41351                       0.35476                      89.71699
                      -3.55457                       0.70073                      89.68865
                      -3.77712                       1.00176                      89.67302
                      -4.06718                       1.23894                      89.67108
                      -4.40652                       1.39737                      89.68295
                      -4.77383                       1.46710                      89.70790
                      -5.14601                       1.44373                      89.74434
                      -5.49969                       1.32875                      89.79000
                      -5.81264                       1.12937                      89.84200
                      -6.06520                       0.85812                      89.89707
                      -6.24150                       0.53205                      89.95176
                      -6.33046                       0.17165                      90.00263
                      -6.32649                      -0.20045                      90.04648
                      -6.22984                      -0.56085                      90.08055
                      -6.04659                      -0.88692                      90.10272
                      -5.78825                      -1.15817                      90.11157
                      -5.47105                      -1.35755                      90.10657
                      -5.11492                      -1.47253                      90.08801
                      -4.74224                      -1.49590                      90.05707
                      -4.37642                      -1.42617                      90.01570
                      -4.04046                      -1.26774                      89.96648
                      -3.75546                      -1.03056                      89.91252
                      -3.53932                      -0.72953                      89.85720
                      -3.40564                      -0.38356                      89.80400
                      -3.34642                       0.00029                      89.87943
                      -3.39731                       0.37074                      89.84002
                      -3.53886                       0.71791                      89.81157
                      -3.76219                       1.02000                      89.79589
                      -4.05326                       1.25801                      89.79394
                      -4.39379                       1.41699                      89.80586
                      -4.76237                       1.48696                      89.83089
                      -5.13585                       1.46351                      89.86746
                      -5.49077                       1.34813                      89.91327
                      -5.80481                       1.14805                      89.96545
                      -6.05825                       0.87586                      90.02072
                      -6.23516                       0.54865                      90.07560
                      -6.32443                       0.18699                      90.12664
                      -6.32045                      -0.18641                      90.17065
                      -6.22347                      -0.54807                      90.20484
                      -6.03958                      -0.87528                      90.22708
                      -5.78034                      -1.14747                      90.23597
                      -5.46203                      -1.34755                      90.23095
                      -5.10465                      -1.46293                      90.21233
                      -4.73067                      -1.48638                      90.18128
                      -4.36358                      -1.41641                      90.13976
                      -4.02644                      -1.25743                      90.09037
                      -3.74045                      -1.01942                      90.03622
                      -3.52356                      -0.71733                      89.98071
                      -3.38941                      -0.37016                      89.92733
                      -3.34044                       0.01498                      90.00353
                      -3.39114                       0.38414                      89.96425
                      -3.53220                       0.73011                      89.93591
                      -3.75476                       1.03114                      89.92028
                      -4.04482                       1.26832                      89.91834
                      -4.38416                       1.42675                      89.93021
                      -4.75146                       1.49647                      89.95515
                      -5.12364                       1.47311                      89.99160
                      -5.47732                       1.35813                      90.03725
                      -5.79027                       1.15875                      90.08925
                      -6.04283                       0.88750                      90.14433
                      -6.21913                       0.56143                      90.19902
                      -6.30809                       0.20102                      90.24988
                      -6.30412                      -0.17107                      90.29373
                      -6.20748                      -0.53148                      90.32781
                      -6.02422                      -0.85755                      90.34997
                      -5.76588                      -1.12879                      90.35883
                      -5.44868                      -1.32817                      90.35382
                      -5.09255                      -1.44316                      90.33527
                      -4.71987                      -1.46652                      90.30433
                      -4.35405                      -1.39680                      90.26295
                      -4.01809                      -1.23837                      90.21374
                      -3.73309                      -1.00118                      90.15978
                      -3.51696                      -0.70015                      90.10446
                      -3.38327                      -0.35418                      90.05126
                      -3.34495                       0.02967                      90.12857
                      -3.39512                       0.39494                      90.08972
                      -3.53470                       0.73725                      90.06167
                      -3.75490                       1.03511                      90.04620
                      -4.04190                       1.26979                      90.04428
                      -4.37767                       1.42655                      90.05603
                      -4.74109                       1.49554                      90.08071
                      -5.10935                       1.47242                      90.11677
                      -5.45930                       1.35865                      90.16195
                      -5.76895                       1.16137                      90.21340
                      -6.01885                       0.89299                      90.26789
                      -6.19329                       0.57036                      90.32200
                      -6.28131                       0.21375                      90.37234
                      -6.27738                      -0.15442                      90.41572
                      -6.18176                      -0.51103                      90.44944
                      -6.00044                      -0.83366                      90.47137
                      -5.74482                      -1.10204                      90.48013
                      -5.43096                      -1.29932                      90.47518
                      -5.07859                      -1.41309                      90.45682
                      -4.70984                      -1.43621                      90.42621
                      -4.34788                      -1.36722                      90.38527
                      -4.01546                      -1.21046                      90.33657
                      -3.73346                      -0.97578                      90.28318
                      -3.51961                      -0.67792                      90.22844
                      -3.38733                      -0.33560                      90.17581
                      -3.36031                       0.04435                      90.25461
                      -3.40958                       0.40304                      90.21645
                      -3.54664                       0.73919                      90.18891
                      -3.76287                       1.03168                      90.17372
                      -4.04470                       1.26213                      90.17183
                      -4.37442                       1.41607                      90.18337
                      -4.73129                       1.48381                      90.20761
                      -5.09292                       1.46111                      90.24302
                      -5.43656                       1.34939                      90.28738
                      -5.74063                       1.15567                      90.33790
                      -5.98602                       0.89212                      90.39141
                      -6.15732                       0.57530                      90.44455
                      -6.24376                       0.22512                      90.49397
                      -6.23990                      -0.13642                      90.53658
                      -6.14600                      -0.48660                      90.56969
                      -5.96795                      -0.80341                      90.59122
                      -5.71693                      -1.06696                      90.59983
                      -5.40873                      -1.26068                      90.59496
                      -5.06271                      -1.37241                      90.57693
                      -4.70060                      -1.39511                      90.54687
                      -4.34517                      -1.32736                      90.50667
                      -4.01874                      -1.17343                      90.45885
                      -3.74182                      -0.94297                      90.40642
                      -3.53182                      -0.65048                      90.35267
                      -3.40193                      -0.31433                      90.30099
                      -3.38713                       0.05904                      90.38167
                      -3.43510                       0.40831                      90.34452
                      -3.56856                       0.73563                      90.31770
                      -3.77911                       1.02043                      90.30291
                      -4.05354                       1.24483                      90.30107
                      -4.37459                       1.39472                      90.31231
                      -4.72209                       1.46069                      90.33591
                      -5.07422                       1.43858                      90.37039
                      -5.40883                       1.32980                      90.41358
                      -5.70491                       1.14116                      90.46278
                      -5.94386                       0.88454                      90.51488
                      -6.11066                       0.57604                      90.56663
                      -6.19482                       0.23506                      90.61475
                      -6.19107                      -0.11698                      90.65624
                      -6.09963                      -0.45796                      90.68848
                      -5.92626                      -0.76645                      90.70945
                      -5.68184                      -1.02308                      90.71783
                      -5.38174                      -1.21171                      90.71309
                      -5.04480                      -1.32050                      90.69553
                      -4.69221                      -1.34260                      90.66626
                      -4.34611                      -1.27664                      90.62712
                      -4.02826                      -1.12674                      90.58055
                      -3.75861                      -0.90235                      90.52950
                      -3.55413                      -0.61754                      90.47716
                      -3.42765                      -0.29022                      90.42683
                      -3.42636                       0.07373                      90.50986
                      -3.47262                       0.41049                      90.47404
                      -3.60130                       0.72609                      90.44818
                      -3.80432                       1.00071                      90.43392
                      -4.06892                       1.21707                      90.43215
                      -4.37848                       1.36160                      90.44298
                      -4.71354                       1.42520                      90.46574
                      -5.05306                       1.40389                      90.49898
                      -5.37569                       1.29899                      90.54063
                      -5.66118                       1.11711                      90.58807
                      -5.89157                       0.86968                      90.63831
                      -6.05240                       0.57222                      90.68820
                      -6.13355                       0.24345                      90.73460
                      -6.12993                      -0.09599                      90.77460
                      -6.04177                      -0.42476                      90.80569
                      -5.87460                      -0.72221                      90.82590
                      -5.63893                      -0.96965                      90.83398
                      -5.34957                      -1.15153                      90.82942
                      -5.02470                      -1.25643                      90.81249
                      -4.68472                      -1.27774                      90.78427
                      -4.35102                      -1.21413                      90.74652
                      -4.04454                      -1.06961                      90.70162
                      -3.78455                      -0.85324                      90.65240
                      -3.58739                      -0.57863                      90.60194
                      -3.46544                      -0.26303                      90.55341
                      -3.47947                       0.08842                      90.63931
                      -3.52353                       0.40924                      90.60518
                      -3.64612                       0.70990                      90.58055
                      -3.83953                       0.97151                      90.56696
                      -4.09160                       1.17764                      90.56527
                      -4.38651                       1.31532                      90.57559
                      -4.70571                       1.37591                      90.59727
                      -5.02916                       1.35561                      90.62894
                      -5.33652                       1.25568                      90.66862
                      -5.60849                       1.08241                      90.71381
                      -5.82798                       0.84668                      90.76167
                      -5.98119                       0.56331                      90.80920
                      -6.05850                       0.25010                      90.85340
                      -6.05505                      -0.07327                      90.89151
                      -5.97106                      -0.38648                      90.92113
                      -5.81181                      -0.66985                      90.94039
                      -5.58729                      -0.90557                      90.94808
                      -5.31163                      -1.07884                      90.94373
                      -5.00214                      -1.17877                      90.92761
                      -4.67826                      -1.19907                      90.90072
                      -4.36035                      -1.13848                      90.86476
                      -4.06838                      -1.00080                      90.82199
                      -3.82070                      -0.79467                      90.77510
                      -3.63287                      -0.53306                      90.72702
                      -3.51669                      -0.23240                      90.68079
                      -3.54864                       0.10311                      90.77021
                      -3.58997                       0.40400                      90.73820
                      -3.70495                       0.68599                      90.71509
                      -3.88634                       0.93135                      90.70235
                      -4.12276                       1.12467                      90.70077
                      -4.39935                       1.25380                      90.71045
                      -4.69872                       1.31063                      90.73078
                      -5.00208                       1.29159                      90.76048
                      -5.29035                       1.19787                      90.79770
                      -5.54542                       1.03536                      90.84008
                      -5.75128                       0.81427                      90.88497
                      -5.89497                       0.54850                      90.92954
                      -5.96748                       0.25475                      90.97101
                      -5.96425                      -0.04853                      91.00675
                      -5.88547                      -0.34229                      91.03452
                      -5.73611                      -0.60806                      91.05259
                      -5.52554                      -0.82914                      91.05980
                      -5.26700                      -0.99165                      91.05572
                      -4.97673                      -1.08537                      91.04060
                      -4.67297                      -1.10441                      91.01538
                      -4.37481                      -1.04758                      90.98166
                      -4.10098                      -0.91845                      90.94154
                      -3.86868                      -0.72513                      90.89756
                      -3.69252                      -0.47977                      90.85247
                      -3.58356                      -0.19778                      90.80911
                      -3.63737                       0.11780                      90.90287
                      -3.67529                       0.39391                      90.87350
                      -3.78080                       0.65268                      90.85230
                      -3.94726                       0.87784                      90.84061
                      -4.16421                       1.05524                      90.83915
                      -4.41802                       1.17374                      90.84804
                      -4.69275                       1.22589                      90.86669
                      -4.97113                       1.20842                      90.89395
                      -5.23566                       1.12241                      90.92810
                      -5.46974                       0.97329                      90.96699
                      -5.65864                       0.77041                      91.00819
                      -5.79050                       0.52652                      91.04909
                      -5.85704                       0.25695                      91.08714
                      -5.85408                      -0.02136                      91.11994
                      -5.78179                      -0.29093                      91.14542
                      -5.64473                      -0.53482                      91.16200
                      -5.45150                      -0.73770                      91.16863
                      -5.21424                      -0.88682                      91.16488
                      -4.94787                      -0.97283                      91.15100
                      -4.66912                      -0.99030                      91.12786
                      -4.39551                      -0.93815                      91.09691
                      -4.14422                      -0.81965                      91.06010
                      -3.93105                      -0.64225                      91.01974
                      -3.76939                      -0.41709                      90.97837
                      -3.66940                      -0.15832                      90.93858
                      -3.75155                       0.13248                      91.03784
                      -3.78520                       0.37751                      91.01178
                      -3.87883                       0.60715                      90.99296
                      -4.02655                       0.80696                      90.98259
                      -4.21908                       0.96439                      90.98130
                      -4.44431                       1.06954                      90.98918
                      -4.68811                       1.11582                      91.00574
                      -4.93514                       1.10032                      91.02993
                      -5.16990                       1.02400                      91.06023
                      -5.37762                       0.89166                      91.09474
                      -5.54525                       0.71162                      91.13130
                      -5.66227                       0.49519                      91.16760
                      -5.72132                       0.25597                      91.20136
                      -5.71868                       0.00900                      91.23047
                      -5.65454                      -0.23022                      91.25309
                      -5.53290                      -0.44665                      91.26780
                      -5.36143                      -0.62669                      91.27368
                      -5.15089                      -0.75903                      91.27035
                      -4.91451                      -0.83535                      91.25804
                      -4.66714                      -0.85085                      91.23750
                      -4.42433                      -0.80458                      91.21004
                      -4.20134                      -0.69942                      91.17737
                      -4.01217                      -0.54199                      91.14155
                      -3.86871                      -0.34218                      91.10484
                      -3.77998                      -0.11255                      91.06953
                      -3.90270                       0.14717                      91.17616
                      -3.93083                       0.35195                      91.15437
                      -4.00907                       0.54385                      91.13865
                      -4.13252                       0.71084                      91.12998
                      -4.29342                       0.84240                      91.12890
                      -4.48165                       0.93028                      91.13549
                      -4.68540                       0.96896                      91.14933
                      -4.89185                       0.95600                      91.16954
                      -5.08803                       0.89222                      91.19487
                      -5.26162                       0.78162                      91.22371
                      -5.40172                       0.63116                      91.25426
                      -5.49951                       0.45029                      91.28460
                      -5.54886                       0.25037                      91.31281
                      -5.54666                       0.04397                      91.33714
                      -5.49305                      -0.15595                      91.35604
                      -5.39140                      -0.33682                      91.36833
                      -5.24810                      -0.48728                      91.37325
                      -5.07214                      -0.59787                      91.37047
                      -4.87460                      -0.66165                      91.36018
                      -4.66787                      -0.67461                      91.34301
                      -4.46496                      -0.63594                      91.32006
                      -4.27860                      -0.54806                      91.29276
                      -4.12051                      -0.41649                      91.26283
                      -4.00062                      -0.24951                      91.23215
                      -3.92646                      -0.05760                      91.20264
                      -4.12026                       0.16186                      91.32048
                      -4.14060                       0.30991                      91.30473
                      -4.19717                       0.44866                      91.29336
                      -4.28642                       0.56939                      91.28709
                      -4.40275                       0.66451                      91.28631
                      -4.53884                       0.72805                      91.29108
                      -4.68615                       0.75601                      91.30108
                      -4.83541                       0.74664                      91.31570
                      -4.97725                       0.70053                      91.33401
                      -5.10276                       0.62057                      91.35486
                      -5.20405                       0.51178                      91.37695
                      -5.27475                       0.38102                      91.39888
                      -5.31043                       0.23648                      91.41928
                      -5.30884                       0.08725                      91.43687
                      -5.27008                      -0.05729                      91.45053
                      -5.19659                      -0.18806                      91.45942
                      -5.09298                      -0.29685                      91.46297
                      -4.96577                      -0.37681                      91.46097
                      -4.82294                      -0.42292                      91.45352
                      -4.67348                      -0.43229                      91.44112
                      -4.52677                      -0.40433                      91.42452
                      -4.39203                      -0.34079                      91.40479
                      -4.27773                      -0.24567                      91.38314
                      -4.19105                      -0.12494                      91.36096
                      -4.13744                       0.01381                      91.33962
                      -4.70612                       0.17655                      91.49812
                      -4.70612                       0.17655                      91.49812
                      -4.70612                       0.17655                      91.49812
                      -4.70612                       0.17655                      91.49812
                      -4.70612                       0.17655                      91.49812
                      -4.70612                       0.17655                      91.49812
                      -4.70612                       0.17655                      91.49812
                      -4.70612                       0.17655                      91.49812
                      -4.70612                       0.17655                      91.49812
                      -4.70612                       0.17655                      91.49812
                      -4.70612                       0.17655                      91.49812
                      -4.70612                       0.17655                      91.49812
                      -4.70612                       0.17655                      91.49812
                      -4.70612                       0.17655                      91.49812
                      -4.70612                       0.17655                      91.49812
                      -4.70612                       0.17655                      91.49812
                      -4.70612                       0.17655                      91.49812
                      -4.70612                       0.17655                      91.49812
                      -4.70612                       0.17655                      91.49812
                      -4.70612                       0.17655                      91.49812
                      -4.70612                       0.17655                      91.49812
                      -4.70612                       0.17655                      91.49812
                      -4.70612                       0.17655                      91.49812
                      -4.70612                       0.17655                      91.49812
                      -4.70612                       0.17655                      91.49812
        </DataArray>
      </Points>
      <Polys>
        <DataArray type="Int32" Name="connectivity" format="ascii">
      0      1     26     25
      1      2     27     26
      2      3     28     27
      3      4     29     28
      4      5     30     29
      5      6     31     30
      6      7     32     31
      7      8     33     32
      8      9     34     33
      9     10     35     34
     10     11     36     35
     11     12     37     36
     12     13     38     37
     13     14     39     38
     14     15     40     39
     15     16     41     40
     16     17     42     41
     17     18     43     42
     18     19     44     43
     19     20     45     44
     20     21     46     45
     21     22     47     46
     22     23     48     47
     23     24     49     48
     24      0     25     49
     25     26     51     50
     26     27     52     51
     27     28     53     52
     28     29     54     53
     29     30     55     54
     30     31     56     55
     31     32     57     56
     32     33     58     57
     33     34     59     58
     34     35     60     59
     35     36     61     60
     36     37     62     61
     37     38     63     62
     38     39     64     63
     39     40     65     64
     40     41     66     65
     41     42     67     66
     42     43     68     67
     43     44     69     68
     44     45     70     69
     45     46     71     70
     46     47     72     71
     47     48     73     72
     48     49     74     73
     49     25     50     74
     50     51     76     75
     51     52     77     76
     52     53     78     77
     53     54     79     78
     54     55     80     79
     55     56     81     80
     56     57     82     81
     57     58     83     82
     58     59     84     83
     59     60     85     84
     60     61     86     85
     61     62     87     86
     62     63     88     87
     63     64     89     88
     64     65     90     89
     65     66     91     90
     66     67     92     91
     67     68     93     92
     68     69     94     93
     69     70     95     94
     70     71     96     95
     71     72     97     96
     72     73     98     97
     73     74     99     98
     74     50     75     99
     75     76    101    100
     76     77    102    101
     77     78    103    102
     78     79    104    103
     79     80    105    104
     80     81    106    105
     81     82    107    106
     82     83    108    107
     83     84    109    108
     84     85    110    109
     85     86    111    110
     86     87    112    111
     87     88    113    112
     88     89    114    113
     89     90    115    114
     90     91    116    115
     91     92    117    116
     92     93    118    117
     93     94    119    118
     94     95    120    119
     95     96    121    120
     96     97    122    121
     97     98    123    122
     98     99    124    123
     99     75    100    124
    100    101    126    125
    101    102    127    126
    102    103    128    127
    103    104    129    128
    104    105    130    129
    105    106    131    130
    106    107    132    131
    107    108    133    132
    108    109    134    133
    109    110    135    134
    110    111    136    135
    111    112    137    136
    112    113    138    137
    113    114    139    138
    114    115    140    139
    115    116    141    140
    116    117    142    141
    117    118    143    142
    118    119    144    143
    119    120    145    144
    120    121    146    145
    121    122    147    146
    122    123    148    147
    123    124    149    148
    124    100    125    149
    125    126    151    150
    126    127    152    151
    127    128    153    152
    128    129    154    153
    129    130    155    154
    130    131    156    155
    131    132    157    156
    132    133    158    157
    133    134    159    158
    134    135    160    159
    135    136    161    160
    136    137    162    161
    137    138    163    162
    138    139    164    163
    139    140    165    164
    140    141    166    165
    141    142    167    166
    142    143    168    167
    143    144    169    168
    144    145    170    169
    145    146    171    170
    146    147    172    171
    147    148    173    172
    148    149    174    173
    149    125    150    174
    150    151    176    175
    151    152    177    176
    152    153    178    177
    153    154    179    178
    154    155    180    179
    155    156    181    180
    156    157    182    181
    157    158    183    182
    158    159    184    183
    159    160    185    184
    160    161    186    185
    161    162    187    186
    162    163    188    187
    163    164    189    188
    164    165    190    189
    165    166    191    190
    166    167    192    191
    167    168    193    192
    168    169    194    193
    169    170    195    194
    170    171    196    195
    171    172    197    196
    172    173    198    197
    173    174    199    198
    174    150    175    199
    175    176    201    200
    176    177    202    201
    177    178    203    202
    178    179    204    203
    179    180    205    204
    180    181    206    205
    181    182    207    206
    182    183    208    207
    183    184    209    208
    184    185    210    209
    185    186    211    210
    186    187    212    211
    187    188    213    212
    188    189    214    213
    189    190    215    214
    190    191    216    215
    191    192    217    216
    192    193    218    217
    193    194    219    218
    194    195    220    219
    195    196    221    220
    196    197    222    221
    197    198    223    222
    198    199    224    223
    199    175    200    224
    200    201    226    225
    201    202    227    226
    202    203    228    227
    203    204    229    228
    204    205    230    229
    205    206    231    230
    206    207    232    231
    207    208    233    232
    208    209    234    233
    209    210    235    234
    210    211    236    235
    211    212    237    236
    212    213    238    237
    213    214    239    238
    214    215    240    239
    215    216    241    240
    216    217    242    241
    217    218    243    242
    218    219    244    243
    219    220    245    244
    220    221    246    245
    221    222    247    246
    222    223    248    247
    223    224    249    248
    224    200    225    249
    225    226    251    250
    226    227    252    251
    227    228    253    252
    228    229    254    253
    229    230    255    254
    230    231    256    255
    231    232    257    256
    232    233    258    257
    233    234    259    258
    234    235    260    259
    235    236    261    260
    236    237    262    261
    237    238    263    262
    238    239    264    263
    239    240    265    264
    240    241    266    265
    241    242    267    266
    242    243    268    267
    243    244    269    268
    244    245    270    269
    245    246    271    270
    246    247    272    271
    247    248    273    272
    248    249    274    273
    249    225    250    274
    250    251    276    275
    251    252    277    276
    252    253    278    277
    253    254    279    278
    254    255    280    279
    255    256    281    280
    256    257    282    281
    257    258    283    282
    258    259    284    283
    259    260    285    284
    260    261    286    285
    261    262    287    286
    262    263    288    287
    263    264    289    288
    264    265    290    289
    265    266    291    290
    266    267    292    291
    267    268    293    292
    268    269    294    293
    269    270    295    294
    270    271    296    295
    271    272    297    296
    272    273    298    297
    273    274    299    298
    274    250    275    299
    275    276    301    300
    276    277    302    301
    277    278    303    302
    278    279    304    303
    279    280    305    304
    280    281    306    305
    281    282    307    306
    282    283    308    307
    283    284    309    308
    284    285    310    309
    285    286    311    310
    286    287    312    311
    287    288    313    312
    288    289    314    313
    289    290    315    314
    290    291    316    315
    291    292    317    316
    292    293    318    317
    293    294    319    318
    294    295    320    319
    295    296    321    320
    296    297    322    321
    297    298    323    322
    298    299    324    323
    299    275    300    324
    300    301    326    325
    301    302    327    326
    302    303    328    327
    303    304    329    328
    304    305    330    329
    305    306    331    330
    306    307    332    331
    307    308    333    332
    308    309    334    333
    309    310    335    334
    310    311    336    335
    311    312    337    336
    312    313    338    337
    313    314    339    338
    314    315    340    339
    315    316    341    340
    316    317    342    341
    317    318    343    342
    318    319    344    343
    319    320    345    344
    320    321    346    345
    321    322    347    346
    322    323    348    347
    323    324    349    348
    324    300    325    349
    325    326    351    350
    326    327    352    351
    327    328    353    352
    328    329    354    353
    329    330    355    354
    330    331    356    355
    331    332    357    356
    332    333    358    357
    333    334    359    358
    334    335    360    359
    335    336    361    360
    336    337    362    361
    337    338    363    362
    338    339    364    363
    339    340    365    364
    340    341    366    365
    341    342    367    366
    342    343    368    367
    343    344    369    368
    344    345    370    369
    345    346    371    370
    346    347    372    371
    347    348    373    372
    348    349    374    373
    349    325    350    374
    350    351    376    375
    351    352    377    376
    352    353    378    377
    353    354    379    378
    354    355    380    379
    355    356    381    380
    356    357    382    381
    357    358    383    382
    358    359    384    383
    359    360    385    384
    360    361    386    385
    361    362    387    386
    362    363    388    387
    363    364    389    388
    364    365    390    389
    365    366    391    390
    366    367    392    391
    367    368    393    392
    368    369    394    393
    369    370    395    394
    370    371    396    395
    371    372    397    396
    372    373    398    397
    373    374    399    398
    374    350    375    399
    375    376    401    400
    376    377    402    401
    377    378    403    402
    378    379    404    403
    379    380    405    404
    380    381    406    405
    381    382    407    406
    382    383    408    407
    383    384    409    408
    384    385    410    409
    385    386    411    410
    386    387    412    411
    387    388    413    412
    388    389    414    413
    389    390    415    414
    390    391    416    415
    391    392    417    416
    392    393    418    417
    393    394    419    418
    394    395    420    419
    395    396    421    420
    396    397    422    421
    397    398    423    422
    398    399    424    423
    399    375    400    424
    400    401    426    425
    401    402    427    426
    402    403    428    427
    403    404    429    428
    404    405    430    429
    405    406    431    430
    406    407    432    431
    407    408    433    432
    408    409    434    433
    409    410    435    434
    410    411    436    435
    411    412    437    436
    412    413    438    437
    413    414    439    438
    414    415    440    439
    415    416    441    440
    416    417    442    441
    417    418    443    442
    418    419    444    443
    419    420    445    444
    420    421    446    445
    421    422    447    446
    422    423    448    447
    423    424    449    448
    424    400    425    449
    425    426    451    450
    426    427    452    451
    427    428    453    452
    428    429    454    453
    429    430    455    454
    430    431    456    455
    431    432    457    456
    432    433    458    457
    433    434    459    458
    434    435    460    459
    435    436    461    460
    436    437    462    461
    437    438    463    462
    438    439    464    463
    439    440    465    464
    440    441    466    465
    441    442    467    466
    442    443    468    467
    443    444    469    468
    444    445    470    469
    445    446    471    470
    446    447    472    471
    447    448    473    472
    448    449    474    473
    449    425    450    474
    450    451    476    475
    451    452    477    476
    452    453    478    477
    453    454    479    478
    454    455    480    479
    455    456    481    480
    456    457    482    481
    457    458    483    482
    458    459    484    483
    459    460    485    484
    460    461    486    485
    461    462    487    486
    462    463    488    487
    463    464    489    488
    464    465    490    489
    465    466    491    490
    466    467    492    491
    467    468    493    492
    468    469    494    493
    469    470    495    494
    470    471    496    495
    471    472    497    496
    472    473    498    497
    473    474    499    498
    474    450    475    499
    475    476    501    500
    476    477    502    501
    477    478    503    502
    478    479    504    503
    479    480    505    504
    480    481    506    505
    481    482    507    506
    482    483    508    507
    483    484    509    508
    484    485    510    509
    485    486    511    510
    486    487    512    511
    487    488    513    512
    488    489    514    513
    489    490    515    514
    490    491    516    515
    491    492    517    516
    492    493    518    517
    493    494    519    518
    494    495    520    519
    495    496    521    520
    496    497    522    521
    497    498    523    522
    498    499    524    523
    499    475    500    524
    500    501    526    525
    501    502    527    526
    502    503    528    527
    503    504    529    528
    504    505    530    529
    505    506    531    530
    506    507    532    531
    507    508    533    532
    508    509    534    533
    509    510    535    534
    510    511    536    535
    511    512    537    536
    512    513    538    537
    513    514    539    538
    514    515    540    539
    515    516    541    540
    516    517    542    541
    517    518    543    542
    518    519    544    543
    519    520    545    544
    520    521    546    545
    521    522    547    546
    522    523    548    547
    523    524    549    548
    524    500    525    549
    525    526    551    550
    526    527    552    551
    527    528    553    552
    528    529    554    553
    529    530    555    554
    530    531    556    555
    531    532    557    556
    532    533    558    557
    533    534    559    558
    534    535    560    559
    535    536    561    560
    536    537    562    561
    537    538    563    562
    538    539    564    563
    539    540    565    564
    540    541    566    565
    541    542    567    566
    542    543    568    567
    543    544    569    568
    544    545    570    569
    545    546    571    570
    546    547    572    571
    547    548    573    572
    548    549    574    573
    549    525    550    574
    550    551    576    575
    551    552    577    576
    552    553    578    577
    553    554    579    578
    554    555    580    579
    555    556    581    580
    556    557    582    581
    557    558    583    582
    558    559    584    583
    559    560    585    584
    560    561    586    585
    561    562    587    586
    562    563    588    587
    563    564    589    588
    564    565    590    589
    565    566    591    590
    566    567    592    591
    567    568    593    592
    568    569    594    593
    569    570    595    594
    570    571    596    595
    571    572    597    596
    572    573    598    597
    573    574    599    598
    574    550    575    599
    575    576    601    600
    576    577    602    601
    577    578    603    602
    578    579    604    603
    579    580    605    604
    580    581    606    605
    581    582    607    606
    582    583    608    607
    583    584    609    608
    584    585    610    609
    585    586    611    610
    586    587    612    611
    587    588    613    612
    588    589    614    613
    589    590    615    614
    590    591    616    615
    591    592    617    616
    592    593    618    617
    593    594    619    618
    594    595    620    619
    595    596    621    620
    596    597    622    621
    597    598    623    622
    598    599    624    623
    599    575    600    624
        </DataArray>
        <DataArray type="Int32" Name="offsets" format="ascii">
      4
      8
     12
     16
     20
     24
     28
     32
     36
     40
     44
     48
     52
     56
     60
     64
     68
     72
     76
     80
     84
     88
     92
     96
    100
    104
    108
    112
    116
    120
    124
    128
    132
    136
    140
    144
    148
    152
    156
    160
    164
    168
    172
    176
    180
    184
    188
    192
    196
    200
    204
    208
    212
    216
    220
    224
    228
    232
    236
    240
    244
    248
    252
    256
    260
    264
    268
    272
    276
    280
    284
    288
    292
    296
    300
    304
    308
    312
    316
    320
    324
    328
    332
    336
    340
    344
    348
    352
    356
    360
    364
    368
    372
    376
    380
    384
    388
    392
    396
    400
    404
    408
    412
    416
    420
    424
    428
    432
    436
    440
    444
    448
    452
    456
    460
    464
    468
    472
    476
    480
    484
    488
    492
    496
    500
    504
    508
    512
    516
    520
    524
    528
    532
    536
    540
    544
    548
    552
    556
    560
    564
    568
    572
    576
    580
    584
    588
    592
    596
    600
    604
    608
    612
    616
    620
    624
    628
    632
    636
    640
    644
    648
    652
    656
    660
    664
    668
    672
    676
    680
    684
    688
    692
    696
    700
    704
    708
    712
    716
    720
    724
    728
    732
    736
    740
    744
    748
    752
    756
    760
    764
    768
    772
    776
    780
    784
    788
    792
    796
    800
    804
    808
    812
    816
    820
    824
    828
    832
    836
    840
    844
    848
    852
    856
    860
    864
    868
    872
    876
    880
    884
    888
    892
    896
    900
    904
    908
    912
    916
    920
    924
    928
    932
    936
    940
    944
    948
    952
    956
    960
    964
    968
    972
    976
    980
    984
    988
    992
    996
   1000
   1004
   1008
   1012
   1016
   1020
   1024
   1028
   1032
   1036
   1040
   1044
   1048
   1052
   1056
   1060
   1064
   1068
   1072
   1076
   1080
   1084
   1088
   1092
   1096
   1100
   1104
   1108
   1112
   1116
   1120
   1124
   1128
   1132
   1136
   1140
   1144
   1148
   1152
   1156
   1160
   1164
   1168
   1172
   1176
   1180
   1184
   1188
   1192
   1196
   1200
   1204
   1208
   1212
   1216
   1220
   1224
   1228
   1232
   1236
   1240
   1244
   1248
   1252
   1256
   1260
   1264
   1268
   1272
   1276
   1280
   1284
   1288
   1292
   1296
   1300
   1304
   1308
   1312
   1316
   1320
   1324
   1328
   1332
   1336
   1340
   1344
   1348
   1352
   1356
   1360
   1364
   1368
   1372
   1376
   1380
   1384
   1388
   1392
   1396
   1400
   1404
   1408
   1412
   1416
   1420
   1424
   1428
   1432
   1436
   1440
   1444
   1448
   1452
   1456
   1460
   1464
   1468
   1472
   1476
   1480
   1484
   1488
   1492
   1496
   1500
   1504
   1508
   1512
   1516
   1520
   1524
   1528
   1532
   1536
   1540
   1544
   1548
   1552
   1556
   1560
   1564
   1568
   1572
   1576
   1580
   1584
   1588
   1592
   1596
   1600
   1604
   1608
   1612
   1616
   1620
   1624
   1628
   1632
   1636
   1640
   1644
   1648
   1652
   1656
   1660
   1664
   1668
   1672
   1676
   1680
   1684
   1688
   1692
   1696
   1700
   1704
   1708
   1712
   1716
   1720
   1724
   1728
   1732
   1736
   1740
   1744
   1748
   1752
   1756
   1760
   1764
   1768
   1772
   1776
   1780
   1784
   1788
   1792
   1796
   1800
   1804
   1808
   1812
   1816
   1820
   1824
   1828
   1832
   1836
   1840
   1844
   1848
   1852
   1856
   1860
   1864
   1868
   1872
   1876
   1880
   1884
   1888
   1892
   1896
   1900
   1904
   1908
   1912
   1916
   1920
   1924
   1928
   1932
   1936
   1940
   1944
   1948
   1952
   1956
   1960
   1964
   1968
   1972
   1976
   1980
   1984
   1988
   1992
   1996
   2000
   2004
   2008
   2012
   2016
   2020
   2024
   2028
   2032
   2036
   2040
   2044
   2048
   2052
   2056
   2060
   2064
   2068
   2072
   2076
   2080
   2084
   2088
   2092
   2096
   2100
   2104
   2108
   2112
   2116
   2120
   2124
   2128
   2132
   2136
   2140
   2144
   2148
   2152
   2156
   2160
   2164
   2168
   2172
   2176
   2180
   2184
   2188
   2192
   2196
   2200
   2204
   2208
   2212
   2216
   2220
   2224
   2228
   2232
   2236
   2240
   2244
   2248
   2252
   2256
   2260
   2264
   2268
   2272
   2276
   2280
   2284
   2288
   2292
   2296
   2300
   2304
   2308
   2312
   2316
   2320
   2324
   2328
   2332
   2336
   2340
   2344
   2348
   2352
   2356
   2360
   2364
   2368
   2372
   2376
   2380
   2384
   2388
   2392
   2396
   2400
        </DataArray>
      </Polys>
    </Piece>
  </PolyData>
</VTKFile>
