<?xml version="1.0"?>
<VTKFile type="PolyData" version="0.1" byte_order="LittleEndian">
  <PolyData>
    <Piece NumberOfPoints="      8" NumberOfVerts="  0" NumberOfLines="      0"
           NumberOfStrips="  0" NumberOfPolys="      6">
      <Points>
        <DataArray type="Float32" NumberOfComponents="3" format="ascii">
                      -3.34949                       2.39283                      87.60995
                       3.65049                       2.39284                      87.59047
                       3.65048                      -2.40717                      87.58970
                      -3.34949                      -2.40717                      87.60919
                      -3.33613                      -2.40794                      92.40918
                       3.66384                      -2.40794                      92.38969
                       3.66385                       2.39207                      92.39046
                      -3.33613                       2.39207                      92.40994
        </DataArray>
      </Points>
      <Polys>
        <DataArray type="Int32" Name="connectivity" format="ascii">
      0      1      2      3
      4      5      6      7
      7      6      1      0
      6      5      2      1
      5      4      3      2
      4      7      0      3
        </DataArray>
        <DataArray type="Int32" Name="offsets" format="ascii">
      4
      8
     12
     16
     20
     24
        </DataArray>
      </Polys>
    </Piece>
  </PolyData>
</VTKFile>
