<?xml version="1.0"?>
<VTKFile type="PolyData" version="0.1" byte_order="LittleEndian">
  <PolyData>
    <Piece NumberOfPoints="     19" NumberOfVerts="  0" NumberOfLines="     18"
           NumberOfStrips="  0" NumberOfPolys="      0">
      <Points>
        <DataArray type="Float32" NumberOfComponents="3" format="ascii">
                      -4.83208                      -1.24667                      90.85143
                      -4.82357                      -2.38274                      91.61171
                      -4.83387                      -4.70771                      93.05441
                      -4.85429                      -7.05856                      94.45924
                      -4.88082                     -10.01381                      96.19111
                      -4.83604                     -13.48518                      98.38015
                      -4.74055                     -16.88845                     100.67046
                      -4.62893                     -20.29354                     102.95825
                      -4.49879                     -23.69934                     105.24502
                      -4.35253                     -27.10662                     107.52969
                      -4.19477                     -30.51696                     109.81003
                      -4.02910                     -33.92900                     112.08812
                      -3.86229                     -37.34197                     114.36519
                      -3.70294                     -40.75494                     116.64270
                      -3.55913                     -44.16697                     118.92184
                      -3.46023                     -47.00871                     120.82375
                      -3.39823                     -49.27611                     122.35404
                      -3.34536                     -51.51181                     123.93165
                      -3.33899                     -52.65115                     124.68808
        </DataArray>
      </Points>
      <PointData>
        <DataArray type="Float32" Name="TranslationalVelocity" NumberOfComponents="3" format="ascii">
                      -0.31855                      -2.35385                      -3.48780
                      -0.60612                      -4.48547                      -6.66981
                      -1.19477                      -8.52486                     -13.18348
                      -1.78948                     -12.45711                     -19.77231
                      -2.53554                     -17.30671                     -28.05948
                      -3.40926                     -23.45990                     -37.80067
                      -4.26345                     -29.91449                     -47.35786
                      -5.11761                     -36.37057                     -56.92673
                      -5.97427                     -42.83254                     -66.50328
                      -6.83713                     -49.29610                     -76.08840
                      -7.71055                     -55.75302                     -85.68503
                      -8.59829                     -62.20726                     -95.28768
                      -9.50417                     -68.65947                    -104.89254
                     -10.43156                     -75.11044                    -114.49530
                     -11.38319                     -81.56030                    -124.09176
                     -12.19648                     -86.93505                    -132.08042
                     -12.85880                     -91.25332                    -138.45162
                     -13.52477                     -95.70059                    -144.73069
                     -13.86778                     -97.82703                    -147.92963
        </DataArray>
        <DataArray type="Float32" Name="RotationalVelocity" NumberOfComponents="3" format="ascii">
                       2.80050                      -0.00060                      -0.25291
                       2.80086                      -0.00058                      -0.25290
                       2.80179                      -0.00045                      -0.25280
                       2.80291                      -0.00023                      -0.25260
                       2.80450                       0.00018                      -0.25231
                       2.80652                       0.00077                      -0.25202
                       2.80850                       0.00133                      -0.25199
                       2.81028                       0.00172                      -0.25241
                       2.81177                       0.00179                      -0.25345
                       2.81288                       0.00138                      -0.25525
                       2.81355                       0.00039                      -0.25790
                       2.81378                      -0.00126                      -0.26141
                       2.81356                      -0.00356                      -0.26570
                       2.81293                      -0.00644                      -0.27060
                       2.81198                      -0.00971                      -0.27582
                       2.81100                      -0.01253                      -0.28011
                       2.81015                      -0.01469                      -0.28326
                       2.80929                      -0.01658                      -0.28594
                       2.80887                      -0.01737                      -0.28702
        </DataArray>
        <DataArray type="Float32" Name="TranslationalAcceleration" NumberOfComponents="3" format="ascii">
                      -0.61696                       9.84013                      -6.57445
                      -0.72007                      11.92055                      -7.92729
                      -2.00370                      34.54339                     -22.05311
                      -3.16350                      55.60405                     -34.67962
                      -4.52091                      80.40984                     -49.13847
                      -6.17584                     108.12162                     -66.38974
                      -7.87536                     134.64284                     -83.99034
                      -9.54122                     161.15272                    -101.52277
                     -11.15473                     187.96568                    -119.22527
                     -12.69452                     215.18505                    -137.15994
                     -14.15454                     242.75870                    -155.26553
                     -15.56536                     270.51637                    -173.44407
                     -17.00716                     298.26441                    -191.55793
                     -18.62764                     325.84639                    -209.48061
                     -20.65888                     353.21139                    -227.13565
                     -22.92123                     375.92922                    -241.64814
                     -25.27202                     394.13340                    -253.22970
                     -28.30851                     412.33558                    -265.18722
                     -30.10119                     421.76828                    -270.92883
        </DataArray>
        <DataArray type="Float32" Name="OrientationX" NumberOfComponents="3" format="ascii">
                       0.95321                      -0.16351                      -0.25425
                       0.95320                      -0.16319                      -0.25450
                       0.95312                      -0.16229                      -0.25539
                       0.95295                      -0.16108                      -0.25677
                       0.95262                      -0.15925                      -0.25915
                       0.96122                      -0.13980                      -0.23774
                       0.96638                      -0.12530                      -0.22453
                       0.97003                      -0.11313                      -0.21505
                       0.97319                      -0.10168                      -0.20629
                       0.97573                      -0.09179                      -0.19883
                       0.97728                      -0.08496                      -0.19420
                       0.97815                      -0.08104                      -0.19147
                       0.97808                      -0.08122                      -0.19174
                       0.97664                      -0.08699                      -0.19648
                       0.97483                      -0.09585                      -0.20129
                       0.97325                      -0.10513                      -0.20429
                       0.97192                      -0.11394                      -0.20586
                       0.96987                      -0.12551                      -0.20879
                       0.96840                      -0.13263                      -0.21120
        </DataArray>
        <DataArray type="Float32" Name="OrientationY" NumberOfComponents="3" format="ascii">
                       0.30222                       0.53395                       0.78966
                       0.30225                       0.53385                       0.78971
                       0.30249                       0.53363                       0.78977
                       0.30296                       0.53337                       0.78977
                       0.30392                       0.53303                       0.78963
                       0.27531                       0.53732                       0.79718
                       0.25629                       0.53976                       0.80186
                       0.24167                       0.54139                       0.80529
                       0.22805                       0.54274                       0.80835
                       0.21639                       0.54371                       0.81089
                       0.20878                       0.54419                       0.81257
                       0.20436                       0.54431                       0.81361
                       0.20470                       0.54399                       0.81374
                       0.21183                       0.54306                       0.81254
                       0.22073                       0.54188                       0.81095
                       0.22835                       0.54081                       0.80956
                       0.23452                       0.53988                       0.80841
                       0.24335                       0.53855                       0.80669
                       0.24930                       0.53762                       0.80549
        </DataArray>
        <DataArray type="Float32" Name="OrientationZ" NumberOfComponents="3" format="ascii">
                       0.00664                      -0.82956                       0.55838
                       0.00699                      -0.82968                       0.55820
                       0.00811                      -0.83000                       0.55770
                       0.00974                      -0.83040                       0.55708
                       0.01239                      -0.83098                       0.55617
                       0.01629                      -0.83171                       0.55497
                       0.02072                      -0.83244                       0.55372
                       0.02532                      -0.83312                       0.55251
                       0.02977                      -0.83372                       0.55138
                       0.03367                      -0.83424                       0.55038
                       0.03664                      -0.83465                       0.54956
                       0.03829                      -0.83496                       0.54897
                       0.03821                      -0.83515                       0.54869
                       0.03602                      -0.83518                       0.54880
                       0.03135                      -0.83497                       0.54940
                       0.02538                      -0.83455                       0.55034
                       0.01903                      -0.83400                       0.55144
                       0.01120                      -0.83320                       0.55286
                       0.00671                      -0.83269                       0.55370
        </DataArray>
        <DataArray type="Float32" Name="Force" NumberOfComponents="3" format="ascii">
                       2.12198                      15.83184                      23.49530
                     205.59987                      74.15307                     107.59123
                     321.98351                     214.80756                     314.50121
                     337.43092                     319.36405                     468.76227
                    1593.78937                    -259.73675                    -422.08870
                    1511.44220                    -189.14434                    -326.27529
                    1443.59561                    -124.74253                    -240.25910
                    2203.00666                    -182.07474                    -373.09794
                    2657.84220                    -177.10717                    -408.53031
                    2975.10337                    -158.36852                    -419.27304
                    4646.24313                    -215.69131                    -633.13818
                    4986.27779                    -198.86778                    -646.07888
                    4197.80799                    -143.43070                    -507.69234
                    2733.67202                     -43.56104                    -245.37136
                     817.09168                      86.24905                      81.67900
                    1393.10171                     -12.29065                     -83.32496
                    -145.16077                     143.01297                     218.01367
                   -1603.25653                     226.88059                     370.91152
                  -19890.29697                     872.17772                    1550.49730
        </DataArray>
        <DataArray type="Float32" Name="Moment" NumberOfComponents="3" format="ascii">
                       0.00000                       0.00000                       0.00000
                       0.00000                       0.00000                       0.00000
                       0.00000                       0.00000                       0.00000
                       0.00000                       0.00000                       0.00000
                     -17.12826                    1132.60117                    -761.63374
                     -42.36283                    2125.62099                   -1428.48126
                     -72.26472                    2850.21534                   -1914.03410
                    -141.25345                    4557.08499                   -3057.94341
                    -246.17300                    6757.18438                   -4530.96063
                    -316.25775                    7675.17703                   -5143.20194
                    -384.03343                    8563.12192                   -5735.40471
                    -427.10071                    9110.99572                   -6100.68890
                    -322.64348                    6891.85851                   -4614.80167
                    -300.45787                    6799.37837                   -4554.48947
                    -248.44857                    6445.50372                   -4320.73533
                    -188.72133                    6027.15579                   -4044.23420
                    -125.68643                    5324.72960                   -3576.61135
                     -37.40660                    2656.11717                   -1786.39315
                     -20.63778                    2395.11094                   -1612.03378
        </DataArray>
      </PointData>
      <Lines>
        <DataArray type="Int32" Name="connectivity" format="ascii">
      0      1
      1      2
      2      3
      3      4
      4      5
      5      6
      6      7
      7      8
      8      9
      9     10
     10     11
     11     12
     12     13
     13     14
     14     15
     15     16
     16     17
     17     18
        </DataArray>
        <DataArray type="Int32" Name="offsets" format="ascii">
      2
      4
      6
      8
     10
     12
     14
     16
     18
     20
     22
     24
     26
     28
     30
     32
     34
     36
        </DataArray>
      </Lines>
    </Piece>
  </PolyData>
</VTKFile>
