<?xml version="1.0"?>
<VTKFile type="PolyData" version="0.1" byte_order="LittleEndian">
  <PolyData>
    <Piece NumberOfPoints="     19" NumberOfVerts="  0" NumberOfLines="     18"
           NumberOfStrips="  0" NumberOfPolys="      0">
      <Points>
        <DataArray type="Float32" NumberOfComponents="3" format="ascii">
                      -4.87021                      -1.44788                      90.43289
                      -4.89617                      -2.76121                      90.81137
                      -4.97656                      -5.41378                      91.47804
                      -5.06766                      -8.07924                      92.10056
                      -5.18289                     -11.41963                      92.85020
                      -5.24297                     -15.39274                      93.87719
                      -5.25090                     -19.33342                      95.02052
                      -5.24284                     -23.27570                      96.16023
                      -5.21652                     -27.21902                      97.29817
                      -5.17463                     -31.16370                      98.43319
                      -5.12212                     -35.11037                      99.56287
                      -5.06300                     -39.05824                     100.68979
                      -5.00448                     -43.00670                     101.81555
                      -4.95573                     -46.95502                     102.94206
                      -4.92545                     -50.90235                     104.07096
                      -4.92398                     -54.19029                     105.01532
                      -4.94192                     -56.81698                     105.78145
                      -4.97044                     -59.42755                     106.60274
                      -5.00615                     -60.74274                     106.97626
        </DataArray>
      </Points>
      <PointData>
        <DataArray type="Float32" Name="TranslationalVelocity" NumberOfComponents="3" format="ascii">
                      -0.36470                      -1.16838                      -4.03079
                      -0.69658                      -2.22163                      -7.70823
                      -1.36716                      -4.06840                     -15.13661
                      -2.04151                      -5.78908                     -22.60261
                      -2.88769                      -7.86011                     -31.96147
                      -3.89638                     -10.72276                     -43.09656
                      -4.90030                     -13.92566                     -54.14439
                      -5.90934                     -17.12346                     -65.19972
                      -6.92463                     -20.32179                     -76.26031
                      -7.94753                     -23.51656                     -87.32610
                      -8.97943                     -26.69944                     -98.39803
                     -10.02121                     -29.87641                    -109.47297
                     -11.07363                     -33.04983                    -120.54858
                     -12.13714                     -36.22243                    -131.62230
                     -13.21187                     -39.39636                    -142.69170
                     -14.11604                     -42.04467                    -151.91095
                     -14.84376                     -44.18781                    -159.27580
                     -15.57138                     -46.48276                    -166.59563
                     -15.93976                     -47.52023                    -170.28348
        </DataArray>
        <DataArray type="Float32" Name="RotationalVelocity" NumberOfComponents="3" format="ascii">
                       2.79992                       0.00024                      -0.25279
                       2.80010                       0.00023                      -0.25282
                       2.80055                       0.00020                      -0.25294
                       2.80110                       0.00017                      -0.25316
                       2.80185                       0.00011                      -0.25356
                       2.80277                       0.00001                      -0.25425
                       2.80361                      -0.00013                      -0.25521
                       2.80430                      -0.00028                      -0.25645
                       2.80480                      -0.00043                      -0.25801
                       2.80509                      -0.00053                      -0.25991
                       2.80517                      -0.00055                      -0.26215
                       2.80506                      -0.00043                      -0.26472
                       2.80480                      -0.00013                      -0.26756
                       2.80444                       0.00041                      -0.27061
                       2.80406                       0.00127                      -0.27374
                       2.80377                       0.00225                      -0.27629
                       2.80359                       0.00326                      -0.27821
                       2.80350                       0.00447                      -0.27993
                       2.80349                       0.00516                      -0.28069
        </DataArray>
        <DataArray type="Float32" Name="TranslationalAcceleration" NumberOfComponents="3" format="ascii">
                      -0.24524                      11.41550                      -3.18938
                      -0.33636                      13.78937                      -3.87973
                      -0.90181                      39.67066                     -10.36195
                      -1.39526                      63.59258                     -15.89613
                      -1.96601                      91.62354                     -22.02532
                      -2.74782                     123.25196                     -29.92750
                      -3.66298                     153.83079                     -38.53160
                      -4.65998                     184.35311                     -47.06777
                      -5.75532                     215.19417                     -55.65397
                      -6.94252                     246.47465                     -64.30990
                      -8.19023                     278.12903                     -72.99540
                      -9.44420                     309.96623                     -81.68615
                     -10.61988                     341.75787                     -90.34706
                     -11.60066                     373.30991                     -98.96696
                     -12.23472                     404.53853                    -107.57982
                     -12.35046                     430.37731                    -114.82860
                     -12.09761                     451.03169                    -120.80524
                     -11.48613                     471.75829                    -127.39152
                     -10.97683                     482.34377                    -130.47436
        </DataArray>
        <DataArray type="Float32" Name="OrientationX" NumberOfComponents="3" format="ascii">
                       0.94945                      -0.10452                      -0.29600
                       0.94945                      -0.10413                      -0.29614
                       0.94940                      -0.10299                      -0.29672
                       0.94927                      -0.10139                      -0.29768
                       0.94899                      -0.09888                      -0.29941
                       0.95802                      -0.08708                      -0.27315
                       0.96351                      -0.07742                      -0.25621
                       0.96745                      -0.06883                      -0.24353
                       0.97088                      -0.06075                      -0.23174
                       0.97364                      -0.05382                      -0.22165
                       0.97535                      -0.04901                      -0.21516
                       0.97630                      -0.04649                      -0.21135
                       0.97622                      -0.04708                      -0.21160
                       0.97463                      -0.05172                      -0.21778
                       0.97256                      -0.05942                      -0.22493
                       0.97069                      -0.06804                      -0.23048
                       0.96909                      -0.07658                      -0.23454
                       0.96666                      -0.08734                      -0.24071
                       0.96496                      -0.09371                      -0.24509
        </DataArray>
        <DataArray type="Float32" Name="OrientationY" NumberOfComponents="3" format="ascii">
                       0.31336                       0.25985                       0.91339
                       0.31339                       0.25972                       0.91342
                       0.31362                       0.25941                       0.91343
                       0.31409                       0.25906                       0.91336
                       0.31505                       0.25863                       0.91316
                       0.28656                       0.26105                       0.92181
                       0.26762                       0.26232                       0.92713
                       0.25307                       0.26309                       0.93099
                       0.23953                       0.26369                       0.93440
                       0.22795                       0.26405                       0.93719
                       0.22041                       0.26410                       0.93897
                       0.21606                       0.26394                       0.94003
                       0.21647                       0.26352                       0.94005
                       0.22367                       0.26274                       0.93858
                       0.23262                       0.26178                       0.93667
                       0.24029                       0.26091                       0.93498
                       0.24650                       0.26015                       0.93357
                       0.25536                       0.25910                       0.93148
                       0.26131                       0.25837                       0.93003
        </DataArray>
        <DataArray type="Float32" Name="OrientationZ" NumberOfComponents="3" format="ascii">
                      -0.01855                      -0.95998                       0.27947
                      -0.01820                      -0.96005                       0.27923
                      -0.01710                      -0.96026                       0.27858
                      -0.01549                      -0.96052                       0.27777
                      -0.01285                      -0.96090                       0.27659
                      -0.00896                      -0.96139                       0.27504
                      -0.00457                      -0.96187                       0.27346
                      -0.00001                      -0.96231                       0.27195
                       0.00434                      -0.96269                       0.27056
                       0.00809                      -0.96301                       0.26936
                       0.01080                      -0.96325                       0.26840
                       0.01208                      -0.96342                       0.26773
                       0.01150                      -0.96350                       0.26745
                       0.00867                      -0.96348                       0.26764
                       0.00323                      -0.96330                       0.26842
                      -0.00348                      -0.96296                       0.26961
                      -0.01047                      -0.96253                       0.27099
                      -0.01898                      -0.96189                       0.27276
                      -0.02382                      -0.96149                       0.27381
        </DataArray>
        <DataArray type="Float32" Name="Force" NumberOfComponents="3" format="ascii">
                       2.58339                       8.28080                      28.61585
                     207.35262                      32.94561                     126.67254
                     326.37822                     101.24599                     367.84869
                     343.40278                     153.49839                     546.69443
                    1562.48784                    -158.56199                    -474.93376
                    1465.22346                    -117.77896                    -360.46707
                    1378.66737                     -79.78418                    -254.88988
                    2107.38157                    -113.51025                    -396.37689
                    2564.36671                    -112.11220                    -434.03760
                    2860.55883                     -99.91423                    -437.04971
                    4521.33816                    -137.18737                    -664.93794
                    4836.16411                    -128.04133                    -669.82999
                    3974.76176                     -93.83862                    -503.03770
                    2501.61545                     -37.42544                    -215.85465
                     533.37258                      46.36555                     152.61921
                    1112.80916                      -2.61942                       1.73417
                    -435.39690                      91.51949                     300.02072
                   -1851.55023                     171.74390                     468.26927
                  -19946.33159                    1011.59424                    1810.96715
        </DataArray>
        <DataArray type="Float32" Name="Moment" NumberOfComponents="3" format="ascii">
                       0.00000                       0.00000                       0.00000
                       0.00000                       0.00000                       0.00000
                       0.00000                       0.00000                       0.00000
                       0.00000                       0.00000                       0.00000
                      17.25546                    1311.20688                    -380.99235
                      22.10451                    2458.28208                    -713.36856
                      14.15609                    3293.52882                    -954.35311
                      -2.93362                    5272.13399                   -1525.37528
                     -40.52675                    7822.31337                   -2259.94751
                     -81.33995                    8881.83070                   -2562.86408
                    -119.51045                    9913.27743                   -2857.89621
                    -141.58344                   10537.35968                   -3036.49923
                    -102.44949                    7961.90006                   -2294.75056
                     -77.83549                    7837.28559                   -2260.91197
                     -31.42014                    7417.78735                   -2143.70867
                      19.45363                    6934.75717                   -2008.52311
                      62.18398                    6118.84359                   -1776.27321
                      58.33481                    3048.70249                    -887.49411
                      66.89684                    2759.32954                    -804.52888
        </DataArray>
      </PointData>
      <Lines>
        <DataArray type="Int32" Name="connectivity" format="ascii">
      0      1
      1      2
      2      3
      3      4
      4      5
      5      6
      6      7
      7      8
      8      9
      9     10
     10     11
     11     12
     12     13
     13     14
     14     15
     15     16
     16     17
     17     18
        </DataArray>
        <DataArray type="Int32" Name="offsets" format="ascii">
      2
      4
      6
      8
     10
     12
     14
     16
     18
     20
     22
     24
     26
     28
     30
     32
     34
     36
        </DataArray>
      </Lines>
    </Piece>
  </PolyData>
</VTKFile>
