<?xml version="1.0"?>
<VTKFile type="PolyData" version="0.1" byte_order="LittleEndian">
  <PolyData>
    <Piece NumberOfPoints="     19" NumberOfVerts="  0" NumberOfLines="     18"
           NumberOfStrips="  0" NumberOfPolys="      0">
      <Points>
        <DataArray type="Float32" NumberOfComponents="3" format="ascii">
                      -4.68571                      -1.13244                      89.06087
                      -4.83198                      -2.15468                      88.16519
                      -5.14878                      -4.13533                      86.30460
                      -5.47185                      -6.08548                      84.40974
                      -5.87034                      -8.50462                      82.01831
                      -6.26108                     -11.50251                      79.24324
                      -6.58433                     -14.58549                      76.55534
                      -6.86709                     -17.66826                      73.86208
                      -7.09897                     -20.75164                      71.16424
                      -7.27324                     -23.83383                      68.46041
                      -7.38452                     -26.91170                      65.74809
                      -7.42597                     -29.98536                      63.02865
                      -7.39369                     -33.05372                      60.30263
                      -7.28559                     -36.11548                      57.57075
                      -7.09933                     -39.16875                      54.83369
                      -6.88431                     -41.70507                      52.54949
                      -6.67610                     -43.73334                      50.72649
                      -6.43102                     -45.79189                      48.94313
                      -6.30459                     -46.79108                      48.02059
        </DataArray>
      </Points>
      <PointData>
        <DataArray type="Float32" Name="TranslationalVelocity" NumberOfComponents="3" format="ascii">
                      -0.24069                       2.23502                      -2.51038
                      -0.45993                       4.26575                      -4.79227
                      -0.88553                       8.48544                      -9.21202
                      -1.30580                      12.78063                     -13.56136
                      -1.82946                      18.19565                     -18.95280
                      -2.48273                      24.45825                     -25.62795
                      -3.16127                      30.50626                     -32.48515
                      -3.84945                      36.55172                     -39.33426
                      -4.55017                      42.59085                     -46.17771
                      -5.26584                      48.62566                     -53.01228
                      -5.99842                      54.66082                     -59.83216
                      -6.75025                      60.69206                     -66.63872
                      -7.52292                      66.71742                     -73.43082
                      -8.31730                      72.73480                     -80.20672
                      -9.13331                      78.74174                     -86.96330
                      -9.82946                      83.73747                     -92.57612
                     -10.39662                      87.71335                     -97.06500
                     -10.97886                      91.59010                    -101.62141
                     -11.26644                      93.59461                    -103.83302
        </DataArray>
        <DataArray type="Float32" Name="RotationalVelocity" NumberOfComponents="3" format="ascii">
                       2.23261                       0.00003                      -0.21445
                       2.23225                       0.00010                      -0.21451
                       2.23127                       0.00035                      -0.21472
                       2.23002                       0.00069                      -0.21509
                       2.22821                       0.00121                      -0.21583
                       2.22587                       0.00197                      -0.21716
                       2.22353                       0.00292                      -0.21903
                       2.22132                       0.00414                      -0.22142
                       2.21931                       0.00574                      -0.22433
                       2.21753                       0.00783                      -0.22768
                       2.21596                       0.01047                      -0.23140
                       2.21459                       0.01372                      -0.23536
                       2.21337                       0.01753                      -0.23941
                       2.21227                       0.02177                      -0.24338
                       2.21125                       0.02619                      -0.24706
                       2.21045                       0.02976                      -0.24974
                       2.20986                       0.03231                      -0.25152
                       2.20932                       0.03439                      -0.25288
                       2.20907                       0.03517                      -0.25338
        </DataArray>
        <DataArray type="Float32" Name="TranslationalAcceleration" NumberOfComponents="3" format="ascii">
                       0.45730                       5.72184                       4.94094
                       0.55995                       6.89202                       5.95562
                       1.63454                      19.39173                      17.39402
                       2.64124                      30.68605                      28.10898
                       3.83175                      43.70644                      40.76057
                       5.14555                      58.87858                      54.65051
                       6.39128                      74.01528                      67.69826
                       7.64483                      89.06531                      80.69430
                       8.92170                     104.23437                      93.79123
                      10.22722                     119.58557                     107.04101
                      11.55865                     135.08198                     120.42025
                      12.90646                     150.64580                     133.83734
                      14.25948                     166.17337                     147.19115
                      15.60749                     181.57656                     160.39866
                      16.94416                     196.81858                     173.42703
                      18.04937                     209.43033                     184.17923
                      18.93134                     219.54700                     192.74092
                      19.81842                     229.93591                     201.17132
                      20.26566                     235.06235                     205.60367
        </DataArray>
        <DataArray type="Float32" Name="OrientationX" NumberOfComponents="3" format="ascii">
                       0.94857                       0.12034                      -0.29280
                       0.94863                       0.12086                      -0.29238
                       0.94882                       0.12254                      -0.29108
                       0.94906                       0.12505                      -0.28922
                       0.94939                       0.12925                      -0.28629
                       0.95884                       0.11505                      -0.25960
                       0.96511                       0.10836                      -0.23836
                       0.97011                       0.10542                      -0.21857
                       0.97481                       0.10374                      -0.19743
                       0.97902                       0.10373                      -0.17540
                       0.98233                       0.10657                      -0.15386
                       0.98494                       0.11142                      -0.13221
                       0.98657                       0.11901                      -0.11190
                       0.98690                       0.13038                      -0.09508
                       0.98675                       0.14170                      -0.07898
                       0.98645                       0.15007                      -0.06627
                       0.98613                       0.15574                      -0.05734
                       0.98539                       0.16210                      -0.05227
                       0.98479                       0.16586                      -0.05184
        </DataArray>
        <DataArray type="Float32" Name="OrientationY" NumberOfComponents="3" format="ascii">
                       0.29809                      -0.65086                       0.69822
                       0.29812                      -0.65087                       0.69821
                       0.29825                      -0.65079                       0.69822
                       0.29852                      -0.65060                       0.69828
                       0.29912                      -0.65018                       0.69842
                       0.26989                      -0.65336                       0.70730
                       0.24967                      -0.65505                       0.71314
                       0.23302                      -0.65611                       0.71779
                       0.21619                      -0.65705                       0.72218
                       0.19980                      -0.65787                       0.72615
                       0.18568                      -0.65846                       0.72935
                       0.17281                      -0.65904                       0.73199
                       0.16279                      -0.65949                       0.73387
                       0.15793                      -0.65955                       0.73489
                       0.15362                      -0.65975                       0.73561
                       0.14987                      -0.66013                       0.73604
                       0.14713                      -0.66052                       0.73625
                       0.14770                      -0.66044                       0.73621
                       0.14992                      -0.66009                       0.73607
        </DataArray>
        <DataArray type="Float32" Name="OrientationZ" NumberOfComponents="3" format="ascii">
                      -0.10655                      -0.74960                      -0.65326
                      -0.10592                      -0.74951                      -0.65347
                      -0.10387                      -0.74930                      -0.65403
                      -0.10084                      -0.74905                      -0.65479
                      -0.09587                      -0.74870                      -0.65594
                      -0.08824                      -0.74825                      -0.65752
                      -0.07886                      -0.74778                      -0.65925
                      -0.06773                      -0.74726                      -0.66107
                      -0.05481                      -0.74668                      -0.66293
                      -0.04007                      -0.74596                      -0.66479
                      -0.02359                      -0.74503                      -0.66662
                      -0.00558                      -0.74381                      -0.66837
                       0.01354                      -0.74223                      -0.67001
                       0.03310                      -0.74027                      -0.67149
                       0.05213                      -0.73800                      -0.67278
                       0.06671                      -0.73600                      -0.67368
                       0.07679                      -0.73448                      -0.67427
                       0.08482                      -0.73317                      -0.67474
                       0.08787                      -0.73264                      -0.67492
        </DataArray>
        <DataArray type="Float32" Name="Force" NumberOfComponents="3" format="ascii">
                       1.42967                     -13.17433                      14.88385
                     169.18047                     -80.47309                      64.90744
                     267.34426                    -205.40147                     193.12676
                     272.40633                    -279.78552                     278.79650
                    1694.15093                     300.30135                    -591.82140
                    1796.63412                     234.86644                    -510.08373
                    1924.47228                     199.69267                    -458.58452
                    2691.83520                     258.47549                    -570.76580
                    3070.80525                     263.72950                    -553.91109
                    3594.58085                     300.64746                    -557.31694
                    5046.65187                     421.74225                    -654.11731
                    5863.45187                     520.72155                    -632.99392
                    6697.95969                     687.30475                    -631.72158
                    7190.48046                     816.01879                    -551.32045
                    7610.01213                     949.69120                    -458.78398
                    7871.99002                    1049.57516                    -374.22065
                    7699.01010                    1068.19213                    -293.57682
                    5477.47870                     785.43708                    -169.72864
                    -369.55897                    -117.16169                      81.28760
        </DataArray>
        <DataArray type="Float32" Name="Moment" NumberOfComponents="3" format="ascii">
                       0.00000                       0.00000                       0.00000
                       0.00000                       0.00000                       0.00000
                       0.00000                       0.00000                       0.00000
                       0.00000                       0.00000                       0.00000
                      97.85996                     766.52449                     669.08341
                     164.26404                    1399.48410                    1222.96437
                     193.47016                    1846.81559                    1616.11106
                     251.14947                    2795.81855                    2450.57346
                     293.59017                    4048.27022                    3555.09493
                     241.79065                    4578.48911                    4029.38976
                     155.05495                    5038.32865                    4444.74465
                      35.76620                    5355.00478                    4736.50640
                     -78.57336                    4144.24977                    3675.79866
                    -187.19888                    4133.76170                    3676.94925
                    -284.49138                    4005.72439                    3572.96342
                    -346.28937                    3812.18797                    3407.59213
                    -354.87908                    3392.43707                    3036.87788
                    -197.05322                    1704.28556                    1527.46340
                    -185.66620                    1549.73213                    1389.56782
        </DataArray>
      </PointData>
      <Lines>
        <DataArray type="Int32" Name="connectivity" format="ascii">
      0      1
      1      2
      2      3
      3      4
      4      5
      5      6
      6      7
      7      8
      8      9
      9     10
     10     11
     11     12
     12     13
     13     14
     14     15
     15     16
     16     17
     17     18
        </DataArray>
        <DataArray type="Int32" Name="offsets" format="ascii">
      2
      4
      6
      8
     10
     12
     14
     16
     18
     20
     22
     24
     26
     28
     30
     32
     34
     36
        </DataArray>
      </Lines>
    </Piece>
  </PolyData>
</VTKFile>
