<?xml version="1.0"?>
<VTKFile type="PolyData" version="0.1" byte_order="LittleEndian">
  <PolyData>
    <Piece NumberOfPoints="     19" NumberOfVerts="  0" NumberOfLines="     18"
           NumberOfStrips="  0" NumberOfPolys="      0">
      <Points>
        <DataArray type="Float32" NumberOfComponents="3" format="ascii">
                      -4.95302                      -1.41487                      89.51723
                      -5.05446                      -2.69942                      89.06071
                      -5.28583                      -5.23551                      88.05978
                      -5.52816                      -7.75583                      87.01577
                      -5.83305                     -10.89655                      85.68288
                      -6.12232                     -14.71509                      84.20661
                      -6.36140                     -18.57786                      82.84335
                      -6.58650                     -22.44072                      81.47642
                      -6.79564                     -26.30445                      80.10761
                      -6.99172                     -30.16846                      78.73585
                      -7.17984                     -34.03162                      77.35888
                      -7.36402                     -37.89454                      75.97930
                      -7.55142                     -41.75727                      74.59889
                      -7.75096                     -45.61978                      73.21975
                      -7.97101                     -49.48183                      71.84385
                      -8.17931                     -52.69972                      70.70179
                      -8.36550                     -55.27614                      69.79943
                      -8.56254                     -57.87090                      68.95166
                      -8.68234                     -59.15350                      68.49225
        </DataArray>
      </Points>
      <PointData>
        <DataArray type="Float32" Name="TranslationalVelocity" NumberOfComponents="3" format="ascii">
                      -0.36113                       1.41491                      -3.95297
                      -0.68632                       2.71892                      -7.55004
                      -1.32942                       5.57971                     -14.65023
                      -1.97033                       8.56306                     -21.70407
                      -2.77245                      12.36940                     -30.49066
                      -3.75415                      16.57076                     -41.16770
                      -4.75645                      20.44123                     -51.96137
                      -5.77065                      24.31636                     -62.74766
                      -6.79912                      28.19062                     -73.52857
                      -7.84354                      32.06775                     -84.30255
                      -8.90477                      35.95552                     -95.06661
                      -9.98326                      39.84783                    -105.82287
                     -11.07823                      43.74191                    -116.57203
                     -12.18753                      47.63453                    -127.31469
                     -13.30744                      51.52284                    -138.05107
                     -14.24492                      54.75692                    -146.99348
                     -14.99514                      57.31805                    -154.15174
                     -15.74738                      59.73034                    -161.35999
                     -16.11742                      61.04128                    -164.92268
        </DataArray>
        <DataArray type="Float32" Name="RotationalVelocity" NumberOfComponents="3" format="ascii">
                       2.80042                      -0.00035                      -0.25319
                       2.80018                      -0.00029                      -0.25334
                       2.79949                      -0.00010                      -0.25380
                       2.79859                       0.00015                      -0.25450
                       2.79726                       0.00053                      -0.25570
                       2.79549                       0.00110                      -0.25765
                       2.79364                       0.00178                      -0.26015
                       2.79177                       0.00255                      -0.26316
                       2.78991                       0.00342                      -0.26663
                       2.78810                       0.00438                      -0.27046
                       2.78633                       0.00537                      -0.27450
                       2.78463                       0.00636                      -0.27856
                       2.78302                       0.00723                      -0.28238
                       2.78158                       0.00785                      -0.28565
                       2.78041                       0.00804                      -0.28796
                       2.77973                       0.00771                      -0.28885
                       2.77949                       0.00698                      -0.28862
                       2.77959                       0.00573                      -0.28736
                       2.77980                       0.00487                      -0.28628
        </DataArray>
        <DataArray type="Float32" Name="TranslationalAcceleration" NumberOfComponents="3" format="ascii">
                       0.31226                      11.14834                       3.88587
                       0.43140                      13.48095                       4.80003
                       1.30656                      38.30506                      14.46235
                       2.15336                      60.96335                      23.77390
                       3.16956                      87.26864                      34.98608
                       4.23075                     117.46159                      46.85837
                       5.16903                     147.14511                      57.57315
                       6.09466                     176.68122                      68.31513
                       7.02063                     206.45210                      79.19325
                       7.95286                     236.57628                      90.25175
                       8.88864                     266.98518                     101.48190
                       9.81219                     297.51521                     112.79911
                      10.69884                     327.96203                     124.11848
                      11.51397                     358.15752                     135.37141
                      12.21292                     388.04221                     146.53471
                      12.66320                     412.78854                     155.79987
                      12.90956                     432.63277                     163.17897
                      13.00564                     452.83957                     170.25381
                      13.02309                     462.97809                     174.15453
        </DataArray>
        <DataArray type="Float32" Name="OrientationX" NumberOfComponents="3" format="ascii">
                       0.94747                       0.03762                      -0.31764
                       0.94749                       0.03799                      -0.31754
                       0.94749                       0.03916                      -0.31737
                       0.94746                       0.04088                      -0.31726
                       0.94732                       0.04371                      -0.31728
                       0.95651                       0.03716                      -0.28933
                       0.96220                       0.03442                      -0.27016
                       0.96635                       0.03330                      -0.25505
                       0.96999                       0.03226                      -0.24098
                       0.97293                       0.03127                      -0.22897
                       0.97477                       0.03068                      -0.22111
                       0.97577                       0.02983                      -0.21674
                       0.97564                       0.02890                      -0.21748
                       0.97387                       0.02827                      -0.22535
                       0.97147                       0.02585                      -0.23576
                       0.96919                       0.02193                      -0.24535
                       0.96715                       0.01734                      -0.25363
                       0.96421                       0.01235                      -0.26487
                       0.96222                       0.00988                      -0.27210
        </DataArray>
        <DataArray type="Float32" Name="OrientationY" NumberOfComponents="3" format="ascii">
                       0.31124                      -0.33744                       0.88841
                       0.31125                      -0.33755                       0.88836
                       0.31147                      -0.33781                       0.88818
                       0.31192                      -0.33807                       0.88793
                       0.31285                      -0.33835                       0.88749
                       0.28436                      -0.33992                       0.89643
                       0.26540                      -0.34098                       0.90183
                       0.25082                      -0.34183                       0.90567
                       0.23723                      -0.34262                       0.90903
                       0.22560                      -0.34335                       0.91171
                       0.21800                      -0.34396                       0.91333
                       0.21359                      -0.34449                       0.91417
                       0.21394                      -0.34489                       0.91393
                       0.22109                      -0.34512                       0.91215
                       0.22999                      -0.34531                       0.90987
                       0.23764                      -0.34549                       0.90784
                       0.24383                      -0.34565                       0.90613
                       0.25266                      -0.34580                       0.90365
                       0.25860                      -0.34589                       0.90193
        </DataArray>
        <DataArray type="Float32" Name="OrientationZ" NumberOfComponents="3" format="ascii">
                      -0.07376                      -0.94060                      -0.33142
                      -0.07344                      -0.94054                      -0.33165
                      -0.07243                      -0.94040                      -0.33227
                      -0.07096                      -0.94023                      -0.33306
                      -0.06856                      -0.94000                      -0.33421
                      -0.06504                      -0.93972                      -0.33571
                      -0.06108                      -0.93944                      -0.33723
                      -0.05703                      -0.93917                      -0.33868
                      -0.05324                      -0.93892                      -0.34000
                      -0.05011                      -0.93869                      -0.34111
                      -0.04803                      -0.93848                      -0.34196
                      -0.04740                      -0.93832                      -0.34251
                      -0.04860                      -0.93820                      -0.34267
                      -0.05199                      -0.93813                      -0.34235
                      -0.05789                      -0.93813                      -0.34140
                      -0.06486                      -0.93817                      -0.34005
                      -0.07195                      -0.93820                      -0.33852
                      -0.08043                      -0.93823                      -0.33654
                      -0.08520                      -0.93822                      -0.33538
        </DataArray>
        <DataArray type="Float32" Name="Force" NumberOfComponents="3" format="ascii">
                       2.51607                     -10.00176                      27.82601
                     202.10605                     -57.44280                     118.24586
                     324.21931                    -151.46519                     358.94542
                     343.72121                    -213.89287                     533.16521
                    1512.61897                      60.25267                    -482.22394
                    1395.10613                      32.28688                    -363.12665
                    1278.06676                       5.44229                    -248.42018
                    1956.96346                      19.11167                    -385.99252
                    2419.76909                      17.17205                    -430.42381
                    2690.84291                      10.66092                    -428.57508
                    4339.23281                      18.26359                    -665.89576
                    4634.80951                       7.94143                    -669.13502
                    3724.51795                     -15.65652                    -488.88166
                    2245.44010                     -52.48045                    -196.43029
                     195.77451                     -84.06397                     203.92922
                     772.59383                     -82.26276                      83.75390
                    -811.15602                     -68.72556                     369.33011
                   -2156.55919                     -16.09361                     566.64758
                  -19643.04207                     927.77230                    2398.22309
        </DataArray>
        <DataArray type="Float32" Name="Moment" NumberOfComponents="3" format="ascii">
                       0.00000                       0.00000                       0.00000
                       0.00000                       0.00000                       0.00000
                       0.00000                       0.00000                       0.00000
                       0.00000                       0.00000                       0.00000
                      93.45012                    1286.10183                     453.82545
                     164.88203                    2396.71812                     846.56545
                     206.48855                    3202.68957                    1132.50102
                     307.64794                    5122.44109                    1813.38790
                     425.04635                    7598.25026                    2692.67530
                     452.70089                    8617.94351                    3056.69241
                     483.25664                    9616.46696                    3412.83793
                     505.93410                   10214.12917                    3625.61060
                     391.36086                    7706.82874                    2734.74854
                     412.04227                    7576.33606                    2685.97433
                     435.01354                    7166.88640                    2536.72500
                     457.36243                    6708.26222                    2369.85669
                     448.58509                    5917.16376                    2086.29860
                     250.92139                    2953.29063                    1038.83960
                     241.24171                    2676.87326                     940.35963
        </DataArray>
      </PointData>
      <Lines>
        <DataArray type="Int32" Name="connectivity" format="ascii">
      0      1
      1      2
      2      3
      3      4
      4      5
      5      6
      6      7
      7      8
      8      9
      9     10
     10     11
     11     12
     12     13
     13     14
     14     15
     15     16
     16     17
     17     18
        </DataArray>
        <DataArray type="Int32" Name="offsets" format="ascii">
      2
      4
      6
      8
     10
     12
     14
     16
     18
     20
     22
     24
     26
     28
     30
     32
     34
     36
        </DataArray>
      </Lines>
    </Piece>
  </PolyData>
</VTKFile>
