<?xml version="1.0"?>
<VTKFile type="PolyData" version="0.1" byte_order="LittleEndian">
  <PolyData>
    <Piece NumberOfPoints="     22" NumberOfVerts="  0" NumberOfLines="     21"
           NumberOfStrips="  0" NumberOfPolys="      0">
      <Points>
        <DataArray type="Float32" NumberOfComponents="3" format="ascii">
                       0.00009                       0.00000                       2.19000
                       0.00092                       0.00001                       6.57000
                       0.00274                       0.00004                      10.95000
                       0.00563                       0.00007                      15.33000
                       0.00959                       0.00011                      19.71000
                       0.01460                       0.00015                      24.08999
                       0.02061                       0.00020                      28.46999
                       0.02757                       0.00025                      32.84998
                       0.03545                       0.00031                      37.22998
                       0.04423                       0.00036                      41.60997
                       0.05392                       0.00041                      45.98996
                       0.06456                       0.00046                      50.36994
                       0.07619                       0.00050                      54.74993
                       0.08885                       0.00053                      59.12991
                       0.10254                       0.00056                      63.50989
                       0.11723                       0.00057                      67.88986
                       0.13281                       0.00057                      72.26984
                       0.14906                       0.00057                      76.64981
                       0.16559                       0.00055                      81.02978
                       0.18182                       0.00052                      85.40975
                       0.18957                       0.00051                      87.59973
                       0.00000                       0.00000                       0.00000
        </DataArray>
      </Points>
      <PointData>
        <DataArray type="Float32" Name="TranslationalVelocity" NumberOfComponents="3" format="ascii">
                       0.00010                       0.00000                      -0.00000
                       0.00090                       0.00003                      -0.00000
                       0.00251                       0.00007                      -0.00000
                       0.00487                       0.00012                      -0.00000
                       0.00787                       0.00018                      -0.00001
                       0.01134                       0.00024                      -0.00001
                       0.01508                       0.00030                      -0.00001
                       0.01886                       0.00034                      -0.00002
                       0.02246                       0.00037                      -0.00003
                       0.02562                       0.00036                      -0.00003
                       0.02811                       0.00032                      -0.00004
                       0.02973                       0.00023                      -0.00004
                       0.03029                       0.00009                      -0.00004
                       0.02962                      -0.00011                      -0.00004
                       0.02764                      -0.00039                      -0.00004
                       0.02427                      -0.00073                      -0.00002
                       0.01954                      -0.00115                      -0.00001
                       0.01350                      -0.00163                       0.00002
                       0.00630                      -0.00218                       0.00004
                      -0.00182                      -0.00278                       0.00007
                      -0.00614                      -0.00309                       0.00009
                       0.00000                      -0.00000                       0.00000
        </DataArray>
        <DataArray type="Float32" Name="RotationalVelocity" NumberOfComponents="3" format="ascii">
                      -0.00000                       0.00009                       0.00000
                      -0.00001                       0.00028                       0.00000
                      -0.00001                       0.00046                       0.00000
                      -0.00001                       0.00062                       0.00000
                      -0.00001                       0.00075                       0.00000
                      -0.00001                       0.00083                       0.00000
                      -0.00001                       0.00087                       0.00000
                      -0.00001                       0.00085                       0.00000
                      -0.00000                       0.00078                       0.00000
                       0.00001                       0.00065                       0.00000
                       0.00001                       0.00048                       0.00000
                       0.00003                       0.00025                       0.00000
                       0.00004                      -0.00001                       0.00000
                       0.00005                      -0.00030                       0.00000
                       0.00007                      -0.00061                       0.00000
                       0.00009                      -0.00093                       0.00000
                       0.00010                      -0.00123                       0.00000
                       0.00012                      -0.00152                       0.00000
                       0.00013                      -0.00176                       0.00000
                       0.00014                      -0.00194                       0.00000
                       0.00014                      -0.00200                       0.00000
                       0.00000                      -0.00000                       0.00000
        </DataArray>
        <DataArray type="Float32" Name="TranslationalAcceleration" NumberOfComponents="3" format="ascii">
                      -0.00125                      -0.00018                       0.00000
                      -0.01156                      -0.00152                       0.00000
                      -0.03236                      -0.00394                       0.00001
                      -0.06293                      -0.00723                       0.00003
                      -0.10180                      -0.01120                       0.00006
                      -0.14686                      -0.01567                       0.00011
                      -0.19557                      -0.02046                       0.00018
                      -0.24509                      -0.02540                       0.00025
                      -0.29240                      -0.03029                       0.00033
                      -0.33448                      -0.03492                       0.00041
                      -0.36838                      -0.03906                       0.00049
                      -0.39143                      -0.04248                       0.00054
                      -0.40125                      -0.04494                       0.00057
                      -0.39595                      -0.04622                       0.00055
                      -0.37417                      -0.04613                       0.00048
                      -0.33522                      -0.04451                       0.00034
                      -0.27914                      -0.04129                       0.00014
                      -0.20677                      -0.03650                      -0.00014
                      -0.11988                      -0.03026                      -0.00047
                      -0.02117                      -0.02289                      -0.00085
                       0.03148                      -0.01893                      -0.00105
                       0.00000                      -0.00000                       0.00000
        </DataArray>
        <DataArray type="Float32" Name="RotationalAcceleration" NumberOfComponents="3" format="ascii">
                       0.00016                      -0.00115                       0.00000
                       0.00044                      -0.00356                       0.00000
                       0.00066                      -0.00591                       0.00000
                       0.00084                      -0.00800                       0.00000
                       0.00097                      -0.00967                       0.00000
                       0.00106                      -0.01081                       0.00000
                       0.00112                      -0.01133                       0.00000
                       0.00113                      -0.01117                       0.00000
                       0.00109                      -0.01032                       0.00000
                       0.00101                      -0.00878                       0.00000
                       0.00087                      -0.00660                       0.00000
                       0.00068                      -0.00383                       0.00000
                       0.00044                      -0.00058                       0.00000
                       0.00014                       0.00305                       0.00000
                      -0.00019                       0.00692                       0.00000
                      -0.00055                       0.01087                       0.00000
                      -0.00092                       0.01471                       0.00000
                      -0.00127                       0.01826                       0.00000
                      -0.00157                       0.02131                       0.00000
                      -0.00178                       0.02362                       0.00000
                      -0.00183                       0.02443                       0.00000
                       0.00000                      -0.00000                       0.00000
        </DataArray>
        <DataArray type="Float32" Name="OrientationX" NumberOfComponents="3" format="ascii">
                       1.00000                      -0.00000                      -0.00009
                       1.00000                      -0.00000                      -0.00030
                       1.00000                      -0.00000                      -0.00054
                       1.00000                      -0.00000                      -0.00078
                       1.00000                      -0.00000                      -0.00103
                       1.00000                      -0.00000                      -0.00126
                       1.00000                      -0.00000                      -0.00148
                       1.00000                      -0.00000                      -0.00169
                       1.00000                      -0.00000                      -0.00190
                       1.00000                      -0.00000                      -0.00211
                       1.00000                      -0.00000                      -0.00232
                       1.00000                      -0.00000                      -0.00254
                       1.00000                      -0.00000                      -0.00277
                       1.00000                      -0.00000                      -0.00301
                       0.99999                      -0.00000                      -0.00324
                       0.99999                      -0.00000                      -0.00346
                       0.99999                       0.00000                      -0.00364
                       0.99999                       0.00000                      -0.00376
                       0.99999                       0.00000                      -0.00377
                       0.99999                       0.00000                      -0.00361
                       0.99999                       0.00000                      -0.00346
                       1.00000                      -0.00000                       0.00000
        </DataArray>
        <DataArray type="Float32" Name="OrientationY" NumberOfComponents="3" format="ascii">
                      -0.00000                       1.00000                      -0.00000
                      -0.00000                       1.00000                      -0.00000
                      -0.00000                       1.00000                      -0.00001
                      -0.00000                       1.00000                      -0.00001
                      -0.00000                       1.00000                      -0.00001
                      -0.00000                       1.00000                      -0.00001
                      -0.00000                       1.00000                      -0.00001
                      -0.00000                       1.00000                      -0.00001
                      -0.00000                       1.00000                      -0.00001
                      -0.00000                       1.00000                      -0.00001
                      -0.00000                       1.00000                      -0.00001
                      -0.00000                       1.00000                      -0.00001
                      -0.00000                       1.00000                      -0.00001
                      -0.00000                       1.00000                      -0.00001
                      -0.00000                       1.00000                      -0.00000
                      -0.00000                       1.00000                      -0.00000
                       0.00000                       1.00000                       0.00000
                       0.00000                       1.00000                       0.00000
                       0.00000                       1.00000                       0.00001
                       0.00000                       1.00000                       0.00001
                       0.00000                       1.00000                       0.00001
                      -0.00000                       1.00000                      -0.00000
        </DataArray>
        <DataArray type="Float32" Name="OrientationZ" NumberOfComponents="3" format="ascii">
                       0.00009                       0.00000                       1.00000
                       0.00030                       0.00000                       1.00000
                       0.00054                       0.00001                       1.00000
                       0.00078                       0.00001                       1.00000
                       0.00103                       0.00001                       1.00000
                       0.00126                       0.00001                       1.00000
                       0.00148                       0.00001                       1.00000
                       0.00169                       0.00001                       1.00000
                       0.00190                       0.00001                       1.00000
                       0.00211                       0.00001                       1.00000
                       0.00232                       0.00001                       1.00000
                       0.00254                       0.00001                       1.00000
                       0.00277                       0.00001                       1.00000
                       0.00301                       0.00001                       1.00000
                       0.00324                       0.00000                       0.99999
                       0.00346                       0.00000                       0.99999
                       0.00364                      -0.00000                       0.99999
                       0.00376                      -0.00000                       0.99999
                       0.00377                      -0.00001                       0.99999
                       0.00361                      -0.00001                       0.99999
                       0.00346                      -0.00001                       0.99999
                       0.00000                      -0.00000                       1.00000
        </DataArray>
      </PointData>
      <Lines>
        <DataArray type="Int32" Name="connectivity" format="ascii">
      0      1
      1      2
      2      3
      3      4
      4      5
      5      6
      6      7
      7      8
      8      9
      9     10
     10     11
     11     12
     12     13
     13     14
     14     15
     15     16
     16     17
     17     18
     18     19
     19     20
     21      0
        </DataArray>
        <DataArray type="Int32" Name="offsets" format="ascii">
      2
      4
      6
      8
     10
     12
     14
     16
     18
     20
     22
     24
     26
     28
     30
     32
     34
     36
     38
     40
     42
        </DataArray>
      </Lines>
    </Piece>
  </PolyData>
</VTKFile>
