<?xml version="1.0"?>
<VTKFile type="PolyData" version="0.1" byte_order="LittleEndian">
  <PolyData>
    <Piece NumberOfPoints="    625" NumberOfVerts="  0" NumberOfLines="      0"
           NumberOfStrips="  0" NumberOfPolys="    600">
      <Points>
        <DataArray type="Float32" NumberOfComponents="3" format="ascii">
                      -4.62044                       1.37335                      89.45354
                      -4.62044                       1.37335                      89.45354
                      -4.62044                       1.37335                      89.45354
                      -4.62044                       1.37335                      89.45354
                      -4.62044                       1.37335                      89.45354
                      -4.62044                       1.37335                      89.45354
                      -4.62044                       1.37335                      89.45354
                      -4.62044                       1.37335                      89.45354
                      -4.62044                       1.37335                      89.45354
                      -4.62044                       1.37335                      89.45354
                      -4.62044                       1.37335                      89.45354
                      -4.62044                       1.37335                      89.45354
                      -4.62044                       1.37335                      89.45354
                      -4.62044                       1.37335                      89.45354
                      -4.62044                       1.37335                      89.45354
                      -4.62044                       1.37335                      89.45354
                      -4.62044                       1.37335                      89.45354
                      -4.62044                       1.37335                      89.45354
                      -4.62044                       1.37335                      89.45354
                      -4.62044                       1.37335                      89.45354
                      -4.62044                       1.37335                      89.45354
                      -4.62044                       1.37335                      89.45354
                      -4.62044                       1.37335                      89.45354
                      -4.62044                       1.37335                      89.45354
                      -4.62044                       1.37335                      89.45354
                      -4.01902                       1.25832                      89.44530
                      -4.02474                       1.31665                      89.58367
                      -4.06760                       1.37131                      89.71692
                      -4.14491                       1.41887                      89.83669
                      -4.25180                       1.45635                      89.93543
                      -4.38157                       1.48138                      90.00696
                      -4.52605                       1.49239                      90.04677
                      -4.67617                       1.48870                      90.05236
                      -4.82249                       1.47053                      90.02339
                      -4.95583                       1.43902                      89.96167
                      -5.06780                       1.39617                      89.87109
                      -5.15137                       1.34465                      89.75732
                      -5.20129                       1.28770                      89.62753
                      -5.21442                       1.22891                      89.48986
                      -5.18994                       1.17197                      89.35297
                      -5.12938                       1.12045                      89.22546
                      -5.03655                       1.07760                      89.11534
                      -4.91728                       1.04610                      89.02952
                      -4.77907                       1.02793                      88.97341
                      -4.63060                       1.02424                      88.95053
                      -4.48120                       1.03526                      88.96231
                      -4.34025                       1.06029                      89.00802
                      -4.21662                       1.09777                      89.08478
                      -4.11807                       1.14533                      89.18776
                      -4.05080                       1.20000                      89.31051
                      -3.78574                       1.14329                      89.47218
                      -3.79365                       1.22396                      89.66356
                      -3.85293                       1.29957                      89.84787
                      -3.95986                       1.36535                      90.01351
                      -4.10770                       1.41718                      90.15009
                      -4.28718                       1.45180                      90.24902
                      -4.48702                       1.46704                      90.30408
                      -4.69465                       1.46193                      90.31182
                      -4.89704                       1.43680                      90.27175
                      -5.08146                       1.39322                      90.18638
                      -5.23634                       1.33395                      90.06109
                      -5.35193                       1.26269                      89.90374
                      -5.42097                       1.18393                      89.72422
                      -5.43913                       1.10261                      89.53381
                      -5.40526                       1.02385                      89.34447
                      -5.32150                       0.95260                      89.16811
                      -5.19311                       0.89332                      89.01579
                      -5.02814                       0.84975                      88.89710
                      -4.83698                       0.82463                      88.81950
                      -4.63162                       0.81953                      88.78784
                      -4.42498                       0.83477                      88.80414
                      -4.23004                       0.86939                      88.86736
                      -4.05904                       0.92122                      88.97352
                      -3.92274                       0.98701                      89.11597
                      -3.82969                       1.06262                      89.28574
                      -3.61883                       1.02826                      89.50539
                      -3.62830                       1.12479                      89.73439
                      -3.69923                       1.21526                      89.95493
                      -3.82718                       1.29397                      90.15314
                      -4.00409                       1.35599                      90.31656
                      -4.21885                       1.39742                      90.43494
                      -4.45797                       1.41565                      90.50083
                      -4.70642                       1.40953                      90.51009
                      -4.94860                       1.37946                      90.46214
                      -5.16928                       1.32732                      90.35999
                      -5.35459                       1.25639                      90.21007
                      -5.49291                       1.17112                      90.02178
                      -5.57552                       1.07688                      89.80697
                      -5.59725                       0.97958                      89.57913
                      -5.55673                       0.88534                      89.35257
                      -5.45650                       0.80007                      89.14154
                      -5.30287                       0.72915                      88.95928
                      -5.10547                       0.67701                      88.81726
                      -4.87673                       0.64695                      88.72439
                      -4.63100                       0.64084                      88.68652
                      -4.38374                       0.65908                      88.70602
                      -4.15047                       0.70051                      88.78166
                      -3.94586                       0.76254                      88.90870
                      -3.78276                       0.84125                      89.07915
                      -3.67142                       0.93172                      89.28230
                      -3.48887                       0.91322                      89.54212
                      -3.49955                       1.02200                      89.80018
                      -3.57948                       1.12395                      90.04869
                      -3.72366                       1.21265                      90.27205
                      -3.92301                       1.28254                      90.45621
                      -4.16502                       1.32922                      90.58961
                      -4.43448                       1.34976                      90.66385
                      -4.71445                       1.34287                      90.67429
                      -4.98735                       1.30898                      90.62026
                      -5.23603                       1.25023                      90.50515
                      -5.44486                       1.17030                      90.33620
                      -5.60072                       1.07422                      90.12403
                      -5.69382                       0.96801                      89.88197
                      -5.71831                       0.85837                      89.62522
                      -5.67264                       0.75217                      89.36992
                      -5.55970                       0.65609                      89.13210
                      -5.38657                       0.57616                      88.92673
                      -5.16413                       0.51742                      88.76669
                      -4.90637                       0.48354                      88.66204
                      -4.62947                       0.47666                      88.61936
                      -4.35083                       0.49721                      88.64133
                      -4.08797                       0.54389                      88.72657
                      -3.85740                       0.61379                      88.86973
                      -3.67360                       0.70249                      89.06180
                      -3.54814                       0.80444                      89.29073
                      -3.38437                       0.79819                      89.58128
                      -3.39600                       0.91673                      89.86249
                      -3.48310                       1.02782                      90.13330
                      -3.64022                       1.12448                      90.37670
                      -3.85746                       1.20064                      90.57739
                      -4.12118                       1.25151                      90.72275
                      -4.41482                       1.27389                      90.80366
                      -4.71991                       1.26639                      90.81503
                      -5.01730                       1.22946                      90.75615
                      -5.28829                       1.16543                      90.63072
                      -5.51585                       1.07833                      90.44661
                      -5.68570                       0.97363                      90.21540
                      -5.78715                       0.85790                      89.95162
                      -5.81384                       0.73841                      89.67183
                      -5.76408                       0.62268                      89.39362
                      -5.64100                       0.51798                      89.13447
                      -5.45233                       0.43089                      88.91067
                      -5.20994                       0.36687                      88.73627
                      -4.92904                       0.32995                      88.62223
                      -4.62730                       0.32245                      88.57572
                      -4.32367                       0.34484                      88.59967
                      -4.03722                       0.39572                      88.69256
                      -3.78596                       0.47189                      88.84856
                      -3.58567                       0.56855                      89.05787
                      -3.44895                       0.67965                      89.30733
                      -3.29940                       0.68315                      89.62230
                      -3.31180                       0.80954                      89.92214
                      -3.40467                       0.92799                      90.21089
                      -3.57219                       1.03106                      90.47040
                      -3.80382                       1.11226                      90.68438
                      -4.08501                       1.16650                      90.83937
                      -4.39809                       1.19036                      90.92564
                      -4.72339                       1.18236                      90.93776
                      -5.04047                       1.14299                      90.87498
                      -5.32941                       1.07472                      90.74124
                      -5.57205                       0.98185                      90.54494
                      -5.75314                       0.87021                      90.29842
                      -5.86131                       0.74681                      90.01717
                      -5.88977                       0.61942                      89.71885
                      -5.83671                       0.49603                      89.42222
                      -5.70548                       0.38439                      89.14591
                      -5.50432                       0.29152                      88.90728
                      -5.24587                       0.22327                      88.72133
                      -4.94638                       0.18390                      88.59974
                      -4.62465                       0.17591                      88.55015
                      -4.30090                       0.19978                      88.57568
                      -3.99549                       0.25403                      88.67472
                      -3.72759                       0.33524                      88.84105
                      -3.51404                       0.43831                      89.06422
                      -3.36825                       0.55676                      89.33021
                      -3.23049                       0.56812                      89.66485
                      -3.24351                       0.70079                      89.97959
                      -3.34100                       0.82512                      90.28269
                      -3.51684                       0.93331                      90.55510
                      -3.75998                       1.01854                      90.77971
                      -4.05514                       1.07548                      90.94240
                      -4.38378                       1.10053                      91.03296
                      -4.72525                       1.09213                      91.04569
                      -5.05808                       1.05080                      90.97979
                      -5.36138                       0.97914                      90.83940
                      -5.61608                       0.88166                      90.63335
                      -5.80617                       0.76447                      90.37457
                      -5.91972                       0.63494                      90.07934
                      -5.94958                       0.50122                      89.76620
                      -5.89389                       0.37169                      89.45483
                      -5.75614                       0.25451                      89.16479
                      -5.54498                       0.15703                      88.91430
                      -5.27369                       0.08538                      88.71911
                      -4.95931                       0.04406                      88.59148
                      -4.62160                       0.03567                      88.53943
                      -4.28177                       0.06073                      88.56623
                      -3.96117                       0.11767                      88.67019
                      -3.67996                       0.20292                      88.84479
                      -3.45580                       0.31111                      89.07905
                      -3.30277                       0.43544                      89.35825
                      -3.17545                       0.45308                      89.70873
                      -3.18895                       0.59068                      90.03515
                      -3.29006                       0.71963                      90.34950
                      -3.47243                       0.83183                      90.63203
                      -3.72460                       0.92023                      90.86498
                      -4.03072                       0.97928                      91.03371
                      -4.37156                       1.00526                      91.12763
                      -4.72570                       0.99655                      91.14083
                      -5.07089                       0.95369                      91.07248
                      -5.38545                       0.87937                      90.92688
                      -5.64960                       0.77826                      90.71318
                      -5.84675                       0.65672                      90.44480
                      -5.96451                       0.52239                      90.13861
                      -5.99549                       0.38370                      89.81384
                      -5.93773                       0.24936                      89.49091
                      -5.79486                       0.12783                      89.19010
                      -5.57587                       0.02673                      88.93031
                      -5.29451                      -0.04758                      88.72788
                      -4.96846                      -0.09043                      88.59551
                      -4.61820                      -0.09914                      88.54152
                      -4.26575                      -0.07314                      88.56932
                      -3.93326                      -0.01409                      88.67714
                      -3.64160                       0.07432                      88.85822
                      -3.40912                       0.18653                      89.10117
                      -3.25041                       0.31548                      89.39074
                      -3.13283                       0.33805                      89.75379
                      -3.14669                       0.47936                      90.08902
                      -3.25053                       0.61178                      90.41185
                      -3.43782                       0.72701                      90.70200
                      -3.69679                       0.81780                      90.94123
                      -4.01116                       0.87844                      91.11452
                      -4.36120                       0.90512                      91.21097
                      -4.72490                       0.89618                      91.22453
                      -5.07941                       0.85216                      91.15433
                      -5.40245                       0.77583                      91.00481
                      -5.67373                       0.67200                      90.78534
                      -5.87620                       0.54718                      90.50972
                      -5.99713                       0.40922                      90.19527
                      -6.02894                       0.26679                      89.86174
                      -5.96963                       0.12883                      89.53009
                      -5.82291                       0.00402                      89.22117
                      -5.59800                      -0.09981                      88.95437
                      -5.30905                      -0.17612                      88.74647
                      -4.97420                      -0.22013                      88.61053
                      -4.61450                      -0.22907                      88.55509
                      -4.25254                      -0.20238                      88.58364
                      -3.91108                      -0.14173                      88.69437
                      -3.61155                      -0.05093                      88.88033
                      -3.37280                       0.06430                      89.12984
                      -3.20981                       0.19674                      89.42722
                      -3.10165                       0.22301                      89.79994
                      -3.11577                       0.36691                      90.14132
                      -3.22151                       0.50177                      90.47008
                      -3.41224                       0.61911                      90.76555
                      -3.67596                       0.71157                      91.00917
                      -3.99611                       0.77332                      91.18564
                      -4.35257                       0.80049                      91.28386
                      -4.72294                       0.79138                      91.29767
                      -5.08395                       0.74655                      91.22619
                      -5.41292                       0.66883                      91.07392
                      -5.68918                       0.56309                      90.85042
                      -5.89536                       0.43598                      90.56974
                      -6.01852                       0.29549                      90.24952
                      -6.05091                       0.15045                      89.90987
                      -5.99051                       0.00996                      89.57214
                      -5.84109                      -0.11715                      89.25755
                      -5.61206                      -0.22288                      88.98586
                      -5.31781                      -0.30059                      88.77414
                      -4.97682                      -0.34541                      88.63571
                      -4.61051                      -0.35451                      88.57925
                      -4.24191                      -0.32733                      88.60832
                      -3.89418                      -0.26557                      88.72108
                      -3.58916                      -0.17311                      88.91046
                      -3.34602                      -0.05576                      89.16455
                      -3.18004                       0.07911                      89.46739
                      -3.08131                       0.10797                      89.84713
                      -3.09558                       0.25341                      90.19215
                      -3.20245                       0.38971                      90.52441
                      -3.39521                       0.50830                      90.82303
                      -3.66174                       0.60174                      91.06925
                      -3.98530                       0.66415                      91.24760
                      -4.34556                       0.69161                      91.34686
                      -4.71988                       0.68240                      91.36082
                      -5.08474                       0.63710                      91.28857
                      -5.41722                       0.55854                      91.13468
                      -5.69642                       0.45168                      90.90880
                      -5.90480                       0.32322                      90.62513
                      -6.02927                       0.18123                      90.30150
                      -6.06201                       0.03464                      89.95823
                      -6.00096                      -0.10735                      89.61690
                      -5.84995                      -0.23581                      89.29895
                      -5.61848                      -0.34267                      89.02437
                      -5.32109                      -0.42121                      88.81040
                      -4.97646                      -0.46650                      88.67049
                      -4.60626                      -0.47570                      88.61343
                      -4.23373                      -0.44823                      88.64280
                      -3.88229                      -0.38581                      88.75677
                      -3.57402                      -0.29236                      88.94816
                      -3.32829                      -0.17376                      89.20496
                      -3.16054                      -0.03746                      89.51103
                      -3.07147                      -0.00706                      89.89532
                      -3.08579                       0.13888                      90.24154
                      -3.19304                       0.27565                      90.57496
                      -3.38647                       0.39466                      90.87462
                      -3.65393                       0.48842                      91.12170
                      -3.97862                       0.55105                      91.30067
                      -4.34013                       0.57861                      91.40029
                      -4.71576                       0.56937                      91.41429
                      -5.08189                       0.52391                      91.34179
                      -5.41553                       0.44508                      91.18736
                      -5.69570                       0.33784                      90.96070
                      -5.90481                       0.20893                      90.67604
                      -6.02972                       0.06645                      90.35127
                      -6.06257                      -0.08066                      90.00681
                      -6.00131                      -0.22314                      89.66428
                      -5.84978                      -0.35204                      89.34523
                      -5.61750                      -0.45928                      89.06968
                      -5.31907                      -0.53809                      88.85497
                      -4.97324                      -0.58355                      88.71457
                      -4.60174                      -0.59278                      88.65731
                      -4.22791                      -0.56521                      88.68679
                      -3.87525                      -0.50257                      88.80115
                      -3.56590                      -0.40880                      88.99321
                      -3.31932                      -0.28978                      89.25091
                      -3.15098                      -0.15301                      89.55804
                      -3.07202                      -0.12210                      89.94450
                      -3.08629                       0.02334                      90.28952
                      -3.19316                       0.15963                      90.62178
                      -3.38592                       0.27823                      90.92040
                      -3.65245                       0.37166                      91.16661
                      -3.97601                       0.43408                      91.34496
                      -4.33627                       0.46154                      91.44423
                      -4.71059                       0.45233                      91.45818
                      -5.07545                       0.40702                      91.38594
                      -5.40793                       0.32847                      91.23205
                      -5.68713                       0.22161                      91.00617
                      -5.89551                       0.09314                      90.72250
                      -6.01998                      -0.04884                      90.39886
                      -6.05272                      -0.19544                      90.05560
                      -5.99167                      -0.33742                      89.71427
                      -5.84066                      -0.46588                      89.39632
                      -5.60919                      -0.57274                      89.12173
                      -5.31180                      -0.65128                      88.90776
                      -4.96717                      -0.69658                      88.76785
                      -4.59697                      -0.70578                      88.71079
                      -4.22444                      -0.67830                      88.74017
                      -3.87300                      -0.61588                      88.85414
                      -3.56473                      -0.52244                      89.04553
                      -3.31900                      -0.40384                      89.30233
                      -3.15125                      -0.26754                      89.60839
                      -3.08307                      -0.23714                      89.99468
                      -3.09719                      -0.09323                      90.33606
                      -3.20293                       0.04163                      90.66481
                      -3.39366                       0.15897                      90.96028
                      -3.65738                       0.25142                      91.20391
                      -3.97753                       0.31317                      91.38037
                      -4.33399                       0.34035                      91.47859
                      -4.70436                       0.33124                      91.49240
                      -5.06537                       0.28641                      91.42092
                      -5.39434                       0.20868                      91.26865
                      -5.67060                       0.10295                      91.04515
                      -5.87678                      -0.02416                      90.76448
                      -5.99994                      -0.16465                      90.44425
                      -6.03233                      -0.30970                      90.10461
                      -5.97193                      -0.45019                      89.76687
                      -5.82251                      -0.57729                      89.45228
                      -5.59348                      -0.68302                      89.18059
                      -5.29923                      -0.76074                      88.96888
                      -4.95824                      -0.80556                      88.83044
                      -4.59193                      -0.81466                      88.77398
                      -4.22333                      -0.78747                      88.80305
                      -3.87560                      -0.72571                      88.91581
                      -3.57058                      -0.63325                      89.10519
                      -3.32744                      -0.51590                      89.35928
                      -3.16146                      -0.38104                      89.66212
                      -3.10496                      -0.35217                      90.04589
                      -3.11882                      -0.21086                      90.38112
                      -3.22266                      -0.07843                      90.70395
                      -3.40995                       0.03679                      90.99410
                      -3.66892                       0.12758                      91.23333
                      -3.98329                       0.18822                      91.40662
                      -4.33333                       0.21491                      91.50307
                      -4.69703                       0.20596                      91.51663
                      -5.05154                       0.16194                      91.44643
                      -5.37458                       0.08561                      91.29691
                      -5.64586                      -0.01822                      91.07744
                      -5.84833                      -0.14304                      90.80182
                      -5.96926                      -0.28100                      90.48737
                      -6.00107                      -0.42343                      90.15384
                      -5.94176                      -0.56139                      89.82219
                      -5.79504                      -0.68620                      89.51327
                      -5.57013                      -0.79003                      89.24647
                      -5.28118                      -0.86634                      89.03857
                      -4.94633                      -0.91035                      88.90263
                      -4.58663                      -0.91929                      88.84719
                      -4.22467                      -0.89259                      88.87574
                      -3.88321                      -0.83194                      88.98647
                      -3.58368                      -0.74115                      89.17243
                      -3.34493                      -0.62592                      89.42194
                      -3.18194                      -0.49348                      89.71933
                      -3.13829                      -0.46721                      90.09820
                      -3.15179                      -0.32961                      90.42462
                      -3.25290                      -0.20066                      90.73897
                      -3.43527                      -0.08846                      91.02149
                      -3.68744                      -0.00006                      91.25444
                      -3.99356                       0.05899                      91.42318
                      -4.33440                       0.08497                      91.51709
                      -4.68854                       0.07626                      91.53029
                      -5.03373                       0.03339                      91.46195
                      -5.34829                      -0.04092                      91.31635
                      -5.61244                      -0.14203                      91.10264
                      -5.80959                      -0.26357                      90.83427
                      -5.92735                      -0.39790                      90.52807
                      -5.95833                      -0.53659                      90.20331
                      -5.90057                      -0.67093                      89.88038
                      -5.75770                      -0.79246                      89.57957
                      -5.53871                      -0.89356                      89.31978
                      -5.25735                      -0.96787                      89.11734
                      -4.93130                      -1.01072                      88.98497
                      -4.58104                      -1.01943                      88.93099
                      -4.22859                      -0.99343                      88.95878
                      -3.89610                      -0.93438                      89.06661
                      -3.60444                      -0.84597                      89.24768
                      -3.37196                      -0.73376                      89.49064
                      -3.21325                      -0.60481                      89.78021
                      -3.18404                      -0.58225                      90.15169
                      -3.19706                      -0.44957                      90.46642
                      -3.29455                      -0.32524                      90.76952
                      -3.47039                      -0.21706                      91.04193
                      -3.71353                      -0.13182                      91.26654
                      -4.00869                      -0.07489                      91.42924
                      -4.33733                      -0.04983                      91.51979
                      -4.67880                      -0.05823                      91.53252
                      -5.01163                      -0.09956                      91.46662
                      -5.31493                      -0.17122                      91.32623
                      -5.56963                      -0.26871                      91.12018
                      -5.75972                      -0.38589                      90.86141
                      -5.87327                      -0.51542                      90.56618
                      -5.90313                      -0.64915                      90.25304
                      -5.84744                      -0.77867                      89.94166
                      -5.70969                      -0.89586                      89.65162
                      -5.49853                      -0.99333                      89.40114
                      -5.22724                      -1.06498                      89.20595
                      -4.91286                      -1.10630                      89.07831
                      -4.57515                      -1.11470                      89.02626
                      -4.23532                      -1.08963                      89.05306
                      -3.91472                      -1.03269                      89.15702
                      -3.63351                      -0.94745                      89.33162
                      -3.40935                      -0.83926                      89.56588
                      -3.25632                      -0.71492                      89.84508
                      -3.24366                      -0.69728                      90.20650
                      -3.25606                      -0.57089                      90.50634
                      -3.34893                      -0.45244                      90.79509
                      -3.51645                      -0.34938                      91.05460
                      -3.74808                      -0.26818                      91.26858
                      -4.02927                      -0.21394                      91.42357
                      -4.34235                      -0.19007                      91.50984
                      -4.66765                      -0.19808                      91.52196
                      -4.98473                      -0.23745                      91.45918
                      -5.27367                      -0.30572                      91.32544
                      -5.51631                      -0.39859                      91.12914
                      -5.69740                      -0.51023                      90.88262
                      -5.80557                      -0.63362                      90.60137
                      -5.83403                      -0.76102                      90.30305
                      -5.78097                      -0.88441                      90.00642
                      -5.64974                      -0.99605                      89.73011
                      -5.44858                      -1.08891                      89.49148
                      -5.19013                      -1.15717                      89.30553
                      -4.89064                      -1.19653                      89.18394
                      -4.56891                      -1.20453                      89.13435
                      -4.24516                      -1.18065                      89.15988
                      -3.93975                      -1.12640                      89.25892
                      -3.67185                      -1.04520                      89.42525
                      -3.45830                      -0.94213                      89.64842
                      -3.31251                      -0.82368                      89.91441
                      -3.31934                      -0.81232                      90.26284
                      -3.33097                      -0.69378                      90.54406
                      -3.41807                      -0.58269                      90.81487
                      -3.57519                      -0.48603                      91.05827
                      -3.79243                      -0.40987                      91.25895
                      -4.05615                      -0.35900                      91.40432
                      -4.34979                      -0.33662                      91.48523
                      -4.65488                      -0.34412                      91.49660
                      -4.95227                      -0.38105                      91.43772
                      -5.22326                      -0.44507                      91.31228
                      -5.45082                      -0.53218                      91.12818
                      -5.62067                      -0.63688                      90.89697
                      -5.72212                      -0.75261                      90.63318
                      -5.74881                      -0.87210                      90.35340
                      -5.69905                      -0.98782                      90.07519
                      -5.57597                      -1.09253                      89.81604
                      -5.38730                      -1.17962                      89.59224
                      -5.14491                      -1.24364                      89.41784
                      -4.86401                      -1.28056                      89.30380
                      -4.56227                      -1.28806                      89.25729
                      -4.25864                      -1.26566                      89.28124
                      -3.97219                      -1.21479                      89.37412
                      -3.72093                      -1.13862                      89.53012
                      -3.52064                      -1.04196                      89.73943
                      -3.38392                      -0.93086                      89.98890
                      -3.41455                      -0.92736                      90.32105
                      -3.42523                      -0.81858                      90.57911
                      -3.50516                      -0.71663                      90.82763
                      -3.64934                      -0.62793                      91.05098
                      -3.84869                      -0.55804                      91.23514
                      -4.09070                      -0.51136                      91.36854
                      -4.36016                      -0.49082                      91.44279
                      -4.64013                      -0.49771                      91.45322
                      -4.91303                      -0.53160                      91.39919
                      -5.16171                      -0.59035                      91.28408
                      -5.37054                      -0.67028                      91.11514
                      -5.52640                      -0.76637                      90.90297
                      -5.61950                      -0.87257                      90.66090
                      -5.64399                      -0.98221                      90.40415
                      -5.59832                      -1.08841                      90.14885
                      -5.48538                      -1.18449                      89.91104
                      -5.31225                      -1.26442                      89.70566
                      -5.08981                      -1.32317                      89.54562
                      -4.83205                      -1.35704                      89.44097
                      -4.55515                      -1.36392                      89.39829
                      -4.27651                      -1.34338                      89.42027
                      -4.01365                      -1.29669                      89.50551
                      -3.78308                      -1.22679                      89.64866
                      -3.59928                      -1.13809                      89.84074
                      -3.47382                      -1.03614                      90.06966
                      -3.53522                      -1.04240                      90.38169
                      -3.54469                      -0.94586                      90.61069
                      -3.61562                      -0.85540                      90.83123
                      -3.74357                      -0.77668                      91.02944
                      -3.92048                      -0.71466                      91.19286
                      -4.13524                      -0.67324                      91.31124
                      -4.37436                      -0.65501                      91.37713
                      -4.62281                      -0.66112                      91.38639
                      -4.86499                      -0.69119                      91.33844
                      -5.08567                      -0.74333                      91.23629
                      -5.27098                      -0.81426                      91.08637
                      -5.40930                      -0.89953                      90.89808
                      -5.49191                      -0.99377                      90.68327
                      -5.51364                      -1.09107                      90.45543
                      -5.47312                      -1.18532                      90.22887
                      -5.37289                      -1.27058                      90.01784
                      -5.21926                      -1.34151                      89.83558
                      -5.02186                      -1.39364                      89.69356
                      -4.79312                      -1.42370                      89.60069
                      -4.54739                      -1.42981                      89.56282
                      -4.30013                      -1.41157                      89.58232
                      -4.06686                      -1.37014                      89.65796
                      -3.86225                      -1.30812                      89.78500
                      -3.69915                      -1.22940                      89.95545
                      -3.58781                      -1.13893                      90.15860
                      -3.69284                      -1.15744                      90.44585
                      -3.70075                      -1.07676                      90.63723
                      -3.76003                      -1.00116                      90.82153
                      -3.86696                      -0.93537                      90.98718
                      -4.01480                      -0.88354                      91.12376
                      -4.19428                      -0.84892                      91.22268
                      -4.39412                      -0.83369                      91.27775
                      -4.60175                      -0.83880                      91.28549
                      -4.80414                      -0.86393                      91.24542
                      -4.98856                      -0.90750                      91.16005
                      -5.14344                      -0.96678                      91.03476
                      -5.25903                      -1.03804                      90.87741
                      -5.32807                      -1.11680                      90.69788
                      -5.34623                      -1.19812                      90.50747
                      -5.31236                      -1.27688                      90.31814
                      -5.22860                      -1.34813                      90.14177
                      -5.10021                      -1.40741                      89.98946
                      -4.93524                      -1.45097                      89.87077
                      -4.74408                      -1.47610                      89.79316
                      -4.53872                      -1.48120                      89.76151
                      -4.33208                      -1.46596                      89.77781
                      -4.13714                      -1.43134                      89.84102
                      -3.96614                      -1.37950                      89.94719
                      -3.82984                      -1.31372                      90.08964
                      -3.73679                      -1.23811                      90.25941
                      -3.91683                      -1.27247                      90.51634
                      -3.92255                      -1.21415                      90.65471
                      -3.96541                      -1.15949                      90.78796
                      -4.04272                      -1.11192                      90.90772
                      -4.14961                      -1.07445                      91.00647
                      -4.27937                      -1.04942                      91.07799
                      -4.42386                      -1.03841                      91.11780
                      -4.57398                      -1.04210                      91.12340
                      -4.72030                      -1.06027                      91.09443
                      -4.85364                      -1.09177                      91.03271
                      -4.96561                      -1.13463                      90.94212
                      -5.04918                      -1.18615                      90.82835
                      -5.09910                      -1.24310                      90.69856
                      -5.11223                      -1.30189                      90.56089
                      -5.08775                      -1.35883                      90.42400
                      -5.02719                      -1.41035                      90.29649
                      -4.93436                      -1.45320                      90.18637
                      -4.81509                      -1.48470                      90.10056
                      -4.67688                      -1.50287                      90.04445
                      -4.52841                      -1.50656                      90.02156
                      -4.37901                      -1.49554                      90.03334
                      -4.23806                      -1.47051                      90.07905
                      -4.11443                      -1.43303                      90.15581
                      -4.01588                      -1.38546                      90.25880
                      -3.94861                      -1.33080                      90.38154
                      -4.50896                      -1.38752                      90.62194
                      -4.50896                      -1.38752                      90.62194
                      -4.50896                      -1.38752                      90.62194
                      -4.50896                      -1.38752                      90.62194
                      -4.50896                      -1.38752                      90.62194
                      -4.50896                      -1.38752                      90.62194
                      -4.50896                      -1.38752                      90.62194
                      -4.50896                      -1.38752                      90.62194
                      -4.50896                      -1.38752                      90.62194
                      -4.50896                      -1.38752                      90.62194
                      -4.50896                      -1.38752                      90.62194
                      -4.50896                      -1.38752                      90.62194
                      -4.50896                      -1.38752                      90.62194
                      -4.50896                      -1.38752                      90.62194
                      -4.50896                      -1.38752                      90.62194
                      -4.50896                      -1.38752                      90.62194
                      -4.50896                      -1.38752                      90.62194
                      -4.50896                      -1.38752                      90.62194
                      -4.50896                      -1.38752                      90.62194
                      -4.50896                      -1.38752                      90.62194
                      -4.50896                      -1.38752                      90.62194
                      -4.50896                      -1.38752                      90.62194
                      -4.50896                      -1.38752                      90.62194
                      -4.50896                      -1.38752                      90.62194
                      -4.50896                      -1.38752                      90.62194
        </DataArray>
      </Points>
      <Polys>
        <DataArray type="Int32" Name="connectivity" format="ascii">
      0      1     26     25
      1      2     27     26
      2      3     28     27
      3      4     29     28
      4      5     30     29
      5      6     31     30
      6      7     32     31
      7      8     33     32
      8      9     34     33
      9     10     35     34
     10     11     36     35
     11     12     37     36
     12     13     38     37
     13     14     39     38
     14     15     40     39
     15     16     41     40
     16     17     42     41
     17     18     43     42
     18     19     44     43
     19     20     45     44
     20     21     46     45
     21     22     47     46
     22     23     48     47
     23     24     49     48
     24      0     25     49
     25     26     51     50
     26     27     52     51
     27     28     53     52
     28     29     54     53
     29     30     55     54
     30     31     56     55
     31     32     57     56
     32     33     58     57
     33     34     59     58
     34     35     60     59
     35     36     61     60
     36     37     62     61
     37     38     63     62
     38     39     64     63
     39     40     65     64
     40     41     66     65
     41     42     67     66
     42     43     68     67
     43     44     69     68
     44     45     70     69
     45     46     71     70
     46     47     72     71
     47     48     73     72
     48     49     74     73
     49     25     50     74
     50     51     76     75
     51     52     77     76
     52     53     78     77
     53     54     79     78
     54     55     80     79
     55     56     81     80
     56     57     82     81
     57     58     83     82
     58     59     84     83
     59     60     85     84
     60     61     86     85
     61     62     87     86
     62     63     88     87
     63     64     89     88
     64     65     90     89
     65     66     91     90
     66     67     92     91
     67     68     93     92
     68     69     94     93
     69     70     95     94
     70     71     96     95
     71     72     97     96
     72     73     98     97
     73     74     99     98
     74     50     75     99
     75     76    101    100
     76     77    102    101
     77     78    103    102
     78     79    104    103
     79     80    105    104
     80     81    106    105
     81     82    107    106
     82     83    108    107
     83     84    109    108
     84     85    110    109
     85     86    111    110
     86     87    112    111
     87     88    113    112
     88     89    114    113
     89     90    115    114
     90     91    116    115
     91     92    117    116
     92     93    118    117
     93     94    119    118
     94     95    120    119
     95     96    121    120
     96     97    122    121
     97     98    123    122
     98     99    124    123
     99     75    100    124
    100    101    126    125
    101    102    127    126
    102    103    128    127
    103    104    129    128
    104    105    130    129
    105    106    131    130
    106    107    132    131
    107    108    133    132
    108    109    134    133
    109    110    135    134
    110    111    136    135
    111    112    137    136
    112    113    138    137
    113    114    139    138
    114    115    140    139
    115    116    141    140
    116    117    142    141
    117    118    143    142
    118    119    144    143
    119    120    145    144
    120    121    146    145
    121    122    147    146
    122    123    148    147
    123    124    149    148
    124    100    125    149
    125    126    151    150
    126    127    152    151
    127    128    153    152
    128    129    154    153
    129    130    155    154
    130    131    156    155
    131    132    157    156
    132    133    158    157
    133    134    159    158
    134    135    160    159
    135    136    161    160
    136    137    162    161
    137    138    163    162
    138    139    164    163
    139    140    165    164
    140    141    166    165
    141    142    167    166
    142    143    168    167
    143    144    169    168
    144    145    170    169
    145    146    171    170
    146    147    172    171
    147    148    173    172
    148    149    174    173
    149    125    150    174
    150    151    176    175
    151    152    177    176
    152    153    178    177
    153    154    179    178
    154    155    180    179
    155    156    181    180
    156    157    182    181
    157    158    183    182
    158    159    184    183
    159    160    185    184
    160    161    186    185
    161    162    187    186
    162    163    188    187
    163    164    189    188
    164    165    190    189
    165    166    191    190
    166    167    192    191
    167    168    193    192
    168    169    194    193
    169    170    195    194
    170    171    196    195
    171    172    197    196
    172    173    198    197
    173    174    199    198
    174    150    175    199
    175    176    201    200
    176    177    202    201
    177    178    203    202
    178    179    204    203
    179    180    205    204
    180    181    206    205
    181    182    207    206
    182    183    208    207
    183    184    209    208
    184    185    210    209
    185    186    211    210
    186    187    212    211
    187    188    213    212
    188    189    214    213
    189    190    215    214
    190    191    216    215
    191    192    217    216
    192    193    218    217
    193    194    219    218
    194    195    220    219
    195    196    221    220
    196    197    222    221
    197    198    223    222
    198    199    224    223
    199    175    200    224
    200    201    226    225
    201    202    227    226
    202    203    228    227
    203    204    229    228
    204    205    230    229
    205    206    231    230
    206    207    232    231
    207    208    233    232
    208    209    234    233
    209    210    235    234
    210    211    236    235
    211    212    237    236
    212    213    238    237
    213    214    239    238
    214    215    240    239
    215    216    241    240
    216    217    242    241
    217    218    243    242
    218    219    244    243
    219    220    245    244
    220    221    246    245
    221    222    247    246
    222    223    248    247
    223    224    249    248
    224    200    225    249
    225    226    251    250
    226    227    252    251
    227    228    253    252
    228    229    254    253
    229    230    255    254
    230    231    256    255
    231    232    257    256
    232    233    258    257
    233    234    259    258
    234    235    260    259
    235    236    261    260
    236    237    262    261
    237    238    263    262
    238    239    264    263
    239    240    265    264
    240    241    266    265
    241    242    267    266
    242    243    268    267
    243    244    269    268
    244    245    270    269
    245    246    271    270
    246    247    272    271
    247    248    273    272
    248    249    274    273
    249    225    250    274
    250    251    276    275
    251    252    277    276
    252    253    278    277
    253    254    279    278
    254    255    280    279
    255    256    281    280
    256    257    282    281
    257    258    283    282
    258    259    284    283
    259    260    285    284
    260    261    286    285
    261    262    287    286
    262    263    288    287
    263    264    289    288
    264    265    290    289
    265    266    291    290
    266    267    292    291
    267    268    293    292
    268    269    294    293
    269    270    295    294
    270    271    296    295
    271    272    297    296
    272    273    298    297
    273    274    299    298
    274    250    275    299
    275    276    301    300
    276    277    302    301
    277    278    303    302
    278    279    304    303
    279    280    305    304
    280    281    306    305
    281    282    307    306
    282    283    308    307
    283    284    309    308
    284    285    310    309
    285    286    311    310
    286    287    312    311
    287    288    313    312
    288    289    314    313
    289    290    315    314
    290    291    316    315
    291    292    317    316
    292    293    318    317
    293    294    319    318
    294    295    320    319
    295    296    321    320
    296    297    322    321
    297    298    323    322
    298    299    324    323
    299    275    300    324
    300    301    326    325
    301    302    327    326
    302    303    328    327
    303    304    329    328
    304    305    330    329
    305    306    331    330
    306    307    332    331
    307    308    333    332
    308    309    334    333
    309    310    335    334
    310    311    336    335
    311    312    337    336
    312    313    338    337
    313    314    339    338
    314    315    340    339
    315    316    341    340
    316    317    342    341
    317    318    343    342
    318    319    344    343
    319    320    345    344
    320    321    346    345
    321    322    347    346
    322    323    348    347
    323    324    349    348
    324    300    325    349
    325    326    351    350
    326    327    352    351
    327    328    353    352
    328    329    354    353
    329    330    355    354
    330    331    356    355
    331    332    357    356
    332    333    358    357
    333    334    359    358
    334    335    360    359
    335    336    361    360
    336    337    362    361
    337    338    363    362
    338    339    364    363
    339    340    365    364
    340    341    366    365
    341    342    367    366
    342    343    368    367
    343    344    369    368
    344    345    370    369
    345    346    371    370
    346    347    372    371
    347    348    373    372
    348    349    374    373
    349    325    350    374
    350    351    376    375
    351    352    377    376
    352    353    378    377
    353    354    379    378
    354    355    380    379
    355    356    381    380
    356    357    382    381
    357    358    383    382
    358    359    384    383
    359    360    385    384
    360    361    386    385
    361    362    387    386
    362    363    388    387
    363    364    389    388
    364    365    390    389
    365    366    391    390
    366    367    392    391
    367    368    393    392
    368    369    394    393
    369    370    395    394
    370    371    396    395
    371    372    397    396
    372    373    398    397
    373    374    399    398
    374    350    375    399
    375    376    401    400
    376    377    402    401
    377    378    403    402
    378    379    404    403
    379    380    405    404
    380    381    406    405
    381    382    407    406
    382    383    408    407
    383    384    409    408
    384    385    410    409
    385    386    411    410
    386    387    412    411
    387    388    413    412
    388    389    414    413
    389    390    415    414
    390    391    416    415
    391    392    417    416
    392    393    418    417
    393    394    419    418
    394    395    420    419
    395    396    421    420
    396    397    422    421
    397    398    423    422
    398    399    424    423
    399    375    400    424
    400    401    426    425
    401    402    427    426
    402    403    428    427
    403    404    429    428
    404    405    430    429
    405    406    431    430
    406    407    432    431
    407    408    433    432
    408    409    434    433
    409    410    435    434
    410    411    436    435
    411    412    437    436
    412    413    438    437
    413    414    439    438
    414    415    440    439
    415    416    441    440
    416    417    442    441
    417    418    443    442
    418    419    444    443
    419    420    445    444
    420    421    446    445
    421    422    447    446
    422    423    448    447
    423    424    449    448
    424    400    425    449
    425    426    451    450
    426    427    452    451
    427    428    453    452
    428    429    454    453
    429    430    455    454
    430    431    456    455
    431    432    457    456
    432    433    458    457
    433    434    459    458
    434    435    460    459
    435    436    461    460
    436    437    462    461
    437    438    463    462
    438    439    464    463
    439    440    465    464
    440    441    466    465
    441    442    467    466
    442    443    468    467
    443    444    469    468
    444    445    470    469
    445    446    471    470
    446    447    472    471
    447    448    473    472
    448    449    474    473
    449    425    450    474
    450    451    476    475
    451    452    477    476
    452    453    478    477
    453    454    479    478
    454    455    480    479
    455    456    481    480
    456    457    482    481
    457    458    483    482
    458    459    484    483
    459    460    485    484
    460    461    486    485
    461    462    487    486
    462    463    488    487
    463    464    489    488
    464    465    490    489
    465    466    491    490
    466    467    492    491
    467    468    493    492
    468    469    494    493
    469    470    495    494
    470    471    496    495
    471    472    497    496
    472    473    498    497
    473    474    499    498
    474    450    475    499
    475    476    501    500
    476    477    502    501
    477    478    503    502
    478    479    504    503
    479    480    505    504
    480    481    506    505
    481    482    507    506
    482    483    508    507
    483    484    509    508
    484    485    510    509
    485    486    511    510
    486    487    512    511
    487    488    513    512
    488    489    514    513
    489    490    515    514
    490    491    516    515
    491    492    517    516
    492    493    518    517
    493    494    519    518
    494    495    520    519
    495    496    521    520
    496    497    522    521
    497    498    523    522
    498    499    524    523
    499    475    500    524
    500    501    526    525
    501    502    527    526
    502    503    528    527
    503    504    529    528
    504    505    530    529
    505    506    531    530
    506    507    532    531
    507    508    533    532
    508    509    534    533
    509    510    535    534
    510    511    536    535
    511    512    537    536
    512    513    538    537
    513    514    539    538
    514    515    540    539
    515    516    541    540
    516    517    542    541
    517    518    543    542
    518    519    544    543
    519    520    545    544
    520    521    546    545
    521    522    547    546
    522    523    548    547
    523    524    549    548
    524    500    525    549
    525    526    551    550
    526    527    552    551
    527    528    553    552
    528    529    554    553
    529    530    555    554
    530    531    556    555
    531    532    557    556
    532    533    558    557
    533    534    559    558
    534    535    560    559
    535    536    561    560
    536    537    562    561
    537    538    563    562
    538    539    564    563
    539    540    565    564
    540    541    566    565
    541    542    567    566
    542    543    568    567
    543    544    569    568
    544    545    570    569
    545    546    571    570
    546    547    572    571
    547    548    573    572
    548    549    574    573
    549    525    550    574
    550    551    576    575
    551    552    577    576
    552    553    578    577
    553    554    579    578
    554    555    580    579
    555    556    581    580
    556    557    582    581
    557    558    583    582
    558    559    584    583
    559    560    585    584
    560    561    586    585
    561    562    587    586
    562    563    588    587
    563    564    589    588
    564    565    590    589
    565    566    591    590
    566    567    592    591
    567    568    593    592
    568    569    594    593
    569    570    595    594
    570    571    596    595
    571    572    597    596
    572    573    598    597
    573    574    599    598
    574    550    575    599
    575    576    601    600
    576    577    602    601
    577    578    603    602
    578    579    604    603
    579    580    605    604
    580    581    606    605
    581    582    607    606
    582    583    608    607
    583    584    609    608
    584    585    610    609
    585    586    611    610
    586    587    612    611
    587    588    613    612
    588    589    614    613
    589    590    615    614
    590    591    616    615
    591    592    617    616
    592    593    618    617
    593    594    619    618
    594    595    620    619
    595    596    621    620
    596    597    622    621
    597    598    623    622
    598    599    624    623
    599    575    600    624
        </DataArray>
        <DataArray type="Int32" Name="offsets" format="ascii">
      4
      8
     12
     16
     20
     24
     28
     32
     36
     40
     44
     48
     52
     56
     60
     64
     68
     72
     76
     80
     84
     88
     92
     96
    100
    104
    108
    112
    116
    120
    124
    128
    132
    136
    140
    144
    148
    152
    156
    160
    164
    168
    172
    176
    180
    184
    188
    192
    196
    200
    204
    208
    212
    216
    220
    224
    228
    232
    236
    240
    244
    248
    252
    256
    260
    264
    268
    272
    276
    280
    284
    288
    292
    296
    300
    304
    308
    312
    316
    320
    324
    328
    332
    336
    340
    344
    348
    352
    356
    360
    364
    368
    372
    376
    380
    384
    388
    392
    396
    400
    404
    408
    412
    416
    420
    424
    428
    432
    436
    440
    444
    448
    452
    456
    460
    464
    468
    472
    476
    480
    484
    488
    492
    496
    500
    504
    508
    512
    516
    520
    524
    528
    532
    536
    540
    544
    548
    552
    556
    560
    564
    568
    572
    576
    580
    584
    588
    592
    596
    600
    604
    608
    612
    616
    620
    624
    628
    632
    636
    640
    644
    648
    652
    656
    660
    664
    668
    672
    676
    680
    684
    688
    692
    696
    700
    704
    708
    712
    716
    720
    724
    728
    732
    736
    740
    744
    748
    752
    756
    760
    764
    768
    772
    776
    780
    784
    788
    792
    796
    800
    804
    808
    812
    816
    820
    824
    828
    832
    836
    840
    844
    848
    852
    856
    860
    864
    868
    872
    876
    880
    884
    888
    892
    896
    900
    904
    908
    912
    916
    920
    924
    928
    932
    936
    940
    944
    948
    952
    956
    960
    964
    968
    972
    976
    980
    984
    988
    992
    996
   1000
   1004
   1008
   1012
   1016
   1020
   1024
   1028
   1032
   1036
   1040
   1044
   1048
   1052
   1056
   1060
   1064
   1068
   1072
   1076
   1080
   1084
   1088
   1092
   1096
   1100
   1104
   1108
   1112
   1116
   1120
   1124
   1128
   1132
   1136
   1140
   1144
   1148
   1152
   1156
   1160
   1164
   1168
   1172
   1176
   1180
   1184
   1188
   1192
   1196
   1200
   1204
   1208
   1212
   1216
   1220
   1224
   1228
   1232
   1236
   1240
   1244
   1248
   1252
   1256
   1260
   1264
   1268
   1272
   1276
   1280
   1284
   1288
   1292
   1296
   1300
   1304
   1308
   1312
   1316
   1320
   1324
   1328
   1332
   1336
   1340
   1344
   1348
   1352
   1356
   1360
   1364
   1368
   1372
   1376
   1380
   1384
   1388
   1392
   1396
   1400
   1404
   1408
   1412
   1416
   1420
   1424
   1428
   1432
   1436
   1440
   1444
   1448
   1452
   1456
   1460
   1464
   1468
   1472
   1476
   1480
   1484
   1488
   1492
   1496
   1500
   1504
   1508
   1512
   1516
   1520
   1524
   1528
   1532
   1536
   1540
   1544
   1548
   1552
   1556
   1560
   1564
   1568
   1572
   1576
   1580
   1584
   1588
   1592
   1596
   1600
   1604
   1608
   1612
   1616
   1620
   1624
   1628
   1632
   1636
   1640
   1644
   1648
   1652
   1656
   1660
   1664
   1668
   1672
   1676
   1680
   1684
   1688
   1692
   1696
   1700
   1704
   1708
   1712
   1716
   1720
   1724
   1728
   1732
   1736
   1740
   1744
   1748
   1752
   1756
   1760
   1764
   1768
   1772
   1776
   1780
   1784
   1788
   1792
   1796
   1800
   1804
   1808
   1812
   1816
   1820
   1824
   1828
   1832
   1836
   1840
   1844
   1848
   1852
   1856
   1860
   1864
   1868
   1872
   1876
   1880
   1884
   1888
   1892
   1896
   1900
   1904
   1908
   1912
   1916
   1920
   1924
   1928
   1932
   1936
   1940
   1944
   1948
   1952
   1956
   1960
   1964
   1968
   1972
   1976
   1980
   1984
   1988
   1992
   1996
   2000
   2004
   2008
   2012
   2016
   2020
   2024
   2028
   2032
   2036
   2040
   2044
   2048
   2052
   2056
   2060
   2064
   2068
   2072
   2076
   2080
   2084
   2088
   2092
   2096
   2100
   2104
   2108
   2112
   2116
   2120
   2124
   2128
   2132
   2136
   2140
   2144
   2148
   2152
   2156
   2160
   2164
   2168
   2172
   2176
   2180
   2184
   2188
   2192
   2196
   2200
   2204
   2208
   2212
   2216
   2220
   2224
   2228
   2232
   2236
   2240
   2244
   2248
   2252
   2256
   2260
   2264
   2268
   2272
   2276
   2280
   2284
   2288
   2292
   2296
   2300
   2304
   2308
   2312
   2316
   2320
   2324
   2328
   2332
   2336
   2340
   2344
   2348
   2352
   2356
   2360
   2364
   2368
   2372
   2376
   2380
   2384
   2388
   2392
   2396
   2400
        </DataArray>
      </Polys>
    </Piece>
  </PolyData>
</VTKFile>
