<?xml version="1.0"?>
<VTKFile type="PolyData" version="0.1" byte_order="LittleEndian">
  <PolyData>
    <Piece NumberOfPoints="     22" NumberOfVerts="  0" NumberOfLines="     21"
           NumberOfStrips="  0" NumberOfPolys="      0">
      <Points>
        <DataArray type="Float32" NumberOfComponents="3" format="ascii">
                       0.00020                      -0.00000                       2.19000
                       0.00206                      -0.00003                       6.57000
                       0.00616                      -0.00009                      10.95000
                       0.01271                      -0.00017                      15.32999
                       0.02174                      -0.00027                      19.70998
                       0.03321                      -0.00041                      24.08997
                       0.04704                      -0.00057                      28.46995
                       0.06314                      -0.00077                      32.84992
                       0.08148                      -0.00101                      37.22988
                       0.10207                      -0.00130                      41.60983
                       0.12497                      -0.00164                      45.98977
                       0.15031                      -0.00204                      50.36970
                       0.17819                      -0.00249                      54.74961
                       0.20875                      -0.00301                      59.12950
                       0.24203                      -0.00360                      63.50937
                       0.27796                      -0.00425                      67.88923
                       0.31626                      -0.00496                      72.26906
                       0.35639                      -0.00573                      76.64887
                       0.39738                      -0.00655                      81.02868
                       0.43781                      -0.00742                      85.40850
                       0.45719                      -0.00786                      87.59841
                       0.00000                       0.00000                       0.00000
        </DataArray>
      </Points>
      <PointData>
        <DataArray type="Float32" Name="TranslationalVelocity" NumberOfComponents="3" format="ascii">
                      -0.00002                      -0.00001                       0.00000
                      -0.00021                      -0.00010                       0.00000
                      -0.00067                      -0.00025                       0.00000
                      -0.00141                      -0.00048                       0.00000
                      -0.00247                      -0.00076                       0.00000
                      -0.00386                      -0.00110                       0.00001
                      -0.00559                      -0.00150                       0.00001
                      -0.00767                      -0.00196                       0.00002
                      -0.01014                      -0.00248                       0.00003
                      -0.01301                      -0.00306                       0.00004
                      -0.01634                      -0.00371                       0.00006
                      -0.02016                      -0.00442                       0.00008
                      -0.02452                      -0.00520                       0.00011
                      -0.02946                      -0.00604                       0.00015
                      -0.03499                      -0.00693                       0.00019
                      -0.04111                      -0.00789                       0.00024
                      -0.04779                      -0.00889                       0.00030
                      -0.05491                      -0.00993                       0.00036
                      -0.06232                      -0.01101                       0.00043
                      -0.06975                      -0.01211                       0.00050
                      -0.07337                      -0.01267                       0.00053
                       0.00000                      -0.00000                       0.00000
        </DataArray>
        <DataArray type="Float32" Name="RotationalVelocity" NumberOfComponents="3" format="ascii">
                       0.00001                      -0.00002                       0.00000
                       0.00003                      -0.00007                       0.00000
                       0.00004                      -0.00014                       0.00000
                       0.00006                      -0.00021                       0.00000
                       0.00007                      -0.00028                       0.00000
                       0.00008                      -0.00036                       0.00000
                       0.00010                      -0.00043                       0.00000
                       0.00011                      -0.00052                       0.00000
                       0.00013                      -0.00061                       0.00000
                       0.00014                      -0.00071                       0.00000
                       0.00016                      -0.00081                       0.00000
                       0.00017                      -0.00093                       0.00000
                       0.00018                      -0.00106                       0.00000
                       0.00020                      -0.00119                       0.00000
                       0.00021                      -0.00133                       0.00000
                       0.00022                      -0.00146                       0.00000
                       0.00023                      -0.00158                       0.00000
                       0.00024                      -0.00167                       0.00000
                       0.00025                      -0.00171                       0.00000
                       0.00025                      -0.00167                       0.00000
                       0.00026                      -0.00162                       0.00000
                       0.00000                      -0.00000                       0.00000
        </DataArray>
        <DataArray type="Float32" Name="TranslationalAcceleration" NumberOfComponents="3" format="ascii">
                       0.00036                      -0.00002                      -0.00000
                       0.00337                      -0.00013                      -0.00000
                       0.00951                      -0.00033                      -0.00001
                       0.01861                      -0.00060                      -0.00002
                       0.03029                      -0.00092                      -0.00005
                       0.04399                      -0.00126                      -0.00008
                       0.05904                      -0.00162                      -0.00013
                       0.07467                      -0.00196                      -0.00019
                       0.09008                      -0.00226                      -0.00026
                       0.10447                      -0.00251                      -0.00032
                       0.11710                      -0.00266                      -0.00039
                       0.12726                      -0.00270                      -0.00045
                       0.13436                      -0.00260                      -0.00050
                       0.13791                      -0.00233                      -0.00053
                       0.13757                      -0.00187                      -0.00054
                       0.13315                      -0.00121                      -0.00051
                       0.12460                      -0.00034                      -0.00044
                       0.11207                       0.00074                      -0.00034
                       0.09586                       0.00200                      -0.00020
                       0.07645                       0.00340                      -0.00004
                       0.06575                       0.00414                       0.00005
                       0.00000                      -0.00000                       0.00000
        </DataArray>
        <DataArray type="Float32" Name="RotationalAcceleration" NumberOfComponents="3" format="ascii">
                       0.00001                       0.00033                       0.00000
                       0.00004                       0.00104                       0.00000
                       0.00005                       0.00175                       0.00000
                       0.00007                       0.00239                       0.00000
                       0.00008                       0.00292                       0.00000
                       0.00008                       0.00331                       0.00000
                       0.00008                       0.00353                       0.00000
                       0.00007                       0.00357                       0.00000
                       0.00006                       0.00343                       0.00000
                       0.00005                       0.00311                       0.00000
                       0.00002                       0.00263                       0.00000
                      -0.00001                       0.00199                       0.00000
                      -0.00004                       0.00123                       0.00000
                      -0.00008                       0.00038                       0.00000
                      -0.00013                      -0.00054                       0.00000
                      -0.00017                      -0.00148                       0.00000
                      -0.00022                      -0.00241                       0.00000
                      -0.00027                      -0.00330                       0.00000
                      -0.00031                      -0.00409                       0.00000
                      -0.00033                      -0.00475                       0.00000
                      -0.00034                      -0.00502                       0.00000
                       0.00000                      -0.00000                       0.00000
        </DataArray>
        <DataArray type="Float32" Name="OrientationX" NumberOfComponents="3" format="ascii">
                       1.00000                       0.00000                      -0.00019
                       1.00000                       0.00000                      -0.00067
                       1.00000                       0.00000                      -0.00121
                       1.00000                       0.00000                      -0.00178
                       1.00000                       0.00000                      -0.00234
                       1.00000                       0.00000                      -0.00289
                       0.99999                       0.00000                      -0.00342
                       0.99999                       0.00000                      -0.00393
                       0.99999                       0.00000                      -0.00444
                       0.99999                       0.00000                      -0.00496
                       0.99998                       0.00000                      -0.00550
                       0.99998                       0.00000                      -0.00607
                       0.99998                       0.00000                      -0.00667
                       0.99997                       0.00000                      -0.00729
                       0.99997                       0.00000                      -0.00791
                       0.99996                       0.00000                      -0.00849
                       0.99996                       0.00000                      -0.00898
                       0.99996                       0.00000                      -0.00930
                       0.99996                       0.00000                      -0.00936
                       0.99996                       0.00000                      -0.00902
                       0.99996                       0.00000                      -0.00865
                       1.00000                      -0.00000                       0.00000
        </DataArray>
        <DataArray type="Float32" Name="OrientationY" NumberOfComponents="3" format="ascii">
                       0.00000                       1.00000                       0.00000
                       0.00000                       1.00000                       0.00001
                       0.00000                       1.00000                       0.00002
                       0.00000                       1.00000                       0.00002
                       0.00000                       1.00000                       0.00003
                       0.00000                       1.00000                       0.00003
                       0.00000                       1.00000                       0.00004
                       0.00000                       1.00000                       0.00005
                       0.00000                       1.00000                       0.00006
                       0.00000                       1.00000                       0.00007
                       0.00000                       1.00000                       0.00008
                       0.00000                       1.00000                       0.00010
                       0.00000                       1.00000                       0.00011
                       0.00000                       1.00000                       0.00013
                       0.00000                       1.00000                       0.00014
                       0.00000                       1.00000                       0.00016
                       0.00000                       1.00000                       0.00017
                       0.00000                       1.00000                       0.00018
                       0.00000                       1.00000                       0.00019
                       0.00000                       1.00000                       0.00020
                       0.00000                       1.00000                       0.00020
                      -0.00000                       1.00000                      -0.00000
        </DataArray>
        <DataArray type="Float32" Name="OrientationZ" NumberOfComponents="3" format="ascii">
                       0.00019                      -0.00000                       1.00000
                       0.00067                      -0.00001                       1.00000
                       0.00121                      -0.00002                       1.00000
                       0.00178                      -0.00002                       1.00000
                       0.00234                      -0.00003                       1.00000
                       0.00289                      -0.00003                       1.00000
                       0.00342                      -0.00004                       0.99999
                       0.00393                      -0.00005                       0.99999
                       0.00444                      -0.00006                       0.99999
                       0.00496                      -0.00007                       0.99999
                       0.00550                      -0.00008                       0.99998
                       0.00607                      -0.00010                       0.99998
                       0.00667                      -0.00011                       0.99998
                       0.00729                      -0.00013                       0.99997
                       0.00791                      -0.00014                       0.99997
                       0.00849                      -0.00016                       0.99996
                       0.00898                      -0.00017                       0.99996
                       0.00930                      -0.00018                       0.99996
                       0.00936                      -0.00019                       0.99996
                       0.00902                      -0.00020                       0.99996
                       0.00865                      -0.00020                       0.99996
                       0.00000                      -0.00000                       1.00000
        </DataArray>
      </PointData>
      <Lines>
        <DataArray type="Int32" Name="connectivity" format="ascii">
      0      1
      1      2
      2      3
      3      4
      4      5
      5      6
      6      7
      7      8
      8      9
      9     10
     10     11
     11     12
     12     13
     13     14
     14     15
     15     16
     16     17
     17     18
     18     19
     19     20
     21      0
        </DataArray>
        <DataArray type="Int32" Name="offsets" format="ascii">
      2
      4
      6
      8
     10
     12
     14
     16
     18
     20
     22
     24
     26
     28
     30
     32
     34
     36
     38
     40
     42
        </DataArray>
      </Lines>
    </Piece>
  </PolyData>
</VTKFile>
