<?xml version="1.0"?>
<VTKFile type="PolyData" version="0.1" byte_order="LittleEndian">
  <PolyData>
    <Piece NumberOfPoints="     19" NumberOfVerts="  0" NumberOfLines="     18"
           NumberOfStrips="  0" NumberOfPolys="      0">
      <Points>
        <DataArray type="Float32" NumberOfComponents="3" format="ascii">
                      -4.91692                       1.45376                      89.68424
                      -5.00428                       2.78477                      89.38503
                      -5.19150                       5.46737                      88.87926
                      -5.38249                       8.15999                      88.41573
                      -5.61955                      11.53210                      87.85894
                      -5.85379                      15.54821                      87.04075
                      -6.06256                      19.53502                      86.08743
                      -6.26065                      23.52061                      85.12522
                      -6.44700                      27.50471                      84.15273
                      -6.62485                      31.48779                      83.17265
                      -6.79937                      35.47067                      82.18954
                      -6.97564                      39.45291                      81.20284
                      -7.16163                      43.43415                      80.21345
                      -7.36716                      47.41375                      79.22212
                      -7.60147                      51.39084                      78.22941
                      -7.82887                      54.70221                      77.40118
                      -8.03659                      57.34684                      76.73036
                      -8.26938                      59.97586                      76.00542
                      -8.40181                      61.29849                      75.68304
        </DataArray>
      </Points>
      <PointData>
        <DataArray type="Float32" Name="TranslationalVelocity" NumberOfComponents="3" format="ascii">
                       0.36641                       0.95624                       4.06328
                       0.70197                       1.81028                       7.76465
                       1.37865                       3.26368                      15.22362
                       2.05813                       4.60042                      22.70893
                       2.90983                       6.20779                      32.08061
                       3.92682                       8.54057                      43.23812
                       4.94238                      11.24169                      54.30981
                       5.96793                      13.96416                      65.37378
                       7.00762                      16.71179                      76.42953
                       8.06533                      19.47811                      87.47881
                       9.14392                      22.25209                      98.52441
                      10.24413                      25.03684                     109.56563
                      11.36434                      27.83210                     120.60202
                      12.49981                      30.63850                     131.63226
                      13.64211                      33.45681                     142.65433
                      14.58981                      35.81676                     151.83060
                      15.33748                      37.73433                     159.15877
                      16.06538                      39.80816                     166.44311
                      16.42431                      40.73818                     170.10759
        </DataArray>
        <DataArray type="Float32" Name="RotationalVelocity" NumberOfComponents="3" format="ascii">
                       2.78099                       0.00078                      -0.25237
                       2.78080                       0.00077                      -0.25241
                       2.78033                       0.00077                      -0.25246
                       2.77977                       0.00079                      -0.25260
                       2.77896                       0.00082                      -0.25303
                       2.77790                       0.00084                      -0.25415
                       2.77681                       0.00082                      -0.25613
                       2.77575                       0.00077                      -0.25906
                       2.77476                       0.00074                      -0.26293
                       2.77388                       0.00079                      -0.26763
                       2.77313                       0.00101                      -0.27286
                       2.77251                       0.00151                      -0.27822
                       2.77201                       0.00241                      -0.28311
                       2.77156                       0.00387                      -0.28677
                       2.77112                       0.00606                      -0.28823
                       2.77068                       0.00855                      -0.28703
                       2.77023                       0.01109                      -0.28383
                       2.76964                       0.01419                      -0.27816
                       2.76928                       0.01596                      -0.27425
        </DataArray>
        <DataArray type="Float32" Name="TranslationalAcceleration" NumberOfComponents="3" format="ascii">
                       0.22136                     -11.37141                       2.57450
                       0.29226                     -13.76643                       3.14146
                       0.81604                     -39.54788                       8.28745
                       1.29747                     -63.33259                      12.64638
                       1.84644                     -91.14954                      17.48872
                       2.53293                    -122.51917                      24.05067
                       3.22540                    -152.81111                      31.48756
                       3.84475                    -182.97072                      39.01346
                       4.41847                    -213.37639                      46.73711
                       4.98426                    -244.15337                      54.67737
                       5.58819                    -275.24297                      62.79362
                       6.28624                    -306.46405                      71.05277
                       7.13644                    -337.59903                      79.39614
                       8.19671                    -368.46558                      87.76635
                       9.52137                    -398.99268                      96.12020
                      10.86668                    -424.24353                     103.06346
                      12.11266                    -444.43240                     108.67247
                      13.54519                    -464.70768                     114.70966
                      14.30257                    -475.06659                     117.44255
        </DataArray>
        <DataArray type="Float32" Name="OrientationX" NumberOfComponents="3" format="ascii">
                       0.98764                       0.09343                       0.12588
                       0.98765                       0.09320                       0.12595
                       0.98767                       0.09251                       0.12633
                       0.98767                       0.09150                       0.12701
                       0.98765                       0.08989                       0.12829
                       0.99173                       0.08068                       0.09980
                       0.99401                       0.07322                       0.08113
                       0.99553                       0.06672                       0.06691
                       0.99671                       0.06078                       0.05366
                       0.99753                       0.05606                       0.04223
                       0.99797                       0.05346                       0.03461
                       0.99814                       0.05323                       0.02985
                       0.99799                       0.05613                       0.02941
                       0.99739                       0.06298                       0.03520
                       0.99645                       0.07289                       0.04212
                       0.99539                       0.08329                       0.04757
                       0.99432                       0.09314                       0.05159
                       0.99280                       0.10494                       0.05784
                       0.99179                       0.11169                       0.06235
        </DataArray>
        <DataArray type="Float32" Name="OrientationY" NumberOfComponents="3" format="ascii">
                       0.14316                      -0.21034                      -0.96709
                       0.14320                      -0.21061                      -0.96702
                       0.14346                      -0.21134                      -0.96683
                       0.14396                      -0.21228                      -0.96655
                       0.14494                      -0.21366                      -0.96610
                       0.11527                      -0.21814                      -0.96909
                       0.09553                      -0.22156                      -0.97046
                       0.08031                      -0.22439                      -0.97119
                       0.06614                      -0.22681                      -0.97169
                       0.05401                      -0.22877                      -0.97198
                       0.04605                      -0.23015                      -0.97206
                       0.04140                      -0.23108                      -0.97205
                       0.04166                      -0.23152                      -0.97194
                       0.04890                      -0.23136                      -0.97164
                       0.05795                      -0.23087                      -0.97126
                       0.06567                      -0.23028                      -0.97091
                       0.07187                      -0.22968                      -0.97061
                       0.08069                      -0.22865                      -0.97016
                       0.08663                      -0.22787                      -0.96983
        </DataArray>
        <DataArray type="Float32" Name="OrientationZ" NumberOfComponents="3" format="ascii">
                      -0.06388                       0.97315                      -0.22112
                      -0.06360                       0.97312                      -0.22136
                      -0.06274                       0.97302                      -0.22201
                      -0.06148                       0.97291                      -0.22284
                      -0.05943                       0.97276                      -0.22405
                      -0.05641                       0.97258                      -0.22563
                      -0.05308                       0.97239                      -0.22723
                      -0.04978                       0.97221                      -0.22874
                      -0.04689                       0.97204                      -0.23009
                      -0.04482                       0.97187                      -0.23123
                      -0.04400                       0.97169                      -0.23215
                      -0.04484                       0.97148                      -0.23285
                      -0.04774                       0.97121                      -0.23339
                      -0.05305                       0.97083                      -0.23384
                      -0.06107                       0.97025                      -0.23427
                      -0.06991                       0.96955                      -0.23469
                      -0.07855                       0.96880                      -0.23507
                      -0.08858                       0.96784                      -0.23547
                      -0.09411                       0.96726                      -0.23568
        </DataArray>
        <DataArray type="Float32" Name="Force" NumberOfComponents="3" format="ascii">
                      -0.93832                      -2.41119                     -10.34066
                     167.72182                     -15.97441                    -118.51488
                     234.64226                     -61.96380                    -339.03656
                     225.43730                    -101.79446                    -510.00926
                    1439.64407                     127.96138                     177.43394
                    1404.92367                     101.64671                      90.87386
                    1270.72072                      69.25619                       2.44468
                    1880.38061                      95.95470                       3.88687
                    2291.04198                     100.07656                     -38.10278
                    2478.59702                      91.84537                     -88.98103
                    3952.32084                     137.32616                    -165.83333
                    4086.89153                     134.57462                    -218.14264
                    2955.90473                      89.91577                    -227.92037
                    1409.08884                      22.37375                    -231.78290
                    1545.48985                      64.60271                    -134.28352
                    -413.99463                     -75.44239                    -203.84849
                   -2032.51056                    -195.02667                    -149.21308
                   -3104.78717                    -290.38192                     -54.21425
                  -18297.18487                   -1347.79494                    1759.42135
        </DataArray>
        <DataArray type="Float32" Name="Moment" NumberOfComponents="3" format="ascii">
                       0.00000                       0.00000                       0.00000
                       0.00000                       0.00000                       0.00000
                       0.00000                       0.00000                       0.00000
                       0.00000                       0.00000                       0.00000
                      74.52380                   -1225.20045                     278.92410
                     132.19136                   -2294.74543                     523.08274
                     167.25127                   -3093.67368                     706.19168
                     251.60403                   -4976.65119                    1137.60124
                     352.22798                   -7417.20006                    1697.54619
                     382.67907                   -8451.61252                    1935.98244
                     420.01611                   -9468.24904                    2169.64894
                     455.15161                  -10079.61506                    2309.01616
                     365.95035                   -7614.10561                    1742.21451
                     399.06561                   -7468.11957                    1705.16927
                     435.04033                   -7065.17531                    1607.94825
                     468.97910                   -6645.65240                    1507.04625
                     465.37385                   -5863.78043                    1325.06018
                     264.00109                   -2946.52197                     663.10038
                     255.91504                   -2686.71880                     603.25444
        </DataArray>
      </PointData>
      <Lines>
        <DataArray type="Int32" Name="connectivity" format="ascii">
      0      1
      1      2
      2      3
      3      4
      4      5
      5      6
      6      7
      7      8
      8      9
      9     10
     10     11
     11     12
     12     13
     13     14
     14     15
     15     16
     16     17
     17     18
        </DataArray>
        <DataArray type="Int32" Name="offsets" format="ascii">
      2
      4
      6
      8
     10
     12
     14
     16
     18
     20
     22
     24
     26
     28
     30
     32
     34
     36
        </DataArray>
      </Lines>
    </Piece>
  </PolyData>
</VTKFile>
