<?xml version="1.0"?>
<VTKFile type="PolyData" version="0.1" byte_order="LittleEndian">
  <PolyData>
    <Piece NumberOfPoints="     19" NumberOfVerts="  0" NumberOfLines="     18"
           NumberOfStrips="  0" NumberOfPolys="      0">
      <Points>
        <DataArray type="Float32" NumberOfComponents="3" format="ascii">
                      -4.59979                       1.45255                      89.70169
                      -4.68984                       2.78130                      89.39374
                      -4.87854                       5.45991                      88.87016
                      -5.06609                       8.14892                      88.38839
                      -5.29062                      11.51714                      87.80812
                      -5.49575                      15.52799                      86.96047
                      -5.65424                      19.50882                      85.97592
                      -5.77152                      23.48843                      84.97987
                      -5.83693                      27.46587                      83.97016
                      -5.84273                      31.44084                      82.94882
                      -5.78214                      35.41334                      81.91984
                      -5.64772                      39.38187                      80.88232
                      -5.43468                      43.34514                      79.83712
                      -5.14002                      47.30164                      78.78534
                      -4.76048                      51.24939                      77.72823
                      -4.37847                      54.53080                      76.84420
                      -4.03413                      57.14771                      76.12811
                      -3.65960                      59.74463                      75.35819
                      -3.45897                      61.05075                      75.01351
        </DataArray>
      </Points>
      <PointData>
        <DataArray type="Float32" Name="TranslationalVelocity" NumberOfComponents="3" format="ascii">
                       0.30227                       0.74296                       3.02849
                       0.56832                       1.40037                       5.78736
                       1.10543                       2.52514                      11.34841
                       1.64543                       3.56277                      16.93037
                       2.32314                       4.81228                      23.92119
                       3.13293                       6.61283                      32.24417
                       3.94192                       8.68798                      40.50309
                       4.75940                      10.77846                      48.75769
                       5.58919                      12.88626                      57.00607
                       6.43574                      15.00519                      65.24774
                       7.30379                      17.12491                      73.48282
                       8.19766                      19.24494                      81.70841
                       9.12144                      21.36134                      89.92197
                      10.07857                      23.46981                      98.12061
                      11.07157                      25.56520                     106.30047
                      11.92820                      27.29745                     113.09928
                      12.63115                      28.68840                     118.52115
                      13.34669                      30.17921                     123.90157
                      13.71298                      30.83592                     126.60763
        </DataArray>
        <DataArray type="Float32" Name="RotationalVelocity" NumberOfComponents="3" format="ascii">
                       2.07633                       0.00056                      -0.20045
                       2.07624                       0.00055                      -0.20050
                       2.07603                       0.00053                      -0.20069
                       2.07579                       0.00051                      -0.20099
                       2.07545                       0.00050                      -0.20156
                       2.07502                       0.00049                      -0.20265
                       2.07458                       0.00048                      -0.20436
                       2.07413                       0.00045                      -0.20688
                       2.07370                       0.00037                      -0.21040
                       2.07329                       0.00023                      -0.21508
                       2.07291                       0.00001                      -0.22101
                       2.07256                      -0.00033                      -0.22819
                       2.07223                      -0.00082                      -0.23649
                       2.07192                      -0.00148                      -0.24565
                       2.07161                      -0.00234                      -0.25524
                       2.07136                      -0.00323                      -0.26312
                       2.07116                      -0.00407                      -0.26900
                       2.07094                      -0.00503                      -0.27416
                       2.07082                      -0.00556                      -0.27638
        </DataArray>
        <DataArray type="Float32" Name="TranslationalAcceleration" NumberOfComponents="3" format="ascii">
                       0.04669                      -6.34112                       1.55357
                       0.16078                      -7.65157                       1.91007
                       0.44110                     -21.98423                       5.08958
                       0.70270                     -35.21172                       7.81941
                       1.02508                     -50.68580                      10.88856
                       1.48412                     -68.11867                      14.98048
                       2.01012                     -84.93691                      19.55197
                       2.54207                    -101.68677                      24.16044
                       3.06854                    -118.58131                      28.85475
                       3.57407                    -135.69145                      33.63050
                       4.04152                    -152.98463                      38.44927
                       4.45687                    -170.35810                      43.27824
                       4.80810                    -187.68849                      48.07400
                       5.08755                    -204.87165                      52.79986
                       5.29365                    -221.86285                      57.43563
                       5.41257                    -235.91154                      61.23394
                       5.48448                    -247.13680                      64.28176
                       5.56124                    -258.39543                      67.56412
                       5.57947                    -264.14972                      69.04454
        </DataArray>
        <DataArray type="Float32" Name="OrientationX" NumberOfComponents="3" format="ascii">
                       0.98828                       0.09493                       0.11955
                       0.98832                       0.09436                       0.11969
                       0.98843                       0.09250                       0.12017
                       0.98860                       0.08973                       0.12090
                       0.98885                       0.08515                       0.12216
                       0.99310                       0.07087                       0.09340
                       0.99565                       0.05672                       0.07397
                       0.99744                       0.04141                       0.05830
                       0.99880                       0.02396                       0.04265
                       0.99961                       0.00450                       0.02771
                       0.99975                      -0.01644                       0.01534
                       0.99923                      -0.03888                       0.00459
                       0.99807                      -0.06197                      -0.00299
                       0.99642                      -0.08441                      -0.00522
                       0.99431                      -0.10632                      -0.00672
                       0.99233                      -0.12338                      -0.00814
                       0.99075                      -0.13539                      -0.00915
                       0.98948                      -0.14448                      -0.00714
                       0.98905                      -0.14754                      -0.00436
        </DataArray>
        <DataArray type="Float32" Name="OrientationY" NumberOfComponents="3" format="ascii">
                       0.13775                      -0.21701                      -0.96640
                       0.13778                      -0.21735                      -0.96632
                       0.13788                      -0.21833                      -0.96608
                       0.13804                      -0.21967                      -0.96576
                       0.13833                      -0.22173                      -0.96525
                       0.10724                      -0.22701                      -0.96797
                       0.08518                      -0.23137                      -0.96913
                       0.06644                      -0.23527                      -0.96966
                       0.04714                      -0.23881                      -0.96992
                       0.02797                      -0.24182                      -0.96992
                       0.01087                      -0.24422                      -0.96966
                      -0.00512                      -0.24596                      -0.96927
                      -0.01825                      -0.24710                      -0.96882
                      -0.02608                      -0.24796                      -0.96842
                      -0.03310                      -0.24835                      -0.96810
                      -0.03881                      -0.24829                      -0.96791
                      -0.04283                      -0.24805                      -0.96780
                      -0.04322                      -0.24815                      -0.96776
                      -0.04133                      -0.24847                      -0.96776
        </DataArray>
        <DataArray type="Float32" Name="OrientationZ" NumberOfComponents="3" format="ascii">
                      -0.06580                       0.97154                      -0.22754
                      -0.06517                       0.97152                      -0.22781
                      -0.06313                       0.97148                      -0.22856
                      -0.06010                       0.97144                      -0.22956
                      -0.05511                       0.97138                      -0.23103
                      -0.04740                       0.97131                      -0.23304
                      -0.03785                       0.97121                      -0.23519
                      -0.02643                       0.97105                      -0.23741
                      -0.01306                       0.97077                      -0.23965
                       0.00233                       0.97031                      -0.24185
                       0.01969                       0.96958                      -0.24398
                       0.03882                       0.96850                      -0.24597
                       0.05930                       0.96701                      -0.24776
                       0.08045                       0.96509                      -0.24927
                       0.10126                       0.96282                      -0.25046
                       0.11740                       0.96080                      -0.25117
                       0.12877                       0.95924                      -0.25155
                       0.13805                       0.95789                      -0.25178
                       0.14170                       0.95734                      -0.25184
        </DataArray>
        <DataArray type="Float32" Name="Force" NumberOfComponents="3" format="ascii">
                      -0.41044                      -1.02368                      -4.25219
                     157.99930                      -8.84507                     -82.98218
                     203.24582                     -37.00078                    -214.05579
                     187.73385                     -59.91405                    -304.52952
                    1711.20288                     181.89196                     362.39393
                    1929.70344                     153.88110                     256.17902
                    2138.19936                     125.97320                     184.51239
                    2913.12654                     118.48417                     171.97945
                    3268.24639                      64.12419                      93.56026
                    3827.02361                      -1.35287                      44.19603
                    5119.73855                    -116.31661                     -35.00738
                    5850.41571                    -265.31608                    -108.29129
                    6777.89069                    -451.68177                    -126.67653
                    7238.56754                    -647.83677                    -159.56429
                    7605.72362                    -851.39454                    -187.70107
                    7810.35173                   -1011.53345                    -210.25674
                    7652.61662                   -1086.49485                    -219.25234
                    5600.33275                    -849.10656                    -155.36820
                    1252.46849                    -227.55485                    -163.30660
        </DataArray>
        <DataArray type="Float32" Name="Moment" NumberOfComponents="3" format="ascii">
                       0.00000                       0.00000                       0.00000
                       0.00000                       0.00000                       0.00000
                       0.00000                       0.00000                       0.00000
                       0.00000                       0.00000                       0.00000
                      47.41345                    -839.69410                     197.57390
                      74.11293                   -1531.14321                     361.45827
                      78.47012                   -2040.23068                     483.59695
                      81.59371                   -3066.09082                     730.26412
                      56.48503                   -4425.38276                    1059.92780
                     -15.79187                   -5033.74532                    1213.36340
                    -116.63668                   -5538.51070                    1344.61623
                    -240.90791                   -5901.58814                    1444.01993
                    -288.91618                   -4657.74827                    1149.20817
                    -390.58422                   -4649.13053                    1156.94706
                    -476.53564                   -4506.32783                    1130.86481
                    -526.21963                   -4288.24345                    1083.15828
                    -514.41254                   -3818.75328                     968.99211
                    -278.20499                   -1924.61190                     490.19075
                    -270.49627                   -1822.41866                     464.84435
        </DataArray>
      </PointData>
      <Lines>
        <DataArray type="Int32" Name="connectivity" format="ascii">
      0      1
      1      2
      2      3
      3      4
      4      5
      5      6
      6      7
      7      8
      8      9
      9     10
     10     11
     11     12
     12     13
     13     14
     14     15
     15     16
     16     17
     17     18
        </DataArray>
        <DataArray type="Int32" Name="offsets" format="ascii">
      2
      4
      6
      8
     10
     12
     14
     16
     18
     20
     22
     24
     26
     28
     30
     32
     34
     36
        </DataArray>
      </Lines>
    </Piece>
  </PolyData>
</VTKFile>
