<?xml version="1.0"?>
<VTKFile type="PolyData" version="0.1" byte_order="LittleEndian">
  <PolyData>
    <Piece NumberOfPoints="     19" NumberOfVerts="  0" NumberOfLines="     18"
           NumberOfStrips="  0" NumberOfPolys="      0">
      <Points>
        <DataArray type="Float32" NumberOfComponents="3" format="ascii">
                      -4.77805                       1.18900                      90.92935
                      -4.76232                       2.27245                      91.76278
                      -4.74421                       4.38204                      93.50524
                      -4.72954                       6.46565                      95.28271
                      -4.70810                       9.05640                      97.52414
                      -4.62643                      12.25720                     100.09329
                      -4.51265                      15.54086                     102.55309
                      -4.38229                      18.82933                     105.00624
                      -4.23280                      22.12342                     107.45143
                      -4.06583                      25.42155                     109.89070
                      -3.88483                      28.72111                     112.32766
                      -3.69297                      32.02261                     114.76172
                      -3.49629                      35.32568                     117.19351
                      -3.30262                      38.63008                     119.62355
                      -3.11919                      41.93548                     122.05221
                      -2.98249                      44.69080                     124.07513
                      -2.88816                      46.90020                     125.68645
                      -2.80840                      49.14283                     127.25295
                      -2.78072                      50.23964                     128.06919
        </DataArray>
      </Points>
      <PointData>
        <DataArray type="Float32" Name="TranslationalVelocity" NumberOfComponents="3" format="ascii">
                       0.28881                      -2.49726                       3.27148
                       0.56038                      -4.78908                       6.24566
                       1.09108                      -9.57838                      12.03839
                       1.61816                     -14.46509                      17.76205
                       2.27870                     -20.63143                      24.88227
                       3.10344                     -27.71863                      33.68422
                       3.96139                     -34.51840                      42.72008
                       4.83601                     -41.30936                      51.77535
                       5.73023                     -48.08861                      60.85197
                       6.64629                     -54.86138                      69.94528
                       7.58594                     -61.63665                      79.04767
                       8.55132                     -68.41180                      88.16008
                       9.54381                     -75.18667                      97.28117
                      10.56424                     -81.96016                     106.40994
                      11.61259                     -88.73083                     115.54530
                      12.50751                     -94.36846                     123.16332
                      13.23714                     -98.85619                     129.27382
                      13.98570                    -103.21689                     135.47792
                      14.35734                    -105.48525                     138.51304
        </DataArray>
        <DataArray type="Float32" Name="RotationalVelocity" NumberOfComponents="3" format="ascii">
                       2.74472                       0.00053                      -0.25007
                       2.74509                       0.00067                      -0.25028
                       2.74603                       0.00112                      -0.25093
                       2.74717                       0.00176                      -0.25187
                       2.74876                       0.00277                      -0.25343
                       2.75076                       0.00423                      -0.25583
                       2.75274                       0.00596                      -0.25878
                       2.75462                       0.00797                      -0.26228
                       2.75638                       0.01030                      -0.26629
                       2.75802                       0.01301                      -0.27081
                       2.75958                       0.01611                      -0.27577
                       2.76107                       0.01960                      -0.28110
                       2.76252                       0.02340                      -0.28668
                       2.76389                       0.02737                      -0.29232
                       2.76515                       0.03126                      -0.29779
                       2.76603                       0.03422                      -0.30199
                       2.76655                       0.03619                      -0.30494
                       2.76682                       0.03761                      -0.30737
                       2.76684                       0.03806                      -0.30835
        </DataArray>
        <DataArray type="Float32" Name="TranslationalAcceleration" NumberOfComponents="3" format="ascii">
                      -0.50468                      -9.04736                      -6.74883
                      -0.69089                     -10.93284                      -8.29909
                      -2.04279                     -30.85888                     -24.33614
                      -3.32588                     -48.96684                     -39.41368
                      -4.84980                     -69.99014                     -57.25037
                      -6.52157                     -94.59213                     -76.72675
                      -8.10196                    -119.24616                     -94.88618
                      -9.72091                    -143.93277                    -112.93368
                     -11.42479                    -168.94962                    -131.10039
                     -13.24177                    -194.36896                    -149.48791
                     -15.17444                    -220.10839                    -168.09541
                     -17.18976                    -246.02519                    -186.81761
                     -19.21642                    -271.94979                    -205.52441
                     -21.13789                    -297.75564                    -224.09192
                     -22.78641                    -323.42085                    -242.44499
                     -23.77798                    -344.80235                    -257.57759
                     -24.21014                    -362.06989                    -269.57037
                     -24.18488                    -379.87878                    -281.24506
                     -24.00298                    -388.77704                    -287.37603
        </DataArray>
        <DataArray type="Float32" Name="OrientationX" NumberOfComponents="3" format="ascii">
                       0.98715                      -0.10597                       0.11964
                       0.98714                      -0.10623                       0.11946
                       0.98709                      -0.10717                       0.11900
                       0.98701                      -0.10862                       0.11840
                       0.98683                      -0.11110                       0.11754
                       0.99117                      -0.09606                       0.09141
                       0.99351                      -0.08747                       0.07275
                       0.99499                      -0.08181                       0.05744
                       0.99613                      -0.07671                       0.04288
                       0.99692                      -0.07248                       0.03006
                       0.99732                      -0.07008                       0.02091
                       0.99753                      -0.06867                       0.01497
                       0.99753                      -0.06889                       0.01374
                       0.99725                      -0.07165                       0.01915
                       0.99692                      -0.07353                       0.02730
                       0.99666                      -0.07357                       0.03538
                       0.99646                      -0.07234                       0.04275
                       0.99603                      -0.07148                       0.05312
                       0.99564                      -0.07149                       0.05989
        </DataArray>
        <DataArray type="Float32" Name="OrientationY" NumberOfComponents="3" format="ascii">
                       0.15940                       0.59862                      -0.78501
                       0.15942                       0.59842                      -0.78517
                       0.15961                       0.59781                      -0.78559
                       0.16000                       0.59699                      -0.78613
                       0.16080                       0.59573                      -0.78692
                       0.13086                       0.59732                      -0.79126
                       0.11076                       0.59763                      -0.79409
                       0.09509                       0.59750                      -0.79621
                       0.08035                       0.59736                      -0.79794
                       0.06752                       0.59722                      -0.79923
                       0.05872                       0.59695                      -0.80012
                       0.05309                       0.59666                      -0.80073
                       0.05221                       0.59623                      -0.80111
                       0.05817                       0.59548                      -0.80126
                       0.06581                       0.59473                      -0.80123
                       0.07229                       0.59418                      -0.80108
                       0.07747                       0.59380                      -0.80087
                       0.08527                       0.59331                      -0.80044
                       0.09071                       0.59300                      -0.80007
        </DataArray>
        <DataArray type="Float32" Name="OrientationZ" NumberOfComponents="3" format="ascii">
                       0.01157                       0.79399                       0.60782
                       0.01193                       0.79411                       0.60765
                       0.01305                       0.79444                       0.60720
                       0.01471                       0.79486                       0.60662
                       0.01741                       0.79546                       0.60575
                       0.02141                       0.79623                       0.60461
                       0.02598                       0.79699                       0.60344
                       0.03082                       0.79769                       0.60229
                       0.03560                       0.79829                       0.60122
                       0.03997                       0.79880                       0.60027
                       0.04359                       0.79921                       0.59947
                       0.04606                       0.79955                       0.59883
                       0.04699                       0.79985                       0.59836
                       0.04600                       0.80017                       0.59801
                       0.04268                       0.80056                       0.59774
                       0.03791                       0.80096                       0.59751
                       0.03255                       0.80135                       0.59730
                       0.02570                       0.80179                       0.59705
                       0.02169                       0.80202                       0.59690
        </DataArray>
        <DataArray type="Float32" Name="Force" NumberOfComponents="3" format="ascii">
                      -0.83059                       6.99113                      -9.11668
                     173.43945                      70.60484                     -95.64294
                     245.35043                     206.06866                    -274.53761
                     236.42275                     310.35106                    -411.36539
                    1574.70031                    -183.40706                     194.28066
                    1569.50868                    -128.04837                     111.58928
                    1524.34549                     -76.76767                      34.48014
                    2261.04096                    -114.36753                      33.56169
                    2690.57019                    -107.97725                     -18.37003
                    2997.36363                     -96.57655                     -73.49371
                    4549.67241                    -130.89052                    -159.68400
                    4852.79604                    -118.06551                    -218.75868
                    4138.85308                     -78.28538                    -222.66269
                    2790.33912                       3.05250                    -219.00039
                    1057.73803                      94.09822                    -199.24788
                    1700.03263                      -3.13655                    -104.31296
                     307.48277                     124.28572                    -179.79087
                   -1104.32266                     123.78444                    -113.74384
                  -15990.08696                    -311.90353                    1002.70181
        </DataArray>
        <DataArray type="Float32" Name="Moment" NumberOfComponents="3" format="ascii">
                       0.00000                       0.00000                       0.00000
                       0.00000                       0.00000                       0.00000
                       0.00000                       0.00000                       0.00000
                       0.00000                       0.00000                       0.00000
                     -21.96743                    -993.61881                    -759.95512
                     -50.87239                   -1867.57679                   -1427.51628
                     -83.43189                   -2521.86683                   -1926.29215
                    -158.36230                   -4034.48495                   -3079.41657
                    -271.72582                   -5993.17042                   -4571.10619
                    -347.95623                   -6834.79806                   -5209.56318
                    -424.25650                   -7643.35819                   -5822.65599
                    -478.32831                   -8154.63652                   -6209.80344
                    -371.13769                   -6198.39777                   -4719.42770
                    -359.91013                   -6134.18099                   -4671.20597
                    -318.19472                   -5832.57142                   -4443.71724
                    -265.15135                   -5452.80427                   -4157.32543
                    -202.30674                   -4822.26719                   -3679.52368
                     -80.45823                   -2407.49731                   -1838.85882
                     -63.77088                   -2243.95323                   -1714.96538
        </DataArray>
      </PointData>
      <Lines>
        <DataArray type="Int32" Name="connectivity" format="ascii">
      0      1
      1      2
      2      3
      3      4
      4      5
      5      6
      6      7
      7      8
      8      9
      9     10
     10     11
     11     12
     12     13
     13     14
     14     15
     15     16
     16     17
     17     18
        </DataArray>
        <DataArray type="Int32" Name="offsets" format="ascii">
      2
      4
      6
      8
     10
     12
     14
     16
     18
     20
     22
     24
     26
     28
     30
     32
     34
     36
        </DataArray>
      </Lines>
    </Piece>
  </PolyData>
</VTKFile>
