<?xml version="1.0"?>
<VTKFile type="PolyData" version="0.1" byte_order="LittleEndian">
  <PolyData>
    <Piece NumberOfPoints="    550" NumberOfVerts="  0" NumberOfLines="     21"
           NumberOfStrips="  0" NumberOfPolys="    567">
      <Points>
        <DataArray type="Float32" NumberOfComponents="3" format="ascii">
                       2.97344                      -0.00000                       2.18981
                       2.88003                       0.73944                       2.18981
                       2.60566                       1.43243                       2.18983
                       2.16757                       2.03541                       2.18987
                       1.59328                       2.51050                       2.18991
                       0.91889                       2.82784                       2.18995
                       0.18677                       2.96750                       2.19000
                      -0.55709                       2.92070                       2.19005
                      -1.26593                       2.69039                       2.19009
                      -1.89523                       2.29102                       2.19013
                      -2.40544                       1.74770                       2.19016
                      -2.76450                       1.09457                       2.19018
                      -2.94986                       0.37266                       2.19019
                      -2.94986                      -0.37267                       2.19019
                      -2.76450                      -1.09458                       2.19018
                      -2.40544                      -1.74771                       2.19015
                      -1.89523                      -2.29103                       2.19012
                      -1.26593                      -2.69039                       2.19007
                      -0.55709                      -2.92071                       2.19003
                       0.18677                      -2.96751                       2.18998
                       0.91889                      -2.82785                       2.18993
                       1.59328                      -2.51051                       2.18989
                       2.16757                      -2.03542                       2.18985
                       2.60566                      -1.43244                       2.18982
                       2.88003                      -0.73945                       2.18981
                       2.92082                      -0.00004                       6.56934
                       2.82908                       0.72617                       6.56937
                       2.55962                       1.40675                       6.56944
                       2.12937                       1.99893                       6.56954
                       1.56538                       2.46551                       6.56967
                       0.90306                       2.77717                       6.56982
                       0.18405                       2.91433                       6.56999
                      -0.54648                       2.86837                       6.57015
                      -1.24263                       2.64217                       6.57031
                      -1.86066                       2.24996                       6.57044
                      -2.36174                       1.71637                       6.57055
                      -2.71437                       1.07493                       6.57062
                      -2.89640                       0.36595                       6.57066
                      -2.89640                      -0.36602                       6.57065
                      -2.71437                      -1.07500                       6.57060
                      -2.36174                      -1.71644                       6.57052
                      -1.86066                      -2.25003                       6.57040
                      -1.24263                      -2.64224                       6.57025
                      -0.54648                      -2.86844                       6.57009
                       0.18405                      -2.91440                       6.56993
                       0.90306                      -2.77724                       6.56977
                       1.56538                      -2.46558                       6.56962
                       2.12937                      -1.99900                       6.56950
                       2.55962                      -1.40682                       6.56941
                       2.82908                      -0.72624                       6.56935
                       2.86895                      -0.00009                      10.94883
                       2.77888                       0.71287                      10.94888
                       2.51434                       1.38104                      10.94900
                       2.09194                       1.96242                      10.94918
                       1.53823                       2.42049                      10.94941
                       0.88799                       2.72647                      10.94968
                       0.18209                       2.86113                      10.94997
                      -0.53512                       2.81600                      10.95026
                      -1.21858                       2.59393                      10.95054
                      -1.82534                       2.20887                      10.95078
                      -2.31727                       1.68501                      10.95097
                      -2.66347                       1.05527                      10.95110
                      -2.84219                       0.35922                      10.95117
                      -2.84219                      -0.35941                      10.95115
                      -2.66347                      -1.05546                      10.95107
                      -2.31727                      -1.68520                      10.95092
                      -1.82534                      -2.20906                      10.95071
                      -1.21858                      -2.59412                      10.95046
                      -0.53512                      -2.81619                      10.95017
                       0.18209                      -2.86131                      10.94988
                       0.88799                      -2.72665                      10.94959
                       1.53823                      -2.42068                      10.94933
                       2.09194                      -1.96260                      10.94912
                       2.51434                      -1.38122                      10.94895
                       2.77888                      -0.71306                      10.94886
                       2.81791                      -0.00017                      15.32832
                       2.72951                       0.69955                      15.32838
                       2.46988                       1.35530                      15.32855
                       2.05533                       1.92589                      15.32881
                       1.51190                       2.37545                      15.32915
                       0.87374                       2.67574                      15.32954
                       0.18095                       2.80790                      15.32995
                      -0.52294                       2.76361                      15.33037
                      -1.19370                       2.54567                      15.33077
                      -1.78919                       2.16776                      15.33112
                      -2.27199                       1.65363                      15.33140
                      -2.61176                       1.03559                      15.33159
                      -2.78716                       0.35247                      15.33168
                      -2.78716                      -0.35281                      15.33166
                      -2.61176                      -1.03594                      15.33154
                      -2.27199                      -1.65398                      15.33133
                      -1.78919                      -2.16811                      15.33103
                      -1.19370                      -2.54602                      15.33066
                      -0.52294                      -2.76396                      15.33026
                       0.18095                      -2.80825                      15.32983
                       0.87374                      -2.67609                      15.32942
                       1.51190                      -2.37580                      15.32905
                       2.05532                      -1.92623                      15.32873
                       2.46988                      -1.35565                      15.32850
                       2.72951                      -0.69989                      15.32835
                       2.76769                      -0.00028                      19.70783
                       2.68097                       0.68620                      19.70791
                       2.42625                       1.32954                      19.70813
                       2.01954                       1.88933                      19.70846
                       1.48640                       2.33038                      19.70890
                       0.86032                       2.62500                      19.70940
                       0.18064                       2.75465                      19.70993
                      -0.50993                       2.71120                      19.71048
                      -1.16799                       2.49738                      19.71099
                      -1.75221                       2.12663                      19.71144
                      -2.22587                       1.62223                      19.71180
                      -2.55922                       1.01589                      19.71204
                      -2.73129                       0.34569                      19.71216
                      -2.73129                      -0.34624                      19.71214
                      -2.55922                      -1.01644                      19.71199
                      -2.22587                      -1.62278                      19.71171
                      -1.75221                      -2.12718                      19.71133
                      -1.16799                      -2.49794                      19.71086
                      -0.50993                      -2.71176                      19.71033
                       0.18064                      -2.75520                      19.70979
                       0.86032                      -2.62555                      19.70926
                       1.48640                      -2.33094                      19.70877
                       2.01954                      -1.88988                      19.70837
                       2.42625                      -1.33010                      19.70806
                       2.68097                      -0.68675                      19.70788
                       2.71829                      -0.00040                      24.08737
                       2.63324                       0.67283                      24.08748
                       2.38343                       1.30377                      24.08774
                       1.98457                       1.85275                      24.08814
                       1.46171                       2.28530                      24.08866
                       0.84771                       2.57423                      24.08927
                       0.18114                       2.70138                      24.08992
                      -0.49610                       2.65877                      24.09057
                      -1.14147                       2.44908                      24.09119
                      -1.71442                       2.08547                      24.09173
                      -2.17895                       1.59081                      24.09217
                      -2.50586                       0.99616                      24.09247
                      -2.67461                       0.33889                      24.09261
                      -2.67461                      -0.33969                      24.09259
                      -2.50586                      -0.99696                      24.09240
                      -2.17895                      -1.59161                      24.09207
                      -1.71442                      -2.08628                      24.09160
                      -1.14147                      -2.44988                      24.09104
                      -0.49610                      -2.65958                      24.09041
                       0.18114                      -2.70218                      24.08975
                       0.84771                      -2.57503                      24.08911
                       1.46171                      -2.28610                      24.08852
                       1.98457                      -1.85356                      24.08803
                       2.38343                      -1.30457                      24.08766
                       2.63324                      -0.67364                      24.08744
                       2.66967                      -0.00055                      28.46696
                       2.58629                       0.65944                      28.46708
                       2.34140                       1.27797                      28.46738
                       1.95038                       1.81616                      28.46785
                       1.43781                       2.24019                      28.46845
                       0.83588                       2.52344                      28.46915
                       0.18243                       2.64809                      28.46990
                      -0.48149                       2.60632                      28.47066
                      -1.11417                       2.40075                      28.47137
                      -1.67585                       2.04430                      28.47200
                      -2.13124                       1.55936                      28.47251
                      -2.45172                       0.97641                      28.47285
                      -2.61715                       0.33207                      28.47302
                      -2.61715                      -0.33317                      28.47299
                      -2.45172                      -0.97750                      28.47278
                      -2.13124                      -1.56046                      28.47239
                      -1.67585                      -2.04539                      28.47186
                      -1.11417                      -2.40184                      28.47120
                      -0.48149                      -2.60741                      28.47047
                       0.18243                      -2.64919                      28.46971
                       0.83588                      -2.52453                      28.46897
                       1.43781                      -2.24129                      28.46829
                       1.95038                      -1.81725                      28.46772
                       2.34140                      -1.27906                      28.46729
                       2.58629                      -0.66054                      28.46703
                       2.62180                      -0.00071                      32.84658
                       2.54009                       0.64603                      32.84671
                       2.30012                       1.25215                      32.84705
                       1.91695                       1.77954                      32.84757
                       1.41466                       2.19507                      32.84825
                       0.82481                       2.47263                      32.84904
                       0.18447                       2.59478                      32.84988
                      -0.46613                       2.55385                      32.85073
                      -1.08612                       2.35240                      32.85154
                      -1.63652                       2.00310                      32.85225
                      -2.08277                       1.52789                      32.85282
                      -2.39682                       0.95664                      32.85321
                      -2.55894                       0.32523                      32.85339
                      -2.55894                      -0.32666                      32.85337
                      -2.39682                      -0.95807                      32.85313
                      -2.08277                      -1.52932                      32.85269
                      -1.63652                      -2.00453                      32.85209
                      -1.08612                      -2.35383                      32.85135
                      -0.46613                      -2.55528                      32.85053
                       0.18447                      -2.59621                      32.84967
                       0.82481                      -2.47406                      32.84883
                       1.41466                      -2.19650                      32.84807
                       1.91695                      -1.78097                      32.84743
                       2.30012                      -1.25358                      32.84695
                       2.54009                      -0.64746                      32.84666
                       2.57467                      -0.00090                      37.22621
                       2.49463                       0.63260                      37.22636
                       2.25957                       1.22630                      37.22674
                       1.88425                       1.74289                      37.22732
                       1.39224                       2.14992                      37.22806
                       0.81447                       2.42179                      37.22893
                       0.18724                       2.54144                      37.22987
                      -0.45004                       2.50135                      37.23081
                      -1.05733                       2.30403                      37.23170
                      -1.59646                       1.96188                      37.23248
                      -2.03357                       1.49640                      37.23311
                      -2.34119                       0.93685                      37.23354
                      -2.49999                       0.31837                      37.23374
                      -2.49999                      -0.32018                      37.23371
                      -2.34119                      -0.93866                      37.23345
                      -2.03357                      -1.49821                      37.23297
                      -1.59646                      -1.96369                      37.23230
                      -1.05733                      -2.30584                      37.23149
                      -0.45004                      -2.50316                      37.23058
                       0.18724                      -2.54325                      37.22963
                       0.81447                      -2.42360                      37.22871
                       1.39224                      -2.15172                      37.22787
                       1.88425                      -1.74470                      37.22716
                       2.25957                      -1.22811                      37.22662
                       2.49463                      -0.63441                      37.22630
                       2.52827                      -0.00112                      41.60587
                       2.44991                       0.61915                      41.60603
                       2.21976                       1.20044                      41.60644
                       1.85228                       1.70623                      41.60707
                       1.37056                       2.10474                      41.60788
                       0.80487                       2.37094                      41.60883
                       0.19075                       2.48809                      41.60985
                      -0.43320                       2.44883                      41.61088
                      -1.02780                       2.25563                      41.61185
                      -1.55567                       1.92064                      41.61270
                      -1.98364                       1.46489                      41.61339
                      -2.28483                       0.91703                      41.61385
                      -2.44031                       0.31148                      41.61408
                      -2.44031                      -0.31371                      41.61405
                      -2.28483                      -0.91927                      41.61376
                      -1.98364                      -1.46713                      41.61324
                      -1.55566                      -1.92287                      41.61251
                      -1.02780                      -2.25787                      41.61162
                      -0.43320                      -2.45106                      41.61063
                       0.19075                      -2.49032                      41.60959
                       0.80487                      -2.37317                      41.60859
                       1.37056                      -2.10698                      41.60767
                       1.85228                      -1.70846                      41.60689
                       2.21976                      -1.20267                      41.60631
                       2.44991                      -0.62138                      41.60596
                       2.48263                      -0.00135                      45.98552
                       2.40594                       0.60567                      45.98569
                       2.18071                       1.17455                      45.98614
                       1.82107                       1.66954                      45.98682
                       1.34964                       2.05954                      45.98770
                       0.79603                       2.32006                      45.98873
                       0.19502                       2.43470                      45.98983
                      -0.41562                       2.39629                      45.99095
                      -0.99752                       2.20722                      45.99200
                      -1.51411                       1.87937                      45.99292
                      -1.93295                       1.43336                      45.99366
                      -2.22771                       0.89719                      45.99417
                      -2.37987                       0.30457                      45.99441
                      -2.37987                      -0.30728                      45.99438
                      -2.22771                      -0.89990                      45.99407
                      -1.93295                      -1.43607                      45.99350
                      -1.51411                      -1.88208                      45.99271
                      -0.99752                      -2.20992                      45.99175
                      -0.41562                      -2.39899                      45.99067
                       0.19502                      -2.43741                      45.98956
                       0.79603                      -2.32276                      45.98847
                       1.34964                      -2.06225                      45.98747
                       1.82107                      -1.67225                      45.98663
                       2.18071                      -1.17725                      45.98600
                       2.40594                      -0.60837                      45.98562
                       2.43777                      -0.00161                      50.36517
                       2.36276                       0.59216                      50.36536
                       2.14244                       1.14863                      50.36583
                       1.79065                       1.63283                      50.36657
                       1.32950                       2.01432                      50.36752
                       0.78797                       2.26915                      50.36862
                       0.20007                       2.38130                      50.36981
                      -0.39724                       2.34372                      50.37101
                      -0.96645                       2.15877                      50.37214
                      -1.47178                       1.83808                      50.37314
                      -1.88147                       1.40180                      50.37393
                      -2.16980                       0.87733                      50.37448
                      -2.31864                       0.29763                      50.37474
                      -2.31864                      -0.30086                      50.37471
                      -2.16980                      -0.88056                      50.37437
                      -1.88147                      -1.40503                      50.37376
                      -1.47178                      -1.84131                      50.37291
                      -0.96645                      -2.16200                      50.37187
                      -0.39725                      -2.34695                      50.37072
                       0.20007                      -2.38453                      50.36952
                       0.78797                      -2.27238                      50.36834
                       1.32950                      -2.01755                      50.36727
                       1.79065                      -1.63606                      50.36637
                       2.14244                      -1.15186                      50.36569
                       2.36276                      -0.59539                      50.36528
                       2.39374                      -0.00190                      54.74482
                       2.32040                       0.57864                      54.74502
                       2.10499                       1.12270                      54.74553
                       1.76105                       1.59609                      54.74632
                       1.31019                       1.96908                      54.74733
                       0.78073                       2.21822                      54.74852
                       0.20595                       2.32787                      54.74979
                      -0.37805                       2.29113                      54.75107
                      -0.93456                       2.11031                      54.75229
                      -1.42861                       1.79677                      54.75335
                      -1.82917                       1.37021                      54.75421
                      -2.11107                       0.85744                      54.75479
                      -2.25659                       0.29068                      54.75508
                      -2.25659                      -0.29447                      54.75504
                      -2.11107                      -0.86124                      54.75468
                      -1.82917                      -1.37401                      54.75402
                      -1.42861                      -1.80056                      54.75311
                      -0.93456                      -2.11410                      54.75200
                      -0.37805                      -2.29492                      54.75077
                       0.20595                      -2.33167                      54.74948
                       0.78073                      -2.22202                      54.74822
                       1.31019                      -1.97288                      54.74707
                       1.76105                      -1.59989                      54.74610
                       2.10499                      -1.12649                      54.74538
                       2.32040                      -0.58243                      54.74494
                       2.35057                      -0.00220                      59.12447
                       2.27891                       0.56509                      59.12468
                       2.06841                       1.09674                      59.12522
                       1.73232                       1.55933                      59.12606
                       1.29174                       1.92381                      59.12715
                       0.77436                       2.16728                      59.12841
                       0.21268                       2.27442                      59.12977
                      -0.35799                       2.23852                      59.13113
                      -0.90180                       2.06182                      59.13243
                      -1.38459                       1.75543                      59.13356
                      -1.77601                       1.33861                      59.13447
                      -2.05148                       0.83753                      59.13510
                      -2.19368                       0.28370                      59.13540
                      -2.19368                      -0.28810                      59.13536
                      -2.05148                      -0.84194                      59.13498
                      -1.77601                      -1.34302                      59.13428
                      -1.38459                      -1.75984                      59.13331
                      -0.90180                      -2.06623                      59.13213
                      -0.35799                      -2.24292                      59.13081
                       0.21268                      -2.27883                      59.12944
                       0.77436                      -2.17168                      59.12809
                       1.29174                      -1.92822                      59.12687
                       1.73232                      -1.56374                      59.12584
                       2.06841                      -1.10114                      59.12506
                       2.27891                      -0.56950                      59.12460
                       2.30828                      -0.00253                      63.50414
                       2.23829                       0.55152                      63.50436
                       2.03271                       1.07076                      63.50494
                       1.70446                       1.52255                      63.50582
                       1.27416                       1.87853                      63.50697
                       0.76886                       2.11630                      63.50830
                       0.22030                       2.22095                      63.50974
                      -0.33705                       2.18588                      63.51119
                      -0.86817                       2.01331                      63.51255
                      -1.33969                       1.71408                      63.51376
                      -1.72197                       1.30698                      63.51472
                      -1.99101                       0.81760                      63.51538
                      -2.12989                       0.27670                      63.51570
                      -2.12989                      -0.28176                      63.51566
                      -1.99101                      -0.82267                      63.51526
                      -1.72197                      -1.31204                      63.51452
                      -1.33969                      -1.71914                      63.51349
                      -0.86817                      -2.01837                      63.51224
                      -0.33705                      -2.19094                      63.51085
                       0.22030                      -2.22601                      63.50940
                       0.76886                      -2.12137                      63.50798
                       1.27416                      -1.88359                      63.50668
                       1.70446                      -1.52762                      63.50559
                       2.03271                      -1.07582                      63.50477
                       2.23828                      -0.55658                      63.50428
                       2.26684                      -0.00288                      67.88385
                       2.19852                       0.53793                      67.88409
                       1.99785                       1.04476                      67.88469
                       1.67745                       1.48575                      67.88562
                       1.25744                       1.83322                      67.88682
                       0.76421                       2.06531                      67.88821
                       0.22876                       2.16746                      67.88971
                      -0.31526                       2.13323                      67.89123
                      -0.83369                       1.96478                      67.89266
                      -1.29393                       1.67270                      67.89392
                      -1.66708                       1.27533                      67.89492
                      -1.92969                       0.79765                      67.89562
                      -2.06525                       0.26967                      67.89595
                      -2.06525                      -0.27543                      67.89591
                      -1.92969                      -0.80341                      67.89549
                      -1.66708                      -1.28109                      67.89472
                      -1.29393                      -1.67846                      67.89364
                      -0.83369                      -1.97054                      67.89234
                      -0.31526                      -2.13898                      67.89088
                       0.22876                      -2.17321                      67.88936
                       0.76421                      -2.07107                      67.88787
                       1.25744                      -1.83898                      67.88652
                       1.67745                      -1.49151                      67.88537
                       1.99785                      -1.05051                      67.88452
                       2.19852                      -0.54369                      67.88400
                       2.22616                      -0.00324                      72.26365
                       2.15951                       0.52432                      72.26389
                       1.96376                       1.01874                      72.26451
                       1.65120                       1.44894                      72.26547
                       1.24148                       1.78789                      72.26670
                       0.76033                       2.01430                      72.26814
                       0.23799                       2.11395                      72.26969
                      -0.29271                       2.08056                      72.27125
                      -0.79844                       1.91623                      72.27272
                      -1.24742                       1.63130                      72.27402
                      -1.61143                       1.24367                      72.27506
                      -1.86761                       0.77769                      72.27577
                      -1.99985                       0.26263                      72.27612
                      -1.99985                      -0.26912                      72.27607
                      -1.86761                      -0.78417                      72.27564
                      -1.61143                      -1.25016                      72.27485
                      -1.24742                      -1.63779                      72.27374
                      -0.79844                      -1.92272                      72.27239
                      -0.29271                      -2.08704                      72.27089
                       0.23799                      -2.12043                      72.26932
                       0.76033                      -2.02079                      72.26779
                       1.24147                      -1.79438                      72.26640
                       1.65120                      -1.45542                      72.26522
                       1.96376                      -1.02522                      72.26434
                       2.15951                      -0.53081                      72.26380
                       2.18605                      -0.00362                      76.64358
                       2.12108                       0.51070                      76.64382
                       1.93024                       0.99270                      76.64444
                       1.62553                       1.41211                      76.64541
                       1.22609                       1.74255                      76.64665
                       0.75702                       1.96328                      76.64810
                       0.24780                       2.06042                      76.64966
                      -0.26959                       2.02787                      76.65124
                      -0.76262                       1.86767                      76.65273
                      -1.20033                       1.58989                      76.65404
                      -1.55520                       1.21199                      76.65508
                      -1.80495                       0.75770                      76.65580
                      -1.93387                       0.25558                      76.65615
                      -1.93387                      -0.26283                      76.65611
                      -1.80495                      -0.76495                      76.65567
                      -1.55520                      -1.21924                      76.65487
                      -1.20033                      -1.59714                      76.65375
                      -0.76262                      -1.87492                      76.65240
                      -0.26959                      -2.03512                      76.65088
                       0.24780                      -2.06767                      76.64930
                       0.75702                      -1.97053                      76.64776
                       1.22609                      -1.74980                      76.64635
                       1.62553                      -1.41935                      76.64516
                       1.93024                      -0.99995                      76.64427
                       2.12108                      -0.51794                      76.64373
                       2.14622                      -0.00402                      81.02369
                       2.08292                       0.49706                      81.02393
                       1.89700                       0.96666                      81.02454
                       1.60013                       1.37526                      81.02549
                       1.21098                       1.69720                      81.02671
                       0.75399                       1.91224                      81.02812
                       0.25787                       2.00688                      81.02965
                      -0.24619                       1.97517                      81.03119
                      -0.72653                       1.81910                      81.03265
                      -1.15297                       1.54847                      81.03393
                      -1.49870                       1.18030                      81.03496
                      -1.74202                       0.73771                      81.03566
                      -1.86762                       0.24851                      81.03600
                      -1.86762                      -0.25655                      81.03595
                      -1.74202                      -0.74574                      81.03553
                      -1.49870                      -1.18833                      81.03474
                      -1.15297                      -1.55650                      81.03365
                      -0.72653                      -1.82713                      81.03232
                      -0.24619                      -1.98320                      81.03083
                       0.25787                      -2.01492                      81.02929
                       0.75399                      -1.92028                      81.02778
                       1.21098                      -1.70523                      81.02640
                       1.60013                      -1.38329                      81.02523
                       1.89700                      -0.97469                      81.02436
                       2.08292                      -0.50509                      81.02384
                       2.10619                      -0.00442                      85.40406
                       2.04456                       0.48342                      85.40428
                       1.86355                       0.94060                      85.40486
                       1.57453                       1.33841                      85.40575
                       1.19566                       1.65184                      85.40689
                       0.75075                       1.86120                      85.40822
                       0.26774                       1.95334                      85.40966
                      -0.22300                       1.92246                      85.41110
                      -0.69064                       1.77051                      85.41246
                      -1.10581                       1.50704                      85.41366
                      -1.44241                       1.14860                      85.41462
                      -1.67929                       0.71770                      85.41528
                      -1.80158                       0.24144                      85.41559
                      -1.80158                      -0.25027                      85.41555
                      -1.67929                      -0.72654                      85.41514
                      -1.44241                      -1.15743                      85.41441
                      -1.10581                      -1.51588                      85.41338
                      -0.69064                      -1.77935                      85.41213
                      -0.22300                      -1.93130                      85.41074
                       0.26774                      -1.96217                      85.40929
                       0.75074                      -1.87003                      85.40788
                       1.19566                      -1.66067                      85.40659
                       1.57453                      -1.34724                      85.40550
                       1.86355                      -0.94944                      85.40468
                       2.04456                      -0.49225                      85.40419
                       2.08589                      -0.00462                      87.59436
                       2.02510                       0.47659                      87.59458
                       1.84655                       0.92757                      87.59513
                       1.56145                       1.31998                      87.59597
                       1.18772                       1.62915                      87.59705
                       0.74885                       1.83567                      87.59831
                       0.27240                       1.92656                      87.59966
                      -0.21168                       1.89610                      87.60103
                      -0.67298                       1.74622                      87.60232
                      -1.08251                       1.48632                      87.60345
                      -1.41454                       1.13274                      87.60436
                      -1.64821                       0.70770                      87.60498
                      -1.76883                       0.23790                      87.60527
                      -1.76883                      -0.24714                      87.60523
                      -1.64821                      -0.71694                      87.60484
                      -1.41454                      -1.14199                      87.60414
                      -1.08251                      -1.49557                      87.60317
                      -0.67298                      -1.75546                      87.60199
                      -0.21168                      -1.90535                      87.60067
                       0.27240                      -1.93580                      87.59930
                       0.74885                      -1.84492                      87.59797
                       1.18772                      -1.63840                      87.59675
                       1.56145                      -1.32922                      87.59572
                       1.84655                      -0.93682                      87.59495
                       2.02510                      -0.48584                      87.59449
                       3.00000                       0.00000                       0.00000
                       2.90575                       0.74607                       0.00000
                       2.62892                       1.44526                       0.00000
                       2.18691                       2.05364                       0.00000
                       1.60748                       2.53298                       0.00000
                       0.92705                       2.85317                       0.00000
                       0.18837                       2.99408                       0.00000
                      -0.56214                       2.94686                       0.00000
                      -1.27734                       2.71448                       0.00000
                      -1.91227                       2.31154                       0.00000
                      -2.42705                       1.76336                       0.00000
                      -2.78933                       1.10437                       0.00000
                      -2.97634                       0.37600                       0.00000
                      -2.97634                      -0.37600                       0.00000
                      -2.78933                      -1.10437                       0.00000
                      -2.42705                      -1.76336                       0.00000
                      -1.91227                      -2.31154                       0.00000
                      -1.27734                      -2.71448                       0.00000
                      -0.56214                      -2.94686                       0.00000
                       0.18837                      -2.99408                       0.00000
                       0.92705                      -2.85317                       0.00000
                       1.60748                      -2.53298                       0.00000
                       2.18691                      -2.05364                       0.00000
                       2.62892                      -1.44526                       0.00000
                       2.90575                      -0.74607                       0.00000
        </DataArray>
      </Points>
      <Polys>
        <DataArray type="Int32" Name="connectivity" format="ascii">
      0      1     26     25
      1      2     27     26
      2      3     28     27
      3      4     29     28
      4      5     30     29
      5      6     31     30
      6      7     32     31
      7      8     33     32
      8      9     34     33
      9     10     35     34
     10     11     36     35
     11     12     37     36
     12     13     38     37
     13     14     39     38
     14     15     40     39
     15     16     41     40
     16     17     42     41
     17     18     43     42
     18     19     44     43
     19     20     45     44
     20     21     46     45
     21     22     47     46
     22     23     48     47
     23     24     49     48
     24      0     25     49
     24     23     22     21     20     19     18     17     16     15     14     13     12     11     10      9      8      7      6      5      4      3      2      1      0
     25     26     27     28     29     30     31     32     33     34     35     36     37     38     39     40     41     42     43     44     45     46     47     48     49
     25     26     51     50
     26     27     52     51
     27     28     53     52
     28     29     54     53
     29     30     55     54
     30     31     56     55
     31     32     57     56
     32     33     58     57
     33     34     59     58
     34     35     60     59
     35     36     61     60
     36     37     62     61
     37     38     63     62
     38     39     64     63
     39     40     65     64
     40     41     66     65
     41     42     67     66
     42     43     68     67
     43     44     69     68
     44     45     70     69
     45     46     71     70
     46     47     72     71
     47     48     73     72
     48     49     74     73
     49     25     50     74
     49     48     47     46     45     44     43     42     41     40     39     38     37     36     35     34     33     32     31     30     29     28     27     26     25
     50     51     52     53     54     55     56     57     58     59     60     61     62     63     64     65     66     67     68     69     70     71     72     73     74
     50     51     76     75
     51     52     77     76
     52     53     78     77
     53     54     79     78
     54     55     80     79
     55     56     81     80
     56     57     82     81
     57     58     83     82
     58     59     84     83
     59     60     85     84
     60     61     86     85
     61     62     87     86
     62     63     88     87
     63     64     89     88
     64     65     90     89
     65     66     91     90
     66     67     92     91
     67     68     93     92
     68     69     94     93
     69     70     95     94
     70     71     96     95
     71     72     97     96
     72     73     98     97
     73     74     99     98
     74     50     75     99
     74     73     72     71     70     69     68     67     66     65     64     63     62     61     60     59     58     57     56     55     54     53     52     51     50
     75     76     77     78     79     80     81     82     83     84     85     86     87     88     89     90     91     92     93     94     95     96     97     98     99
     75     76    101    100
     76     77    102    101
     77     78    103    102
     78     79    104    103
     79     80    105    104
     80     81    106    105
     81     82    107    106
     82     83    108    107
     83     84    109    108
     84     85    110    109
     85     86    111    110
     86     87    112    111
     87     88    113    112
     88     89    114    113
     89     90    115    114
     90     91    116    115
     91     92    117    116
     92     93    118    117
     93     94    119    118
     94     95    120    119
     95     96    121    120
     96     97    122    121
     97     98    123    122
     98     99    124    123
     99     75    100    124
     99     98     97     96     95     94     93     92     91     90     89     88     87     86     85     84     83     82     81     80     79     78     77     76     75
    100    101    102    103    104    105    106    107    108    109    110    111    112    113    114    115    116    117    118    119    120    121    122    123    124
    100    101    126    125
    101    102    127    126
    102    103    128    127
    103    104    129    128
    104    105    130    129
    105    106    131    130
    106    107    132    131
    107    108    133    132
    108    109    134    133
    109    110    135    134
    110    111    136    135
    111    112    137    136
    112    113    138    137
    113    114    139    138
    114    115    140    139
    115    116    141    140
    116    117    142    141
    117    118    143    142
    118    119    144    143
    119    120    145    144
    120    121    146    145
    121    122    147    146
    122    123    148    147
    123    124    149    148
    124    100    125    149
    124    123    122    121    120    119    118    117    116    115    114    113    112    111    110    109    108    107    106    105    104    103    102    101    100
    125    126    127    128    129    130    131    132    133    134    135    136    137    138    139    140    141    142    143    144    145    146    147    148    149
    125    126    151    150
    126    127    152    151
    127    128    153    152
    128    129    154    153
    129    130    155    154
    130    131    156    155
    131    132    157    156
    132    133    158    157
    133    134    159    158
    134    135    160    159
    135    136    161    160
    136    137    162    161
    137    138    163    162
    138    139    164    163
    139    140    165    164
    140    141    166    165
    141    142    167    166
    142    143    168    167
    143    144    169    168
    144    145    170    169
    145    146    171    170
    146    147    172    171
    147    148    173    172
    148    149    174    173
    149    125    150    174
    149    148    147    146    145    144    143    142    141    140    139    138    137    136    135    134    133    132    131    130    129    128    127    126    125
    150    151    152    153    154    155    156    157    158    159    160    161    162    163    164    165    166    167    168    169    170    171    172    173    174
    150    151    176    175
    151    152    177    176
    152    153    178    177
    153    154    179    178
    154    155    180    179
    155    156    181    180
    156    157    182    181
    157    158    183    182
    158    159    184    183
    159    160    185    184
    160    161    186    185
    161    162    187    186
    162    163    188    187
    163    164    189    188
    164    165    190    189
    165    166    191    190
    166    167    192    191
    167    168    193    192
    168    169    194    193
    169    170    195    194
    170    171    196    195
    171    172    197    196
    172    173    198    197
    173    174    199    198
    174    150    175    199
    174    173    172    171    170    169    168    167    166    165    164    163    162    161    160    159    158    157    156    155    154    153    152    151    150
    175    176    177    178    179    180    181    182    183    184    185    186    187    188    189    190    191    192    193    194    195    196    197    198    199
    175    176    201    200
    176    177    202    201
    177    178    203    202
    178    179    204    203
    179    180    205    204
    180    181    206    205
    181    182    207    206
    182    183    208    207
    183    184    209    208
    184    185    210    209
    185    186    211    210
    186    187    212    211
    187    188    213    212
    188    189    214    213
    189    190    215    214
    190    191    216    215
    191    192    217    216
    192    193    218    217
    193    194    219    218
    194    195    220    219
    195    196    221    220
    196    197    222    221
    197    198    223    222
    198    199    224    223
    199    175    200    224
    199    198    197    196    195    194    193    192    191    190    189    188    187    186    185    184    183    182    181    180    179    178    177    176    175
    200    201    202    203    204    205    206    207    208    209    210    211    212    213    214    215    216    217    218    219    220    221    222    223    224
    200    201    226    225
    201    202    227    226
    202    203    228    227
    203    204    229    228
    204    205    230    229
    205    206    231    230
    206    207    232    231
    207    208    233    232
    208    209    234    233
    209    210    235    234
    210    211    236    235
    211    212    237    236
    212    213    238    237
    213    214    239    238
    214    215    240    239
    215    216    241    240
    216    217    242    241
    217    218    243    242
    218    219    244    243
    219    220    245    244
    220    221    246    245
    221    222    247    246
    222    223    248    247
    223    224    249    248
    224    200    225    249
    224    223    222    221    220    219    218    217    216    215    214    213    212    211    210    209    208    207    206    205    204    203    202    201    200
    225    226    227    228    229    230    231    232    233    234    235    236    237    238    239    240    241    242    243    244    245    246    247    248    249
    225    226    251    250
    226    227    252    251
    227    228    253    252
    228    229    254    253
    229    230    255    254
    230    231    256    255
    231    232    257    256
    232    233    258    257
    233    234    259    258
    234    235    260    259
    235    236    261    260
    236    237    262    261
    237    238    263    262
    238    239    264    263
    239    240    265    264
    240    241    266    265
    241    242    267    266
    242    243    268    267
    243    244    269    268
    244    245    270    269
    245    246    271    270
    246    247    272    271
    247    248    273    272
    248    249    274    273
    249    225    250    274
    249    248    247    246    245    244    243    242    241    240    239    238    237    236    235    234    233    232    231    230    229    228    227    226    225
    250    251    252    253    254    255    256    257    258    259    260    261    262    263    264    265    266    267    268    269    270    271    272    273    274
    250    251    276    275
    251    252    277    276
    252    253    278    277
    253    254    279    278
    254    255    280    279
    255    256    281    280
    256    257    282    281
    257    258    283    282
    258    259    284    283
    259    260    285    284
    260    261    286    285
    261    262    287    286
    262    263    288    287
    263    264    289    288
    264    265    290    289
    265    266    291    290
    266    267    292    291
    267    268    293    292
    268    269    294    293
    269    270    295    294
    270    271    296    295
    271    272    297    296
    272    273    298    297
    273    274    299    298
    274    250    275    299
    274    273    272    271    270    269    268    267    266    265    264    263    262    261    260    259    258    257    256    255    254    253    252    251    250
    275    276    277    278    279    280    281    282    283    284    285    286    287    288    289    290    291    292    293    294    295    296    297    298    299
    275    276    301    300
    276    277    302    301
    277    278    303    302
    278    279    304    303
    279    280    305    304
    280    281    306    305
    281    282    307    306
    282    283    308    307
    283    284    309    308
    284    285    310    309
    285    286    311    310
    286    287    312    311
    287    288    313    312
    288    289    314    313
    289    290    315    314
    290    291    316    315
    291    292    317    316
    292    293    318    317
    293    294    319    318
    294    295    320    319
    295    296    321    320
    296    297    322    321
    297    298    323    322
    298    299    324    323
    299    275    300    324
    299    298    297    296    295    294    293    292    291    290    289    288    287    286    285    284    283    282    281    280    279    278    277    276    275
    300    301    302    303    304    305    306    307    308    309    310    311    312    313    314    315    316    317    318    319    320    321    322    323    324
    300    301    326    325
    301    302    327    326
    302    303    328    327
    303    304    329    328
    304    305    330    329
    305    306    331    330
    306    307    332    331
    307    308    333    332
    308    309    334    333
    309    310    335    334
    310    311    336    335
    311    312    337    336
    312    313    338    337
    313    314    339    338
    314    315    340    339
    315    316    341    340
    316    317    342    341
    317    318    343    342
    318    319    344    343
    319    320    345    344
    320    321    346    345
    321    322    347    346
    322    323    348    347
    323    324    349    348
    324    300    325    349
    324    323    322    321    320    319    318    317    316    315    314    313    312    311    310    309    308    307    306    305    304    303    302    301    300
    325    326    327    328    329    330    331    332    333    334    335    336    337    338    339    340    341    342    343    344    345    346    347    348    349
    325    326    351    350
    326    327    352    351
    327    328    353    352
    328    329    354    353
    329    330    355    354
    330    331    356    355
    331    332    357    356
    332    333    358    357
    333    334    359    358
    334    335    360    359
    335    336    361    360
    336    337    362    361
    337    338    363    362
    338    339    364    363
    339    340    365    364
    340    341    366    365
    341    342    367    366
    342    343    368    367
    343    344    369    368
    344    345    370    369
    345    346    371    370
    346    347    372    371
    347    348    373    372
    348    349    374    373
    349    325    350    374
    349    348    347    346    345    344    343    342    341    340    339    338    337    336    335    334    333    332    331    330    329    328    327    326    325
    350    351    352    353    354    355    356    357    358    359    360    361    362    363    364    365    366    367    368    369    370    371    372    373    374
    350    351    376    375
    351    352    377    376
    352    353    378    377
    353    354    379    378
    354    355    380    379
    355    356    381    380
    356    357    382    381
    357    358    383    382
    358    359    384    383
    359    360    385    384
    360    361    386    385
    361    362    387    386
    362    363    388    387
    363    364    389    388
    364    365    390    389
    365    366    391    390
    366    367    392    391
    367    368    393    392
    368    369    394    393
    369    370    395    394
    370    371    396    395
    371    372    397    396
    372    373    398    397
    373    374    399    398
    374    350    375    399
    374    373    372    371    370    369    368    367    366    365    364    363    362    361    360    359    358    357    356    355    354    353    352    351    350
    375    376    377    378    379    380    381    382    383    384    385    386    387    388    389    390    391    392    393    394    395    396    397    398    399
    375    376    401    400
    376    377    402    401
    377    378    403    402
    378    379    404    403
    379    380    405    404
    380    381    406    405
    381    382    407    406
    382    383    408    407
    383    384    409    408
    384    385    410    409
    385    386    411    410
    386    387    412    411
    387    388    413    412
    388    389    414    413
    389    390    415    414
    390    391    416    415
    391    392    417    416
    392    393    418    417
    393    394    419    418
    394    395    420    419
    395    396    421    420
    396    397    422    421
    397    398    423    422
    398    399    424    423
    399    375    400    424
    399    398    397    396    395    394    393    392    391    390    389    388    387    386    385    384    383    382    381    380    379    378    377    376    375
    400    401    402    403    404    405    406    407    408    409    410    411    412    413    414    415    416    417    418    419    420    421    422    423    424
    400    401    426    425
    401    402    427    426
    402    403    428    427
    403    404    429    428
    404    405    430    429
    405    406    431    430
    406    407    432    431
    407    408    433    432
    408    409    434    433
    409    410    435    434
    410    411    436    435
    411    412    437    436
    412    413    438    437
    413    414    439    438
    414    415    440    439
    415    416    441    440
    416    417    442    441
    417    418    443    442
    418    419    444    443
    419    420    445    444
    420    421    446    445
    421    422    447    446
    422    423    448    447
    423    424    449    448
    424    400    425    449
    424    423    422    421    420    419    418    417    416    415    414    413    412    411    410    409    408    407    406    405    404    403    402    401    400
    425    426    427    428    429    430    431    432    433    434    435    436    437    438    439    440    441    442    443    444    445    446    447    448    449
    425    426    451    450
    426    427    452    451
    427    428    453    452
    428    429    454    453
    429    430    455    454
    430    431    456    455
    431    432    457    456
    432    433    458    457
    433    434    459    458
    434    435    460    459
    435    436    461    460
    436    437    462    461
    437    438    463    462
    438    439    464    463
    439    440    465    464
    440    441    466    465
    441    442    467    466
    442    443    468    467
    443    444    469    468
    444    445    470    469
    445    446    471    470
    446    447    472    471
    447    448    473    472
    448    449    474    473
    449    425    450    474
    449    448    447    446    445    444    443    442    441    440    439    438    437    436    435    434    433    432    431    430    429    428    427    426    425
    450    451    452    453    454    455    456    457    458    459    460    461    462    463    464    465    466    467    468    469    470    471    472    473    474
    450    451    476    475
    451    452    477    476
    452    453    478    477
    453    454    479    478
    454    455    480    479
    455    456    481    480
    456    457    482    481
    457    458    483    482
    458    459    484    483
    459    460    485    484
    460    461    486    485
    461    462    487    486
    462    463    488    487
    463    464    489    488
    464    465    490    489
    465    466    491    490
    466    467    492    491
    467    468    493    492
    468    469    494    493
    469    470    495    494
    470    471    496    495
    471    472    497    496
    472    473    498    497
    473    474    499    498
    474    450    475    499
    474    473    472    471    470    469    468    467    466    465    464    463    462    461    460    459    458    457    456    455    454    453    452    451    450
    475    476    477    478    479    480    481    482    483    484    485    486    487    488    489    490    491    492    493    494    495    496    497    498    499
    475    476    501    500
    476    477    502    501
    477    478    503    502
    478    479    504    503
    479    480    505    504
    480    481    506    505
    481    482    507    506
    482    483    508    507
    483    484    509    508
    484    485    510    509
    485    486    511    510
    486    487    512    511
    487    488    513    512
    488    489    514    513
    489    490    515    514
    490    491    516    515
    491    492    517    516
    492    493    518    517
    493    494    519    518
    494    495    520    519
    495    496    521    520
    496    497    522    521
    497    498    523    522
    498    499    524    523
    499    475    500    524
    499    498    497    496    495    494    493    492    491    490    489    488    487    486    485    484    483    482    481    480    479    478    477    476    475
    500    501    502    503    504    505    506    507    508    509    510    511    512    513    514    515    516    517    518    519    520    521    522    523    524
    525    526      1      0
    526    527      2      1
    527    528      3      2
    528    529      4      3
    529    530      5      4
    530    531      6      5
    531    532      7      6
    532    533      8      7
    533    534      9      8
    534    535     10      9
    535    536     11     10
    536    537     12     11
    537    538     13     12
    538    539     14     13
    539    540     15     14
    540    541     16     15
    541    542     17     16
    542    543     18     17
    543    544     19     18
    544    545     20     19
    545    546     21     20
    546    547     22     21
    547    548     23     22
    548    549     24     23
    549    525      0     24
    549    548    547    546    545    544    543    542    541    540    539    538    537    536    535    534    533    532    531    530    529    528    527    526    525
      0      1      2      3      4      5      6      7      8      9     10     11     12     13     14     15     16     17     18     19     20     21     22     23     24
        </DataArray>
        <DataArray type="Int32" Name="offsets" format="ascii">
      4
      8
     12
     16
     20
     24
     28
     32
     36
     40
     44
     48
     52
     56
     60
     64
     68
     72
     76
     80
     84
     88
     92
     96
    100
    125
    150
    154
    158
    162
    166
    170
    174
    178
    182
    186
    190
    194
    198
    202
    206
    210
    214
    218
    222
    226
    230
    234
    238
    242
    246
    250
    275
    300
    304
    308
    312
    316
    320
    324
    328
    332
    336
    340
    344
    348
    352
    356
    360
    364
    368
    372
    376
    380
    384
    388
    392
    396
    400
    425
    450
    454
    458
    462
    466
    470
    474
    478
    482
    486
    490
    494
    498
    502
    506
    510
    514
    518
    522
    526
    530
    534
    538
    542
    546
    550
    575
    600
    604
    608
    612
    616
    620
    624
    628
    632
    636
    640
    644
    648
    652
    656
    660
    664
    668
    672
    676
    680
    684
    688
    692
    696
    700
    725
    750
    754
    758
    762
    766
    770
    774
    778
    782
    786
    790
    794
    798
    802
    806
    810
    814
    818
    822
    826
    830
    834
    838
    842
    846
    850
    875
    900
    904
    908
    912
    916
    920
    924
    928
    932
    936
    940
    944
    948
    952
    956
    960
    964
    968
    972
    976
    980
    984
    988
    992
    996
   1000
   1025
   1050
   1054
   1058
   1062
   1066
   1070
   1074
   1078
   1082
   1086
   1090
   1094
   1098
   1102
   1106
   1110
   1114
   1118
   1122
   1126
   1130
   1134
   1138
   1142
   1146
   1150
   1175
   1200
   1204
   1208
   1212
   1216
   1220
   1224
   1228
   1232
   1236
   1240
   1244
   1248
   1252
   1256
   1260
   1264
   1268
   1272
   1276
   1280
   1284
   1288
   1292
   1296
   1300
   1325
   1350
   1354
   1358
   1362
   1366
   1370
   1374
   1378
   1382
   1386
   1390
   1394
   1398
   1402
   1406
   1410
   1414
   1418
   1422
   1426
   1430
   1434
   1438
   1442
   1446
   1450
   1475
   1500
   1504
   1508
   1512
   1516
   1520
   1524
   1528
   1532
   1536
   1540
   1544
   1548
   1552
   1556
   1560
   1564
   1568
   1572
   1576
   1580
   1584
   1588
   1592
   1596
   1600
   1625
   1650
   1654
   1658
   1662
   1666
   1670
   1674
   1678
   1682
   1686
   1690
   1694
   1698
   1702
   1706
   1710
   1714
   1718
   1722
   1726
   1730
   1734
   1738
   1742
   1746
   1750
   1775
   1800
   1804
   1808
   1812
   1816
   1820
   1824
   1828
   1832
   1836
   1840
   1844
   1848
   1852
   1856
   1860
   1864
   1868
   1872
   1876
   1880
   1884
   1888
   1892
   1896
   1900
   1925
   1950
   1954
   1958
   1962
   1966
   1970
   1974
   1978
   1982
   1986
   1990
   1994
   1998
   2002
   2006
   2010
   2014
   2018
   2022
   2026
   2030
   2034
   2038
   2042
   2046
   2050
   2075
   2100
   2104
   2108
   2112
   2116
   2120
   2124
   2128
   2132
   2136
   2140
   2144
   2148
   2152
   2156
   2160
   2164
   2168
   2172
   2176
   2180
   2184
   2188
   2192
   2196
   2200
   2225
   2250
   2254
   2258
   2262
   2266
   2270
   2274
   2278
   2282
   2286
   2290
   2294
   2298
   2302
   2306
   2310
   2314
   2318
   2322
   2326
   2330
   2334
   2338
   2342
   2346
   2350
   2375
   2400
   2404
   2408
   2412
   2416
   2420
   2424
   2428
   2432
   2436
   2440
   2444
   2448
   2452
   2456
   2460
   2464
   2468
   2472
   2476
   2480
   2484
   2488
   2492
   2496
   2500
   2525
   2550
   2554
   2558
   2562
   2566
   2570
   2574
   2578
   2582
   2586
   2590
   2594
   2598
   2602
   2606
   2610
   2614
   2618
   2622
   2626
   2630
   2634
   2638
   2642
   2646
   2650
   2675
   2700
   2704
   2708
   2712
   2716
   2720
   2724
   2728
   2732
   2736
   2740
   2744
   2748
   2752
   2756
   2760
   2764
   2768
   2772
   2776
   2780
   2784
   2788
   2792
   2796
   2800
   2825
   2850
   2854
   2858
   2862
   2866
   2870
   2874
   2878
   2882
   2886
   2890
   2894
   2898
   2902
   2906
   2910
   2914
   2918
   2922
   2926
   2930
   2934
   2938
   2942
   2946
   2950
   2975
   3000
   3004
   3008
   3012
   3016
   3020
   3024
   3028
   3032
   3036
   3040
   3044
   3048
   3052
   3056
   3060
   3064
   3068
   3072
   3076
   3080
   3084
   3088
   3092
   3096
   3100
   3125
   3150
        </DataArray>
      </Polys>
    </Piece>
  </PolyData>
</VTKFile>
