<?xml version="1.0"?>
<VTKFile type="PolyData" version="0.1" byte_order="LittleEndian">
  <PolyData>
    <Piece NumberOfPoints="     19" NumberOfVerts="  0" NumberOfLines="     18"
           NumberOfStrips="  0" NumberOfPolys="      0">
      <Points>
        <DataArray type="Float32" NumberOfComponents="3" format="ascii">
                      -5.01491                      -0.91160                      88.83120
                      -5.17262                      -1.73489                      87.75133
                      -5.51390                      -3.30502                      85.53650
                      -5.86521                      -4.83858                      83.29467
                      -6.30626                      -6.73315                      80.47498
                      -6.76464                      -9.12043                      77.16788
                      -7.17855                     -11.61019                      73.93238
                      -7.58070                     -14.10029                      70.69503
                      -7.96961                     -16.59234                      67.45684
                      -8.34864                     -19.08502                      64.21722
                      -8.72330                     -21.57571                      60.97487
                      -9.09823                     -24.06600                      57.73169
                      -9.48120                     -26.55635                      54.48921
                      -9.88176                     -29.04730                      51.24946
                     -10.30888                     -31.53920                      48.01447
                     -10.69497                     -33.61701                      45.32444
                     -11.02716                     -35.28644                      43.18206
                     -11.37541                     -37.00052                      41.07693
                     -11.57074                     -37.82498                      40.00323
        </DataArray>
      </Points>
      <PointData>
        <DataArray type="Float32" Name="TranslationalVelocity" NumberOfComponents="3" format="ascii">
                      -0.22408                       3.36246                      -2.53658
                      -0.43260                       6.42491                      -4.84093
                      -0.83304                      12.70844                      -9.23384
                      -1.22734                      19.06654                     -13.52182
                      -1.71824                      27.05738                     -18.81509
                      -2.34064                      36.40539                     -25.47854
                      -2.99451                      45.53235                     -32.42013
                      -3.65500                      54.65224                     -39.35457
                      -4.32433                      63.76295                     -46.28704
                      -5.00476                      72.86844                     -53.21468
                      -5.69883                      81.97534                     -60.13110
                      -6.41090                      91.08123                     -67.04138
                      -7.14568                     100.18527                     -73.94713
                      -7.90857                     109.28546                     -80.84955
                      -8.70560                     118.37899                     -87.74858
                      -9.40155                     125.94826                     -93.49497
                      -9.98293                     131.98234                     -98.10695
                     -10.60006                     137.91580                    -102.83711
                     -10.90862                     140.94638                    -105.10909
        </DataArray>
        <DataArray type="Float32" Name="RotationalVelocity" NumberOfComponents="3" format="ascii">
                       2.79955                       0.00028                      -0.25283
                       2.79907                       0.00051                      -0.25306
                       2.79774                       0.00115                      -0.25362
                       2.79600                       0.00178                      -0.25446
                       2.79345                       0.00226                      -0.25606
                       2.79012                       0.00216                      -0.25895
                       2.78677                       0.00131                      -0.26288
                       2.78361                      -0.00001                      -0.26767
                       2.78078                      -0.00133                      -0.27307
                       2.77836                      -0.00208                      -0.27876
                       2.77634                      -0.00170                      -0.28442
                       2.77468                       0.00030                      -0.28980
                       2.77328                       0.00426                      -0.29476
                       2.77198                       0.01022                      -0.29934
                       2.77061                       0.01791                      -0.30379
                       2.76926                       0.02512                      -0.30775
                       2.76794                       0.03096                      -0.31143
                       2.76631                       0.03631                      -0.31592
                       2.76535                       0.03862                      -0.31860
        </DataArray>
        <DataArray type="Float32" Name="TranslationalAcceleration" NumberOfComponents="3" format="ascii">
                       0.87678                       7.16171                       9.45859
                       1.08701                       8.64475                      11.37577
                       3.47812                      24.11499                      32.94194
                       5.91604                      37.96935                      52.97230
                       8.74785                      53.83932                      76.52045
                      11.51373                      72.61867                     102.70694
                      13.56659                      91.62298                     127.65945
                      15.06873                     110.51157                     152.56658
                      16.29814                     129.55541                     177.70034
                      17.61371                     148.84000                     203.12372
                      19.38772                     168.32109                     228.75047
                      21.94587                     187.91374                     254.38029
                      25.49949                     207.49259                     279.80340
                      30.08192                     226.94622                     304.86345
                      35.48445                     246.22342                     329.53101
                      40.24038                     262.18142                     349.90259
                      43.84949                     274.99340                     366.20244
                      46.94692                     288.25087                     382.48636
                      48.15388                     294.69381                     390.99391
        </DataArray>
        <DataArray type="Float32" Name="OrientationX" NumberOfComponents="3" format="ascii">
                       0.95272                       0.15762                      -0.25978
                       0.95275                       0.15784                      -0.25954
                       0.95279                       0.15860                      -0.25891
                       0.95282                       0.15981                      -0.25807
                       0.95280                       0.16192                      -0.25683
                       0.96120                       0.14041                      -0.23743
                       0.96644                       0.12696                      -0.22331
                       0.97029                       0.11708                      -0.21174
                       0.97364                       0.10777                      -0.20103
                       0.97632                       0.09954                      -0.19207
                       0.97798                       0.09384                      -0.18643
                       0.97883                       0.08971                      -0.18396
                       0.97860                       0.08822                      -0.18589
                       0.97684                       0.09081                      -0.19374
                       0.97436                       0.09322                      -0.20476
                       0.97189                       0.09414                      -0.21580
                       0.96960                       0.09402                      -0.22592
                       0.96640                       0.09525                      -0.23874
                       0.96430                       0.09682                      -0.24647
        </DataArray>
        <DataArray type="Float32" Name="OrientationY" NumberOfComponents="3" format="ascii">
                       0.28127                      -0.78097                       0.55766
                       0.28128                      -0.78100                       0.55760
                       0.28149                      -0.78103                       0.55746
                       0.28193                      -0.78100                       0.55727
                       0.28284                      -0.78088                       0.55699
                       0.25414                      -0.78541                       0.56440
                       0.23499                      -0.78807                       0.56897
                       0.22021                      -0.78994                       0.57228
                       0.20637                      -0.79157                       0.57518
                       0.19445                      -0.79291                       0.57749
                       0.18651                      -0.79381                       0.57886
                       0.18173                      -0.79442                       0.57955
                       0.18167                      -0.79461                       0.57930
                       0.18841                      -0.79421                       0.57769
                       0.19690                      -0.79365                       0.57563
                       0.20422                      -0.79314                       0.57377
                       0.21019                      -0.79272                       0.57220
                       0.21885                      -0.79205                       0.56988
                       0.22473                      -0.79156                       0.56827
        </DataArray>
        <DataArray type="Float32" Name="OrientationZ" NumberOfComponents="3" format="ascii">
                      -0.11498                      -0.60435                      -0.78837
                      -0.11469                      -0.60426                      -0.78849
                      -0.11380                      -0.60402                      -0.78880
                      -0.11250                      -0.60373                      -0.78921
                      -0.11037                      -0.60334                      -0.78981
                      -0.10723                      -0.60284                      -0.79062
                      -0.10375                      -0.60236                      -0.79145
                      -0.10026                      -0.60191                      -0.79225
                      -0.09715                      -0.60150                      -0.79294
                      -0.09481                      -0.60116                      -0.79349
                      -0.09367                      -0.60089                      -0.79383
                      -0.09414                      -0.60071                      -0.79390
                      -0.09661                      -0.60067                      -0.79364
                      -0.10141                      -0.60081                      -0.79293
                      -0.10885                      -0.60119                      -0.79166
                      -0.11714                      -0.60172                      -0.79007
                      -0.12530                      -0.60229                      -0.78838
                      -0.13481                      -0.60299                      -0.78628
                      -0.14008                      -0.60337                      -0.78506
        </DataArray>
        <DataArray type="Float32" Name="Force" NumberOfComponents="3" format="ascii">
                       1.46259                     -21.40436                      16.19492
                     171.83774                    -118.51328                      65.85079
                     293.71006                    -335.44046                     214.72764
                     312.93106                    -483.92378                     326.24342
                    1473.65216                     226.26934                    -379.35945
                    1336.86444                     144.17050                    -291.83339
                    1181.54676                      62.05084                    -202.49106
                    1794.03168                     106.85208                    -308.97483
                    2225.28350                     104.88040                    -353.06703
                    2426.11680                      78.92596                    -350.47414
                    3992.66210                     120.07241                    -563.32839
                    4201.54853                      89.55156                    -567.11339
                    3198.97704                      11.60959                    -398.61312
                    1749.26083                     -91.36523                    -153.99319
                    1960.48709                       3.17956                    -272.21907
                     348.04511                    -170.05726                      78.75070
                   -1141.46254                    -213.28107                     345.19024
                   -2326.77749                    -191.14827                     545.83822
                  -18840.46484                     627.57721                    2878.50169
        </DataArray>
        <DataArray type="Float32" Name="Moment" NumberOfComponents="3" format="ascii">
                       0.00000                       0.00000                       0.00000
                       0.00000                       0.00000                       0.00000
                       0.00000                       0.00000                       0.00000
                       0.00000                       0.00000                       0.00000
                     147.65849                     809.30768                    1056.30362
                     268.60803                    1516.00533                    1979.40261
                     347.18510                    2026.33018                    2646.78800
                     536.44472                    3241.56438                    4235.83606
                     771.35815                    4812.84453                    6291.33686
                     853.07050                    5455.96627                    7133.95296
                     940.73708                    6091.48560                    7965.98344
                    1004.02602                    6469.66281                    8460.09375
                     776.67359                    4876.54101                    6375.04263
                     801.13742                    4789.99833                    6258.45226
                     814.91168                    4536.27891                    5921.87455
                     824.17374                    4259.02723                    5554.60243
                     778.17284                    3756.02229                    4893.94955
                     418.37077                    1874.66473                    2439.90719
                     398.39773                    1716.95581                    2233.27161
        </DataArray>
      </PointData>
      <Lines>
        <DataArray type="Int32" Name="connectivity" format="ascii">
      0      1
      1      2
      2      3
      3      4
      4      5
      5      6
      6      7
      7      8
      8      9
      9     10
     10     11
     11     12
     12     13
     13     14
     14     15
     15     16
     16     17
     17     18
        </DataArray>
        <DataArray type="Int32" Name="offsets" format="ascii">
      2
      4
      6
      8
     10
     12
     14
     16
     18
     20
     22
     24
     26
     28
     30
     32
     34
     36
        </DataArray>
      </Lines>
    </Piece>
  </PolyData>
</VTKFile>
