<?xml version="1.0"?>
<VTKFile type="PolyData" version="0.1" byte_order="LittleEndian">
  <PolyData>
    <Piece NumberOfPoints="    625" NumberOfVerts="  0" NumberOfLines="      0"
           NumberOfStrips="  0" NumberOfPolys="    600">
      <Points>
        <DataArray type="Float32" NumberOfComponents="3" format="ascii">
                      -4.95710                      -0.79218                      88.74334
                      -4.95710                      -0.79218                      88.74334
                      -4.95710                      -0.79218                      88.74334
                      -4.95710                      -0.79218                      88.74334
                      -4.95710                      -0.79218                      88.74334
                      -4.95710                      -0.79218                      88.74334
                      -4.95710                      -0.79218                      88.74334
                      -4.95710                      -0.79218                      88.74334
                      -4.95710                      -0.79218                      88.74334
                      -4.95710                      -0.79218                      88.74334
                      -4.95710                      -0.79218                      88.74334
                      -4.95710                      -0.79218                      88.74334
                      -4.95710                      -0.79218                      88.74334
                      -4.95710                      -0.79218                      88.74334
                      -4.95710                      -0.79218                      88.74334
                      -4.95710                      -0.79218                      88.74334
                      -4.95710                      -0.79218                      88.74334
                      -4.95710                      -0.79218                      88.74334
                      -4.95710                      -0.79218                      88.74334
                      -4.95710                      -0.79218                      88.74334
                      -4.95710                      -0.79218                      88.74334
                      -4.95710                      -0.79218                      88.74334
                      -4.95710                      -0.79218                      88.74334
                      -4.95710                      -0.79218                      88.74334
                      -4.95710                      -0.79218                      88.74334
                      -4.35049                      -0.72644                      88.79528
                      -4.37630                      -0.59963                      88.71889
                      -4.43801                      -0.48080                      88.65069
                      -4.53173                      -0.37740                      88.59497
                      -4.65157                      -0.29593                      88.55522
                      -4.79002                      -0.24151                      88.53394
                      -4.93836                      -0.21756                      88.53247
                      -5.08728                      -0.22559                      88.55091
                      -5.22741                      -0.26508                      88.58809
                      -5.34997                      -0.33357                      88.64168
                      -5.44723                      -0.42674                      88.70831
                      -5.51310                      -0.53874                      88.78379
                      -5.54343                      -0.66254                      88.86339
                      -5.53632                      -0.79035                      88.94209
                      -5.49221                      -0.91415                      89.01496
                      -5.41388                      -1.02615                      89.07742
                      -5.30625                      -1.11932                      89.12554
                      -5.17608                      -1.18780                      89.15629
                      -5.03154                      -1.22730                      89.16775
                      -4.88173                      -1.23532                      89.15920
                      -4.73606                      -1.21137                      89.13117
                      -4.60367                      -1.15695                      89.08543
                      -4.49289                      -1.07548                      89.02484
                      -4.41067                      -0.97208                      88.95322
                      -4.36219                      -0.85324                      88.87506
                      -4.11218                      -0.66070                      88.88051
                      -4.14788                      -0.48531                      88.77485
                      -4.23322                      -0.32095                      88.68052
                      -4.36285                      -0.17793                      88.60344
                      -4.52862                      -0.06525                      88.54846
                      -4.72010                       0.01002                      88.51903
                      -4.92528                       0.04314                      88.51701
                      -5.13125                       0.03204                      88.54250
                      -5.32508                      -0.02259                      88.59393
                      -5.49458                      -0.11731                      88.66805
                      -5.62911                      -0.24618                      88.76021
                      -5.72022                      -0.40109                      88.86461
                      -5.76217                      -0.57232                      88.97470
                      -5.75233                      -0.74910                      89.08356
                      -5.69133                      -0.92032                      89.18435
                      -5.58298                      -1.07524                      89.27073
                      -5.43411                      -1.20410                      89.33729
                      -5.25407                      -1.29883                      89.37982
                      -5.05416                      -1.35345                      89.39568
                      -4.84695                      -1.36455                      89.38385
                      -4.64547                      -1.33142                      89.34508
                      -4.46236                      -1.25615                      89.28181
                      -4.30913                      -1.14347                      89.19801
                      -4.19542                      -1.00045                      89.09895
                      -4.12836                      -0.83608                      88.99085
                      -3.94027                      -0.59496                      88.97173
                      -3.98299                      -0.38510                      88.84530
                      -4.08512                      -0.18842                      88.73243
                      -4.24023                      -0.01729                      88.64020
                      -4.43858                       0.11755                      88.57441
                      -4.66771                       0.20761                      88.53919
                      -4.91322                       0.24725                      88.53677
                      -5.15968                       0.23396                      88.56728
                      -5.39161                       0.16859                      88.62881
                      -5.59444                       0.05525                      88.71750
                      -5.75542                      -0.09895                      88.82778
                      -5.86443                      -0.28432                      88.95271
                      -5.91463                      -0.48921                      89.08444
                      -5.90286                      -0.70074                      89.21470
                      -5.82986                      -0.90563                      89.33530
                      -5.70022                      -1.09099                      89.43867
                      -5.52208                      -1.24519                      89.51830
                      -5.30664                      -1.35853                      89.56921
                      -5.06744                      -1.42390                      89.58818
                      -4.81950                      -1.43718                      89.57402
                      -4.57840                      -1.39754                      89.52763
                      -4.35929                      -1.30747                      89.45192
                      -4.17594                      -1.17264                      89.35165
                      -4.03988                      -1.00150                      89.23311
                      -3.95964                      -0.80483                      89.10376
                      -3.80534                      -0.52922                      89.06629
                      -3.85348                      -0.29273                      88.92382
                      -3.96856                      -0.07110                      88.79663
                      -4.14335                       0.12174                      88.69270
                      -4.36687                       0.27368                      88.61856
                      -4.62507                       0.37517                      88.57888
                      -4.90173                       0.41984                      88.57614
                      -5.17946                       0.40487                      88.61053
                      -5.44082                       0.33121                      88.67987
                      -5.66938                       0.20348                      88.77981
                      -5.85078                       0.02971                      88.90408
                      -5.97362                      -0.17917                      89.04485
                      -6.03019                      -0.41005                      89.19330
                      -6.01692                      -0.64842                      89.34008
                      -5.93466                      -0.87930                      89.47599
                      -5.78858                      -1.08819                      89.59247
                      -5.58784                      -1.26195                      89.68221
                      -5.34507                      -1.38967                      89.73957
                      -5.07551                      -1.46333                      89.76095
                      -4.79611                      -1.47830                      89.74500
                      -4.52443                      -1.43363                      89.69272
                      -4.27752                      -1.33214                      89.60741
                      -4.07091                      -1.18019                      89.49441
                      -3.91758                      -0.98734                      89.36084
                      -3.82716                      -0.76571                      89.21508
                      -3.69586                      -0.46349                      89.16315
                      -3.74832                      -0.20578                      89.00790
                      -3.87373                       0.03574                      88.86929
                      -4.06420                       0.24589                      88.75604
                      -4.30778                       0.41146                      88.67525
                      -4.58914                       0.52206                      88.63201
                      -4.89062                       0.57073                      88.62903
                      -5.19328                       0.55442                      88.66650
                      -5.47808                       0.47415                      88.74206
                      -5.72715                       0.33496                      88.85097
                      -5.92483                       0.14560                      88.98638
                      -6.05869                      -0.08203                      89.13979
                      -6.12034                      -0.33362                      89.30156
                      -6.10588                      -0.59338                      89.46151
                      -6.01624                      -0.84498                      89.60961
                      -5.85705                      -1.07260                      89.73654
                      -5.63830                      -1.26196                      89.83433
                      -5.37374                      -1.40114                      89.89684
                      -5.08000                      -1.48141                      89.92014
                      -4.77554                      -1.49772                      89.90275
                      -4.47947                      -1.44904                      89.84579
                      -4.21041                      -1.33844                      89.75282
                      -3.98527                      -1.17286                      89.62969
                      -3.81818                      -0.96271                      89.48413
                      -3.71965                      -0.72120                      89.32529
                      -3.60594                      -0.39775                      89.26178
                      -3.66187                      -0.12297                      89.09624
                      -3.79558                       0.13454                      88.94846
                      -3.99867                       0.35860                      88.82770
                      -4.25837                       0.53514                      88.74156
                      -4.55838                       0.65307                      88.69546
                      -4.87982                       0.70496                      88.69228
                      -5.20252                       0.68757                      88.73223
                      -5.50619                       0.60198                      88.81280
                      -5.77175                       0.45358                      88.92892
                      -5.98252                       0.25168                      89.07330
                      -6.12525                       0.00898                      89.23687
                      -6.19098                      -0.25928                      89.40935
                      -6.17557                      -0.53625                      89.57990
                      -6.07999                      -0.80450                      89.73780
                      -5.91025                      -1.04721                      89.87314
                      -5.67702                      -1.24910                      89.97741
                      -5.39494                      -1.39750                      90.04406
                      -5.08175                      -1.48308                      90.06890
                      -4.75711                      -1.50047                      90.05036
                      -4.44144                      -1.44857                      89.98963
                      -4.15456                      -1.33065                      89.89050
                      -3.91450                      -1.15411                      89.75921
                      -3.73635                      -0.93004                      89.60401
                      -3.63129                      -0.67253                      89.43465
                      -3.53208                      -0.33201                      89.36186
                      -3.59080                      -0.04358                      89.18810
                      -3.73115                       0.22673                      89.03297
                      -3.94433                       0.46192                      88.90621
                      -4.21694                       0.64724                      88.81579
                      -4.53185                       0.77102                      88.76740
                      -4.86927                       0.82549                      88.76406
                      -5.20800                       0.80724                      88.80600
                      -5.52676                       0.71740                      88.89057
                      -5.80552                       0.56162                      89.01246
                      -6.02676                       0.34969                      89.16402
                      -6.17658                       0.09492                      89.33571
                      -6.24558                      -0.18667                      89.51676
                      -6.22940                      -0.47739                      89.69579
                      -6.12907                      -0.75898                      89.86154
                      -5.95090                      -1.01374                      90.00360
                      -5.70608                      -1.22567                      90.11305
                      -5.40998                      -1.38144                      90.18301
                      -5.08123                      -1.47128                      90.20908
                      -4.74046                      -1.48953                      90.18963
                      -4.40910                      -1.43505                      90.12587
                      -4.10797                      -1.31127                      90.02182
                      -3.85598                      -1.12595                      89.88401
                      -3.66898                      -0.89075                      89.72110
                      -3.55870                      -0.62044                      89.54332
                      -3.47210                      -0.26627                      89.46319
                      -3.53299                       0.03286                      89.28298
                      -3.67856                       0.31321                      89.12209
                      -3.89965                       0.55714                      88.99063
                      -4.18238                       0.74933                      88.89685
                      -4.50898                       0.87771                      88.84666
                      -4.85893                       0.93420                      88.84320
                      -5.21024                       0.91527                      88.88669
                      -5.54083                       0.82209                      88.97440
                      -5.82994                       0.66053                      89.10082
                      -6.05939                       0.44073                      89.25800
                      -6.21478                       0.17651                      89.43608
                      -6.28633                      -0.11553                      89.62385
                      -6.26956                      -0.41705                      89.80952
                      -6.16550                      -0.70909                      89.98142
                      -5.98072                      -0.97331                      90.12876
                      -5.72680                      -1.19311                      90.24227
                      -5.41972                      -1.35467                      90.31483
                      -5.07875                      -1.44784                      90.34187
                      -4.72534                      -1.46677                      90.32169
                      -4.38168                      -1.41027                      90.25557
                      -4.06937                      -1.28189                      90.14766
                      -3.80802                      -1.08969                      90.00473
                      -3.61407                      -0.84576                      89.83577
                      -3.49970                      -0.56541                      89.65139
                      -3.42453                      -0.20054                      89.56564
                      -3.48707                       0.10667                      89.38057
                      -3.63656                       0.39458                      89.21534
                      -3.86362                       0.64509                      89.08033
                      -4.15398                       0.84247                      88.98403
                      -4.48939                       0.97431                      88.93248
                      -4.84878                       1.03233                      88.92893
                      -5.20956                       1.01288                      88.97359
                      -5.54908                       0.91719                      89.06367
                      -5.84599                       0.75127                      89.19350
                      -6.08163                       0.52554                      89.35492
                      -6.24121                       0.25419                      89.53780
                      -6.31469                      -0.04573                      89.73064
                      -6.29746                      -0.35538                      89.92132
                      -6.19061                      -0.65530                      90.09786
                      -6.00083                      -0.92665                      90.24917
                      -5.74007                      -1.15238                      90.36575
                      -5.42470                      -1.31829                      90.44026
                      -5.07454                      -1.41398                      90.46803
                      -4.71159                      -1.43342                      90.44731
                      -4.35865                      -1.37540                      90.37940
                      -4.03791                      -1.24355                      90.26858
                      -3.76952                      -1.04617                      90.12179
                      -3.57034                      -0.79565                      89.94827
                      -3.45288                      -0.50775                      89.75893
                      -3.38842                      -0.13480                      89.66913
                      -3.45210                       0.17805                      89.48067
                      -3.60434                       0.47124                      89.31240
                      -3.83557                       0.72634                      89.17492
                      -4.13125                       0.92734                      89.07684
                      -4.47282                       1.06160                      89.02435
                      -4.83880                       1.12069                      89.02073
                      -5.20621                       1.10089                      89.06622
                      -5.55195                       1.00344                      89.15795
                      -5.85431                       0.83447                      89.29016
                      -6.09428                       0.60460                      89.45455
                      -6.25679                       0.32827                      89.64078
                      -6.33162                       0.02285                      89.83715
                      -6.31407                      -0.29249                      90.03133
                      -6.20525                      -0.59791                      90.21111
                      -6.01200                      -0.87424                      90.36520
                      -5.74645                      -1.10411                      90.48392
                      -5.42529                      -1.27307                      90.55980
                      -5.06870                      -1.37051                      90.58808
                      -4.69909                      -1.39031                      90.56698
                      -4.33968                      -1.33122                      90.49783
                      -4.01306                      -1.19695                      90.38497
                      -3.73974                      -0.99595                      90.23549
                      -3.53690                      -0.74084                      90.05879
                      -3.41729                      -0.44765                      89.86596
                      -3.36316                      -0.06906                      89.77360
                      -3.42752                       0.24712                      89.58313
                      -3.58138                       0.54343                      89.41307
                      -3.81507                       0.80126                      89.27412
                      -4.11391                       1.00440                      89.17500
                      -4.45911                       1.14009                      89.12195
                      -4.82900                       1.19981                      89.11829
                      -5.20032                       1.17979                      89.16426
                      -5.54975                       1.08131                      89.25697
                      -5.85533                       0.91054                      89.39059
                      -6.09785                       0.67822                      89.55673
                      -6.26209                       0.39895                      89.74494
                      -6.33772                       0.09026                      89.94341
                      -6.31999                      -0.22843                      90.13966
                      -6.21001                      -0.53711                      90.32136
                      -6.01470                      -0.81638                      90.47709
                      -5.74631                      -1.04870                      90.59707
                      -5.42173                      -1.21946                      90.67376
                      -5.06135                      -1.31794                      90.70234
                      -4.68780                      -1.33795                      90.68102
                      -4.32456                      -1.27823                      90.61113
                      -3.99445                      -1.14254                      90.49706
                      -3.71822                      -0.93939                      90.34599
                      -3.51322                      -0.68156                      90.16741
                      -3.39233                      -0.38525                      89.97253
                      -3.34839                      -0.00333                      89.87902
                      -3.41298                       0.31396                      89.68788
                      -3.56738                       0.61131                      89.51723
                      -3.80189                       0.87003                      89.37779
                      -4.10177                       1.07388                      89.27833
                      -4.44818                       1.21005                      89.22509
                      -4.81935                       1.26997                      89.22142
                      -5.19197                       1.24989                      89.26755
                      -5.54262                       1.15106                      89.36058
                      -5.84926                       0.97970                      89.49467
                      -6.09264                       0.74657                      89.66139
                      -6.25745                       0.46632                      89.85026
                      -6.33334                       0.15656                      90.04942
                      -6.31555                      -0.16325                      90.24636
                      -6.20519                      -0.47301                      90.42869
                      -6.00919                      -0.75326                      90.58497
                      -5.73987                      -0.98638                      90.70536
                      -5.41416                      -1.15774                      90.78232
                      -5.05251                      -1.25657                      90.81100
                      -4.67766                      -1.27664                      90.78960
                      -4.31315                      -1.21672                      90.71947
                      -3.98189                      -1.08055                      90.60501
                      -3.70470                      -0.87669                      90.45341
                      -3.49898                      -0.61796                      90.27420
                      -3.37767                      -0.32061                      90.07864
                      -3.34402                       0.06241                      89.98538
                      -3.40839                       0.37859                      89.79490
                      -3.56225                       0.67490                      89.62485
                      -3.79594                       0.93273                      89.48589
                      -4.09478                       1.13587                      89.38678
                      -4.43998                       1.27156                      89.33372
                      -4.80987                       1.33128                      89.33007
                      -5.18119                       1.31127                      89.37604
                      -5.53062                       1.21278                      89.46874
                      -5.83619                       1.04202                      89.60237
                      -6.07872                       0.80970                      89.76850
                      -6.24296                       0.53042                      89.95672
                      -6.31859                       0.22174                      90.15519
                      -6.30086                      -0.09696                      90.35144
                      -6.19088                      -0.40564                      90.53313
                      -5.99556                      -0.68491                      90.68887
                      -5.72718                      -0.91723                      90.80885
                      -5.40260                      -1.08799                      90.88554
                      -5.04222                      -1.18647                      90.91412
                      -4.66867                      -1.20648                      90.89279
                      -4.30543                      -1.14676                      90.82290
                      -3.97532                      -1.01106                      90.70884
                      -3.69909                      -0.80792                      90.55777
                      -3.49409                      -0.55009                      90.37918
                      -3.37320                      -0.25377                      90.18430
                      -3.35016                       0.12815                      90.09268
                      -3.41384                       0.44099                      89.90422
                      -3.56608                       0.73418                      89.73595
                      -3.79731                       0.98929                      89.59847
                      -4.09299                       1.19029                      89.50039
                      -4.43456                       1.32455                      89.44790
                      -4.80054                       1.38364                      89.44428
                      -5.16795                       1.36383                      89.48977
                      -5.51369                       1.26639                      89.58150
                      -5.81605                       1.09742                      89.71371
                      -6.05602                       0.86755                      89.87810
                      -6.21852                       0.59122                      90.06433
                      -6.29336                       0.28579                      90.26070
                      -6.27581                      -0.02954                      90.45488
                      -6.16699                      -0.33497                      90.63466
                      -5.97374                      -0.61129                      90.78875
                      -5.70819                      -0.84116                      90.90747
                      -5.38703                      -1.01012                      90.98335
                      -5.03044                      -1.10756                      91.01163
                      -4.66083                      -1.12736                      90.99053
                      -4.30142                      -1.06827                      90.92138
                      -3.97480                      -0.93401                      90.80852
                      -3.70148                      -0.73300                      90.65904
                      -3.49864                      -0.47789                      90.48234
                      -3.37903                      -0.18470                      90.28951
                      -3.36713                       0.19388                      90.20097
                      -3.42967                       0.50109                      90.01590
                      -3.57917                       0.78900                      89.85067
                      -3.80623                       1.03951                      89.71566
                      -4.09658                       1.23689                      89.61935
                      -4.43199                       1.36873                      89.56781
                      -4.79138                       1.42675                      89.56425
                      -5.15217                       1.40730                      89.60892
                      -5.49168                       1.31161                      89.69900
                      -5.78859                       1.14569                      89.82882
                      -6.02424                       0.91996                      89.99025
                      -6.18381                       0.64861                      90.17312
                      -6.25730                       0.34869                      90.36596
                      -6.24007                       0.03904                      90.55664
                      -6.13321                      -0.26088                      90.73318
                      -5.94344                      -0.53223                      90.88450
                      -5.68267                      -0.75796                      91.00107
                      -5.36730                      -0.92387                      91.07559
                      -5.01714                      -1.01956                      91.10336
                      -4.65419                      -1.03900                      91.08264
                      -4.30126                      -0.98098                      91.01473
                      -3.98052                      -0.84913                      90.90390
                      -3.71212                      -0.65175                      90.75712
                      -3.51294                      -0.40123                      90.58360
                      -3.39548                      -0.11333                      90.39425
                      -3.39557                       0.25962                      90.31029
                      -3.45646                       0.55876                      90.13008
                      -3.60203                       0.83910                      89.96919
                      -3.82312                       1.08303                      89.83773
                      -4.10585                       1.27522                      89.74395
                      -4.43245                       1.40360                      89.69376
                      -4.78240                       1.46010                      89.69030
                      -5.13371                       1.44116                      89.73379
                      -5.46430                       1.34799                      89.82150
                      -5.75341                       1.18642                      89.94792
                      -5.98287                       0.96663                      90.10511
                      -6.13825                       0.70240                      90.28318
                      -6.20980                       0.41036                      90.47095
                      -6.19303                       0.10884                      90.65662
                      -6.08898                      -0.18320                      90.82852
                      -5.90419                      -0.44742                      90.97586
                      -5.65027                      -0.66721                      91.08937
                      -5.34319                      -0.82877                      91.16193
                      -5.00223                      -0.92194                      91.18897
                      -4.64881                      -0.94087                      91.16879
                      -4.30515                      -0.88437                      91.10267
                      -3.99284                      -0.75599                      90.99476
                      -3.73150                      -0.56380                      90.85183
                      -3.53755                      -0.31986                      90.68287
                      -3.42317                      -0.03952                      90.49849
                      -3.43642                       0.32536                      90.42073
                      -3.49514                       0.61379                      90.24697
                      -3.63549                       0.88409                      90.09184
                      -3.84867                       1.11929                      89.96509
                      -4.12128                       1.30460                      89.87467
                      -4.43619                       1.42839                      89.82627
                      -4.77361                       1.48286                      89.82294
                      -5.11234                       1.46460                      89.86487
                      -5.43110                       1.37476                      89.94944
                      -5.70986                       1.21898                      90.07134
                      -5.93110                       1.00705                      90.22289
                      -6.08093                       0.75229                      90.39459
                      -6.14992                       0.47070                      90.57564
                      -6.13374                       0.17998                      90.75466
                      -6.03341                      -0.10161                      90.92041
                      -5.85524                      -0.35637                      91.06248
                      -5.61042                      -0.56830                      91.17193
                      -5.31432                      -0.72408                      91.24189
                      -4.98557                      -0.81391                      91.26796
                      -4.64480                      -0.83216                      91.24851
                      -4.31344                      -0.77769                      91.18475
                      -4.01231                      -0.65390                      91.08070
                      -3.76032                      -0.46858                      90.94289
                      -3.57332                      -0.23338                      90.77997
                      -3.46304                       0.03693                      90.60220
                      -3.49115                       0.39109                      90.53243
                      -3.54708                       0.66587                      90.36690
                      -3.68079                       0.92338                      90.21911
                      -3.88388                       1.14744                      90.09835
                      -4.14358                       1.32398                      90.01221
                      -4.44358                       1.44191                      89.96611
                      -4.76503                       1.49380                      89.96293
                      -5.08773                       1.47641                      90.00288
                      -5.39140                       1.39082                      90.08345
                      -5.65696                       1.24242                      90.19957
                      -5.86773                       1.04052                      90.34395
                      -6.01046                       0.79782                      90.50752
                      -6.07619                       0.52956                      90.68000
                      -6.06078                       0.25260                      90.85055
                      -5.96520                      -0.01566                      91.00846
                      -5.79546                      -0.25836                      91.14379
                      -5.56222                      -0.46026                      91.24806
                      -5.28015                      -0.60866                      91.31471
                      -4.96696                      -0.69424                      91.33955
                      -4.64232                      -0.71163                      91.32102
                      -4.32665                      -0.65973                      91.26028
                      -4.03977                      -0.54181                      91.16115
                      -3.79971                      -0.36526                      91.02986
                      -3.62156                      -0.14120                      90.87466
                      -3.51650                       0.11632                      90.70530
                      -3.56194                       0.45683                      90.64558
                      -3.61440                       0.71454                      90.49033
                      -3.73981                       0.95605                      90.35172
                      -3.93028                       1.16620                      90.23846
                      -4.17385                       1.33177                      90.15768
                      -4.45522                       1.44237                      90.11443
                      -4.75670                       1.49104                      90.11145
                      -5.05935                       1.47473                      90.14892
                      -5.34416                       1.39446                      90.22449
                      -5.59323                       1.25527                      90.33340
                      -5.79091                       1.06592                      90.46881
                      -5.92477                       0.83829                      90.62222
                      -5.98641                       0.58669                      90.78398
                      -5.97196                       0.32693                      90.94394
                      -5.88232                       0.07534                      91.09204
                      -5.72312                      -0.15229                      91.21897
                      -5.50438                      -0.34164                      91.31676
                      -5.23982                      -0.48082                      91.37927
                      -4.94608                      -0.56109                      91.40256
                      -4.64161                      -0.57740                      91.38518
                      -4.34555                      -0.52873                      91.32822
                      -4.07649                      -0.41812                      91.23525
                      -3.85134                      -0.25255                      91.11211
                      -3.68425                      -0.04240                      90.96655
                      -3.58572                       0.19912                      90.80771
                      -3.65228                       0.52256                      90.76049
                      -3.70042                       0.75905                      90.61802
                      -3.81551                       0.98068                      90.49083
                      -3.99030                       1.17353                      90.38690
                      -4.21381                       1.32547                      90.31276
                      -4.47201                       1.42696                      90.27308
                      -4.74867                       1.47163                      90.27034
                      -5.02640                       1.45666                      90.30473
                      -5.28776                       1.38299                      90.37407
                      -5.51632                       1.25527                      90.47401
                      -5.69772                       1.08150                      90.59828
                      -5.82056                       0.87262                      90.73905
                      -5.87713                       0.64174                      90.88750
                      -5.86387                       0.40337                      91.03429
                      -5.78161                       0.17249                      91.17019
                      -5.63552                      -0.03640                      91.28667
                      -5.43478                      -0.21016                      91.37641
                      -5.19201                      -0.33789                      91.43377
                      -4.92246                      -0.41154                      91.45515
                      -4.64306                      -0.42651                      91.43920
                      -4.37137                      -0.38184                      91.38692
                      -4.12447                      -0.28035                      91.30161
                      -3.91786                      -0.12840                      91.18861
                      -3.76453                       0.06444                      91.05504
                      -3.67411                       0.28607                      90.90928
                      -3.76808                       0.58830                      90.87770
                      -3.81080                       0.79816                      90.75128
                      -3.91293                       0.99484                      90.63840
                      -4.06804                       1.16597                      90.54617
                      -4.26639                       1.30081                      90.48038
                      -4.49552                       1.39087                      90.44517
                      -4.74103                       1.43051                      90.44274
                      -4.98750                       1.41722                      90.47326
                      -5.21943                       1.35186                      90.53479
                      -5.42225                       1.23851                      90.62348
                      -5.58323                       1.08431                      90.73375
                      -5.69224                       0.89894                      90.85868
                      -5.74244                       0.69405                      90.99041
                      -5.73067                       0.48252                      91.12067
                      -5.65767                       0.27764                      91.24128
                      -5.52803                       0.09227                      91.34464
                      -5.34990                      -0.06193                      91.42428
                      -5.13446                      -0.17527                      91.47518
                      -4.89525                      -0.24064                      91.49415
                      -4.64731                      -0.25392                      91.48000
                      -4.40621                      -0.21428                      91.43361
                      -4.18710                      -0.12421                      91.35790
                      -4.00376                       0.01062                      91.25763
                      -3.86769                       0.18176                      91.13909
                      -3.78745                       0.37844                      91.00974
                      -3.92086                       0.65404                      90.99826
                      -3.95656                       0.82942                      90.89260
                      -4.04191                       0.99379                      90.79827
                      -4.17153                       1.13680                      90.72119
                      -4.33730                       1.24949                      90.66621
                      -4.52878                       1.32475                      90.63678
                      -4.73396                       1.35788                      90.63476
                      -4.93993                       1.34678                      90.66026
                      -5.13376                       1.29215                      90.71168
                      -5.30326                       1.19742                      90.78580
                      -5.43779                       1.06856                      90.87796
                      -5.52890                       0.91364                      90.98236
                      -5.57085                       0.74242                      91.09245
                      -5.56101                       0.56564                      91.20131
                      -5.50001                       0.39441                      91.30210
                      -5.39167                       0.23950                      91.38848
                      -5.24280                       0.11063                      91.45504
                      -5.06275                       0.01591                      91.49758
                      -4.86284                      -0.03872                      91.51343
                      -4.65564                      -0.04982                      91.50160
                      -4.45415                      -0.01669                      91.46283
                      -4.27104                       0.05858                      91.39956
                      -4.11781                       0.17127                      91.31576
                      -4.00410                       0.31428                      91.21670
                      -3.93704                       0.47865                      91.10860
                      -4.14004                       0.71977                      91.12481
                      -4.16585                       0.84658                      91.04842
                      -4.22756                       0.96541                      90.98022
                      -4.32128                       1.06881                      90.92449
                      -4.44112                       1.15028                      90.88474
                      -4.57957                       1.20470                      90.86347
                      -4.72791                       1.22865                      90.86200
                      -4.87683                       1.22062                      90.88044
                      -5.01696                       1.18113                      90.91762
                      -5.13952                       1.11264                      90.97120
                      -5.23678                       1.01947                      91.03783
                      -5.30265                       0.90747                      91.11332
                      -5.33298                       0.78367                      91.19291
                      -5.32587                       0.65586                      91.27162
                      -5.28176                       0.53206                      91.34449
                      -5.20343                       0.42006                      91.40694
                      -5.09580                       0.32689                      91.45506
                      -4.96563                       0.25841                      91.48582
                      -4.82109                       0.21891                      91.49728
                      -4.67128                       0.21089                      91.48873
                      -4.52561                       0.23484                      91.46070
                      -4.39322                       0.28926                      91.41495
                      -4.28244                       0.37073                      91.35437
                      -4.20022                       0.47413                      91.28275
                      -4.15174                       0.59297                      91.20459
                      -4.72752                       0.78550                      91.28464
                      -4.72752                       0.78550                      91.28464
                      -4.72752                       0.78550                      91.28464
                      -4.72752                       0.78550                      91.28464
                      -4.72752                       0.78550                      91.28464
                      -4.72752                       0.78550                      91.28464
                      -4.72752                       0.78550                      91.28464
                      -4.72752                       0.78550                      91.28464
                      -4.72752                       0.78550                      91.28464
                      -4.72752                       0.78550                      91.28464
                      -4.72752                       0.78550                      91.28464
                      -4.72752                       0.78550                      91.28464
                      -4.72752                       0.78550                      91.28464
                      -4.72752                       0.78550                      91.28464
                      -4.72752                       0.78550                      91.28464
                      -4.72752                       0.78550                      91.28464
                      -4.72752                       0.78550                      91.28464
                      -4.72752                       0.78550                      91.28464
                      -4.72752                       0.78550                      91.28464
                      -4.72752                       0.78550                      91.28464
                      -4.72752                       0.78550                      91.28464
                      -4.72752                       0.78550                      91.28464
                      -4.72752                       0.78550                      91.28464
                      -4.72752                       0.78550                      91.28464
                      -4.72752                       0.78550                      91.28464
        </DataArray>
      </Points>
      <Polys>
        <DataArray type="Int32" Name="connectivity" format="ascii">
      0      1     26     25
      1      2     27     26
      2      3     28     27
      3      4     29     28
      4      5     30     29
      5      6     31     30
      6      7     32     31
      7      8     33     32
      8      9     34     33
      9     10     35     34
     10     11     36     35
     11     12     37     36
     12     13     38     37
     13     14     39     38
     14     15     40     39
     15     16     41     40
     16     17     42     41
     17     18     43     42
     18     19     44     43
     19     20     45     44
     20     21     46     45
     21     22     47     46
     22     23     48     47
     23     24     49     48
     24      0     25     49
     25     26     51     50
     26     27     52     51
     27     28     53     52
     28     29     54     53
     29     30     55     54
     30     31     56     55
     31     32     57     56
     32     33     58     57
     33     34     59     58
     34     35     60     59
     35     36     61     60
     36     37     62     61
     37     38     63     62
     38     39     64     63
     39     40     65     64
     40     41     66     65
     41     42     67     66
     42     43     68     67
     43     44     69     68
     44     45     70     69
     45     46     71     70
     46     47     72     71
     47     48     73     72
     48     49     74     73
     49     25     50     74
     50     51     76     75
     51     52     77     76
     52     53     78     77
     53     54     79     78
     54     55     80     79
     55     56     81     80
     56     57     82     81
     57     58     83     82
     58     59     84     83
     59     60     85     84
     60     61     86     85
     61     62     87     86
     62     63     88     87
     63     64     89     88
     64     65     90     89
     65     66     91     90
     66     67     92     91
     67     68     93     92
     68     69     94     93
     69     70     95     94
     70     71     96     95
     71     72     97     96
     72     73     98     97
     73     74     99     98
     74     50     75     99
     75     76    101    100
     76     77    102    101
     77     78    103    102
     78     79    104    103
     79     80    105    104
     80     81    106    105
     81     82    107    106
     82     83    108    107
     83     84    109    108
     84     85    110    109
     85     86    111    110
     86     87    112    111
     87     88    113    112
     88     89    114    113
     89     90    115    114
     90     91    116    115
     91     92    117    116
     92     93    118    117
     93     94    119    118
     94     95    120    119
     95     96    121    120
     96     97    122    121
     97     98    123    122
     98     99    124    123
     99     75    100    124
    100    101    126    125
    101    102    127    126
    102    103    128    127
    103    104    129    128
    104    105    130    129
    105    106    131    130
    106    107    132    131
    107    108    133    132
    108    109    134    133
    109    110    135    134
    110    111    136    135
    111    112    137    136
    112    113    138    137
    113    114    139    138
    114    115    140    139
    115    116    141    140
    116    117    142    141
    117    118    143    142
    118    119    144    143
    119    120    145    144
    120    121    146    145
    121    122    147    146
    122    123    148    147
    123    124    149    148
    124    100    125    149
    125    126    151    150
    126    127    152    151
    127    128    153    152
    128    129    154    153
    129    130    155    154
    130    131    156    155
    131    132    157    156
    132    133    158    157
    133    134    159    158
    134    135    160    159
    135    136    161    160
    136    137    162    161
    137    138    163    162
    138    139    164    163
    139    140    165    164
    140    141    166    165
    141    142    167    166
    142    143    168    167
    143    144    169    168
    144    145    170    169
    145    146    171    170
    146    147    172    171
    147    148    173    172
    148    149    174    173
    149    125    150    174
    150    151    176    175
    151    152    177    176
    152    153    178    177
    153    154    179    178
    154    155    180    179
    155    156    181    180
    156    157    182    181
    157    158    183    182
    158    159    184    183
    159    160    185    184
    160    161    186    185
    161    162    187    186
    162    163    188    187
    163    164    189    188
    164    165    190    189
    165    166    191    190
    166    167    192    191
    167    168    193    192
    168    169    194    193
    169    170    195    194
    170    171    196    195
    171    172    197    196
    172    173    198    197
    173    174    199    198
    174    150    175    199
    175    176    201    200
    176    177    202    201
    177    178    203    202
    178    179    204    203
    179    180    205    204
    180    181    206    205
    181    182    207    206
    182    183    208    207
    183    184    209    208
    184    185    210    209
    185    186    211    210
    186    187    212    211
    187    188    213    212
    188    189    214    213
    189    190    215    214
    190    191    216    215
    191    192    217    216
    192    193    218    217
    193    194    219    218
    194    195    220    219
    195    196    221    220
    196    197    222    221
    197    198    223    222
    198    199    224    223
    199    175    200    224
    200    201    226    225
    201    202    227    226
    202    203    228    227
    203    204    229    228
    204    205    230    229
    205    206    231    230
    206    207    232    231
    207    208    233    232
    208    209    234    233
    209    210    235    234
    210    211    236    235
    211    212    237    236
    212    213    238    237
    213    214    239    238
    214    215    240    239
    215    216    241    240
    216    217    242    241
    217    218    243    242
    218    219    244    243
    219    220    245    244
    220    221    246    245
    221    222    247    246
    222    223    248    247
    223    224    249    248
    224    200    225    249
    225    226    251    250
    226    227    252    251
    227    228    253    252
    228    229    254    253
    229    230    255    254
    230    231    256    255
    231    232    257    256
    232    233    258    257
    233    234    259    258
    234    235    260    259
    235    236    261    260
    236    237    262    261
    237    238    263    262
    238    239    264    263
    239    240    265    264
    240    241    266    265
    241    242    267    266
    242    243    268    267
    243    244    269    268
    244    245    270    269
    245    246    271    270
    246    247    272    271
    247    248    273    272
    248    249    274    273
    249    225    250    274
    250    251    276    275
    251    252    277    276
    252    253    278    277
    253    254    279    278
    254    255    280    279
    255    256    281    280
    256    257    282    281
    257    258    283    282
    258    259    284    283
    259    260    285    284
    260    261    286    285
    261    262    287    286
    262    263    288    287
    263    264    289    288
    264    265    290    289
    265    266    291    290
    266    267    292    291
    267    268    293    292
    268    269    294    293
    269    270    295    294
    270    271    296    295
    271    272    297    296
    272    273    298    297
    273    274    299    298
    274    250    275    299
    275    276    301    300
    276    277    302    301
    277    278    303    302
    278    279    304    303
    279    280    305    304
    280    281    306    305
    281    282    307    306
    282    283    308    307
    283    284    309    308
    284    285    310    309
    285    286    311    310
    286    287    312    311
    287    288    313    312
    288    289    314    313
    289    290    315    314
    290    291    316    315
    291    292    317    316
    292    293    318    317
    293    294    319    318
    294    295    320    319
    295    296    321    320
    296    297    322    321
    297    298    323    322
    298    299    324    323
    299    275    300    324
    300    301    326    325
    301    302    327    326
    302    303    328    327
    303    304    329    328
    304    305    330    329
    305    306    331    330
    306    307    332    331
    307    308    333    332
    308    309    334    333
    309    310    335    334
    310    311    336    335
    311    312    337    336
    312    313    338    337
    313    314    339    338
    314    315    340    339
    315    316    341    340
    316    317    342    341
    317    318    343    342
    318    319    344    343
    319    320    345    344
    320    321    346    345
    321    322    347    346
    322    323    348    347
    323    324    349    348
    324    300    325    349
    325    326    351    350
    326    327    352    351
    327    328    353    352
    328    329    354    353
    329    330    355    354
    330    331    356    355
    331    332    357    356
    332    333    358    357
    333    334    359    358
    334    335    360    359
    335    336    361    360
    336    337    362    361
    337    338    363    362
    338    339    364    363
    339    340    365    364
    340    341    366    365
    341    342    367    366
    342    343    368    367
    343    344    369    368
    344    345    370    369
    345    346    371    370
    346    347    372    371
    347    348    373    372
    348    349    374    373
    349    325    350    374
    350    351    376    375
    351    352    377    376
    352    353    378    377
    353    354    379    378
    354    355    380    379
    355    356    381    380
    356    357    382    381
    357    358    383    382
    358    359    384    383
    359    360    385    384
    360    361    386    385
    361    362    387    386
    362    363    388    387
    363    364    389    388
    364    365    390    389
    365    366    391    390
    366    367    392    391
    367    368    393    392
    368    369    394    393
    369    370    395    394
    370    371    396    395
    371    372    397    396
    372    373    398    397
    373    374    399    398
    374    350    375    399
    375    376    401    400
    376    377    402    401
    377    378    403    402
    378    379    404    403
    379    380    405    404
    380    381    406    405
    381    382    407    406
    382    383    408    407
    383    384    409    408
    384    385    410    409
    385    386    411    410
    386    387    412    411
    387    388    413    412
    388    389    414    413
    389    390    415    414
    390    391    416    415
    391    392    417    416
    392    393    418    417
    393    394    419    418
    394    395    420    419
    395    396    421    420
    396    397    422    421
    397    398    423    422
    398    399    424    423
    399    375    400    424
    400    401    426    425
    401    402    427    426
    402    403    428    427
    403    404    429    428
    404    405    430    429
    405    406    431    430
    406    407    432    431
    407    408    433    432
    408    409    434    433
    409    410    435    434
    410    411    436    435
    411    412    437    436
    412    413    438    437
    413    414    439    438
    414    415    440    439
    415    416    441    440
    416    417    442    441
    417    418    443    442
    418    419    444    443
    419    420    445    444
    420    421    446    445
    421    422    447    446
    422    423    448    447
    423    424    449    448
    424    400    425    449
    425    426    451    450
    426    427    452    451
    427    428    453    452
    428    429    454    453
    429    430    455    454
    430    431    456    455
    431    432    457    456
    432    433    458    457
    433    434    459    458
    434    435    460    459
    435    436    461    460
    436    437    462    461
    437    438    463    462
    438    439    464    463
    439    440    465    464
    440    441    466    465
    441    442    467    466
    442    443    468    467
    443    444    469    468
    444    445    470    469
    445    446    471    470
    446    447    472    471
    447    448    473    472
    448    449    474    473
    449    425    450    474
    450    451    476    475
    451    452    477    476
    452    453    478    477
    453    454    479    478
    454    455    480    479
    455    456    481    480
    456    457    482    481
    457    458    483    482
    458    459    484    483
    459    460    485    484
    460    461    486    485
    461    462    487    486
    462    463    488    487
    463    464    489    488
    464    465    490    489
    465    466    491    490
    466    467    492    491
    467    468    493    492
    468    469    494    493
    469    470    495    494
    470    471    496    495
    471    472    497    496
    472    473    498    497
    473    474    499    498
    474    450    475    499
    475    476    501    500
    476    477    502    501
    477    478    503    502
    478    479    504    503
    479    480    505    504
    480    481    506    505
    481    482    507    506
    482    483    508    507
    483    484    509    508
    484    485    510    509
    485    486    511    510
    486    487    512    511
    487    488    513    512
    488    489    514    513
    489    490    515    514
    490    491    516    515
    491    492    517    516
    492    493    518    517
    493    494    519    518
    494    495    520    519
    495    496    521    520
    496    497    522    521
    497    498    523    522
    498    499    524    523
    499    475    500    524
    500    501    526    525
    501    502    527    526
    502    503    528    527
    503    504    529    528
    504    505    530    529
    505    506    531    530
    506    507    532    531
    507    508    533    532
    508    509    534    533
    509    510    535    534
    510    511    536    535
    511    512    537    536
    512    513    538    537
    513    514    539    538
    514    515    540    539
    515    516    541    540
    516    517    542    541
    517    518    543    542
    518    519    544    543
    519    520    545    544
    520    521    546    545
    521    522    547    546
    522    523    548    547
    523    524    549    548
    524    500    525    549
    525    526    551    550
    526    527    552    551
    527    528    553    552
    528    529    554    553
    529    530    555    554
    530    531    556    555
    531    532    557    556
    532    533    558    557
    533    534    559    558
    534    535    560    559
    535    536    561    560
    536    537    562    561
    537    538    563    562
    538    539    564    563
    539    540    565    564
    540    541    566    565
    541    542    567    566
    542    543    568    567
    543    544    569    568
    544    545    570    569
    545    546    571    570
    546    547    572    571
    547    548    573    572
    548    549    574    573
    549    525    550    574
    550    551    576    575
    551    552    577    576
    552    553    578    577
    553    554    579    578
    554    555    580    579
    555    556    581    580
    556    557    582    581
    557    558    583    582
    558    559    584    583
    559    560    585    584
    560    561    586    585
    561    562    587    586
    562    563    588    587
    563    564    589    588
    564    565    590    589
    565    566    591    590
    566    567    592    591
    567    568    593    592
    568    569    594    593
    569    570    595    594
    570    571    596    595
    571    572    597    596
    572    573    598    597
    573    574    599    598
    574    550    575    599
    575    576    601    600
    576    577    602    601
    577    578    603    602
    578    579    604    603
    579    580    605    604
    580    581    606    605
    581    582    607    606
    582    583    608    607
    583    584    609    608
    584    585    610    609
    585    586    611    610
    586    587    612    611
    587    588    613    612
    588    589    614    613
    589    590    615    614
    590    591    616    615
    591    592    617    616
    592    593    618    617
    593    594    619    618
    594    595    620    619
    595    596    621    620
    596    597    622    621
    597    598    623    622
    598    599    624    623
    599    575    600    624
        </DataArray>
        <DataArray type="Int32" Name="offsets" format="ascii">
      4
      8
     12
     16
     20
     24
     28
     32
     36
     40
     44
     48
     52
     56
     60
     64
     68
     72
     76
     80
     84
     88
     92
     96
    100
    104
    108
    112
    116
    120
    124
    128
    132
    136
    140
    144
    148
    152
    156
    160
    164
    168
    172
    176
    180
    184
    188
    192
    196
    200
    204
    208
    212
    216
    220
    224
    228
    232
    236
    240
    244
    248
    252
    256
    260
    264
    268
    272
    276
    280
    284
    288
    292
    296
    300
    304
    308
    312
    316
    320
    324
    328
    332
    336
    340
    344
    348
    352
    356
    360
    364
    368
    372
    376
    380
    384
    388
    392
    396
    400
    404
    408
    412
    416
    420
    424
    428
    432
    436
    440
    444
    448
    452
    456
    460
    464
    468
    472
    476
    480
    484
    488
    492
    496
    500
    504
    508
    512
    516
    520
    524
    528
    532
    536
    540
    544
    548
    552
    556
    560
    564
    568
    572
    576
    580
    584
    588
    592
    596
    600
    604
    608
    612
    616
    620
    624
    628
    632
    636
    640
    644
    648
    652
    656
    660
    664
    668
    672
    676
    680
    684
    688
    692
    696
    700
    704
    708
    712
    716
    720
    724
    728
    732
    736
    740
    744
    748
    752
    756
    760
    764
    768
    772
    776
    780
    784
    788
    792
    796
    800
    804
    808
    812
    816
    820
    824
    828
    832
    836
    840
    844
    848
    852
    856
    860
    864
    868
    872
    876
    880
    884
    888
    892
    896
    900
    904
    908
    912
    916
    920
    924
    928
    932
    936
    940
    944
    948
    952
    956
    960
    964
    968
    972
    976
    980
    984
    988
    992
    996
   1000
   1004
   1008
   1012
   1016
   1020
   1024
   1028
   1032
   1036
   1040
   1044
   1048
   1052
   1056
   1060
   1064
   1068
   1072
   1076
   1080
   1084
   1088
   1092
   1096
   1100
   1104
   1108
   1112
   1116
   1120
   1124
   1128
   1132
   1136
   1140
   1144
   1148
   1152
   1156
   1160
   1164
   1168
   1172
   1176
   1180
   1184
   1188
   1192
   1196
   1200
   1204
   1208
   1212
   1216
   1220
   1224
   1228
   1232
   1236
   1240
   1244
   1248
   1252
   1256
   1260
   1264
   1268
   1272
   1276
   1280
   1284
   1288
   1292
   1296
   1300
   1304
   1308
   1312
   1316
   1320
   1324
   1328
   1332
   1336
   1340
   1344
   1348
   1352
   1356
   1360
   1364
   1368
   1372
   1376
   1380
   1384
   1388
   1392
   1396
   1400
   1404
   1408
   1412
   1416
   1420
   1424
   1428
   1432
   1436
   1440
   1444
   1448
   1452
   1456
   1460
   1464
   1468
   1472
   1476
   1480
   1484
   1488
   1492
   1496
   1500
   1504
   1508
   1512
   1516
   1520
   1524
   1528
   1532
   1536
   1540
   1544
   1548
   1552
   1556
   1560
   1564
   1568
   1572
   1576
   1580
   1584
   1588
   1592
   1596
   1600
   1604
   1608
   1612
   1616
   1620
   1624
   1628
   1632
   1636
   1640
   1644
   1648
   1652
   1656
   1660
   1664
   1668
   1672
   1676
   1680
   1684
   1688
   1692
   1696
   1700
   1704
   1708
   1712
   1716
   1720
   1724
   1728
   1732
   1736
   1740
   1744
   1748
   1752
   1756
   1760
   1764
   1768
   1772
   1776
   1780
   1784
   1788
   1792
   1796
   1800
   1804
   1808
   1812
   1816
   1820
   1824
   1828
   1832
   1836
   1840
   1844
   1848
   1852
   1856
   1860
   1864
   1868
   1872
   1876
   1880
   1884
   1888
   1892
   1896
   1900
   1904
   1908
   1912
   1916
   1920
   1924
   1928
   1932
   1936
   1940
   1944
   1948
   1952
   1956
   1960
   1964
   1968
   1972
   1976
   1980
   1984
   1988
   1992
   1996
   2000
   2004
   2008
   2012
   2016
   2020
   2024
   2028
   2032
   2036
   2040
   2044
   2048
   2052
   2056
   2060
   2064
   2068
   2072
   2076
   2080
   2084
   2088
   2092
   2096
   2100
   2104
   2108
   2112
   2116
   2120
   2124
   2128
   2132
   2136
   2140
   2144
   2148
   2152
   2156
   2160
   2164
   2168
   2172
   2176
   2180
   2184
   2188
   2192
   2196
   2200
   2204
   2208
   2212
   2216
   2220
   2224
   2228
   2232
   2236
   2240
   2244
   2248
   2252
   2256
   2260
   2264
   2268
   2272
   2276
   2280
   2284
   2288
   2292
   2296
   2300
   2304
   2308
   2312
   2316
   2320
   2324
   2328
   2332
   2336
   2340
   2344
   2348
   2352
   2356
   2360
   2364
   2368
   2372
   2376
   2380
   2384
   2388
   2392
   2396
   2400
        </DataArray>
      </Polys>
    </Piece>
  </PolyData>
</VTKFile>
