<?xml version="1.0"?>
<VTKFile type="PolyData" version="0.1" byte_order="LittleEndian">
  <PolyData>
    <Piece NumberOfPoints="     22" NumberOfVerts="  0" NumberOfLines="     21"
           NumberOfStrips="  0" NumberOfPolys="      0">
      <Points>
        <DataArray type="Float32" NumberOfComponents="3" format="ascii">
                       0.00007                      -0.00000                       2.19000
                       0.00069                      -0.00003                       6.57000
                       0.00207                      -0.00008                      10.95000
                       0.00426                      -0.00015                      15.33000
                       0.00728                      -0.00025                      19.71000
                       0.01111                      -0.00037                      24.09000
                       0.01572                      -0.00051                      28.46999
                       0.02108                      -0.00068                      32.84999
                       0.02717                      -0.00088                      37.22999
                       0.03399                      -0.00111                      41.60998
                       0.04157                      -0.00137                      45.98997
                       0.04993                      -0.00167                      50.36997
                       0.05912                      -0.00201                      54.74996
                       0.06916                      -0.00239                      59.12995
                       0.08008                      -0.00281                      63.50993
                       0.09185                      -0.00327                      67.88992
                       0.10438                      -0.00377                      72.26990
                       0.11749                      -0.00430                      76.64988
                       0.13087                      -0.00487                      81.02986
                       0.14405                      -0.00545                      85.40984
                       0.15036                      -0.00575                      87.59983
                       0.00000                       0.00000                       0.00000
        </DataArray>
      </Points>
      <PointData>
        <DataArray type="Float32" Name="TranslationalVelocity" NumberOfComponents="3" format="ascii">
                       0.00004                      -0.00000                      -0.00000
                       0.00041                      -0.00001                      -0.00000
                       0.00114                      -0.00003                      -0.00000
                       0.00223                      -0.00006                      -0.00000
                       0.00360                      -0.00011                      -0.00000
                       0.00520                      -0.00017                      -0.00000
                       0.00693                      -0.00025                      -0.00001
                       0.00870                      -0.00034                      -0.00001
                       0.01038                      -0.00047                      -0.00001
                       0.01189                      -0.00062                      -0.00001
                       0.01312                      -0.00081                      -0.00001
                       0.01396                      -0.00104                      -0.00002
                       0.01435                      -0.00132                      -0.00002
                       0.01421                      -0.00164                      -0.00002
                       0.01349                      -0.00200                      -0.00001
                       0.01218                      -0.00242                      -0.00001
                       0.01027                      -0.00289                      -0.00001
                       0.00779                      -0.00340                       0.00000
                       0.00481                      -0.00395                       0.00001
                       0.00140                      -0.00453                       0.00002
                      -0.00042                      -0.00483                       0.00003
                       0.00000                      -0.00000                       0.00000
        </DataArray>
        <DataArray type="Float32" Name="RotationalVelocity" NumberOfComponents="3" format="ascii">
                       0.00000                       0.00004                       0.00000
                       0.00000                       0.00013                       0.00000
                       0.00001                       0.00021                       0.00000
                       0.00001                       0.00028                       0.00000
                       0.00001                       0.00034                       0.00000
                       0.00002                       0.00038                       0.00000
                       0.00002                       0.00040                       0.00000
                       0.00003                       0.00040                       0.00000
                       0.00003                       0.00037                       0.00000
                       0.00004                       0.00032                       0.00000
                       0.00005                       0.00024                       0.00000
                       0.00006                       0.00014                       0.00000
                       0.00007                       0.00003                       0.00000
                       0.00008                      -0.00010                       0.00000
                       0.00009                      -0.00023                       0.00000
                       0.00010                      -0.00037                       0.00000
                       0.00011                      -0.00050                       0.00000
                       0.00012                      -0.00063                       0.00000
                       0.00013                      -0.00073                       0.00000
                       0.00014                      -0.00082                       0.00000
                       0.00014                      -0.00084                       0.00000
                       0.00000                      -0.00000                       0.00000
        </DataArray>
        <DataArray type="Float32" Name="TranslationalAcceleration" NumberOfComponents="3" format="ascii">
                      -0.00031                      -0.00022                       0.00000
                      -0.00289                      -0.00186                       0.00000
                      -0.00804                      -0.00480                       0.00000
                      -0.01556                      -0.00878                       0.00001
                      -0.02505                      -0.01353                       0.00001
                      -0.03595                      -0.01883                       0.00002
                      -0.04759                      -0.02442                       0.00003
                      -0.05922                      -0.03005                       0.00004
                      -0.07004                      -0.03545                       0.00006
                      -0.07924                      -0.04031                       0.00007
                      -0.08602                      -0.04432                       0.00008
                      -0.08965                      -0.04716                       0.00009
                      -0.08949                      -0.04849                       0.00009
                      -0.08502                      -0.04801                       0.00008
                      -0.07588                      -0.04546                       0.00006
                      -0.06188                      -0.04064                       0.00002
                      -0.04307                      -0.03347                      -0.00004
                      -0.01972                      -0.02399                      -0.00011
                       0.00761                      -0.01241                      -0.00019
                       0.03803                       0.00081                      -0.00028
                       0.05404                       0.00783                      -0.00033
                       0.00000                      -0.00000                       0.00000
        </DataArray>
        <DataArray type="Float32" Name="RotationalAcceleration" NumberOfComponents="3" format="ascii">
                       0.00020                      -0.00029                       0.00000
                       0.00053                      -0.00089                       0.00000
                       0.00080                      -0.00146                       0.00000
                       0.00101                      -0.00196                       0.00000
                       0.00116                      -0.00235                       0.00000
                       0.00125                      -0.00260                       0.00000
                       0.00129                      -0.00269                       0.00000
                       0.00127                      -0.00259                       0.00000
                       0.00118                      -0.00232                       0.00000
                       0.00103                      -0.00185                       0.00000
                       0.00079                      -0.00122                       0.00000
                       0.00049                      -0.00042                       0.00000
                       0.00011                       0.00051                       0.00000
                      -0.00034                       0.00154                       0.00000
                      -0.00083                       0.00264                       0.00000
                      -0.00137                       0.00375                       0.00000
                      -0.00191                       0.00483                       0.00000
                      -0.00242                       0.00581                       0.00000
                      -0.00285                       0.00663                       0.00000
                      -0.00316                       0.00722                       0.00000
                      -0.00324                       0.00739                       0.00000
                       0.00000                      -0.00000                       0.00000
        </DataArray>
        <DataArray type="Float32" Name="OrientationX" NumberOfComponents="3" format="ascii">
                       1.00000                       0.00000                      -0.00007
                       1.00000                       0.00000                      -0.00022
                       1.00000                       0.00000                      -0.00041
                       1.00000                       0.00000                      -0.00060
                       1.00000                       0.00000                      -0.00078
                       1.00000                       0.00000                      -0.00096
                       1.00000                       0.00000                      -0.00114
                       1.00000                       0.00000                      -0.00131
                       1.00000                       0.00000                      -0.00147
                       1.00000                       0.00000                      -0.00164
                       1.00000                       0.00000                      -0.00182
                       1.00000                       0.00000                      -0.00200
                       1.00000                       0.00000                      -0.00219
                       1.00000                       0.00000                      -0.00239
                       1.00000                       0.00000                      -0.00259
                       1.00000                       0.00000                      -0.00278
                       1.00000                       0.00000                      -0.00294
                       1.00000                       0.00000                      -0.00304
                       1.00000                       0.00000                      -0.00305
                       1.00000                       0.00000                      -0.00294
                       1.00000                       0.00000                      -0.00282
                       1.00000                      -0.00000                       0.00000
        </DataArray>
        <DataArray type="Float32" Name="OrientationY" NumberOfComponents="3" format="ascii">
                       0.00000                       1.00000                       0.00000
                       0.00000                       1.00000                       0.00001
                       0.00000                       1.00000                       0.00001
                       0.00000                       1.00000                       0.00002
                       0.00000                       1.00000                       0.00002
                       0.00000                       1.00000                       0.00003
                       0.00000                       1.00000                       0.00004
                       0.00000                       1.00000                       0.00004
                       0.00000                       1.00000                       0.00005
                       0.00000                       1.00000                       0.00006
                       0.00000                       1.00000                       0.00006
                       0.00000                       1.00000                       0.00007
                       0.00000                       1.00000                       0.00008
                       0.00000                       1.00000                       0.00009
                       0.00000                       1.00000                       0.00010
                       0.00000                       1.00000                       0.00011
                       0.00000                       1.00000                       0.00012
                       0.00000                       1.00000                       0.00013
                       0.00000                       1.00000                       0.00013
                       0.00000                       1.00000                       0.00014
                       0.00000                       1.00000                       0.00014
                      -0.00000                       1.00000                      -0.00000
        </DataArray>
        <DataArray type="Float32" Name="OrientationZ" NumberOfComponents="3" format="ascii">
                       0.00007                      -0.00000                       1.00000
                       0.00022                      -0.00001                       1.00000
                       0.00041                      -0.00001                       1.00000
                       0.00060                      -0.00002                       1.00000
                       0.00078                      -0.00002                       1.00000
                       0.00096                      -0.00003                       1.00000
                       0.00114                      -0.00004                       1.00000
                       0.00131                      -0.00004                       1.00000
                       0.00147                      -0.00005                       1.00000
                       0.00164                      -0.00006                       1.00000
                       0.00182                      -0.00006                       1.00000
                       0.00200                      -0.00007                       1.00000
                       0.00219                      -0.00008                       1.00000
                       0.00239                      -0.00009                       1.00000
                       0.00259                      -0.00010                       1.00000
                       0.00278                      -0.00011                       1.00000
                       0.00294                      -0.00012                       1.00000
                       0.00304                      -0.00013                       1.00000
                       0.00305                      -0.00013                       1.00000
                       0.00294                      -0.00014                       1.00000
                       0.00282                      -0.00014                       1.00000
                       0.00000                      -0.00000                       1.00000
        </DataArray>
      </PointData>
      <Lines>
        <DataArray type="Int32" Name="connectivity" format="ascii">
      0      1
      1      2
      2      3
      3      4
      4      5
      5      6
      6      7
      7      8
      8      9
      9     10
     10     11
     11     12
     12     13
     13     14
     14     15
     15     16
     16     17
     17     18
     18     19
     19     20
     21      0
        </DataArray>
        <DataArray type="Int32" Name="offsets" format="ascii">
      2
      4
      6
      8
     10
     12
     14
     16
     18
     20
     22
     24
     26
     28
     30
     32
     34
     36
     38
     40
     42
        </DataArray>
      </Lines>
    </Piece>
  </PolyData>
</VTKFile>
