<?xml version="1.0"?>
<VTKFile type="PolyData" version="0.1" byte_order="LittleEndian">
  <PolyData>
    <Piece NumberOfPoints="      8" NumberOfVerts="  0" NumberOfLines="      0"
           NumberOfStrips="  0" NumberOfPolys="      6">
      <Points>
        <DataArray type="Float32" NumberOfComponents="3" format="ascii">
                      -3.22167                       2.39749                      87.61785
                       3.77824                       2.39749                      87.58132
                       3.77824                      -2.40252                      87.58098
                      -3.22167                      -2.40252                      87.61751
                      -3.19662                      -2.40286                      92.41745
                       3.80329                      -2.40286                      92.38092
                       3.80329                       2.39715                      92.38126
                      -3.19662                       2.39715                      92.41779
        </DataArray>
      </Points>
      <Polys>
        <DataArray type="Int32" Name="connectivity" format="ascii">
      0      1      2      3
      4      5      6      7
      7      6      1      0
      6      5      2      1
      5      4      3      2
      4      7      0      3
        </DataArray>
        <DataArray type="Int32" Name="offsets" format="ascii">
      4
      8
     12
     16
     20
     24
        </DataArray>
      </Polys>
    </Piece>
  </PolyData>
</VTKFile>
