<?xml version="1.0"?>
<VTKFile type="PolyData" version="0.1" byte_order="LittleEndian">
  <PolyData>
    <Piece NumberOfPoints="     19" NumberOfVerts="  0" NumberOfLines="     18"
           NumberOfStrips="  0" NumberOfPolys="      0">
      <Points>
        <DataArray type="Float32" NumberOfComponents="3" format="ascii">
                      -5.02048                      -0.82588                      88.76999
                      -5.18322                      -1.56951                      87.63451
                      -5.53404                      -2.97649                      85.31403
                      -5.89467                      -4.34510                      82.96927
                      -6.34732                      -6.03243                      80.02263
                      -6.82062                      -8.17679                      76.55505
                      -7.25045                     -10.42893                      73.15181
                      -7.66889                     -12.68154                      69.74688
                      -8.07446                     -14.93628                      66.34111
                      -8.47046                     -17.19173                      62.93398
                      -8.86237                     -19.44511                      59.52437
                      -9.25485                     -21.69807                      56.11400
                      -9.65569                     -23.95110                      52.70440
                     -10.07454                     -26.20479                      49.29754
                     -10.52054                     -28.45958                      45.89545
                     -10.92299                     -30.34001                      43.06620
                     -11.26886                     -31.85204                      40.81205
                     -11.63173                     -33.41118                      38.59205
                     -11.83441                     -34.15664                      37.46334
        </DataArray>
      </Points>
      <PointData>
        <DataArray type="Float32" Name="TranslationalVelocity" NumberOfComponents="3" format="ascii">
                      -0.20150                       3.53293                      -2.29064
                      -0.39004                       6.75240                      -4.37209
                      -0.74343                      13.33365                      -8.30918
                      -1.08605                      19.98124                     -12.13688
                      -1.51210                      28.32841                     -16.85201
                      -2.06449                      38.12639                     -22.83734
                      -2.65921                      47.72345                     -29.11507
                      -3.27007                      57.31271                     -35.38559
                      -3.89574                      66.89257                     -41.65463
                      -4.53276                      76.46683                     -47.91962
                      -5.17693                      86.04156                     -54.17433
                      -5.82558                      95.61466                     -60.42472
                      -6.47712                     105.18529                     -66.67312
                      -7.13225                     114.75146                     -72.92149
                      -7.79472                     124.31036                     -79.17047
                      -8.35846                     132.26692                     -84.37870
                      -8.82357                     138.61174                     -88.56334
                      -9.31742                     144.86460                     -92.87440
                      -9.56267                     148.04787                     -94.93312
        </DataArray>
        <DataArray type="Float32" Name="RotationalVelocity" NumberOfComponents="3" format="ascii">
                       2.79967                       0.00063                      -0.25286
                       2.79916                       0.00037                      -0.25255
                       2.79781                       0.00022                      -0.25222
                       2.79612                       0.00067                      -0.25213
                       2.79375                       0.00212                      -0.25215
                       2.79074                       0.00512                      -0.25217
                       2.78782                       0.00906                      -0.25211
                       2.78515                       0.01335                      -0.25205
                       2.78284                       0.01731                      -0.25220
                       2.78091                       0.02029                      -0.25283
                       2.77933                       0.02182                      -0.25427
                       2.77801                       0.02167                      -0.25680
                       2.77681                       0.02003                      -0.26067
                       2.77557                       0.01756                      -0.26602
                       2.77407                       0.01558                      -0.27284
                       2.77249                       0.01566                      -0.27948
                       2.77089                       0.01805                      -0.28529
                       2.76892                       0.02366                      -0.29134
                       2.76777                       0.02804                      -0.29437
        </DataArray>
        <DataArray type="Float32" Name="TranslationalAcceleration" NumberOfComponents="3" format="ascii">
                       0.90697                       6.47342                       9.91099
                       1.09652                       7.79829                      11.96683
                       3.14655                      21.64968                      34.64936
                       5.05000                      33.99561                      55.71574
                       7.31719                      48.10457                      80.43559
                       9.90637                      64.95598                     107.92112
                      12.44441                      82.17111                     134.07832
                      14.96461                      99.31784                     160.09067
                      17.43492                     116.62427                     186.30322
                      19.82985                     134.14052                     212.85175
                      22.16465                     151.79576                     239.71046
                      24.53957                     169.49144                     266.71725
                      27.17577                     187.09938                     293.65981
                      30.45592                     204.51745                     320.32463
                      34.96494                     221.71603                     346.55365
                      40.30073                     235.93953                     368.02705
                      46.00757                     247.38162                     384.95764
                      53.44493                     259.32045                     401.55629
                      57.92166                     265.10350                     410.02334
        </DataArray>
        <DataArray type="Float32" Name="OrientationX" NumberOfComponents="3" format="ascii">
                       0.95376                       0.16955                      -0.24818
                       0.95379                       0.16974                      -0.24793
                       0.95384                       0.17045                      -0.24725
                       0.95387                       0.17158                      -0.24635
                       0.95386                       0.17356                      -0.24500
                       0.96212                       0.15062                      -0.22723
                       0.96727                       0.13610                      -0.21416
                       0.97104                       0.12533                      -0.20338
                       0.97433                       0.11517                      -0.19341
                       0.97696                       0.10622                      -0.18510
                       0.97858                       0.10002                      -0.17991
                       0.97942                       0.09562                      -0.17776
                       0.97918                       0.09415                      -0.17982
                       0.97744                       0.09716                      -0.18752
                       0.97498                       0.10021                      -0.19842
                       0.97250                       0.10177                      -0.20948
                       0.97019                       0.10224                      -0.21973
                       0.96697                       0.10423                      -0.23262
                       0.96485                       0.10627                      -0.24034
        </DataArray>
        <DataArray type="Float32" Name="OrientationY" NumberOfComponents="3" format="ascii">
                       0.27614                      -0.82033                       0.50081
                       0.27616                      -0.82035                       0.50076
                       0.27637                      -0.82036                       0.50063
                       0.27681                      -0.82031                       0.50047
                       0.27772                      -0.82015                       0.50023
                       0.24898                      -0.82499                       0.50735
                       0.22979                      -0.82782                       0.51178
                       0.21496                      -0.82981                       0.51499
                       0.20108                      -0.83154                       0.51780
                       0.18909                      -0.83295                       0.52004
                       0.18109                      -0.83389                       0.52137
                       0.17622                      -0.83452                       0.52203
                       0.17608                      -0.83471                       0.52178
                       0.18273                      -0.83426                       0.52021
                       0.19115                      -0.83363                       0.51820
                       0.19841                      -0.83306                       0.51638
                       0.20434                      -0.83258                       0.51484
                       0.21297                      -0.83181                       0.51257
                       0.21884                      -0.83126                       0.51099
        </DataArray>
        <DataArray type="Float32" Name="OrientationZ" NumberOfComponents="3" format="ascii">
                      -0.11868                      -0.54618                      -0.82922
                      -0.11839                      -0.54609                      -0.82932
                      -0.11750                      -0.54586                      -0.82960
                      -0.11621                      -0.54558                      -0.82996
                      -0.11412                      -0.54519                      -0.83051
                      -0.11104                      -0.54471                      -0.83124
                      -0.10764                      -0.54424                      -0.83200
                      -0.10423                      -0.54380                      -0.83272
                      -0.10119                      -0.54340                      -0.83335
                      -0.09894                      -0.54306                      -0.83385
                      -0.09788                      -0.54279                      -0.83415
                      -0.09842                      -0.54261                      -0.83420
                      -0.10098                      -0.54258                      -0.83391
                      -0.10589                      -0.54274                      -0.83320
                      -0.11348                      -0.54316                      -0.83192
                      -0.12196                      -0.54375                      -0.83034
                      -0.13031                      -0.54439                      -0.82865
                      -0.14007                      -0.54518                      -0.82653
                      -0.14548                      -0.54563                      -0.82530
        </DataArray>
        <DataArray type="Float32" Name="Force" NumberOfComponents="3" format="ascii">
                       1.29428                     -22.03516                      14.32865
                     168.37846                    -122.11445                      56.39335
                     287.07293                    -349.05123                     189.21556
                     305.98319                    -506.44429                     290.63691
                    1467.13172                     241.03723                    -360.33117
                    1330.78678                     154.51719                    -279.53693
                    1173.15177                      67.23461                    -196.07441
                    1780.30701                     114.80988                    -298.45068
                    2210.27211                     113.16757                    -342.93625
                    2409.78345                      85.71432                    -342.42196
                    3977.09232                     131.08416                    -553.07576
                    4191.77396                      99.80778                    -560.47361
                    3191.25235                      17.32316                    -398.06685
                    1740.97133                     -92.88081                    -160.33077
                    1998.06018                      11.60083                    -280.38128
                     272.50569                    -184.25538                      81.35665
                   -1256.87217                    -236.37451                     353.60572
                   -2473.81772                    -216.37661                     562.07829
                  -18593.01382                     549.99825                    2913.30058
        </DataArray>
        <DataArray type="Float32" Name="Moment" NumberOfComponents="3" format="ascii">
                       0.00000                       0.00000                       0.00000
                       0.00000                       0.00000                       0.00000
                       0.00000                       0.00000                       0.00000
                       0.00000                       0.00000                       0.00000
                     151.76181                     726.91920                    1104.17637
                     277.27476                    1365.43838                    2074.77875
                     359.39761                    1826.71810                    2776.73473
                     556.80624                    2923.92767                    4446.23490
                     802.65879                    4343.07299                    6606.44460
                     889.55483                    4924.62956                    7492.93585
                     982.62940                    5500.11525                    8369.53298
                    1049.50180                    5842.20707                    8889.57467
                     811.59630                    4403.18864                    6698.08549
                     835.36446                    4320.13769                    6568.21956
                     846.84358                    4083.82199                    6203.76716
                     853.93004                    3828.50786                    5810.49500
                     804.62032                    3373.31508                    5114.93583
                     432.54090                    1685.14253                    2552.40738
                     412.49237                    1546.26994                    2340.65463
        </DataArray>
      </PointData>
      <Lines>
        <DataArray type="Int32" Name="connectivity" format="ascii">
      0      1
      1      2
      2      3
      3      4
      4      5
      5      6
      6      7
      7      8
      8      9
      9     10
     10     11
     11     12
     12     13
     13     14
     14     15
     15     16
     16     17
     17     18
        </DataArray>
        <DataArray type="Int32" Name="offsets" format="ascii">
      2
      4
      6
      8
     10
     12
     14
     16
     18
     20
     22
     24
     26
     28
     30
     32
     34
     36
        </DataArray>
      </Lines>
    </Piece>
  </PolyData>
</VTKFile>
