<?xml version="1.0"?>
<VTKFile type="PolyData" version="0.1" byte_order="LittleEndian">
  <PolyData>
    <Piece NumberOfPoints="     19" NumberOfVerts="  0" NumberOfLines="     18"
           NumberOfStrips="  0" NumberOfPolys="      0">
      <Points>
        <DataArray type="Float32" NumberOfComponents="3" format="ascii">
                      -4.77349                       0.15923                      91.50392
                      -4.71085                       0.30346                      92.86186
                      -4.60483                       0.49778                      95.58912
                      -4.50492                       0.64770                      98.32197
                      -4.37826                       0.80892                     101.74152
                      -4.16085                       1.14550                     105.82667
                      -3.90282                       1.61203                     109.89582
                      -3.62818                       2.08168                     113.96395
                      -3.33502                       2.55608                     118.03074
                      -3.02607                       3.03324                     122.09655
                      -2.70622                       3.50951                     126.16210
                      -2.37994                       3.98652                     130.22746
                      -2.05489                       4.46462                     134.29297
                      -1.74066                       4.94446                     138.35899
                      -1.44645                       5.42665                     142.42572
                      -1.22664                       5.83126                     145.81550
                      -1.07189                       6.16502                     148.52689
                      -0.93415                       6.55548                     151.23234
                      -0.88342                       6.71111                     152.59022
        </DataArray>
      </Points>
      <PointData>
        <DataArray type="Float32" Name="TranslationalVelocity" NumberOfComponents="3" format="ascii">
                       0.03511                      -4.19405                       0.45028
                       0.07101                      -8.01375                       0.85433
                       0.12114                     -15.68406                       1.39883
                       0.16300                     -23.37423                       1.81888
                       0.21311                     -33.00637                       2.27034
                       0.31628                     -44.54399                       3.21377
                       0.46051                     -56.06213                       4.52333
                       0.61408                     -67.59625                       5.84285
                       0.77793                     -79.14455                       7.17677
                       0.95227                     -90.70566                       8.51912
                       1.13712                    -102.27844                       9.85934
                       1.33420                    -113.86003                      11.20165
                       1.54537                    -125.44781                      12.54687
                       1.77307                    -137.03909                      13.89676
                       2.02032                    -148.63155                      15.25316
                       2.24456                    -158.29134                      16.39144
                       2.43944                    -166.01527                      17.33088
                       2.66387                    -173.72144                      18.43103
                       2.76984                    -177.58566                      18.86955
        </DataArray>
        <DataArray type="Float32" Name="RotationalVelocity" NumberOfComponents="3" format="ascii">
                       2.80050                      -0.00067                      -0.25316
                       2.80115                      -0.00039                      -0.25325
                       2.80285                       0.00043                      -0.25357
                       2.80496                       0.00148                      -0.25410
                       2.80790                       0.00298                      -0.25507
                       2.81156                       0.00489                      -0.25676
                       2.81505                       0.00681                      -0.25900
                       2.81819                       0.00871                      -0.26177
                       2.82087                       0.01064                      -0.26501
                       2.82308                       0.01270                      -0.26863
                       2.82486                       0.01503                      -0.27255
                       2.82630                       0.01775                      -0.27668
                       2.82751                       0.02098                      -0.28094
                       2.82860                       0.02480                      -0.28528
                       2.82966                       0.02924                      -0.28965
                       2.83058                       0.03335                      -0.29331
                       2.83134                       0.03687                      -0.29628
                       2.83211                       0.04050                      -0.29930
                       2.83249                       0.04233                      -0.30084
        </DataArray>
        <DataArray type="Float32" Name="TranslationalAcceleration" NumberOfComponents="3" format="ascii">
                      -1.09999                      -1.30241                     -11.78721
                      -1.31318                      -1.52961                     -14.21264
                      -3.80985                      -3.62058                     -40.76010
                      -6.15789                      -5.11890                     -65.23804
                      -8.95292                      -6.55862                     -93.89483
                     -12.16520                      -9.22483                    -126.44322
                     -15.30578                     -12.84271                    -158.12449
                     -18.44100                     -16.48755                    -189.79131
                     -21.61095                     -20.21224                    -221.82900
                     -24.84840                     -24.00885                    -254.35355
                     -28.18615                     -27.83456                    -287.28613
                     -31.66518                     -31.67636                    -320.42637
                     -35.34267                     -35.50982                    -353.53636
                     -39.29963                     -39.32118                    -386.41850
                     -43.64832                     -43.11302                    -418.99479
                     -47.68944                     -46.28262                    -445.98516
                     -51.26454                     -48.91369                    -467.60103
                     -55.25982                     -52.03722                    -489.39331
                     -57.39178                     -53.31340                    -500.48908
        </DataArray>
        <DataArray type="Float32" Name="OrientationX" NumberOfComponents="3" format="ascii">
                       0.97431                      -0.22424                      -0.02073
                       0.97429                      -0.22431                      -0.02109
                       0.97418                      -0.22466                      -0.02220
                       0.97400                      -0.22529                      -0.02380
                       0.97365                      -0.22651                      -0.02637
                       0.97966                      -0.19781                      -0.03385
                       0.98302                      -0.17891                      -0.04066
                       0.98525                      -0.16451                      -0.04708
                       0.98708                      -0.15117                      -0.05314
                       0.98846                      -0.13981                      -0.05830
                       0.98925                      -0.13253                      -0.06188
                       0.98968                      -0.12843                      -0.06355
                       0.98965                      -0.12904                      -0.06269
                       0.98892                      -0.13637                      -0.05865
                       0.98805                      -0.14524                      -0.05164
                       0.98733                      -0.15260                      -0.04349
                       0.98675                      -0.15834                      -0.03526
                       0.98572                      -0.16650                      -0.02513
                       0.98491                      -0.17201                      -0.01926
        </DataArray>
        <DataArray type="Float32" Name="OrientationY" NumberOfComponents="3" format="ascii">
                       0.22045                       0.96853                      -0.11552
                       0.22047                       0.96852                      -0.11562
                       0.22069                       0.96843                      -0.11594
                       0.22112                       0.96827                      -0.11641
                       0.22202                       0.96798                      -0.11716
                       0.19266                       0.97424                      -0.11725
                       0.17311                       0.97787                      -0.11749
                       0.15808                       0.98038                      -0.11774
                       0.14412                       0.98252                      -0.11782
                       0.13226                       0.98419                      -0.11778
                       0.12462                       0.98519                      -0.11775
                       0.12035                       0.98572                      -0.11775
                       0.12105                       0.98562                      -0.11790
                       0.12875                       0.98459                      -0.11836
                       0.13832                       0.98324                      -0.11878
                       0.14654                       0.98202                      -0.11902
                       0.15316                       0.98100                      -0.11912
                       0.16241                       0.97950                      -0.11918
                       0.16855                       0.97846                      -0.11916
        </DataArray>
        <DataArray type="Float32" Name="OrientationZ" NumberOfComponents="3" format="ascii">
                       0.04598                       0.10799                       0.99309
                       0.04636                       0.10800                       0.99307
                       0.04754                       0.10805                       0.99301
                       0.04927                       0.10812                       0.99292
                       0.05207                       0.10822                       0.99276
                       0.05617                       0.10834                       0.99253
                       0.06078                       0.10846                       0.99224
                       0.06553                       0.10856                       0.99193
                       0.07002                       0.10864                       0.99161
                       0.07385                       0.10871                       0.99133
                       0.07657                       0.10877                       0.99111
                       0.07777                       0.10888                       0.99101
                       0.07701                       0.10909                       0.99104
                       0.07389                       0.10950                       0.99124
                       0.06803                       0.11022                       0.99158
                       0.06087                       0.11114                       0.99194
                       0.05345                       0.11214                       0.99225
                       0.04445                       0.11339                       0.99256
                       0.03934                       0.11411                       0.99269
        </DataArray>
        <DataArray type="Float32" Name="Force" NumberOfComponents="3" format="ascii">
                      -0.17765                      18.13678                      -1.96394
                     187.69635                     124.61347                     -22.31356
                     279.90402                     364.19430                     -53.00919
                     281.87651                     546.43059                     -73.42277
                    1608.97323                    -372.55379                     -43.84892
                    1568.33076                    -267.47977                     -59.64390
                    1507.66187                    -168.43397                     -74.01026
                    2258.33503                    -246.65918                    -122.31352
                    2689.63907                    -234.65656                    -164.34480
                    2978.04093                    -206.39048                    -199.32572
                    4575.67535                    -279.28382                    -323.02352
                    4831.35037                    -248.08440                    -352.03175
                    3879.31781                    -147.25127                    -285.33845
                    2307.84939                      19.51098                    -174.12696
                     484.20842                     177.91796                     -52.59832
                     559.67865                     189.67482                     -54.99447
                   -1165.88336                     322.47086                      27.71401
                   -2544.07075                     368.57652                      73.87776
                  -20174.67779                     202.45583                     777.80830
        </DataArray>
        <DataArray type="Float32" Name="Moment" NumberOfComponents="3" format="ascii">
                       0.00000                       0.00000                       0.00000
                       0.00000                       0.00000                       0.00000
                       0.00000                       0.00000                       0.00000
                       0.00000                       0.00000                       0.00000
                     -69.01305                    -143.16995                   -1315.91944
                    -140.21227                    -269.65593                   -2477.56615
                    -204.58046                    -363.66158                   -3339.87766
                    -353.37885                    -582.72744                   -5349.47217
                    -560.80383                    -865.51342                   -7942.21337
                    -673.56796                    -985.79058                   -9042.76235
                    -780.91971                   -1102.27972                  -10108.81879
                    -844.63535                   -1173.92016                  -10764.64854
                    -633.38136                    -888.98085                   -8152.36793
                    -598.24646                    -875.07316                   -8027.10980
                    -520.93668                    -827.49005                   -7594.67712
                    -436.74374                    -775.02565                   -7117.78874
                    -338.55879                    -683.89310                   -6285.06895
                    -141.01906                    -342.30507                   -3148.40173
                    -112.59123                    -308.63576                   -2840.04002
        </DataArray>
      </PointData>
      <Lines>
        <DataArray type="Int32" Name="connectivity" format="ascii">
      0      1
      1      2
      2      3
      3      4
      4      5
      5      6
      6      7
      7      8
      8      9
      9     10
     10     11
     11     12
     12     13
     13     14
     14     15
     15     16
     16     17
     17     18
        </DataArray>
        <DataArray type="Int32" Name="offsets" format="ascii">
      2
      4
      6
      8
     10
     12
     14
     16
     18
     20
     22
     24
     26
     28
     30
     32
     34
     36
        </DataArray>
      </Lines>
    </Piece>
  </PolyData>
</VTKFile>
