<?xml version="1.0"?>
<VTKFile type="PolyData" version="0.1" byte_order="LittleEndian">
  <PolyData>
    <Piece NumberOfPoints="    550" NumberOfVerts="  0" NumberOfLines="     21"
           NumberOfStrips="  0" NumberOfPolys="    567">
      <Points>
        <DataArray type="Float32" NumberOfComponents="3" format="ascii">
                       2.97345                      -0.00001                       2.18980
                       2.88003                       0.73944                       2.18981
                       2.60566                       1.43243                       2.18983
                       2.16757                       2.03541                       2.18986
                       1.59328                       2.51050                       2.18990
                       0.91889                       2.82784                       2.18995
                       0.18677                       2.96750                       2.19000
                      -0.55708                       2.92070                       2.19005
                      -1.26593                       2.69038                       2.19010
                      -1.89523                       2.29102                       2.19014
                      -2.40544                       1.74770                       2.19017
                      -2.76450                       1.09457                       2.19019
                      -2.94986                       0.37266                       2.19020
                      -2.94986                      -0.37267                       2.19020
                      -2.76450                      -1.09458                       2.19018
                      -2.40544                      -1.74771                       2.19015
                      -1.89523                      -2.29103                       2.19012
                      -1.26593                      -2.69040                       2.19007
                      -0.55708                      -2.92071                       2.19002
                       0.18677                      -2.96751                       2.18997
                       0.91889                      -2.82785                       2.18993
                       1.59328                      -2.51051                       2.18988
                       2.16757                      -2.03542                       2.18985
                       2.60566                      -1.43244                       2.18982
                       2.88003                      -0.73945                       2.18980
                       2.92084                      -0.00004                       6.56933
                       2.82910                       0.72616                       6.56936
                       2.55964                       1.40674                       6.56943
                       2.12939                       1.99892                       6.56953
                       1.56539                       2.46550                       6.56967
                       0.90308                       2.77716                       6.56983
                       0.18407                       2.91432                       6.57000
                      -0.54647                       2.86836                       6.57016
                      -1.24262                       2.64216                       6.57032
                      -1.86065                       2.24995                       6.57046
                      -2.36172                       1.71636                       6.57057
                      -2.71435                       1.07493                       6.57064
                      -2.89639                       0.36594                       6.57067
                      -2.89639                      -0.36603                       6.57066
                      -2.71435                      -1.07501                       6.57061
                      -2.36172                      -1.71645                       6.57052
                      -1.86065                      -2.25004                       6.57040
                      -1.24262                      -2.64225                       6.57025
                      -0.54647                      -2.86845                       6.57009
                       0.18407                      -2.91441                       6.56992
                       0.90308                      -2.77725                       6.56976
                       1.56539                      -2.46559                       6.56961
                       2.12939                      -1.99901                       6.56948
                       2.55964                      -1.40683                       6.56939
                       2.82910                      -0.72625                       6.56934
                       2.86900                      -0.00012                      10.94880
                       2.77893                       0.71285                      10.94886
                       2.51439                       1.38101                      10.94898
                       2.09199                       1.96239                      10.94917
                       1.53827                       2.42047                      10.94941
                       0.88804                       2.72644                      10.94968
                       0.18214                       2.86110                      10.94998
                      -0.53507                       2.81598                      10.95028
                      -1.21853                       2.59391                      10.95056
                      -1.82529                       2.20885                      10.95081
                      -2.31723                       1.68499                      10.95100
                      -2.66343                       1.05525                      10.95113
                      -2.84214                       0.35920                      10.95119
                      -2.84214                      -0.35943                      10.95118
                      -2.66343                      -1.05548                      10.95109
                      -2.31723                      -1.68522                      10.95093
                      -1.82529                      -2.20908                      10.95072
                      -1.21853                      -2.59414                      10.95046
                      -0.53507                      -2.81621                      10.95017
                       0.18214                      -2.86133                      10.94987
                       0.88804                      -2.72668                      10.94958
                       1.53827                      -2.42070                      10.94931
                       2.09199                      -1.96263                      10.94909
                       2.51439                      -1.38124                      10.94892
                       2.77893                      -0.71308                      10.94883
                       2.81800                      -0.00022                      15.32828
                       2.72960                       0.69950                      15.32835
                       2.46997                       1.35526                      15.32853
                       2.05542                       1.92584                      15.32880
                       1.51199                       2.37540                      15.32914
                       0.87383                       2.67570                      15.32954
                       0.18104                       2.80785                      15.32997
                      -0.52285                       2.76357                      15.33039
                      -1.19361                       2.54563                      15.33080
                      -1.78910                       2.16772                      15.33115
                      -2.27190                       1.65359                      15.33143
                      -2.61167                       1.03555                      15.33162
                      -2.78706                       0.35242                      15.33171
                      -2.78706                      -0.35286                      15.33169
                      -2.61167                      -1.03598                      15.33157
                      -2.27190                      -1.65403                      15.33134
                      -1.78910                      -2.16815                      15.33104
                      -1.19361                      -2.54606                      15.33066
                      -0.52285                      -2.76401                      15.33025
                       0.18104                      -2.80829                      15.32982
                       0.87383                      -2.67614                      15.32940
                       1.51199                      -2.37584                      15.32902
                       2.05542                      -1.92628                      15.32870
                       2.46997                      -1.35569                      15.32846
                       2.72960                      -0.69994                      15.32832
                       2.76784                      -0.00035                      19.70778
                       2.68112                       0.68613                      19.70788
                       2.42640                       1.32947                      19.70810
                       2.01970                       1.88926                      19.70845
                       1.48655                       2.33031                      19.70889
                       0.86047                       2.62492                      19.70940
                       0.18079                       2.75458                      19.70995
                      -0.50977                       2.71113                      19.71050
                      -1.16784                       2.49731                      19.71102
                      -1.75206                       2.12656                      19.71148
                      -2.22572                       1.62216                      19.71184
                      -2.55906                       1.01581                      19.71209
                      -2.73114                       0.34562                      19.71221
                      -2.73114                      -0.34632                      19.71218
                      -2.55906                      -1.01651                      19.71202
                      -2.22572                      -1.62286                      19.71174
                      -1.75206                      -2.12725                      19.71134
                      -1.16784                      -2.49801                      19.71086
                      -0.50977                      -2.71183                      19.71032
                       0.18079                      -2.75528                      19.70977
                       0.86047                      -2.62562                      19.70923
                       1.48655                      -2.33101                      19.70874
                       2.01970                      -1.88996                      19.70832
                       2.42640                      -1.33017                      19.70801
                       2.68112                      -0.68683                      19.70783
                       2.71851                      -0.00051                      24.08733
                       2.63346                       0.67273                      24.08744
                       2.38366                       1.30366                      24.08771
                       1.98480                       1.85265                      24.08812
                       1.46194                       2.28520                      24.08865
                       0.84794                       2.57412                      24.08927
                       0.18137                       2.70128                      24.08993
                      -0.49587                       2.65867                      24.09060
                      -1.14125                       2.44897                      24.09123
                      -1.71420                       2.08537                      24.09178
                      -2.17872                       1.59070                      24.09222
                      -2.50563                       0.99605                      24.09252
                      -2.67439                       0.33879                      24.09266
                      -2.67439                      -0.33980                      24.09263
                      -2.50563                      -0.99707                      24.09244
                      -2.17872                      -1.59171                      24.09210
                      -1.71420                      -2.08638                      24.09162
                      -1.14125                      -2.44999                      24.09104
                      -0.49587                      -2.65968                      24.09039
                       0.18137                      -2.70229                      24.08972
                       0.84794                      -2.57514                      24.08907
                       1.46194                      -2.28621                      24.08848
                       1.98480                      -1.85366                      24.08798
                       2.38366                      -1.30467                      24.08760
                       2.63346                      -0.67374                      24.08738
                       2.66997                      -0.00069                      28.46691
                       2.58660                       0.65930                      28.46703
                       2.34171                       1.27782                      28.46735
                       1.95069                       1.81601                      28.46783
                       1.43812                       2.24005                      28.46844
                       0.83619                       2.52329                      28.46915
                       0.18274                       2.64795                      28.46992
                      -0.48118                       2.60618                      28.47069
                      -1.11386                       2.40061                      28.47142
                      -1.67554                       2.04415                      28.47205
                      -2.13093                       1.55922                      28.47256
                      -2.45141                       0.97627                      28.47291
                      -2.61685                       0.33193                      28.47307
                      -2.61685                      -0.33331                      28.47304
                      -2.45141                      -0.97765                      28.47282
                      -2.13093                      -1.56060                      28.47242
                      -1.67554                      -2.04554                      28.47187
                      -1.11386                      -2.40199                      28.47120
                      -0.48118                      -2.60756                      28.47045
                       0.18274                      -2.64933                      28.46968
                       0.83619                      -2.52468                      28.46892
                       1.43812                      -2.24143                      28.46824
                       1.95069                      -1.81739                      28.46766
                       2.34171                      -1.27921                      28.46723
                       2.58660                      -0.66068                      28.46697
                       2.62220                      -0.00090                      32.84652
                       2.54049                       0.64584                      32.84666
                       2.30052                       1.25196                      32.84701
                       1.91735                       1.77935                      32.84755
                       1.41506                       2.19488                      32.84824
                       0.82521                       2.47244                      32.84905
                       0.18487                       2.59459                      32.84991
                      -0.46573                       2.55366                      32.85077
                      -1.08572                       2.35221                      32.85159
                      -1.63613                       2.00291                      32.85231
                      -2.08237                       1.52770                      32.85288
                      -2.39642                       0.95645                      32.85327
                      -2.55854                       0.32504                      32.85345
                      -2.55854                      -0.32685                      32.85342
                      -2.39642                      -0.95826                      32.85317
                      -2.08237                      -1.52951                      32.85272
                      -1.63613                      -2.00472                      32.85210
                      -1.08572                      -2.35402                      32.85135
                      -0.46573                      -2.55546                      32.85051
                       0.18487                      -2.59640                      32.84964
                       0.82521                      -2.47425                      32.84879
                       1.41506                      -2.19669                      32.84802
                       1.91735                      -1.78115                      32.84737
                       2.30052                      -1.25377                      32.84688
                       2.54049                      -0.64765                      32.84660
                       2.57516                      -0.00115                      37.22616
                       2.49513                       0.63236                      37.22632
                       2.26007                       1.22606                      37.22670
                       1.88474                       1.74265                      37.22730
                       1.39274                       2.14967                      37.22806
                       0.81497                       2.42155                      37.22895
                       0.18774                       2.54120                      37.22989
                      -0.44954                       2.50111                      37.23085
                      -1.05683                       2.30379                      37.23175
                      -1.59597                       1.96164                      37.23254
                      -2.03308                       1.49616                      37.23317
                      -2.34070                       0.93660                      37.23360
                      -2.49950                       0.31812                      37.23380
                      -2.49950                      -0.32042                      37.23376
                      -2.34070                      -0.93890                      37.23349
                      -2.03308                      -1.49846                      37.23299
                      -1.59597                      -1.96393                      37.23231
                      -1.05683                      -2.30608                      37.23148
                      -0.44954                      -2.50340                      37.23056
                       0.18774                      -2.54349                      37.22960
                       0.81497                      -2.42384                      37.22866
                       1.39274                      -2.15197                      37.22781
                       1.88474                      -1.74494                      37.22709
                       2.26006                      -1.22835                      37.22656
                       2.49513                      -0.63465                      37.22624
                       2.52886                      -0.00142                      41.60581
                       2.45050                       0.61884                      41.60598
                       2.22035                       1.20013                      41.60641
                       1.85287                       1.70593                      41.60705
                       1.37115                       2.10444                      41.60788
                       0.80546                       2.37063                      41.60885
                       0.19134                       2.48778                      41.60988
                      -0.43262                       2.44853                      41.61092
                      -1.02721                       2.25533                      41.61190
                      -1.55508                       1.92034                      41.61276
                      -1.98305                       1.46459                      41.61345
                      -2.28424                       0.91673                      41.61392
                      -2.43972                       0.31118                      41.61414
                      -2.43972                      -0.31402                      41.61410
                      -2.28424                      -0.91957                      41.61380
                      -1.98305                      -1.46743                      41.61326
                      -1.55508                      -1.92318                      41.61251
                      -1.02721                      -2.25817                      41.61161
                      -0.43262                      -2.45137                      41.61060
                       0.19134                      -2.49062                      41.60955
                       0.80546                      -2.37347                      41.60854
                       1.37115                      -2.10728                      41.60761
                       1.85287                      -1.70877                      41.60683
                       2.22035                      -1.20297                      41.60625
                       2.45050                      -0.62168                      41.60590
                       2.48331                      -0.00172                      45.98547
                       2.40662                       0.60530                      45.98565
                       2.18139                       1.17418                      45.98611
                       1.82176                       1.66917                      45.98681
                       1.35032                       2.05918                      45.98771
                       0.79671                       2.31969                      45.98875
                       0.19570                       2.43434                      45.98987
                      -0.41494                       2.39592                      45.99099
                      -0.99684                       2.20685                      45.99205
                      -1.51343                       1.87900                      45.99298
                      -1.93227                       1.43299                      45.99372
                      -2.22703                       0.89682                      45.99423
                      -2.37919                       0.30420                      45.99447
                      -2.37919                      -0.30765                      45.99442
                      -2.22703                      -0.90027                      45.99410
                      -1.93227                      -1.43643                      45.99351
                      -1.51343                      -1.88245                      45.99271
                      -0.99684                      -2.21029                      45.99173
                      -0.41494                      -2.39936                      45.99064
                       0.19570                      -2.43778                      45.98951
                       0.79671                      -2.32313                      45.98841
                       1.35032                      -2.06262                      45.98741
                       1.82175                      -1.67262                      45.98657
                       2.18139                      -1.17762                      45.98594
                       2.40662                      -0.60874                      45.98556
                       2.43854                      -0.00206                      50.36512
                       2.36353                       0.59172                      50.36532
                       2.14321                       1.14819                      50.36581
                       1.79142                       1.63238                      50.36656
                       1.33027                       2.01388                      50.36753
                       0.78874                       2.26871                      50.36865
                       0.20084                       2.38086                      50.36985
                      -0.39647                       2.34328                      50.37106
                      -0.96568                       2.15833                      50.37220
                      -1.47101                       1.83764                      50.37320
                      -1.88070                       1.40135                      50.37400
                      -2.16903                       0.87689                      50.37454
                      -2.31787                       0.29719                      50.37480
                      -2.31787                      -0.30131                      50.37475
                      -2.16903                      -0.88100                      50.37440
                      -1.88070                      -1.40547                      50.37377
                      -1.47101                      -1.84175                      50.37291
                      -0.96568                      -2.16244                      50.37186
                      -0.39648                      -2.34739                      50.37069
                       0.20084                      -2.38497                      50.36947
                       0.78874                      -2.27282                      50.36829
                       1.33027                      -2.01800                      50.36721
                       1.79142                      -1.63650                      50.36630
                       2.14321                      -1.15230                      50.36563
                       2.36353                      -0.59584                      50.36523
                       2.39459                      -0.00242                      54.74477
                       2.32126                       0.57811                      54.74498
                       2.10585                       1.12217                      54.74551
                       1.76191                       1.59557                      54.74632
                       1.31104                       1.96855                      54.74735
                       0.78158                       2.21770                      54.74855
                       0.20680                       2.32735                      54.74983
                      -0.37719                       2.29060                      54.75113
                      -0.93370                       2.10978                      54.75235
                      -1.42776                       1.79624                      54.75342
                      -1.82832                       1.36969                      54.75427
                      -2.11022                       0.85692                      54.75485
                      -2.25574                       0.29015                      54.75512
                      -2.25574                      -0.29500                      54.75507
                      -2.11022                      -0.86176                      54.75470
                      -1.82832                      -1.37454                      54.75403
                      -1.42776                      -1.80109                      54.75310
                      -0.93370                      -2.11463                      54.75198
                      -0.37719                      -2.29545                      54.75073
                       0.20680                      -2.33219                      54.74943
                       0.78158                      -2.22255                      54.74816
                       1.31104                      -1.97340                      54.74701
                       1.76191                      -1.60041                      54.74604
                       2.10585                      -1.12702                      54.74531
                       2.32126                      -0.58296                      54.74488
                       2.35150                      -0.00282                      59.12443
                       2.27984                       0.56447                      59.12465
                       2.06934                       1.09612                      59.12521
                       1.73325                       1.55872                      59.12607
                       1.29267                       1.92320                      59.12717
                       0.77529                       2.16666                      59.12844
                       0.21362                       2.27380                      59.12981
                      -0.35706                       2.23790                      59.13119
                      -0.90087                       2.06120                      59.13249
                      -1.38366                       1.75482                      59.13363
                      -1.77508                       1.33799                      59.13453
                      -2.05055                       0.83692                      59.13515
                      -2.19275                       0.28308                      59.13544
                      -2.19275                      -0.28872                      59.13539
                      -2.05055                      -0.84256                      59.13499
                      -1.77508                      -1.34363                      59.13428
                      -1.38366                      -1.76046                      59.13329
                      -0.90087                      -2.06684                      59.13210
                      -0.35706                      -2.24354                      59.13077
                       0.21362                      -2.27944                      59.12938
                       0.77529                      -2.17230                      59.12803
                       1.29267                      -1.92884                      59.12681
                       1.73325                      -1.56436                      59.12578
                       2.06934                      -1.10176                      59.12501
                       2.27984                      -0.57011                      59.12455
                       2.30928                      -0.00325                      63.50410
                       2.23928                       0.55080                      63.50434
                       2.03370                       1.07004                      63.50493
                       1.70546                       1.52184                      63.50583
                       1.27516                       1.87781                      63.50700
                       0.76986                       2.11559                      63.50834
                       0.22130                       2.22023                      63.50979
                      -0.33605                       2.18517                      63.51124
                      -0.86717                       2.01259                      63.51261
                      -1.33869                       1.71336                      63.51382
                      -1.72097                       1.30627                      63.51478
                      -1.99001                       0.81689                      63.51543
                      -2.12889                       0.27598                      63.51574
                      -2.12889                      -0.28247                      63.51568
                      -1.99001                      -0.82338                      63.51527
                      -1.72097                      -1.31276                      63.51451
                      -1.33869                      -1.71985                      63.51347
                      -0.86717                      -2.01909                      63.51221
                      -0.33605                      -2.19166                      63.51080
                       0.22130                      -2.22673                      63.50934
                       0.76986                      -2.12208                      63.50792
                       1.27516                      -1.88430                      63.50662
                       1.70545                      -1.52833                      63.50553
                       2.03370                      -1.07653                      63.50472
                       2.23928                      -0.55730                      63.50423
                       2.26790                      -0.00370                      67.88382
                       2.19958                       0.53711                      67.88407
                       1.99891                       1.04393                      67.88469
                       1.67851                       1.48493                      67.88563
                       1.25850                       1.83240                      67.88685
                       0.76527                       2.06449                      67.88825
                       0.22982                       2.16663                      67.88976
                      -0.31420                       2.13241                      67.89128
                      -0.83263                       1.96396                      67.89272
                      -1.29287                       1.67188                      67.89397
                      -1.66602                       1.27451                      67.89498
                      -1.92863                       0.79683                      67.89566
                      -2.06419                       0.26885                      67.89598
                      -2.06419                      -0.27625                      67.89593
                      -1.92863                      -0.80423                      67.89549
                      -1.66602                      -1.28191                      67.89470
                      -1.29287                      -1.67928                      67.89362
                      -0.83263                      -1.97136                      67.89230
                      -0.31420                      -2.13981                      67.89083
                       0.22982                      -2.17403                      67.88930
                       0.76527                      -2.07189                      67.88781
                       1.25850                      -1.83980                      67.88645
                       1.67851                      -1.49233                      67.88532
                       1.99891                      -1.05133                      67.88446
                       2.19958                      -0.54451                      67.88396
                       2.22727                      -0.00418                      72.26363
                       2.16062                       0.52339                      72.26388
                       1.96487                       1.01780                      72.26452
                       1.65231                       1.44800                      72.26549
                       1.24258                       1.78696                      72.26674
                       0.76144                       2.01337                      72.26818
                       0.23910                       2.11301                      72.26974
                      -0.29160                       2.07962                      72.27130
                      -0.79733                       1.91530                      72.27278
                      -1.24631                       1.63037                      72.27407
                      -1.61032                       1.24273                      72.27511
                      -1.86650                       0.77675                      72.27581
                      -1.99874                       0.26170                      72.27615
                      -1.99874                      -0.27006                      72.27609
                      -1.86650                      -0.78511                      72.27564
                      -1.61032                      -1.25109                      72.27483
                      -1.24631                      -1.63873                      72.27371
                      -0.79733                      -1.92366                      72.27235
                      -0.29161                      -2.08798                      72.27084
                       0.23910                      -2.12137                      72.26927
                       0.76144                      -2.02173                      72.26773
                       1.24258                      -1.79531                      72.26634
                       1.65231                      -1.45636                      72.26516
                       1.96487                      -1.02616                      72.26429
                       2.16062                      -0.53174                      72.26376
                       2.18720                      -0.00468                      76.64356
                       2.12223                       0.50964                      76.64382
                       1.93139                       0.99165                      76.64445
                       1.62668                       1.41105                      76.64543
                       1.22724                       1.74150                      76.64669
                       0.75817                       1.96223                      76.64815
                       0.24895                       2.05937                      76.64972
                      -0.26844                       2.02682                      76.65130
                      -0.76147                       1.86662                      76.65278
                      -1.19918                       1.58884                      76.65409
                      -1.55405                       1.21094                      76.65513
                      -1.80380                       0.75665                      76.65584
                      -1.93272                       0.25453                      76.65617
                      -1.93272                      -0.26388                      76.65611
                      -1.80380                      -0.76601                      76.65566
                      -1.55405                      -1.22029                      76.65485
                      -1.19918                      -1.59820                      76.65372
                      -0.76147                      -1.87597                      76.65235
                      -0.26844                      -2.03617                      76.65082
                       0.24895                      -2.06872                      76.64924
                       0.75817                      -1.97158                      76.64769
                       1.22724                      -1.75085                      76.64629
                       1.62668                      -1.42041                      76.64511
                       1.93139                      -1.00100                      76.64422
                       2.12223                      -0.51900                      76.64370
                       2.14740                      -0.00519                      81.02368
                       2.08410                       0.49589                      81.02393
                       1.89818                       0.96548                      81.02456
                       1.60131                       1.37408                      81.02552
                       1.21215                       1.69602                      81.02675
                       0.75516                       1.91107                      81.02817
                       0.25905                       2.00571                      81.02971
                      -0.24501                       1.97399                      81.03125
                      -0.72535                       1.81792                      81.03270
                      -1.15179                       1.54729                      81.03398
                      -1.49753                       1.17912                      81.03500
                      -1.74084                       0.73653                      81.03569
                      -1.86644                       0.24734                      81.03602
                      -1.86644                      -0.25772                      81.03596
                      -1.74084                      -0.74692                      81.03551
                      -1.49753                      -1.18951                      81.03471
                      -1.15179                      -1.55768                      81.03361
                      -0.72535                      -1.82831                      81.03227
                      -0.24501                      -1.98438                      81.03078
                       0.25905                      -2.01609                      81.02923
                       0.75516                      -1.92145                      81.02772
                       1.21215                      -1.70641                      81.02634
                       1.60131                      -1.38447                      81.02519
                       1.89817                      -0.97587                      81.02432
                       2.08410                      -0.50627                      81.02381
                       2.10738                      -0.00572                      85.40405
                       2.04575                       0.48211                      85.40429
                       1.86474                       0.93930                      85.40488
                       1.57572                       1.33710                      85.40578
                       1.19685                       1.65053                      85.40694
                       0.75194                       1.85989                      85.40828
                       0.26894                       1.95203                      85.40971
                      -0.22180                       1.92115                      85.41115
                      -0.68945                       1.76921                      85.41251
                      -1.10462                       1.50573                      85.41371
                      -1.44122                       1.14729                      85.41466
                      -1.67810                       0.71640                      85.41530
                      -1.80038                       0.24013                      85.41560
                      -1.80038                      -0.25158                      85.41554
                      -1.67810                      -0.72785                      85.41512
                      -1.44122                      -1.15874                      85.41437
                      -1.10462                      -1.51718                      85.41334
                      -0.68945                      -1.78066                      85.41208
                      -0.22181                      -1.93260                      85.41068
                       0.26894                      -1.96348                      85.40923
                       0.75194                      -1.87134                      85.40782
                       1.19685                      -1.66198                      85.40653
                       1.57572                      -1.34855                      85.40545
                       1.86474                      -0.95074                      85.40465
                       2.04575                      -0.49356                      85.40417
                       2.08709                      -0.00599                      87.59436
                       2.02630                       0.47522                      87.59459
                       1.84774                       0.92620                      87.59515
                       1.56264                       1.31861                      87.59600
                       1.18892                       1.62778                      87.59710
                       0.75004                       1.83430                      87.59836
                       0.27360                       1.92519                      87.59972
                      -0.21049                       1.89473                      87.60108
                      -0.67178                       1.74485                      87.60237
                      -1.08131                       1.48495                      87.60349
                      -1.41335                       1.13137                      87.60439
                      -1.64701                       0.70633                      87.60500
                      -1.76764                       0.23653                      87.60528
                      -1.76764                      -0.24851                      87.60522
                      -1.64701                      -0.71831                      87.60482
                      -1.41335                      -1.14336                      87.60411
                      -1.08131                      -1.49694                      87.60313
                      -0.67178                      -1.75683                      87.60194
                      -0.21049                      -1.90672                      87.60062
                       0.27359                      -1.93718                      87.59924
                       0.75004                      -1.84629                      87.59791
                       1.18892                      -1.63977                      87.59670
                       1.56264                      -1.33059                      87.59568
                       1.84774                      -0.93819                      87.59492
                       2.02630                      -0.48721                      87.59447
                       3.00000                       0.00000                       0.00000
                       2.90575                       0.74607                       0.00000
                       2.62892                       1.44526                       0.00000
                       2.18691                       2.05364                       0.00000
                       1.60748                       2.53298                       0.00000
                       0.92705                       2.85317                       0.00000
                       0.18837                       2.99408                       0.00000
                      -0.56214                       2.94686                       0.00000
                      -1.27734                       2.71448                       0.00000
                      -1.91227                       2.31154                       0.00000
                      -2.42705                       1.76336                       0.00000
                      -2.78933                       1.10437                       0.00000
                      -2.97634                       0.37600                       0.00000
                      -2.97634                      -0.37600                       0.00000
                      -2.78933                      -1.10437                       0.00000
                      -2.42705                      -1.76336                       0.00000
                      -1.91227                      -2.31154                       0.00000
                      -1.27734                      -2.71448                       0.00000
                      -0.56214                      -2.94686                       0.00000
                       0.18837                      -2.99408                       0.00000
                       0.92705                      -2.85317                       0.00000
                       1.60748                      -2.53298                       0.00000
                       2.18691                      -2.05364                       0.00000
                       2.62892                      -1.44526                       0.00000
                       2.90575                      -0.74607                       0.00000
        </DataArray>
      </Points>
      <Polys>
        <DataArray type="Int32" Name="connectivity" format="ascii">
      0      1     26     25
      1      2     27     26
      2      3     28     27
      3      4     29     28
      4      5     30     29
      5      6     31     30
      6      7     32     31
      7      8     33     32
      8      9     34     33
      9     10     35     34
     10     11     36     35
     11     12     37     36
     12     13     38     37
     13     14     39     38
     14     15     40     39
     15     16     41     40
     16     17     42     41
     17     18     43     42
     18     19     44     43
     19     20     45     44
     20     21     46     45
     21     22     47     46
     22     23     48     47
     23     24     49     48
     24      0     25     49
     24     23     22     21     20     19     18     17     16     15     14     13     12     11     10      9      8      7      6      5      4      3      2      1      0
     25     26     27     28     29     30     31     32     33     34     35     36     37     38     39     40     41     42     43     44     45     46     47     48     49
     25     26     51     50
     26     27     52     51
     27     28     53     52
     28     29     54     53
     29     30     55     54
     30     31     56     55
     31     32     57     56
     32     33     58     57
     33     34     59     58
     34     35     60     59
     35     36     61     60
     36     37     62     61
     37     38     63     62
     38     39     64     63
     39     40     65     64
     40     41     66     65
     41     42     67     66
     42     43     68     67
     43     44     69     68
     44     45     70     69
     45     46     71     70
     46     47     72     71
     47     48     73     72
     48     49     74     73
     49     25     50     74
     49     48     47     46     45     44     43     42     41     40     39     38     37     36     35     34     33     32     31     30     29     28     27     26     25
     50     51     52     53     54     55     56     57     58     59     60     61     62     63     64     65     66     67     68     69     70     71     72     73     74
     50     51     76     75
     51     52     77     76
     52     53     78     77
     53     54     79     78
     54     55     80     79
     55     56     81     80
     56     57     82     81
     57     58     83     82
     58     59     84     83
     59     60     85     84
     60     61     86     85
     61     62     87     86
     62     63     88     87
     63     64     89     88
     64     65     90     89
     65     66     91     90
     66     67     92     91
     67     68     93     92
     68     69     94     93
     69     70     95     94
     70     71     96     95
     71     72     97     96
     72     73     98     97
     73     74     99     98
     74     50     75     99
     74     73     72     71     70     69     68     67     66     65     64     63     62     61     60     59     58     57     56     55     54     53     52     51     50
     75     76     77     78     79     80     81     82     83     84     85     86     87     88     89     90     91     92     93     94     95     96     97     98     99
     75     76    101    100
     76     77    102    101
     77     78    103    102
     78     79    104    103
     79     80    105    104
     80     81    106    105
     81     82    107    106
     82     83    108    107
     83     84    109    108
     84     85    110    109
     85     86    111    110
     86     87    112    111
     87     88    113    112
     88     89    114    113
     89     90    115    114
     90     91    116    115
     91     92    117    116
     92     93    118    117
     93     94    119    118
     94     95    120    119
     95     96    121    120
     96     97    122    121
     97     98    123    122
     98     99    124    123
     99     75    100    124
     99     98     97     96     95     94     93     92     91     90     89     88     87     86     85     84     83     82     81     80     79     78     77     76     75
    100    101    102    103    104    105    106    107    108    109    110    111    112    113    114    115    116    117    118    119    120    121    122    123    124
    100    101    126    125
    101    102    127    126
    102    103    128    127
    103    104    129    128
    104    105    130    129
    105    106    131    130
    106    107    132    131
    107    108    133    132
    108    109    134    133
    109    110    135    134
    110    111    136    135
    111    112    137    136
    112    113    138    137
    113    114    139    138
    114    115    140    139
    115    116    141    140
    116    117    142    141
    117    118    143    142
    118    119    144    143
    119    120    145    144
    120    121    146    145
    121    122    147    146
    122    123    148    147
    123    124    149    148
    124    100    125    149
    124    123    122    121    120    119    118    117    116    115    114    113    112    111    110    109    108    107    106    105    104    103    102    101    100
    125    126    127    128    129    130    131    132    133    134    135    136    137    138    139    140    141    142    143    144    145    146    147    148    149
    125    126    151    150
    126    127    152    151
    127    128    153    152
    128    129    154    153
    129    130    155    154
    130    131    156    155
    131    132    157    156
    132    133    158    157
    133    134    159    158
    134    135    160    159
    135    136    161    160
    136    137    162    161
    137    138    163    162
    138    139    164    163
    139    140    165    164
    140    141    166    165
    141    142    167    166
    142    143    168    167
    143    144    169    168
    144    145    170    169
    145    146    171    170
    146    147    172    171
    147    148    173    172
    148    149    174    173
    149    125    150    174
    149    148    147    146    145    144    143    142    141    140    139    138    137    136    135    134    133    132    131    130    129    128    127    126    125
    150    151    152    153    154    155    156    157    158    159    160    161    162    163    164    165    166    167    168    169    170    171    172    173    174
    150    151    176    175
    151    152    177    176
    152    153    178    177
    153    154    179    178
    154    155    180    179
    155    156    181    180
    156    157    182    181
    157    158    183    182
    158    159    184    183
    159    160    185    184
    160    161    186    185
    161    162    187    186
    162    163    188    187
    163    164    189    188
    164    165    190    189
    165    166    191    190
    166    167    192    191
    167    168    193    192
    168    169    194    193
    169    170    195    194
    170    171    196    195
    171    172    197    196
    172    173    198    197
    173    174    199    198
    174    150    175    199
    174    173    172    171    170    169    168    167    166    165    164    163    162    161    160    159    158    157    156    155    154    153    152    151    150
    175    176    177    178    179    180    181    182    183    184    185    186    187    188    189    190    191    192    193    194    195    196    197    198    199
    175    176    201    200
    176    177    202    201
    177    178    203    202
    178    179    204    203
    179    180    205    204
    180    181    206    205
    181    182    207    206
    182    183    208    207
    183    184    209    208
    184    185    210    209
    185    186    211    210
    186    187    212    211
    187    188    213    212
    188    189    214    213
    189    190    215    214
    190    191    216    215
    191    192    217    216
    192    193    218    217
    193    194    219    218
    194    195    220    219
    195    196    221    220
    196    197    222    221
    197    198    223    222
    198    199    224    223
    199    175    200    224
    199    198    197    196    195    194    193    192    191    190    189    188    187    186    185    184    183    182    181    180    179    178    177    176    175
    200    201    202    203    204    205    206    207    208    209    210    211    212    213    214    215    216    217    218    219    220    221    222    223    224
    200    201    226    225
    201    202    227    226
    202    203    228    227
    203    204    229    228
    204    205    230    229
    205    206    231    230
    206    207    232    231
    207    208    233    232
    208    209    234    233
    209    210    235    234
    210    211    236    235
    211    212    237    236
    212    213    238    237
    213    214    239    238
    214    215    240    239
    215    216    241    240
    216    217    242    241
    217    218    243    242
    218    219    244    243
    219    220    245    244
    220    221    246    245
    221    222    247    246
    222    223    248    247
    223    224    249    248
    224    200    225    249
    224    223    222    221    220    219    218    217    216    215    214    213    212    211    210    209    208    207    206    205    204    203    202    201    200
    225    226    227    228    229    230    231    232    233    234    235    236    237    238    239    240    241    242    243    244    245    246    247    248    249
    225    226    251    250
    226    227    252    251
    227    228    253    252
    228    229    254    253
    229    230    255    254
    230    231    256    255
    231    232    257    256
    232    233    258    257
    233    234    259    258
    234    235    260    259
    235    236    261    260
    236    237    262    261
    237    238    263    262
    238    239    264    263
    239    240    265    264
    240    241    266    265
    241    242    267    266
    242    243    268    267
    243    244    269    268
    244    245    270    269
    245    246    271    270
    246    247    272    271
    247    248    273    272
    248    249    274    273
    249    225    250    274
    249    248    247    246    245    244    243    242    241    240    239    238    237    236    235    234    233    232    231    230    229    228    227    226    225
    250    251    252    253    254    255    256    257    258    259    260    261    262    263    264    265    266    267    268    269    270    271    272    273    274
    250    251    276    275
    251    252    277    276
    252    253    278    277
    253    254    279    278
    254    255    280    279
    255    256    281    280
    256    257    282    281
    257    258    283    282
    258    259    284    283
    259    260    285    284
    260    261    286    285
    261    262    287    286
    262    263    288    287
    263    264    289    288
    264    265    290    289
    265    266    291    290
    266    267    292    291
    267    268    293    292
    268    269    294    293
    269    270    295    294
    270    271    296    295
    271    272    297    296
    272    273    298    297
    273    274    299    298
    274    250    275    299
    274    273    272    271    270    269    268    267    266    265    264    263    262    261    260    259    258    257    256    255    254    253    252    251    250
    275    276    277    278    279    280    281    282    283    284    285    286    287    288    289    290    291    292    293    294    295    296    297    298    299
    275    276    301    300
    276    277    302    301
    277    278    303    302
    278    279    304    303
    279    280    305    304
    280    281    306    305
    281    282    307    306
    282    283    308    307
    283    284    309    308
    284    285    310    309
    285    286    311    310
    286    287    312    311
    287    288    313    312
    288    289    314    313
    289    290    315    314
    290    291    316    315
    291    292    317    316
    292    293    318    317
    293    294    319    318
    294    295    320    319
    295    296    321    320
    296    297    322    321
    297    298    323    322
    298    299    324    323
    299    275    300    324
    299    298    297    296    295    294    293    292    291    290    289    288    287    286    285    284    283    282    281    280    279    278    277    276    275
    300    301    302    303    304    305    306    307    308    309    310    311    312    313    314    315    316    317    318    319    320    321    322    323    324
    300    301    326    325
    301    302    327    326
    302    303    328    327
    303    304    329    328
    304    305    330    329
    305    306    331    330
    306    307    332    331
    307    308    333    332
    308    309    334    333
    309    310    335    334
    310    311    336    335
    311    312    337    336
    312    313    338    337
    313    314    339    338
    314    315    340    339
    315    316    341    340
    316    317    342    341
    317    318    343    342
    318    319    344    343
    319    320    345    344
    320    321    346    345
    321    322    347    346
    322    323    348    347
    323    324    349    348
    324    300    325    349
    324    323    322    321    320    319    318    317    316    315    314    313    312    311    310    309    308    307    306    305    304    303    302    301    300
    325    326    327    328    329    330    331    332    333    334    335    336    337    338    339    340    341    342    343    344    345    346    347    348    349
    325    326    351    350
    326    327    352    351
    327    328    353    352
    328    329    354    353
    329    330    355    354
    330    331    356    355
    331    332    357    356
    332    333    358    357
    333    334    359    358
    334    335    360    359
    335    336    361    360
    336    337    362    361
    337    338    363    362
    338    339    364    363
    339    340    365    364
    340    341    366    365
    341    342    367    366
    342    343    368    367
    343    344    369    368
    344    345    370    369
    345    346    371    370
    346    347    372    371
    347    348    373    372
    348    349    374    373
    349    325    350    374
    349    348    347    346    345    344    343    342    341    340    339    338    337    336    335    334    333    332    331    330    329    328    327    326    325
    350    351    352    353    354    355    356    357    358    359    360    361    362    363    364    365    366    367    368    369    370    371    372    373    374
    350    351    376    375
    351    352    377    376
    352    353    378    377
    353    354    379    378
    354    355    380    379
    355    356    381    380
    356    357    382    381
    357    358    383    382
    358    359    384    383
    359    360    385    384
    360    361    386    385
    361    362    387    386
    362    363    388    387
    363    364    389    388
    364    365    390    389
    365    366    391    390
    366    367    392    391
    367    368    393    392
    368    369    394    393
    369    370    395    394
    370    371    396    395
    371    372    397    396
    372    373    398    397
    373    374    399    398
    374    350    375    399
    374    373    372    371    370    369    368    367    366    365    364    363    362    361    360    359    358    357    356    355    354    353    352    351    350
    375    376    377    378    379    380    381    382    383    384    385    386    387    388    389    390    391    392    393    394    395    396    397    398    399
    375    376    401    400
    376    377    402    401
    377    378    403    402
    378    379    404    403
    379    380    405    404
    380    381    406    405
    381    382    407    406
    382    383    408    407
    383    384    409    408
    384    385    410    409
    385    386    411    410
    386    387    412    411
    387    388    413    412
    388    389    414    413
    389    390    415    414
    390    391    416    415
    391    392    417    416
    392    393    418    417
    393    394    419    418
    394    395    420    419
    395    396    421    420
    396    397    422    421
    397    398    423    422
    398    399    424    423
    399    375    400    424
    399    398    397    396    395    394    393    392    391    390    389    388    387    386    385    384    383    382    381    380    379    378    377    376    375
    400    401    402    403    404    405    406    407    408    409    410    411    412    413    414    415    416    417    418    419    420    421    422    423    424
    400    401    426    425
    401    402    427    426
    402    403    428    427
    403    404    429    428
    404    405    430    429
    405    406    431    430
    406    407    432    431
    407    408    433    432
    408    409    434    433
    409    410    435    434
    410    411    436    435
    411    412    437    436
    412    413    438    437
    413    414    439    438
    414    415    440    439
    415    416    441    440
    416    417    442    441
    417    418    443    442
    418    419    444    443
    419    420    445    444
    420    421    446    445
    421    422    447    446
    422    423    448    447
    423    424    449    448
    424    400    425    449
    424    423    422    421    420    419    418    417    416    415    414    413    412    411    410    409    408    407    406    405    404    403    402    401    400
    425    426    427    428    429    430    431    432    433    434    435    436    437    438    439    440    441    442    443    444    445    446    447    448    449
    425    426    451    450
    426    427    452    451
    427    428    453    452
    428    429    454    453
    429    430    455    454
    430    431    456    455
    431    432    457    456
    432    433    458    457
    433    434    459    458
    434    435    460    459
    435    436    461    460
    436    437    462    461
    437    438    463    462
    438    439    464    463
    439    440    465    464
    440    441    466    465
    441    442    467    466
    442    443    468    467
    443    444    469    468
    444    445    470    469
    445    446    471    470
    446    447    472    471
    447    448    473    472
    448    449    474    473
    449    425    450    474
    449    448    447    446    445    444    443    442    441    440    439    438    437    436    435    434    433    432    431    430    429    428    427    426    425
    450    451    452    453    454    455    456    457    458    459    460    461    462    463    464    465    466    467    468    469    470    471    472    473    474
    450    451    476    475
    451    452    477    476
    452    453    478    477
    453    454    479    478
    454    455    480    479
    455    456    481    480
    456    457    482    481
    457    458    483    482
    458    459    484    483
    459    460    485    484
    460    461    486    485
    461    462    487    486
    462    463    488    487
    463    464    489    488
    464    465    490    489
    465    466    491    490
    466    467    492    491
    467    468    493    492
    468    469    494    493
    469    470    495    494
    470    471    496    495
    471    472    497    496
    472    473    498    497
    473    474    499    498
    474    450    475    499
    474    473    472    471    470    469    468    467    466    465    464    463    462    461    460    459    458    457    456    455    454    453    452    451    450
    475    476    477    478    479    480    481    482    483    484    485    486    487    488    489    490    491    492    493    494    495    496    497    498    499
    475    476    501    500
    476    477    502    501
    477    478    503    502
    478    479    504    503
    479    480    505    504
    480    481    506    505
    481    482    507    506
    482    483    508    507
    483    484    509    508
    484    485    510    509
    485    486    511    510
    486    487    512    511
    487    488    513    512
    488    489    514    513
    489    490    515    514
    490    491    516    515
    491    492    517    516
    492    493    518    517
    493    494    519    518
    494    495    520    519
    495    496    521    520
    496    497    522    521
    497    498    523    522
    498    499    524    523
    499    475    500    524
    499    498    497    496    495    494    493    492    491    490    489    488    487    486    485    484    483    482    481    480    479    478    477    476    475
    500    501    502    503    504    505    506    507    508    509    510    511    512    513    514    515    516    517    518    519    520    521    522    523    524
    525    526      1      0
    526    527      2      1
    527    528      3      2
    528    529      4      3
    529    530      5      4
    530    531      6      5
    531    532      7      6
    532    533      8      7
    533    534      9      8
    534    535     10      9
    535    536     11     10
    536    537     12     11
    537    538     13     12
    538    539     14     13
    539    540     15     14
    540    541     16     15
    541    542     17     16
    542    543     18     17
    543    544     19     18
    544    545     20     19
    545    546     21     20
    546    547     22     21
    547    548     23     22
    548    549     24     23
    549    525      0     24
    549    548    547    546    545    544    543    542    541    540    539    538    537    536    535    534    533    532    531    530    529    528    527    526    525
      0      1      2      3      4      5      6      7      8      9     10     11     12     13     14     15     16     17     18     19     20     21     22     23     24
        </DataArray>
        <DataArray type="Int32" Name="offsets" format="ascii">
      4
      8
     12
     16
     20
     24
     28
     32
     36
     40
     44
     48
     52
     56
     60
     64
     68
     72
     76
     80
     84
     88
     92
     96
    100
    125
    150
    154
    158
    162
    166
    170
    174
    178
    182
    186
    190
    194
    198
    202
    206
    210
    214
    218
    222
    226
    230
    234
    238
    242
    246
    250
    275
    300
    304
    308
    312
    316
    320
    324
    328
    332
    336
    340
    344
    348
    352
    356
    360
    364
    368
    372
    376
    380
    384
    388
    392
    396
    400
    425
    450
    454
    458
    462
    466
    470
    474
    478
    482
    486
    490
    494
    498
    502
    506
    510
    514
    518
    522
    526
    530
    534
    538
    542
    546
    550
    575
    600
    604
    608
    612
    616
    620
    624
    628
    632
    636
    640
    644
    648
    652
    656
    660
    664
    668
    672
    676
    680
    684
    688
    692
    696
    700
    725
    750
    754
    758
    762
    766
    770
    774
    778
    782
    786
    790
    794
    798
    802
    806
    810
    814
    818
    822
    826
    830
    834
    838
    842
    846
    850
    875
    900
    904
    908
    912
    916
    920
    924
    928
    932
    936
    940
    944
    948
    952
    956
    960
    964
    968
    972
    976
    980
    984
    988
    992
    996
   1000
   1025
   1050
   1054
   1058
   1062
   1066
   1070
   1074
   1078
   1082
   1086
   1090
   1094
   1098
   1102
   1106
   1110
   1114
   1118
   1122
   1126
   1130
   1134
   1138
   1142
   1146
   1150
   1175
   1200
   1204
   1208
   1212
   1216
   1220
   1224
   1228
   1232
   1236
   1240
   1244
   1248
   1252
   1256
   1260
   1264
   1268
   1272
   1276
   1280
   1284
   1288
   1292
   1296
   1300
   1325
   1350
   1354
   1358
   1362
   1366
   1370
   1374
   1378
   1382
   1386
   1390
   1394
   1398
   1402
   1406
   1410
   1414
   1418
   1422
   1426
   1430
   1434
   1438
   1442
   1446
   1450
   1475
   1500
   1504
   1508
   1512
   1516
   1520
   1524
   1528
   1532
   1536
   1540
   1544
   1548
   1552
   1556
   1560
   1564
   1568
   1572
   1576
   1580
   1584
   1588
   1592
   1596
   1600
   1625
   1650
   1654
   1658
   1662
   1666
   1670
   1674
   1678
   1682
   1686
   1690
   1694
   1698
   1702
   1706
   1710
   1714
   1718
   1722
   1726
   1730
   1734
   1738
   1742
   1746
   1750
   1775
   1800
   1804
   1808
   1812
   1816
   1820
   1824
   1828
   1832
   1836
   1840
   1844
   1848
   1852
   1856
   1860
   1864
   1868
   1872
   1876
   1880
   1884
   1888
   1892
   1896
   1900
   1925
   1950
   1954
   1958
   1962
   1966
   1970
   1974
   1978
   1982
   1986
   1990
   1994
   1998
   2002
   2006
   2010
   2014
   2018
   2022
   2026
   2030
   2034
   2038
   2042
   2046
   2050
   2075
   2100
   2104
   2108
   2112
   2116
   2120
   2124
   2128
   2132
   2136
   2140
   2144
   2148
   2152
   2156
   2160
   2164
   2168
   2172
   2176
   2180
   2184
   2188
   2192
   2196
   2200
   2225
   2250
   2254
   2258
   2262
   2266
   2270
   2274
   2278
   2282
   2286
   2290
   2294
   2298
   2302
   2306
   2310
   2314
   2318
   2322
   2326
   2330
   2334
   2338
   2342
   2346
   2350
   2375
   2400
   2404
   2408
   2412
   2416
   2420
   2424
   2428
   2432
   2436
   2440
   2444
   2448
   2452
   2456
   2460
   2464
   2468
   2472
   2476
   2480
   2484
   2488
   2492
   2496
   2500
   2525
   2550
   2554
   2558
   2562
   2566
   2570
   2574
   2578
   2582
   2586
   2590
   2594
   2598
   2602
   2606
   2610
   2614
   2618
   2622
   2626
   2630
   2634
   2638
   2642
   2646
   2650
   2675
   2700
   2704
   2708
   2712
   2716
   2720
   2724
   2728
   2732
   2736
   2740
   2744
   2748
   2752
   2756
   2760
   2764
   2768
   2772
   2776
   2780
   2784
   2788
   2792
   2796
   2800
   2825
   2850
   2854
   2858
   2862
   2866
   2870
   2874
   2878
   2882
   2886
   2890
   2894
   2898
   2902
   2906
   2910
   2914
   2918
   2922
   2926
   2930
   2934
   2938
   2942
   2946
   2950
   2975
   3000
   3004
   3008
   3012
   3016
   3020
   3024
   3028
   3032
   3036
   3040
   3044
   3048
   3052
   3056
   3060
   3064
   3068
   3072
   3076
   3080
   3084
   3088
   3092
   3096
   3100
   3125
   3150
        </DataArray>
      </Polys>
    </Piece>
  </PolyData>
</VTKFile>
