<?xml version="1.0"?>
<VTKFile type="PolyData" version="0.1" byte_order="LittleEndian">
  <PolyData>
    <Piece NumberOfPoints="    550" NumberOfVerts="  0" NumberOfLines="     21"
           NumberOfStrips="  0" NumberOfPolys="    567">
      <Points>
        <DataArray type="Float32" NumberOfComponents="3" format="ascii">
                       2.97345                      -0.00000                       2.18980
                       2.88003                       0.73944                       2.18981
                       2.60566                       1.43243                       2.18983
                       2.16757                       2.03541                       2.18986
                       1.59328                       2.51050                       2.18991
                       0.91889                       2.82784                       2.18995
                       0.18677                       2.96750                       2.19000
                      -0.55708                       2.92070                       2.19005
                      -1.26593                       2.69039                       2.19010
                      -1.89523                       2.29102                       2.19014
                      -2.40544                       1.74770                       2.19017
                      -2.76450                       1.09457                       2.19019
                      -2.94986                       0.37266                       2.19020
                      -2.94986                      -0.37267                       2.19019
                      -2.76450                      -1.09458                       2.19018
                      -2.40544                      -1.74771                       2.19015
                      -1.89523                      -2.29103                       2.19012
                      -1.26593                      -2.69039                       2.19007
                      -0.55708                      -2.92071                       2.19002
                       0.18677                      -2.96751                       2.18997
                       0.91889                      -2.82785                       2.18993
                       1.59328                      -2.51051                       2.18988
                       2.16757                      -2.03542                       2.18985
                       2.60566                      -1.43244                       2.18982
                       2.88003                      -0.73945                       2.18981
                       2.92083                      -0.00004                       6.56933
                       2.82909                       0.72617                       6.56936
                       2.55963                       1.40674                       6.56943
                       2.12938                       1.99892                       6.56954
                       1.56539                       2.46550                       6.56967
                       0.90307                       2.77716                       6.56983
                       0.18406                       2.91432                       6.56999
                      -0.54647                       2.86836                       6.57016
                      -1.24262                       2.64217                       6.57032
                      -1.86065                       2.24995                       6.57045
                      -2.36173                       1.71637                       6.57056
                      -2.71436                       1.07493                       6.57063
                      -2.89639                       0.36595                       6.57067
                      -2.89639                      -0.36603                       6.57066
                      -2.71436                      -1.07501                       6.57061
                      -2.36173                      -1.71645                       6.57052
                      -1.86065                      -2.25004                       6.57040
                      -1.24262                      -2.64225                       6.57025
                      -0.54647                      -2.86844                       6.57009
                       0.18406                      -2.91440                       6.56992
                       0.90307                      -2.77724                       6.56976
                       1.56539                      -2.46558                       6.56961
                       2.12938                      -1.99900                       6.56949
                       2.55963                      -1.40682                       6.56940
                       2.82909                      -0.72625                       6.56935
                       2.86898                      -0.00011                      10.94882
                       2.77891                       0.71286                      10.94887
                       2.51437                       1.38102                      10.94899
                       2.09197                       1.96240                      10.94917
                       1.53825                       2.42048                      10.94941
                       0.88802                       2.72645                      10.94968
                       0.18212                       2.86111                      10.94998
                      -0.53509                       2.81599                      10.95027
                      -1.21855                       2.59392                      10.95055
                      -1.82531                       2.20886                      10.95079
                      -2.31725                       1.68500                      10.95099
                      -2.66345                       1.05526                      10.95112
                      -2.84216                       0.35921                      10.95118
                      -2.84216                      -0.35942                      10.95117
                      -2.66345                      -1.05547                      10.95108
                      -2.31725                      -1.68521                      10.95093
                      -1.82531                      -2.20907                      10.95071
                      -1.21855                      -2.59413                      10.95046
                      -0.53509                      -2.81620                      10.95017
                       0.18212                      -2.86132                      10.94987
                       0.88802                      -2.72667                      10.94958
                       1.53825                      -2.42069                      10.94932
                       2.09197                      -1.96262                      10.94910
                       2.51437                      -1.38123                      10.94894
                       2.77891                      -0.71307                      10.94884
                       2.81796                      -0.00020                      15.32830
                       2.72956                       0.69952                      15.32837
                       2.46993                       1.35527                      15.32854
                       2.05538                       1.92586                      15.32881
                       1.51195                       2.37542                      15.32915
                       0.87379                       2.67572                      15.32954
                       0.18100                       2.80787                      15.32996
                      -0.52289                       2.76359                      15.33039
                      -1.19365                       2.54564                      15.33079
                      -1.78914                       2.16773                      15.33114
                      -2.27194                       1.65361                      15.33142
                      -2.61171                       1.03556                      15.33161
                      -2.78711                       0.35244                      15.33170
                      -2.78711                      -0.35284                      15.33168
                      -2.61171                      -1.03597                      15.33156
                      -2.27194                      -1.65401                      15.33133
                      -1.78914                      -2.16814                      15.33103
                      -1.19365                      -2.54604                      15.33066
                      -0.52289                      -2.76399                      15.33025
                       0.18100                      -2.80827                      15.32982
                       0.87379                      -2.67612                      15.32941
                       1.51195                      -2.37582                      15.32903
                       2.05538                      -1.92626                      15.32871
                       2.46993                      -1.35568                      15.32848
                       2.72956                      -0.69992                      15.32833
                       2.76777                      -0.00032                      19.70781
                       2.68105                       0.68616                      19.70790
                       2.42633                       1.32950                      19.70812
                       2.01962                       1.88929                      19.70846
                       1.48648                       2.33034                      19.70889
                       0.86040                       2.62495                      19.70940
                       0.18072                       2.75461                      19.70994
                      -0.50985                       2.71116                      19.71049
                      -1.16791                       2.49734                      19.71101
                      -1.75213                       2.12658                      19.71146
                      -2.22579                       1.62219                      19.71182
                      -2.55913                       1.01584                      19.71207
                      -2.73121                       0.34565                      19.71218
                      -2.73121                      -0.34629                      19.71216
                      -2.55913                      -1.01648                      19.71201
                      -2.22579                      -1.62283                      19.71172
                      -1.75213                      -2.12723                      19.71133
                      -1.16791                      -2.49798                      19.71086
                      -0.50985                      -2.71180                      19.71033
                       0.18072                      -2.75525                      19.70978
                       0.86040                      -2.62559                      19.70924
                       1.48648                      -2.33098                      19.70875
                       2.01962                      -1.88993                      19.70834
                       2.42633                      -1.33014                      19.70804
                       2.68105                      -0.68680                      19.70785
                       2.71840                      -0.00047                      24.08735
                       2.63335                       0.67277                      24.08746
                       2.38355                       1.30370                      24.08773
                       1.98469                       1.85269                      24.08813
                       1.46183                       2.28523                      24.08866
                       0.84783                       2.57416                      24.08927
                       0.18126                       2.70132                      24.08993
                      -0.49598                       2.65871                      24.09059
                      -1.14136                       2.44901                      24.09121
                      -1.71431                       2.08541                      24.09176
                      -2.17883                       1.59074                      24.09219
                      -2.50574                       0.99609                      24.09249
                      -2.67450                       0.33883                      24.09263
                      -2.67450                      -0.33976                      24.09261
                      -2.50574                      -0.99703                      24.09242
                      -2.17883                      -1.59168                      24.09208
                      -1.71431                      -2.08634                      24.09161
                      -1.14136                      -2.44995                      24.09103
                      -0.49598                      -2.65964                      24.09040
                       0.18126                      -2.70225                      24.08973
                       0.84783                      -2.57510                      24.08909
                       1.46183                      -2.28617                      24.08850
                       1.98469                      -1.85362                      24.08800
                       2.38355                      -1.30463                      24.08763
                       2.63335                      -0.67370                      24.08741
                       2.66982                      -0.00064                      28.46693
                       2.58644                       0.65935                      28.46706
                       2.34155                       1.27788                      28.46737
                       1.95054                       1.81606                      28.46784
                       1.43796                       2.24010                      28.46845
                       0.83604                       2.52335                      28.46916
                       0.18259                       2.64800                      28.46991
                      -0.48134                       2.60623                      28.47068
                      -1.11402                       2.40066                      28.47140
                      -1.67570                       2.04421                      28.47203
                      -2.13108                       1.55927                      28.47253
                      -2.45156                       0.97632                      28.47288
                      -2.61700                       0.33198                      28.47304
                      -2.61700                      -0.33326                      28.47301
                      -2.45156                      -0.97760                      28.47280
                      -2.13108                      -1.56055                      28.47240
                      -1.67569                      -2.04549                      28.47186
                      -1.11402                      -2.40194                      28.47119
                      -0.48134                      -2.60751                      28.47046
                       0.18259                      -2.64928                      28.46969
                       0.83604                      -2.52462                      28.46894
                       1.43796                      -2.24138                      28.46826
                       1.95054                      -1.81734                      28.46769
                       2.34155                      -1.27915                      28.46726
                       2.58644                      -0.66063                      28.46700
                       2.62199                      -0.00084                      32.84655
                       2.54029                       0.64591                      32.84669
                       2.30031                       1.25202                      32.84704
                       1.91714                       1.77941                      32.84757
                       1.41485                       2.19494                      32.84826
                       0.82500                       2.47250                      32.84905
                       0.18466                       2.59465                      32.84990
                      -0.46594                       2.55372                      32.85076
                      -1.08592                       2.35228                      32.85157
                      -1.63633                       2.00298                      32.85228
                      -2.08258                       1.52777                      32.85285
                      -2.39663                       0.95652                      32.85323
                      -2.55875                       0.32511                      32.85342
                      -2.55875                      -0.32678                      32.85338
                      -2.39663                      -0.95819                      32.85314
                      -2.08258                      -1.52945                      32.85270
                      -1.63633                      -2.00465                      32.85208
                      -1.08592                      -2.35395                      32.85134
                      -0.46594                      -2.55540                      32.85051
                       0.18466                      -2.59633                      32.84965
                       0.82500                      -2.47418                      32.84881
                       1.41485                      -2.19662                      32.84804
                       1.91714                      -1.78109                      32.84740
                       2.30031                      -1.25370                      32.84692
                       2.54029                      -0.64759                      32.84663
                       2.57489                      -0.00107                      37.22619
                       2.49486                       0.63244                      37.22635
                       2.25980                       1.22614                      37.22673
                       1.88448                       1.74273                      37.22732
                       1.39247                       2.14975                      37.22807
                       0.81470                       2.42163                      37.22895
                       0.18747                       2.54128                      37.22989
                      -0.44981                       2.50119                      37.23084
                      -1.05710                       2.30387                      37.23173
                      -1.59623                       1.96172                      37.23251
                      -2.03335                       1.49624                      37.23314
                      -2.34096                       0.93668                      37.23356
                      -2.49976                       0.31820                      37.23377
                      -2.49976                      -0.32034                      37.23373
                      -2.34096                      -0.93882                      37.23346
                      -2.03334                      -1.49838                      37.23297
                      -1.59623                      -1.96385                      37.23229
                      -1.05710                      -2.30600                      37.23147
                      -0.44981                      -2.50332                      37.23056
                       0.18747                      -2.54341                      37.22961
                       0.81470                      -2.42376                      37.22868
                       1.39247                      -2.15189                      37.22784
                       1.88448                      -1.74486                      37.22713
                       2.25980                      -1.22827                      37.22660
                       2.49486                      -0.63457                      37.22628
                       2.52853                      -0.00132                      41.60585
                       2.45017                       0.61894                      41.60602
                       2.22002                       1.20023                      41.60644
                       1.85254                       1.70602                      41.60708
                       1.37082                       2.10454                      41.60790
                       0.80513                       2.37073                      41.60885
                       0.19101                       2.48788                      41.60988
                      -0.43294                       2.44862                      41.61091
                      -1.02754                       2.25543                      41.61188
                      -1.55541                       1.92043                      41.61273
                      -1.98338                       1.46469                      41.61341
                      -2.28457                       0.91682                      41.61388
                      -2.44005                       0.31127                      41.61410
                      -2.44005                      -0.31392                      41.61406
                      -2.28457                      -0.91947                      41.61376
                      -1.98338                      -1.46733                      41.61323
                      -1.55540                      -1.92308                      41.61249
                      -1.02754                      -2.25808                      41.61160
                      -0.43294                      -2.45127                      41.61060
                       0.19101                      -2.49053                      41.60957
                       0.80513                      -2.37338                      41.60856
                       1.37082                      -2.10718                      41.60764
                       1.85254                      -1.70867                      41.60686
                       2.22002                      -1.20288                      41.60629
                       2.45017                      -0.62159                      41.60594
                       2.48291                      -0.00161                      45.98551
                       2.40623                       0.60541                      45.98569
                       2.18099                       1.17429                      45.98614
                       1.82136                       1.66928                      45.98683
                       1.34992                       2.05929                      45.98772
                       0.79631                       2.31980                      45.98876
                       0.19530                       2.43445                      45.98986
                      -0.41533                       2.39603                      45.99098
                      -0.99723                       2.20696                      45.99203
                      -1.51383                       1.87911                      45.99295
                      -1.93267                       1.43310                      45.99369
                      -2.22743                       0.89693                      45.99419
                      -2.37959                       0.30431                      45.99443
                      -2.37959                      -0.30754                      45.99438
                      -2.22743                      -0.90016                      45.99406
                      -1.93267                      -1.43632                      45.99349
                      -1.51383                      -1.88234                      45.99269
                      -0.99723                      -2.21018                      45.99172
                      -0.41534                      -2.39925                      45.99064
                       0.19530                      -2.43767                      45.98952
                       0.79631                      -2.32302                      45.98843
                       1.34992                      -2.06251                      45.98744
                       1.82136                      -1.67251                      45.98660
                       2.18099                      -1.17751                      45.98598
                       2.40623                      -0.60863                      45.98561
                       2.43807                      -0.00193                      50.36516
                       2.36305                       0.59184                      50.36536
                       2.14273                       1.14831                      50.36585
                       1.79095                       1.63251                      50.36659
                       1.32980                       2.01400                      50.36755
                       0.78826                       2.26883                      50.36866
                       0.20037                       2.38098                      50.36985
                      -0.39695                       2.34340                      50.37105
                      -0.96615                       2.15845                      50.37218
                      -1.47148                       1.83776                      50.37317
                      -1.88118                       1.40148                      50.37396
                      -2.16951                       0.87701                      50.37450
                      -2.31835                       0.29731                      50.37475
                      -2.31835                      -0.30118                      50.37471
                      -2.16951                      -0.88088                      50.37436
                      -1.88118                      -1.40535                      50.37374
                      -1.47148                      -1.84163                      50.37288
                      -0.96615                      -2.16232                      50.37184
                      -0.39695                      -2.34727                      50.37068
                       0.20037                      -2.38485                      50.36948
                       0.78826                      -2.27270                      50.36831
                       1.32980                      -2.01787                      50.36724
                       1.79095                      -1.63638                      50.36634
                       2.14273                      -1.15218                      50.36567
                       2.36305                      -0.59571                      50.36527
                       2.39404                      -0.00229                      54.74482
                       2.32070                       0.57825                      54.74503
                       2.10529                       1.12231                      54.74555
                       1.76135                       1.59570                      54.74635
                       1.31048                       1.96869                      54.74737
                       0.78103                       2.21784                      54.74856
                       0.20624                       2.32748                      54.74983
                      -0.37775                       2.29074                      54.75111
                      -0.93426                       2.10992                      54.75232
                      -1.42832                       1.79638                      54.75338
                      -1.82888                       1.36982                      54.75423
                      -2.11077                       0.85705                      54.75481
                      -2.25630                       0.29029                      54.75508
                      -2.25630                      -0.29486                      54.75503
                      -2.11077                      -0.86163                      54.75466
                      -1.82888                      -1.37440                      54.75400
                      -1.42832                      -1.80095                      54.75308
                      -0.93426                      -2.11449                      54.75197
                      -0.37775                      -2.29531                      54.75073
                       0.20624                      -2.33206                      54.74944
                       0.78103                      -2.22241                      54.74818
                       1.31048                      -1.97327                      54.74704
                       1.76135                      -1.60028                      54.74608
                       2.10529                      -1.12688                      54.74536
                       2.32070                      -0.58282                      54.74493
                       2.35085                      -0.00267                      59.12448
                       2.27919                       0.56462                      59.12470
                       2.06869                       1.09627                      59.12525
                       1.73260                       1.55886                      59.12610
                       1.29202                       1.92334                      59.12719
                       0.77464                       2.16681                      59.12845
                       0.21297                       2.27395                      59.12981
                      -0.35770                       2.23805                      59.13117
                      -0.90152                       2.06135                      59.13246
                      -1.38430                       1.75496                      59.13359
                      -1.77573                       1.33814                      59.13449
                      -2.05119                       0.83707                      59.13511
                      -2.19340                       0.28323                      59.13540
                      -2.19340                      -0.28857                      59.13534
                      -2.05120                      -0.84241                      59.13495
                      -1.77573                      -1.34349                      59.13425
                      -1.38430                      -1.76031                      59.13327
                      -0.90152                      -2.06670                      59.13208
                      -0.35770                      -2.24339                      59.13076
                       0.21297                      -2.27930                      59.12939
                       0.77464                      -2.17215                      59.12806
                       1.29202                      -1.92869                      59.12684
                       1.73260                      -1.56421                      59.12582
                       2.06869                      -1.10161                      59.12505
                       2.27919                      -0.56997                      59.12460
                       2.30853                      -0.00309                      63.50415
                       2.23854                       0.55096                      63.50439
                       2.03296                       1.07020                      63.50497
                       1.70471                       1.52200                      63.50587
                       1.27442                       1.87797                      63.50702
                       0.76911                       2.11575                      63.50835
                       0.22055                       2.22039                      63.50979
                      -0.33680                       2.18532                      63.51123
                      -0.86791                       2.01275                      63.51259
                      -1.33943                       1.71352                      63.51378
                      -1.72172                       1.30642                      63.51473
                      -1.99075                       0.81705                      63.51538
                      -2.12963                       0.27614                      63.51569
                      -2.12963                      -0.28232                      63.51563
                      -1.99075                      -0.82322                      63.51522
                      -1.72172                      -1.31260                      63.51448
                      -1.33943                      -1.71970                      63.51344
                      -0.86792                      -2.01893                      63.51219
                      -0.33680                      -2.19150                      63.51080
                       0.22055                      -2.22657                      63.50935
                       0.76911                      -2.12192                      63.50794
                       1.27442                      -1.88415                      63.50665
                       1.70471                      -1.52817                      63.50557
                       2.03296                      -1.07638                      63.50476
                       2.23854                      -0.55714                      63.50428
                       2.26705                      -0.00353                      67.88388
                       2.19873                       0.53727                      67.88412
                       1.99806                       1.04410                      67.88473
                       1.67766                       1.48510                      67.88567
                       1.25765                       1.83256                      67.88687
                       0.76442                       2.06466                      67.88827
                       0.22898                       2.16680                      67.88976
                      -0.31505                       2.13257                      67.89127
                      -0.83348                       1.96412                      67.89269
                      -1.29372                       1.67204                      67.89394
                      -1.66687                       1.27468                      67.89493
                      -1.92948                       0.79700                      67.89561
                      -2.06504                       0.26902                      67.89593
                      -2.06504                      -0.27609                      67.89588
                      -1.92948                      -0.80407                      67.89544
                      -1.66687                      -1.28175                      67.89467
                      -1.29372                      -1.67911                      67.89359
                      -0.83348                      -1.97119                      67.89228
                      -0.31505                      -2.13964                      67.89082
                       0.22898                      -2.17387                      67.88931
                       0.76442                      -2.07173                      67.88783
                       1.25765                      -1.83963                      67.88649
                       1.67766                      -1.49217                      67.88536
                       1.99806                      -1.05117                      67.88451
                       2.19873                      -0.54434                      67.88401
                       2.22631                      -0.00401                      72.26368
                       2.15966                       0.52356                      72.26394
                       1.96391                       1.01797                      72.26456
                       1.65135                       1.44817                      72.26553
                       1.24163                       1.78713                      72.26676
                       0.76048                       2.01354                      72.26820
                       0.23815                       2.11318                      72.26974
                      -0.29256                       2.07979                      72.27129
                      -0.79829                       1.91547                      72.27276
                      -1.24727                       1.63054                      72.27404
                      -1.61128                       1.24291                      72.27506
                      -1.86745                       0.77692                      72.27576
                      -1.99970                       0.26187                      72.27609
                      -1.99970                      -0.26989                      72.27603
                      -1.86745                      -0.78494                      72.27559
                      -1.61128                      -1.25092                      72.27479
                      -1.24727                      -1.63856                      72.27368
                      -0.79829                      -1.92348                      72.27233
                      -0.29256                      -2.08781                      72.27083
                       0.23814                      -2.12120                      72.26927
                       0.76048                      -2.02155                      72.26775
                       1.24163                      -1.79514                      72.26637
                       1.65135                      -1.45619                      72.26521
                       1.96391                      -1.02599                      72.26434
                       2.15966                      -0.53157                      72.26382
                       2.18613                      -0.00450                      76.64361
                       2.12116                       0.50982                      76.64387
                       1.93032                       0.99182                      76.64450
                       1.62561                       1.41123                      76.64547
                       1.22617                       1.74167                      76.64672
                       0.75710                       1.96240                      76.64817
                       0.24788                       2.05954                      76.64972
                      -0.26951                       2.02699                      76.65129
                      -0.76254                       1.86679                      76.65276
                      -1.20025                       1.58901                      76.65406
                      -1.55512                       1.21111                      76.65509
                      -1.80487                       0.75682                      76.65579
                      -1.93379                       0.25470                      76.65612
                      -1.93379                      -0.26371                      76.65606
                      -1.80487                      -0.76583                      76.65561
                      -1.55512                      -1.22012                      76.65481
                      -1.20025                      -1.59802                      76.65369
                      -0.76254                      -1.87580                      76.65233
                      -0.26951                      -2.03600                      76.65082
                       0.24788                      -2.06855                      76.64925
                       0.75710                      -1.97141                      76.64771
                       1.22617                      -1.75068                      76.64632
                       1.62561                      -1.42023                      76.64515
                       1.93032                      -1.00083                      76.64427
                       2.12116                      -0.51882                      76.64375
                       2.14622                      -0.00502                      81.02373
                       2.08292                       0.49606                      81.02398
                       1.89699                       0.96566                      81.02460
                       1.60013                       1.37426                      81.02556
                       1.21097                       1.69620                      81.02678
                       0.75398                       1.91124                      81.02819
                       0.25787                       2.00588                      81.02971
                      -0.24620                       1.97417                      81.03124
                      -0.72654                       1.81809                      81.03268
                      -1.15297                       1.54747                      81.03395
                      -1.49871                       1.17929                      81.03496
                      -1.74202                       0.73671                      81.03564
                      -1.86763                       0.24751                      81.03597
                      -1.86763                      -0.25755                      81.03591
                      -1.74202                      -0.74674                      81.03547
                      -1.49871                      -1.18933                      81.03467
                      -1.15297                      -1.55751                      81.03358
                      -0.72654                      -1.82813                      81.03225
                      -0.24620                      -1.98420                      81.03077
                       0.25787                      -2.01592                      81.02923
                       0.75398                      -1.92128                      81.02773
                       1.21097                      -1.70623                      81.02637
                       1.60012                      -1.38430                      81.02523
                       1.89699                      -0.97569                      81.02437
                       2.08292                      -0.50610                      81.02386
                       2.10609                      -0.00555                      85.40410
                       2.04446                       0.48229                      85.40434
                       1.86345                       0.93947                      85.40493
                       1.57443                       1.33728                      85.40582
                       1.19556                       1.65071                      85.40697
                       0.75064                       1.86007                      85.40829
                       0.26764                       1.95220                      85.40972
                      -0.22310                       1.92133                      85.41115
                      -0.69075                       1.76938                      85.41250
                      -1.10591                       1.50591                      85.41368
                      -1.44251                       1.14746                      85.41462
                      -1.67940                       0.71657                      85.41526
                      -1.80168                       0.24031                      85.41556
                      -1.80168                      -0.25141                      85.41550
                      -1.67940                      -0.72767                      85.41508
                      -1.44251                      -1.15856                      85.41434
                      -1.10591                      -1.51701                      85.41331
                      -0.69075                      -1.78048                      85.41206
                      -0.22310                      -1.93243                      85.41068
                       0.26764                      -1.96330                      85.40924
                       0.75064                      -1.87117                      85.40784
                       1.19556                      -1.66180                      85.40656
                       1.57443                      -1.34837                      85.40549
                       1.86345                      -0.95057                      85.40470
                       2.04446                      -0.49339                      85.40422
                       2.08574                      -0.00582                      87.59441
                       2.02495                       0.47540                      87.59464
                       1.84639                       0.92637                      87.59519
                       1.56130                       1.31878                      87.59604
                       1.18757                       1.62796                      87.59713
                       0.74869                       1.83448                      87.59838
                       0.27225                       1.92536                      87.59973
                      -0.21183                       1.89491                      87.60108
                      -0.67313                       1.74502                      87.60235
                      -1.08266                       1.48512                      87.60347
                      -1.41469                       1.13154                      87.60435
                      -1.64836                       0.70650                      87.60496
                      -1.76899                       0.23670                      87.60524
                      -1.76899                      -0.24834                      87.60518
                      -1.64836                      -0.71814                      87.60478
                      -1.41469                      -1.14318                      87.60407
                      -1.08266                      -1.49676                      87.60310
                      -0.67313                      -1.75666                      87.60192
                      -0.21183                      -1.90655                      87.60061
                       0.27225                      -1.93700                      87.59925
                       0.74869                      -1.84611                      87.59793
                       1.18757                      -1.63959                      87.59672
                       1.56130                      -1.33042                      87.59571
                       1.84639                      -0.93801                      87.59496
                       2.02495                      -0.48703                      87.59452
                       3.00000                       0.00000                       0.00000
                       2.90575                       0.74607                       0.00000
                       2.62892                       1.44526                       0.00000
                       2.18691                       2.05364                       0.00000
                       1.60748                       2.53298                       0.00000
                       0.92705                       2.85317                       0.00000
                       0.18837                       2.99408                       0.00000
                      -0.56214                       2.94686                       0.00000
                      -1.27734                       2.71448                       0.00000
                      -1.91227                       2.31154                       0.00000
                      -2.42705                       1.76336                       0.00000
                      -2.78933                       1.10437                       0.00000
                      -2.97634                       0.37600                       0.00000
                      -2.97634                      -0.37600                       0.00000
                      -2.78933                      -1.10437                       0.00000
                      -2.42705                      -1.76336                       0.00000
                      -1.91227                      -2.31154                       0.00000
                      -1.27734                      -2.71448                       0.00000
                      -0.56214                      -2.94686                       0.00000
                       0.18837                      -2.99408                       0.00000
                       0.92705                      -2.85317                       0.00000
                       1.60748                      -2.53298                       0.00000
                       2.18691                      -2.05364                       0.00000
                       2.62892                      -1.44526                       0.00000
                       2.90575                      -0.74607                       0.00000
        </DataArray>
      </Points>
      <Polys>
        <DataArray type="Int32" Name="connectivity" format="ascii">
      0      1     26     25
      1      2     27     26
      2      3     28     27
      3      4     29     28
      4      5     30     29
      5      6     31     30
      6      7     32     31
      7      8     33     32
      8      9     34     33
      9     10     35     34
     10     11     36     35
     11     12     37     36
     12     13     38     37
     13     14     39     38
     14     15     40     39
     15     16     41     40
     16     17     42     41
     17     18     43     42
     18     19     44     43
     19     20     45     44
     20     21     46     45
     21     22     47     46
     22     23     48     47
     23     24     49     48
     24      0     25     49
     24     23     22     21     20     19     18     17     16     15     14     13     12     11     10      9      8      7      6      5      4      3      2      1      0
     25     26     27     28     29     30     31     32     33     34     35     36     37     38     39     40     41     42     43     44     45     46     47     48     49
     25     26     51     50
     26     27     52     51
     27     28     53     52
     28     29     54     53
     29     30     55     54
     30     31     56     55
     31     32     57     56
     32     33     58     57
     33     34     59     58
     34     35     60     59
     35     36     61     60
     36     37     62     61
     37     38     63     62
     38     39     64     63
     39     40     65     64
     40     41     66     65
     41     42     67     66
     42     43     68     67
     43     44     69     68
     44     45     70     69
     45     46     71     70
     46     47     72     71
     47     48     73     72
     48     49     74     73
     49     25     50     74
     49     48     47     46     45     44     43     42     41     40     39     38     37     36     35     34     33     32     31     30     29     28     27     26     25
     50     51     52     53     54     55     56     57     58     59     60     61     62     63     64     65     66     67     68     69     70     71     72     73     74
     50     51     76     75
     51     52     77     76
     52     53     78     77
     53     54     79     78
     54     55     80     79
     55     56     81     80
     56     57     82     81
     57     58     83     82
     58     59     84     83
     59     60     85     84
     60     61     86     85
     61     62     87     86
     62     63     88     87
     63     64     89     88
     64     65     90     89
     65     66     91     90
     66     67     92     91
     67     68     93     92
     68     69     94     93
     69     70     95     94
     70     71     96     95
     71     72     97     96
     72     73     98     97
     73     74     99     98
     74     50     75     99
     74     73     72     71     70     69     68     67     66     65     64     63     62     61     60     59     58     57     56     55     54     53     52     51     50
     75     76     77     78     79     80     81     82     83     84     85     86     87     88     89     90     91     92     93     94     95     96     97     98     99
     75     76    101    100
     76     77    102    101
     77     78    103    102
     78     79    104    103
     79     80    105    104
     80     81    106    105
     81     82    107    106
     82     83    108    107
     83     84    109    108
     84     85    110    109
     85     86    111    110
     86     87    112    111
     87     88    113    112
     88     89    114    113
     89     90    115    114
     90     91    116    115
     91     92    117    116
     92     93    118    117
     93     94    119    118
     94     95    120    119
     95     96    121    120
     96     97    122    121
     97     98    123    122
     98     99    124    123
     99     75    100    124
     99     98     97     96     95     94     93     92     91     90     89     88     87     86     85     84     83     82     81     80     79     78     77     76     75
    100    101    102    103    104    105    106    107    108    109    110    111    112    113    114    115    116    117    118    119    120    121    122    123    124
    100    101    126    125
    101    102    127    126
    102    103    128    127
    103    104    129    128
    104    105    130    129
    105    106    131    130
    106    107    132    131
    107    108    133    132
    108    109    134    133
    109    110    135    134
    110    111    136    135
    111    112    137    136
    112    113    138    137
    113    114    139    138
    114    115    140    139
    115    116    141    140
    116    117    142    141
    117    118    143    142
    118    119    144    143
    119    120    145    144
    120    121    146    145
    121    122    147    146
    122    123    148    147
    123    124    149    148
    124    100    125    149
    124    123    122    121    120    119    118    117    116    115    114    113    112    111    110    109    108    107    106    105    104    103    102    101    100
    125    126    127    128    129    130    131    132    133    134    135    136    137    138    139    140    141    142    143    144    145    146    147    148    149
    125    126    151    150
    126    127    152    151
    127    128    153    152
    128    129    154    153
    129    130    155    154
    130    131    156    155
    131    132    157    156
    132    133    158    157
    133    134    159    158
    134    135    160    159
    135    136    161    160
    136    137    162    161
    137    138    163    162
    138    139    164    163
    139    140    165    164
    140    141    166    165
    141    142    167    166
    142    143    168    167
    143    144    169    168
    144    145    170    169
    145    146    171    170
    146    147    172    171
    147    148    173    172
    148    149    174    173
    149    125    150    174
    149    148    147    146    145    144    143    142    141    140    139    138    137    136    135    134    133    132    131    130    129    128    127    126    125
    150    151    152    153    154    155    156    157    158    159    160    161    162    163    164    165    166    167    168    169    170    171    172    173    174
    150    151    176    175
    151    152    177    176
    152    153    178    177
    153    154    179    178
    154    155    180    179
    155    156    181    180
    156    157    182    181
    157    158    183    182
    158    159    184    183
    159    160    185    184
    160    161    186    185
    161    162    187    186
    162    163    188    187
    163    164    189    188
    164    165    190    189
    165    166    191    190
    166    167    192    191
    167    168    193    192
    168    169    194    193
    169    170    195    194
    170    171    196    195
    171    172    197    196
    172    173    198    197
    173    174    199    198
    174    150    175    199
    174    173    172    171    170    169    168    167    166    165    164    163    162    161    160    159    158    157    156    155    154    153    152    151    150
    175    176    177    178    179    180    181    182    183    184    185    186    187    188    189    190    191    192    193    194    195    196    197    198    199
    175    176    201    200
    176    177    202    201
    177    178    203    202
    178    179    204    203
    179    180    205    204
    180    181    206    205
    181    182    207    206
    182    183    208    207
    183    184    209    208
    184    185    210    209
    185    186    211    210
    186    187    212    211
    187    188    213    212
    188    189    214    213
    189    190    215    214
    190    191    216    215
    191    192    217    216
    192    193    218    217
    193    194    219    218
    194    195    220    219
    195    196    221    220
    196    197    222    221
    197    198    223    222
    198    199    224    223
    199    175    200    224
    199    198    197    196    195    194    193    192    191    190    189    188    187    186    185    184    183    182    181    180    179    178    177    176    175
    200    201    202    203    204    205    206    207    208    209    210    211    212    213    214    215    216    217    218    219    220    221    222    223    224
    200    201    226    225
    201    202    227    226
    202    203    228    227
    203    204    229    228
    204    205    230    229
    205    206    231    230
    206    207    232    231
    207    208    233    232
    208    209    234    233
    209    210    235    234
    210    211    236    235
    211    212    237    236
    212    213    238    237
    213    214    239    238
    214    215    240    239
    215    216    241    240
    216    217    242    241
    217    218    243    242
    218    219    244    243
    219    220    245    244
    220    221    246    245
    221    222    247    246
    222    223    248    247
    223    224    249    248
    224    200    225    249
    224    223    222    221    220    219    218    217    216    215    214    213    212    211    210    209    208    207    206    205    204    203    202    201    200
    225    226    227    228    229    230    231    232    233    234    235    236    237    238    239    240    241    242    243    244    245    246    247    248    249
    225    226    251    250
    226    227    252    251
    227    228    253    252
    228    229    254    253
    229    230    255    254
    230    231    256    255
    231    232    257    256
    232    233    258    257
    233    234    259    258
    234    235    260    259
    235    236    261    260
    236    237    262    261
    237    238    263    262
    238    239    264    263
    239    240    265    264
    240    241    266    265
    241    242    267    266
    242    243    268    267
    243    244    269    268
    244    245    270    269
    245    246    271    270
    246    247    272    271
    247    248    273    272
    248    249    274    273
    249    225    250    274
    249    248    247    246    245    244    243    242    241    240    239    238    237    236    235    234    233    232    231    230    229    228    227    226    225
    250    251    252    253    254    255    256    257    258    259    260    261    262    263    264    265    266    267    268    269    270    271    272    273    274
    250    251    276    275
    251    252    277    276
    252    253    278    277
    253    254    279    278
    254    255    280    279
    255    256    281    280
    256    257    282    281
    257    258    283    282
    258    259    284    283
    259    260    285    284
    260    261    286    285
    261    262    287    286
    262    263    288    287
    263    264    289    288
    264    265    290    289
    265    266    291    290
    266    267    292    291
    267    268    293    292
    268    269    294    293
    269    270    295    294
    270    271    296    295
    271    272    297    296
    272    273    298    297
    273    274    299    298
    274    250    275    299
    274    273    272    271    270    269    268    267    266    265    264    263    262    261    260    259    258    257    256    255    254    253    252    251    250
    275    276    277    278    279    280    281    282    283    284    285    286    287    288    289    290    291    292    293    294    295    296    297    298    299
    275    276    301    300
    276    277    302    301
    277    278    303    302
    278    279    304    303
    279    280    305    304
    280    281    306    305
    281    282    307    306
    282    283    308    307
    283    284    309    308
    284    285    310    309
    285    286    311    310
    286    287    312    311
    287    288    313    312
    288    289    314    313
    289    290    315    314
    290    291    316    315
    291    292    317    316
    292    293    318    317
    293    294    319    318
    294    295    320    319
    295    296    321    320
    296    297    322    321
    297    298    323    322
    298    299    324    323
    299    275    300    324
    299    298    297    296    295    294    293    292    291    290    289    288    287    286    285    284    283    282    281    280    279    278    277    276    275
    300    301    302    303    304    305    306    307    308    309    310    311    312    313    314    315    316    317    318    319    320    321    322    323    324
    300    301    326    325
    301    302    327    326
    302    303    328    327
    303    304    329    328
    304    305    330    329
    305    306    331    330
    306    307    332    331
    307    308    333    332
    308    309    334    333
    309    310    335    334
    310    311    336    335
    311    312    337    336
    312    313    338    337
    313    314    339    338
    314    315    340    339
    315    316    341    340
    316    317    342    341
    317    318    343    342
    318    319    344    343
    319    320    345    344
    320    321    346    345
    321    322    347    346
    322    323    348    347
    323    324    349    348
    324    300    325    349
    324    323    322    321    320    319    318    317    316    315    314    313    312    311    310    309    308    307    306    305    304    303    302    301    300
    325    326    327    328    329    330    331    332    333    334    335    336    337    338    339    340    341    342    343    344    345    346    347    348    349
    325    326    351    350
    326    327    352    351
    327    328    353    352
    328    329    354    353
    329    330    355    354
    330    331    356    355
    331    332    357    356
    332    333    358    357
    333    334    359    358
    334    335    360    359
    335    336    361    360
    336    337    362    361
    337    338    363    362
    338    339    364    363
    339    340    365    364
    340    341    366    365
    341    342    367    366
    342    343    368    367
    343    344    369    368
    344    345    370    369
    345    346    371    370
    346    347    372    371
    347    348    373    372
    348    349    374    373
    349    325    350    374
    349    348    347    346    345    344    343    342    341    340    339    338    337    336    335    334    333    332    331    330    329    328    327    326    325
    350    351    352    353    354    355    356    357    358    359    360    361    362    363    364    365    366    367    368    369    370    371    372    373    374
    350    351    376    375
    351    352    377    376
    352    353    378    377
    353    354    379    378
    354    355    380    379
    355    356    381    380
    356    357    382    381
    357    358    383    382
    358    359    384    383
    359    360    385    384
    360    361    386    385
    361    362    387    386
    362    363    388    387
    363    364    389    388
    364    365    390    389
    365    366    391    390
    366    367    392    391
    367    368    393    392
    368    369    394    393
    369    370    395    394
    370    371    396    395
    371    372    397    396
    372    373    398    397
    373    374    399    398
    374    350    375    399
    374    373    372    371    370    369    368    367    366    365    364    363    362    361    360    359    358    357    356    355    354    353    352    351    350
    375    376    377    378    379    380    381    382    383    384    385    386    387    388    389    390    391    392    393    394    395    396    397    398    399
    375    376    401    400
    376    377    402    401
    377    378    403    402
    378    379    404    403
    379    380    405    404
    380    381    406    405
    381    382    407    406
    382    383    408    407
    383    384    409    408
    384    385    410    409
    385    386    411    410
    386    387    412    411
    387    388    413    412
    388    389    414    413
    389    390    415    414
    390    391    416    415
    391    392    417    416
    392    393    418    417
    393    394    419    418
    394    395    420    419
    395    396    421    420
    396    397    422    421
    397    398    423    422
    398    399    424    423
    399    375    400    424
    399    398    397    396    395    394    393    392    391    390    389    388    387    386    385    384    383    382    381    380    379    378    377    376    375
    400    401    402    403    404    405    406    407    408    409    410    411    412    413    414    415    416    417    418    419    420    421    422    423    424
    400    401    426    425
    401    402    427    426
    402    403    428    427
    403    404    429    428
    404    405    430    429
    405    406    431    430
    406    407    432    431
    407    408    433    432
    408    409    434    433
    409    410    435    434
    410    411    436    435
    411    412    437    436
    412    413    438    437
    413    414    439    438
    414    415    440    439
    415    416    441    440
    416    417    442    441
    417    418    443    442
    418    419    444    443
    419    420    445    444
    420    421    446    445
    421    422    447    446
    422    423    448    447
    423    424    449    448
    424    400    425    449
    424    423    422    421    420    419    418    417    416    415    414    413    412    411    410    409    408    407    406    405    404    403    402    401    400
    425    426    427    428    429    430    431    432    433    434    435    436    437    438    439    440    441    442    443    444    445    446    447    448    449
    425    426    451    450
    426    427    452    451
    427    428    453    452
    428    429    454    453
    429    430    455    454
    430    431    456    455
    431    432    457    456
    432    433    458    457
    433    434    459    458
    434    435    460    459
    435    436    461    460
    436    437    462    461
    437    438    463    462
    438    439    464    463
    439    440    465    464
    440    441    466    465
    441    442    467    466
    442    443    468    467
    443    444    469    468
    444    445    470    469
    445    446    471    470
    446    447    472    471
    447    448    473    472
    448    449    474    473
    449    425    450    474
    449    448    447    446    445    444    443    442    441    440    439    438    437    436    435    434    433    432    431    430    429    428    427    426    425
    450    451    452    453    454    455    456    457    458    459    460    461    462    463    464    465    466    467    468    469    470    471    472    473    474
    450    451    476    475
    451    452    477    476
    452    453    478    477
    453    454    479    478
    454    455    480    479
    455    456    481    480
    456    457    482    481
    457    458    483    482
    458    459    484    483
    459    460    485    484
    460    461    486    485
    461    462    487    486
    462    463    488    487
    463    464    489    488
    464    465    490    489
    465    466    491    490
    466    467    492    491
    467    468    493    492
    468    469    494    493
    469    470    495    494
    470    471    496    495
    471    472    497    496
    472    473    498    497
    473    474    499    498
    474    450    475    499
    474    473    472    471    470    469    468    467    466    465    464    463    462    461    460    459    458    457    456    455    454    453    452    451    450
    475    476    477    478    479    480    481    482    483    484    485    486    487    488    489    490    491    492    493    494    495    496    497    498    499
    475    476    501    500
    476    477    502    501
    477    478    503    502
    478    479    504    503
    479    480    505    504
    480    481    506    505
    481    482    507    506
    482    483    508    507
    483    484    509    508
    484    485    510    509
    485    486    511    510
    486    487    512    511
    487    488    513    512
    488    489    514    513
    489    490    515    514
    490    491    516    515
    491    492    517    516
    492    493    518    517
    493    494    519    518
    494    495    520    519
    495    496    521    520
    496    497    522    521
    497    498    523    522
    498    499    524    523
    499    475    500    524
    499    498    497    496    495    494    493    492    491    490    489    488    487    486    485    484    483    482    481    480    479    478    477    476    475
    500    501    502    503    504    505    506    507    508    509    510    511    512    513    514    515    516    517    518    519    520    521    522    523    524
    525    526      1      0
    526    527      2      1
    527    528      3      2
    528    529      4      3
    529    530      5      4
    530    531      6      5
    531    532      7      6
    532    533      8      7
    533    534      9      8
    534    535     10      9
    535    536     11     10
    536    537     12     11
    537    538     13     12
    538    539     14     13
    539    540     15     14
    540    541     16     15
    541    542     17     16
    542    543     18     17
    543    544     19     18
    544    545     20     19
    545    546     21     20
    546    547     22     21
    547    548     23     22
    548    549     24     23
    549    525      0     24
    549    548    547    546    545    544    543    542    541    540    539    538    537    536    535    534    533    532    531    530    529    528    527    526    525
      0      1      2      3      4      5      6      7      8      9     10     11     12     13     14     15     16     17     18     19     20     21     22     23     24
        </DataArray>
        <DataArray type="Int32" Name="offsets" format="ascii">
      4
      8
     12
     16
     20
     24
     28
     32
     36
     40
     44
     48
     52
     56
     60
     64
     68
     72
     76
     80
     84
     88
     92
     96
    100
    125
    150
    154
    158
    162
    166
    170
    174
    178
    182
    186
    190
    194
    198
    202
    206
    210
    214
    218
    222
    226
    230
    234
    238
    242
    246
    250
    275
    300
    304
    308
    312
    316
    320
    324
    328
    332
    336
    340
    344
    348
    352
    356
    360
    364
    368
    372
    376
    380
    384
    388
    392
    396
    400
    425
    450
    454
    458
    462
    466
    470
    474
    478
    482
    486
    490
    494
    498
    502
    506
    510
    514
    518
    522
    526
    530
    534
    538
    542
    546
    550
    575
    600
    604
    608
    612
    616
    620
    624
    628
    632
    636
    640
    644
    648
    652
    656
    660
    664
    668
    672
    676
    680
    684
    688
    692
    696
    700
    725
    750
    754
    758
    762
    766
    770
    774
    778
    782
    786
    790
    794
    798
    802
    806
    810
    814
    818
    822
    826
    830
    834
    838
    842
    846
    850
    875
    900
    904
    908
    912
    916
    920
    924
    928
    932
    936
    940
    944
    948
    952
    956
    960
    964
    968
    972
    976
    980
    984
    988
    992
    996
   1000
   1025
   1050
   1054
   1058
   1062
   1066
   1070
   1074
   1078
   1082
   1086
   1090
   1094
   1098
   1102
   1106
   1110
   1114
   1118
   1122
   1126
   1130
   1134
   1138
   1142
   1146
   1150
   1175
   1200
   1204
   1208
   1212
   1216
   1220
   1224
   1228
   1232
   1236
   1240
   1244
   1248
   1252
   1256
   1260
   1264
   1268
   1272
   1276
   1280
   1284
   1288
   1292
   1296
   1300
   1325
   1350
   1354
   1358
   1362
   1366
   1370
   1374
   1378
   1382
   1386
   1390
   1394
   1398
   1402
   1406
   1410
   1414
   1418
   1422
   1426
   1430
   1434
   1438
   1442
   1446
   1450
   1475
   1500
   1504
   1508
   1512
   1516
   1520
   1524
   1528
   1532
   1536
   1540
   1544
   1548
   1552
   1556
   1560
   1564
   1568
   1572
   1576
   1580
   1584
   1588
   1592
   1596
   1600
   1625
   1650
   1654
   1658
   1662
   1666
   1670
   1674
   1678
   1682
   1686
   1690
   1694
   1698
   1702
   1706
   1710
   1714
   1718
   1722
   1726
   1730
   1734
   1738
   1742
   1746
   1750
   1775
   1800
   1804
   1808
   1812
   1816
   1820
   1824
   1828
   1832
   1836
   1840
   1844
   1848
   1852
   1856
   1860
   1864
   1868
   1872
   1876
   1880
   1884
   1888
   1892
   1896
   1900
   1925
   1950
   1954
   1958
   1962
   1966
   1970
   1974
   1978
   1982
   1986
   1990
   1994
   1998
   2002
   2006
   2010
   2014
   2018
   2022
   2026
   2030
   2034
   2038
   2042
   2046
   2050
   2075
   2100
   2104
   2108
   2112
   2116
   2120
   2124
   2128
   2132
   2136
   2140
   2144
   2148
   2152
   2156
   2160
   2164
   2168
   2172
   2176
   2180
   2184
   2188
   2192
   2196
   2200
   2225
   2250
   2254
   2258
   2262
   2266
   2270
   2274
   2278
   2282
   2286
   2290
   2294
   2298
   2302
   2306
   2310
   2314
   2318
   2322
   2326
   2330
   2334
   2338
   2342
   2346
   2350
   2375
   2400
   2404
   2408
   2412
   2416
   2420
   2424
   2428
   2432
   2436
   2440
   2444
   2448
   2452
   2456
   2460
   2464
   2468
   2472
   2476
   2480
   2484
   2488
   2492
   2496
   2500
   2525
   2550
   2554
   2558
   2562
   2566
   2570
   2574
   2578
   2582
   2586
   2590
   2594
   2598
   2602
   2606
   2610
   2614
   2618
   2622
   2626
   2630
   2634
   2638
   2642
   2646
   2650
   2675
   2700
   2704
   2708
   2712
   2716
   2720
   2724
   2728
   2732
   2736
   2740
   2744
   2748
   2752
   2756
   2760
   2764
   2768
   2772
   2776
   2780
   2784
   2788
   2792
   2796
   2800
   2825
   2850
   2854
   2858
   2862
   2866
   2870
   2874
   2878
   2882
   2886
   2890
   2894
   2898
   2902
   2906
   2910
   2914
   2918
   2922
   2926
   2930
   2934
   2938
   2942
   2946
   2950
   2975
   3000
   3004
   3008
   3012
   3016
   3020
   3024
   3028
   3032
   3036
   3040
   3044
   3048
   3052
   3056
   3060
   3064
   3068
   3072
   3076
   3080
   3084
   3088
   3092
   3096
   3100
   3125
   3150
        </DataArray>
      </Polys>
    </Piece>
  </PolyData>
</VTKFile>
