<?xml version="1.0"?>
<VTKFile type="PolyData" version="0.1" byte_order="LittleEndian">
  <PolyData>
    <Piece NumberOfPoints="     19" NumberOfVerts="  0" NumberOfLines="     18"
           NumberOfStrips="  0" NumberOfPolys="      0">
      <Points>
        <DataArray type="Float32" NumberOfComponents="3" format="ascii">
                      -4.80134                      -0.92923                      91.19235
                      -4.76469                      -1.77714                      92.26400
                      -4.71690                      -3.54762                      94.34967
                      -4.67837                      -5.35430                      96.40757
                      -4.63068                      -7.63546                      98.96255
                      -4.49947                     -10.26470                     102.11139
                      -4.31983                     -12.79575                     105.33623
                      -4.12377                     -15.32795                     108.55983
                      -3.90873                     -17.85980                     111.78320
                      -3.67688                     -20.39253                     115.00546
                      -3.43261                     -22.92857                     118.22486
                      -3.17944                     -25.46621                     121.44291
                      -2.92414                     -28.00467                     124.66047
                      -2.67544                     -30.54293                     127.87861
                      -2.44173                     -33.08004                     131.09821
                      -2.26784                     -35.19239                     133.78342
                      -2.14626                     -36.87425                     135.93825
                      -2.03534                     -38.51151                     138.12848
                      -1.99944                     -39.36107                     139.19960
        </DataArray>
      </Points>
      <PointData>
        <DataArray type="Float32" Name="TranslationalVelocity" NumberOfComponents="3" format="ascii">
                      -0.22925                      -3.31089                      -2.59445
                      -0.44358                      -6.32113                      -4.96885
                      -0.89198                     -12.17584                      -9.92843
                      -1.35120                     -17.95333                     -14.99223
                      -1.93405                     -25.13098                     -21.39059
                      -2.61079                     -34.00296                     -28.77213
                      -3.26732                     -43.10983                     -35.88511
                      -3.92775                     -52.22691                     -43.00828
                      -4.58999                     -61.35724                     -50.13713
                      -5.25232                     -70.49699                     -57.27465
                      -5.91326                     -79.63924                     -64.42713
                      -6.57042                     -88.78610                     -71.58903
                      -7.22203                     -97.93715                     -78.75738
                      -7.86684                    -107.09207                     -85.92856
                      -8.50448                    -116.25017                     -93.09910
                      -9.03065                    -123.88449                     -99.07072
                      -9.44748                    -130.00707                    -103.82605
                      -9.85219                    -136.22752                    -108.45581
                     -10.06234                    -139.26518                    -110.85827
        </DataArray>
        <DataArray type="Float32" Name="RotationalVelocity" NumberOfComponents="3" format="ascii">
                       2.79983                       0.00037                      -0.25296
                       2.80028                       0.00028                      -0.25306
                       2.80149                      -0.00003                      -0.25340
                       2.80302                      -0.00046                      -0.25389
                       2.80519                      -0.00106                      -0.25466
                       2.80799                      -0.00174                      -0.25571
                       2.81080                      -0.00223                      -0.25675
                       2.81347                      -0.00247                      -0.25763
                       2.81594                      -0.00239                      -0.25821
                       2.81816                      -0.00201                      -0.25839
                       2.82014                      -0.00135                      -0.25810
                       2.82189                      -0.00051                      -0.25729
                       2.82342                       0.00041                      -0.25603
                       2.82473                       0.00127                      -0.25441
                       2.82580                       0.00190                      -0.25263
                       2.82647                       0.00210                      -0.25124
                       2.82680                       0.00197                      -0.25034
                       2.82691                       0.00148                      -0.24980
                       2.82686                       0.00108                      -0.24972
        </DataArray>
        <DataArray type="Float32" Name="TranslationalAcceleration" NumberOfComponents="3" format="ascii">
                      -0.92758                       7.28987                      -9.33347
                      -1.04620                       8.86195                     -11.22317
                      -2.93694                      25.97190                     -31.64255
                      -4.60385                      42.07182                     -50.15008
                      -6.43402                      61.17196                     -71.55946
                      -8.42211                      82.18018                     -96.54248
                     -10.28841                     101.95689                    -121.52258
                     -12.10376                     121.75204                    -146.46376
                     -13.99340                     141.79033                    -171.68348
                     -16.06599                     162.15091                    -197.26401
                     -18.40391                     182.80381                    -223.12325
                     -21.05487                     203.61725                    -249.11197
                     -24.01807                     224.44831                    -275.04270
                     -27.23377                     245.18361                    -300.75944
                     -30.57184                     265.79067                    -326.19782
                     -33.29209                     282.92698                    -347.24493
                     -35.30839                     296.65651                    -364.12659
                     -37.08541                     310.24467                    -381.44579
                     -37.82070                     317.41942                    -390.01592
        </DataArray>
        <DataArray type="Float32" Name="OrientationX" NumberOfComponents="3" format="ascii">
                       0.95846                      -0.20709                      -0.19613
                       0.95844                      -0.20687                      -0.19645
                       0.95834                      -0.20631                      -0.19753
                       0.95815                      -0.20561                      -0.19917
                       0.95778                      -0.20464                      -0.20192
                       0.96576                      -0.17934                      -0.18747
                       0.97047                      -0.16133                      -0.17931
                       0.97376                      -0.14668                      -0.17402
                       0.97658                      -0.13290                      -0.16923
                       0.97880                      -0.12099                      -0.16523
                       0.98015                      -0.11285                      -0.16303
                       0.98089                      -0.10807                      -0.16176
                       0.98083                      -0.10816                      -0.16208
                       0.97958                      -0.11501                      -0.16492
                       0.97805                      -0.12489                      -0.16681
                       0.97675                      -0.13469                      -0.16678
                       0.97569                      -0.14367                      -0.16547
                       0.97400                      -0.15578                      -0.16451
                       0.97274                      -0.16345                      -0.16448
        </DataArray>
        <DataArray type="Float32" Name="OrientationY" NumberOfComponents="3" format="ascii">
                       0.28392                       0.75826                       0.58688
                       0.28395                       0.75822                       0.58692
                       0.28419                       0.75810                       0.58695
                       0.28465                       0.75797                       0.58691
                       0.28560                       0.75776                       0.58671
                       0.25680                       0.76354                       0.59250
                       0.23763                       0.76696                       0.59608
                       0.22288                       0.76934                       0.59870
                       0.20913                       0.77134                       0.60108
                       0.19735                       0.77287                       0.60310
                       0.18963                       0.77375                       0.60445
                       0.18512                       0.77416                       0.60531
                       0.18540                       0.77400                       0.60544
                       0.19252                       0.77302                       0.60447
                       0.20142                       0.77173                       0.60321
                       0.20907                       0.77053                       0.60214
                       0.21528                       0.76949                       0.60129
                       0.22417                       0.76795                       0.60000
                       0.23016                       0.76686                       0.59912
        </DataArray>
        <DataArray type="Float32" Name="OrientationZ" NumberOfComponents="3" format="ascii">
                       0.02718                      -0.61819                       0.78556
                       0.02754                      -0.61831                       0.78545
                       0.02865                      -0.61864                       0.78515
                       0.03029                      -0.61904                       0.78477
                       0.03294                      -0.61961                       0.78421
                       0.03688                      -0.62035                       0.78346
                       0.04136                      -0.62109                       0.78265
                       0.04606                      -0.62178                       0.78184
                       0.05065                      -0.62239                       0.78106
                       0.05473                      -0.62293                       0.78036
                       0.05793                      -0.62336                       0.77978
                       0.05981                      -0.62369                       0.77938
                       0.05997                      -0.62388                       0.77922
                       0.05797                      -0.62387                       0.77937
                       0.05340                      -0.62357                       0.77994
                       0.04741                      -0.62301                       0.78077
                       0.04094                      -0.62229                       0.78171
                       0.03287                      -0.62128                       0.78290
                       0.02820                      -0.62065                       0.78358
        </DataArray>
        <DataArray type="Float32" Name="Force" NumberOfComponents="3" format="ascii">
                       1.43968                      20.31303                      15.93536
                     201.40048                     105.28636                      75.79538
                     312.45809                     302.54202                     226.71380
                     325.12834                     449.10330                     340.98587
                    1614.29244                    -338.79877                    -334.70716
                    1552.19642                    -246.54281                    -267.42654
                    1507.61068                    -163.89847                    -209.00399
                    2303.13202                    -241.73700                    -326.57469
                    2787.68069                    -236.47986                    -367.63884
                    3152.17638                    -216.23813                    -392.08240
                    4863.70797                    -291.00952                    -591.50549
                    5232.82083                    -269.30238                    -614.66765
                    4440.90460                    -195.57658                    -496.55536
                    2945.12070                     -57.94484                    -265.04776
                     977.63590                     114.40232                      23.26728
                    1489.42109                     -12.16817                    -100.22406
                    -117.15325                     194.99806                     159.85143
                   -1623.76647                     284.26895                     292.24866
                  -19871.43251                     738.89156                    1299.33468
        </DataArray>
        <DataArray type="Float32" Name="Moment" NumberOfComponents="3" format="ascii">
                       0.00000                       0.00000                       0.00000
                       0.00000                       0.00000                       0.00000
                       0.00000                       0.00000                       0.00000
                       0.00000                       0.00000                       0.00000
                     -44.92668                     840.94845                   -1067.90995
                     -94.55120                    1579.72596                   -2005.15672
                    -142.63836                    2123.80527                   -2694.35786
                    -254.22794                    3397.38361                   -4307.72458
                    -414.49927                    5036.55394                   -6382.71841
                    -509.36657                    5726.07549                   -7253.09048
                    -601.47893                    6387.94591                   -8088.46416
                    -661.11714                    6799.03425                   -8607.09626
                    -502.29550                    5151.42644                   -6521.21608
                    -479.47108                    5085.75855                   -6439.57036
                    -418.82519                    4821.36829                   -6108.02741
                    -347.45743                    4504.38419                   -5710.41101
                    -265.04774                    3978.52389                   -5047.53476
                    -106.08338                    1983.30604                   -2518.56407
                     -82.18564                    1790.72846                   -2275.24175
        </DataArray>
      </PointData>
      <Lines>
        <DataArray type="Int32" Name="connectivity" format="ascii">
      0      1
      1      2
      2      3
      3      4
      4      5
      5      6
      6      7
      7      8
      8      9
      9     10
     10     11
     11     12
     12     13
     13     14
     14     15
     15     16
     16     17
     17     18
        </DataArray>
        <DataArray type="Int32" Name="offsets" format="ascii">
      2
      4
      6
      8
     10
     12
     14
     16
     18
     20
     22
     24
     26
     28
     30
     32
     34
     36
        </DataArray>
      </Lines>
    </Piece>
  </PolyData>
</VTKFile>
