<?xml version="1.0"?>
<VTKFile type="PolyData" version="0.1" byte_order="LittleEndian">
  <PolyData>
    <Piece NumberOfPoints="     19" NumberOfVerts="  0" NumberOfLines="     18"
           NumberOfStrips="  0" NumberOfPolys="      0">
      <Points>
        <DataArray type="Float32" NumberOfComponents="3" format="ascii">
                      -5.00664                      -1.02759                      88.92739
                      -5.15643                      -1.95567                      87.93491
                      -5.48236                      -3.74140                      85.88742
                      -5.81845                      -5.49339                      83.80932
                      -6.24057                      -7.66266                      81.19198
                      -6.67519                     -10.37044                      78.13834
                      -7.06446                     -13.17237                      75.16581
                      -7.44192                     -15.97440                      72.19118
                      -7.80595                     -18.77806                      69.21560
                      -8.15973                     -21.58215                      66.23838
                      -8.50857                     -24.38429                      63.25798
                      -8.85682                     -27.18596                      60.27644
                      -9.21199                     -29.98758                      57.29536
                      -9.58336                     -32.78961                      54.31677
                      -9.97965                     -35.59232                      51.34271
                     -10.33863                     -37.92883                      48.86995
                     -10.64811                     -39.80443                      46.90186
                     -10.97225                     -41.72093                      44.97503
                     -11.15556                     -42.64905                      43.98731
        </DataArray>
      </Points>
      <PointData>
        <DataArray type="Float32" Name="TranslationalVelocity" NumberOfComponents="3" format="ascii">
                      -0.25501                       3.08572                      -2.86031
                      -0.49044                       5.90177                      -5.45808
                      -0.94669                      11.71324                     -10.45412
                      -1.39801                      17.60959                     -15.35264
                      -1.96110                      25.03047                     -21.41326
                      -2.66811                      33.66602                     -28.97186
                      -3.40372                      42.05575                     -36.78561
                      -4.14445                      50.44100                     -44.59196
                      -4.89228                      58.81871                     -52.39568
                      -5.65012                      67.19242                     -60.19386
                      -6.42230                      75.56855                     -67.98009
                      -7.21619                      83.94346                     -75.75831
                      -8.04108                      92.31554                     -83.52899
                      -8.90869                     100.68243                     -91.29197
                      -9.83323                     109.04137                     -99.04567
                     -10.66082                     115.99791                    -105.49835
                     -11.36874                     121.54023                    -110.66932
                     -12.13894                     126.97054                    -115.94321
                     -12.53157                     129.75921                    -118.49302
        </DataArray>
        <DataArray type="Float32" Name="RotationalVelocity" NumberOfComponents="3" format="ascii">
                       2.79982                      -0.00014                      -0.25282
                       2.79928                       0.00020                      -0.25308
                       2.79787                       0.00099                      -0.25384
                       2.79616                       0.00179                      -0.25482
                       2.79379                       0.00264                      -0.25620
                       2.79084                       0.00323                      -0.25807
                       2.78796                       0.00316                      -0.26042
                       2.78523                       0.00233                      -0.26365
                       2.78263                       0.00078                      -0.26833
                       2.78008                      -0.00138                      -0.27504
                       2.77746                      -0.00388                      -0.28434
                       2.77459                      -0.00639                      -0.29666
                       2.77132                      -0.00845                      -0.31223
                       2.76749                      -0.00949                      -0.33097
                       2.76297                      -0.00883                      -0.35245
                       2.75866                      -0.00649                      -0.37181
                       2.75482                      -0.00302                      -0.38775
                       2.75068                       0.00218                      -0.40349
                       2.74850                       0.00552                      -0.41109
        </DataArray>
        <DataArray type="Float32" Name="TranslationalAcceleration" NumberOfComponents="3" format="ascii">
                       0.86440                       8.07537                       8.70218
                       0.88642                       9.73871                      10.49001
                       2.26207                      27.27928                      30.57010
                       3.35139                      43.05818                      49.33395
                       4.71315                      61.20545                      71.40427
                       6.68971                      82.53155                      95.67997
                       9.19979                     103.98045                     118.52151
                      12.22799                     125.32223                     141.18908
                      15.49930                     146.82997                     164.02436
                      18.66929                     168.57477                     187.19146
                      21.42600                     190.49323                     210.70495
                      23.57463                     212.48081                     234.43906
                      25.14270                     234.41221                     258.19870
                      26.46854                     256.20469                     281.75410
                      28.28738                     277.87580                     304.87841
                      31.08924                     295.96490                     323.67213
                      34.85745                     310.64298                     338.29492
                      40.63006                     325.95601                     352.29880
                      44.49283                     333.56207                     359.40799
        </DataArray>
        <DataArray type="Float32" Name="OrientationX" NumberOfComponents="3" format="ascii">
                       0.95138                       0.13954                      -0.27461
                       0.95141                       0.13979                      -0.27437
                       0.95145                       0.14067                      -0.27378
                       0.95146                       0.14201                      -0.27304
                       0.95141                       0.14432                      -0.27200
                       0.95999                       0.12504                      -0.25058
                       0.96531                       0.11325                      -0.23526
                       0.96920                       0.10478                      -0.22286
                       0.97260                       0.09681                      -0.21137
                       0.97532                       0.08978                      -0.20171
                       0.97701                       0.08496                      -0.19555
                       0.97789                       0.08142                      -0.19264
                       0.97767                       0.08009                      -0.19430
                       0.97588                       0.08226                      -0.20219
                       0.97339                       0.08396                      -0.21320
                       0.97093                       0.08412                      -0.22411
                       0.96864                       0.08328                      -0.23410
                       0.96542                       0.08352                      -0.24697
                       0.96328                       0.08446                      -0.25486
        </DataArray>
        <DataArray type="Float32" Name="OrientationY" NumberOfComponents="3" format="ascii">
                       0.28802                      -0.71900                       0.63252
                       0.28804                      -0.71905                       0.63246
                       0.28826                      -0.71911                       0.63228
                       0.28871                      -0.71913                       0.63205
                       0.28967                      -0.71907                       0.63169
                       0.26110                      -0.72316                       0.63943
                       0.24211                      -0.72557                       0.64415
                       0.22752                      -0.72728                       0.64753
                       0.21391                      -0.72878                       0.65048
                       0.20221                      -0.73002                       0.65283
                       0.19450                      -0.73087                       0.65422
                       0.18992                      -0.73145                       0.65491
                       0.19004                      -0.73167                       0.65464
                       0.19693                      -0.73134                       0.65296
                       0.20559                      -0.73086                       0.65082
                       0.21307                      -0.73044                       0.64889
                       0.21920                      -0.73009                       0.64724
                       0.22807                      -0.72952                       0.64482
                       0.23408                      -0.72911                       0.64313
        </DataArray>
        <DataArray type="Float32" Name="OrientationZ" NumberOfComponents="3" format="ascii">
                      -0.10918                      -0.68086                      -0.72423
                      -0.10888                      -0.68076                      -0.72437
                      -0.10794                      -0.68051                      -0.72475
                      -0.10659                      -0.68021                      -0.72523
                      -0.10442                      -0.67979                      -0.72593
                      -0.10126                      -0.67927                      -0.72687
                      -0.09775                      -0.67876                      -0.72782
                      -0.09424                      -0.67829                      -0.72873
                      -0.09107                      -0.67787                      -0.72952
                      -0.08864                      -0.67750                      -0.73016
                      -0.08734                      -0.67721                      -0.73059
                      -0.08758                      -0.67701                      -0.73074
                      -0.08973                      -0.67694                      -0.73055
                      -0.09416                      -0.67703                      -0.72990
                      -0.10117                      -0.67734                      -0.72868
                      -0.10912                      -0.67777                      -0.72713
                      -0.11701                      -0.67825                      -0.72545
                      -0.12632                      -0.67884                      -0.72334
                      -0.13150                      -0.67917                      -0.72211
        </DataArray>
        <DataArray type="Float32" Name="Force" NumberOfComponents="3" format="ascii">
                       1.68446                     -20.11102                      18.65255
                     177.06958                    -111.44279                      78.14845
                     301.69073                    -311.78839                     248.12645
                     320.73795                    -446.91189                     372.84714
                    1480.36873                     202.83291                    -403.62872
                    1344.83316                     128.24189                    -307.92648
                    1193.69904                      54.24763                    -211.39977
                    1816.14135                      95.13360                    -324.37337
                    2255.29703                      93.57655                    -369.62616
                    2474.11110                      71.60620                    -367.83679
                    4059.54238                     109.19945                    -588.26919
                    4276.45518                      81.75941                    -589.80873
                    3266.58330                      10.06544                    -411.18933
                    1748.68587                     -89.46088                    -141.94995
                    1588.69264                     -36.60089                    -186.50453
                     203.72113                    -164.28861                     123.83352
                   -1296.60360                    -195.84897                     393.62405
                   -2414.73079                    -163.64254                     576.03495
                  -19426.07421                     716.23769                    2862.73760
        </DataArray>
        <DataArray type="Float32" Name="Moment" NumberOfComponents="3" format="ascii">
                       0.00000                       0.00000                       0.00000
                       0.00000                       0.00000                       0.00000
                       0.00000                       0.00000                       0.00000
                       0.00000                       0.00000                       0.00000
                     140.49649                     917.16001                     976.18635
                     254.35448                    1713.45828                    1824.46623
                     327.70573                    2288.31216                    2437.64469
                     504.78683                    3658.83743                    3899.34179
                     723.61522                    5430.77425                    5790.06737
                     797.88045                    6155.68110                    6564.94913
                     877.20433                    6870.83090                    7328.85411
                     933.73555                    7295.29156                    7781.39884
                     720.36954                    5492.80370                    5857.24010
                     742.32937                    5392.00946                    5746.58147
                     756.10997                    5107.36223                    5438.43273
                     767.44512                    4801.78983                    5107.94350
                     727.89675                    4242.63712                    4508.64125
                     394.04347                    2124.91455                    2255.47998
                     373.99877                    1935.93744                    2053.53664
        </DataArray>
      </PointData>
      <Lines>
        <DataArray type="Int32" Name="connectivity" format="ascii">
      0      1
      1      2
      2      3
      3      4
      4      5
      5      6
      6      7
      7      8
      8      9
      9     10
     10     11
     11     12
     12     13
     13     14
     14     15
     15     16
     16     17
     17     18
        </DataArray>
        <DataArray type="Int32" Name="offsets" format="ascii">
      2
      4
      6
      8
     10
     12
     14
     16
     18
     20
     22
     24
     26
     28
     30
     32
     34
     36
        </DataArray>
      </Lines>
    </Piece>
  </PolyData>
</VTKFile>
