<?xml version="1.0"?>
<VTKFile type="PolyData" version="0.1" byte_order="LittleEndian">
  <PolyData>
    <Piece NumberOfPoints="     19" NumberOfVerts="  0" NumberOfLines="     18"
           NumberOfStrips="  0" NumberOfPolys="      0">
      <Points>
        <DataArray type="Float32" NumberOfComponents="3" format="ascii">
                      -4.47010                      -0.55832                      91.43500
                      -4.40859                      -1.06008                      92.70504
                      -4.30570                      -2.15197                      95.21139
                      -4.20627                      -3.28641                      97.70147
                      -4.07335                      -4.73093                     100.80394
                      -3.82715                      -6.33425                     104.57362
                      -3.51231                      -7.81940                     108.38552
                      -3.14968                      -9.30455                     112.19352
                      -2.72742                     -10.78776                     115.99633
                      -2.23717                     -12.27042                     119.79127
                      -1.67193                     -13.75549                     123.57491
                      -1.02355                     -15.24104                     127.34522
                      -0.28688                     -16.72655                     131.09966
                       0.54115                     -18.21154                     134.83561
                       1.46354                     -19.69564                     138.54977
                       2.30497                     -20.93141                     141.62568
                       3.02198                     -21.91191                     144.07600
                       3.78045                     -22.84051                     146.53320
                       4.16816                     -23.34325                     147.74198
        </DataArray>
      </Points>
      <PointData>
        <DataArray type="Float32" Name="TranslationalVelocity" NumberOfComponents="3" format="ascii">
                      -0.09601                      -3.07381                      -1.19340
                      -0.20037                      -5.86566                      -2.29126
                      -0.42796                     -11.37369                      -4.68147
                      -0.66563                     -16.84883                      -7.16656
                      -0.97091                     -23.67783                     -10.33374
                      -1.31432                     -32.00185                     -13.85294
                      -1.63743                     -40.44291                     -17.11624
                      -1.96453                     -48.89535                     -20.38269
                      -2.29410                     -57.35813                     -23.64779
                      -2.62539                     -65.82615                     -26.91424
                      -2.95835                     -74.29213                     -30.18807
                      -3.29261                     -82.75214                     -33.46439
                      -3.62918                     -91.20051                     -36.74117
                      -3.97051                     -99.63118                     -40.01618
                      -4.32084                    -108.03692                     -43.28718
                      -4.62456                    -115.01706                     -46.00794
                      -4.87673                    -120.58906                     -48.16394
                      -5.13021                    -126.18682                     -50.20233
                      -5.27193                    -128.94444                     -51.30495
        </DataArray>
        <DataArray type="Float32" Name="RotationalVelocity" NumberOfComponents="3" format="ascii">
                       2.18761                       0.00072                      -0.20968
                       2.18804                       0.00070                      -0.20974
                       2.18919                       0.00049                      -0.21000
                       2.19061                       0.00015                      -0.21045
                       2.19260                      -0.00034                      -0.21129
                       2.19509                      -0.00088                      -0.21272
                       2.19748                      -0.00121                      -0.21452
                       2.19962                      -0.00129                      -0.21657
                       2.20145                      -0.00112                      -0.21876
                       2.20292                      -0.00077                      -0.22095
                       2.20404                      -0.00040                      -0.22304
                       2.20485                      -0.00022                      -0.22496
                       2.20538                      -0.00052                      -0.22671
                       2.20566                      -0.00164                      -0.22836
                       2.20572                      -0.00400                      -0.23008
                       2.20560                      -0.00719                      -0.23176
                       2.20537                      -0.01081                      -0.23345
                       2.20499                      -0.01555                      -0.23561
                       2.20474                      -0.01840                      -0.23692
        </DataArray>
        <DataArray type="Float32" Name="TranslationalAcceleration" NumberOfComponents="3" format="ascii">
                      -0.63879                       2.58032                      -6.75728
                      -0.78375                       3.12475                      -8.14748
                      -2.20727                       9.37953                     -23.15868
                      -3.50452                      15.39342                     -36.88043
                      -5.03891                      22.62710                     -52.84609
                      -6.86103                      30.31602                     -71.23802
                      -8.71077                      37.27514                     -89.39682
                     -10.57852                      44.23623                    -107.54062
                     -12.44537                      51.26216                    -125.90657
                     -14.28122                      58.37112                    -144.56644
                     -16.06347                      65.54544                    -163.47024
                     -17.79693                      72.71853                    -182.49943
                     -19.53146                      79.82386                    -201.49713
                     -21.38099                      86.80694                    -220.31214
                     -23.54233                      93.64382                    -238.83853
                     -25.80974                      99.24280                    -254.03300
                     -28.08100                     103.65296                    -266.07771
                     -30.90878                     107.82660                    -278.18098
                     -32.59838                     110.13099                    -284.17469
        </DataArray>
        <DataArray type="Float32" Name="OrientationX" NumberOfComponents="3" format="ascii">
                       0.96354                      -0.22978                      -0.13706
                       0.96350                      -0.22953                      -0.13775
                       0.96336                      -0.22876                      -0.14000
                       0.96313                      -0.22768                      -0.14332
                       0.96268                      -0.22602                      -0.14883
                       0.96984                      -0.19480                      -0.14651
                       0.97384                      -0.17131                      -0.14930
                       0.97637                      -0.15035                      -0.15526
                       0.97823                      -0.12830                      -0.16313
                       0.97920                      -0.10572                      -0.17317
                       0.97893                      -0.08435                      -0.18595
                       0.97756                      -0.06332                      -0.20090
                       0.97491                      -0.04430                      -0.21814
                       0.97086                      -0.02977                      -0.23781
                       0.96622                      -0.01588                      -0.25723
                       0.96225                      -0.00466                      -0.27212
                       0.95924                       0.00338                      -0.28256
                       0.95635                       0.00733                      -0.29213
                       0.95496                       0.00702                      -0.29664
        </DataArray>
        <DataArray type="Float32" Name="OrientationY" NumberOfComponents="3" format="ascii">
                       0.26368                       0.90235                       0.34093
                       0.26370                       0.90237                       0.34086
                       0.26379                       0.90246                       0.34055
                       0.26398                       0.90260                       0.34003
                       0.26440                       0.90283                       0.33910
                       0.23447                       0.90984                       0.34237
                       0.21360                       0.91431                       0.34410
                       0.19622                       0.91778                       0.34523
                       0.17855                       0.92093                       0.34641
                       0.16121                       0.92365                       0.34767
                       0.14602                       0.92576                       0.34879
                       0.13200                       0.92739                       0.35004
                       0.12077                       0.92849                       0.35116
                       0.11461                       0.92911                       0.35159
                       0.10906                       0.92952                       0.35228
                       0.10438                       0.92971                       0.35320
                       0.10102                       0.92976                       0.35405
                       0.10101                       0.92976                       0.35403
                       0.10296                       0.92977                       0.35344
        </DataArray>
        <DataArray type="Float32" Name="OrientationZ" NumberOfComponents="3" format="ascii">
                       0.04534                      -0.36464                       0.93004
                       0.04607                      -0.36474                       0.92997
                       0.04844                      -0.36500                       0.92975
                       0.05195                      -0.36533                       0.92943
                       0.05773                      -0.36580                       0.92890
                       0.06661                      -0.36640                       0.92807
                       0.07756                      -0.36699                       0.92698
                       0.09059                      -0.36754                       0.92559
                       0.10579                      -0.36800                       0.92379
                       0.12319                      -0.36835                       0.92149
                       0.14272                      -0.36859                       0.91857
                       0.16415                      -0.36870                       0.91494
                       0.18699                      -0.36870                       0.91055
                       0.21048                      -0.36860                       0.90545
                       0.23351                      -0.36843                       0.89985
                       0.25135                      -0.36827                       0.89510
                       0.26390                      -0.36816                       0.89152
                       0.27421                      -0.36808                       0.88844
                       0.27829                      -0.36806                       0.88718
        </DataArray>
        <DataArray type="Float32" Name="Force" NumberOfComponents="3" format="ascii">
                       0.52182                      13.95776                       5.44701
                     183.06571                      90.72497                      26.50480
                     259.61141                     241.92355                      81.35560
                     255.54687                     344.96444                     121.05822
                    1863.32621                    -584.06439                    -345.10838
                    2051.31853                    -479.58213                    -335.70244
                    2287.77001                    -418.00536                    -355.87414
                    3175.52664                    -481.54115                    -500.48961
                    3575.37996                    -414.11089                    -572.74932
                    4208.50622                    -379.78826                    -712.50145
                    5702.66704                    -362.16333                   -1028.90715
                    6591.89206                    -280.72259                   -1292.96491
                    7653.99098                    -237.08516                   -1664.19014
                    8239.34088                    -142.67715                   -1969.14853
                    8717.57149                     -31.38909                   -2270.17305
                    8962.30825                      73.08321                   -2481.37159
                    8684.77960                     153.87156                   -2502.24468
                    6191.28881                     152.35515                   -1844.14103
                     759.72876                      99.13694                    -197.74851
        </DataArray>
        <DataArray type="Float32" Name="Moment" NumberOfComponents="3" format="ascii">
                       0.00000                       0.00000                       0.00000
                       0.00000                       0.00000                       0.00000
                       0.00000                       0.00000                       0.00000
                       0.00000                       0.00000                       0.00000
                     -55.66658                     351.57731                    -895.57021
                    -120.64387                     660.35490                   -1680.57586
                    -188.04601                     884.00442                   -2247.21189
                    -331.57982                    1334.47398                   -3387.77198
                    -559.34003                    1927.35907                   -4885.19745
                    -739.34716                    2186.77822                   -5532.70429
                    -941.91283                    2402.53624                   -6066.17010
                   -1154.85455                    2557.57715                   -6443.05670
                   -1036.41721                    2010.74874                   -5053.17661
                   -1167.97616                    2007.60873                   -5032.52722
                   -1260.37610                    1946.39433                   -4866.81590
                   -1294.44918                    1851.66133                   -4620.80215
                   -1210.92883                    1645.94814                   -4101.67136
                    -633.18320                     826.60320                   -2057.47974
                    -578.55993                     743.58624                   -1849.98491
        </DataArray>
      </PointData>
      <Lines>
        <DataArray type="Int32" Name="connectivity" format="ascii">
      0      1
      1      2
      2      3
      3      4
      4      5
      5      6
      6      7
      7      8
      8      9
      9     10
     10     11
     11     12
     12     13
     13     14
     14     15
     15     16
     16     17
     17     18
        </DataArray>
        <DataArray type="Int32" Name="offsets" format="ascii">
      2
      4
      6
      8
     10
     12
     14
     16
     18
     20
     22
     24
     26
     28
     30
     32
     34
     36
        </DataArray>
      </Lines>
    </Piece>
  </PolyData>
</VTKFile>
