<?xml version="1.0"?>
<VTKFile type="PolyData" version="0.1" byte_order="LittleEndian">
  <PolyData>
    <Piece NumberOfPoints="    550" NumberOfVerts="  0" NumberOfLines="     21"
           NumberOfStrips="  0" NumberOfPolys="    567">
      <Points>
        <DataArray type="Float32" NumberOfComponents="3" format="ascii">
                       2.97345                      -0.00000                       2.18980
                       2.88003                       0.73945                       2.18981
                       2.60566                       1.43243                       2.18983
                       2.16757                       2.03542                       2.18986
                       1.59328                       2.51050                       2.18989
                       0.91889                       2.82785                       2.18994
                       0.18677                       2.96751                       2.18999
                      -0.55708                       2.92071                       2.19004
                      -1.26593                       2.69039                       2.19009
                      -1.89523                       2.29102                       2.19013
                      -2.40544                       1.74771                       2.19016
                      -2.76450                       1.09457                       2.19018
                      -2.94986                       0.37266                       2.19020
                      -2.94986                      -0.37266                       2.19020
                      -2.76450                      -1.09457                       2.19018
                      -2.40544                      -1.74771                       2.19016
                      -1.89523                      -2.29103                       2.19013
                      -1.26593                      -2.69039                       2.19008
                      -0.55708                      -2.92071                       2.19004
                       0.18677                      -2.96751                       2.18999
                       0.91889                      -2.82785                       2.18994
                       1.59328                      -2.51050                       2.18989
                       2.16757                      -2.03542                       2.18985
                       2.60566                      -1.43243                       2.18983
                       2.88003                      -0.73945                       2.18981
                       2.92083                      -0.00000                       6.56933
                       2.82909                       0.72620                       6.56935
                       2.55963                       1.40678                       6.56941
                       2.12939                       1.99896                       6.56951
                       1.56539                       2.46554                       6.56964
                       0.90308                       2.77720                       6.56979
                       0.18407                       2.91436                       6.56996
                      -0.54647                       2.86840                       6.57013
                      -1.24262                       2.64221                       6.57029
                      -1.86065                       2.24999                       6.57043
                      -2.36172                       1.71640                       6.57054
                      -2.71435                       1.07497                       6.57063
                      -2.89639                       0.36599                       6.57067
                      -2.89639                      -0.36599                       6.57067
                      -2.71435                      -1.07497                       6.57062
                      -2.36172                      -1.71641                       6.57054
                      -1.86065                      -2.25000                       6.57043
                      -1.24262                      -2.64221                       6.57028
                      -0.54647                      -2.86840                       6.57012
                       0.18407                      -2.91437                       6.56996
                       0.90308                      -2.77721                       6.56979
                       1.56539                      -2.46555                       6.56964
                       2.12939                      -1.99897                       6.56951
                       2.55963                      -1.40678                       6.56941
                       2.82909                      -0.72621                       6.56935
                       2.86899                      -0.00001                      10.94881
                       2.77892                       0.71296                      10.94885
                       2.51438                       1.38112                      10.94896
                       2.09198                       1.96250                      10.94913
                       1.53827                       2.42058                      10.94936
                       0.88803                       2.72655                      10.94963
                       0.18213                       2.86121                      10.94993
                      -0.53508                       2.81609                      10.95023
                      -1.21854                       2.59402                      10.95051
                      -1.82530                       2.20896                      10.95076
                      -2.31723                       1.68510                      10.95097
                      -2.66343                       1.05536                      10.95111
                      -2.84215                       0.35931                      10.95118
                      -2.84215                      -0.35932                      10.95118
                      -2.66343                      -1.05537                      10.95111
                      -2.31723                      -1.68511                      10.95096
                      -1.82530                      -2.20897                      10.95076
                      -1.21854                      -2.59403                      10.95050
                      -0.53508                      -2.81610                      10.95022
                       0.18213                      -2.86122                      10.94992
                       0.88803                      -2.72657                      10.94963
                       1.53827                      -2.42059                      10.94936
                       2.09198                      -1.96252                      10.94913
                       2.51438                      -1.38113                      10.94895
                       2.77892                      -0.71297                      10.94885
                       2.81798                      -0.00001                      15.32829
                       2.72959                       0.69971                      15.32834
                       2.46996                       1.35546                      15.32850
                       2.05540                       1.92605                      15.32876
                       1.51197                       2.37561                      15.32909
                       0.87382                       2.67590                      15.32947
                       0.18103                       2.80806                      15.32990
                      -0.52286                       2.76378                      15.33032
                      -1.19362                       2.54583                      15.33073
                      -1.78911                       2.16792                      15.33109
                      -2.27191                       1.65380                      15.33139
                      -2.61168                       1.03575                      15.33159
                      -2.78708                       0.35263                      15.33170
                      -2.78708                      -0.35265                      15.33170
                      -2.61168                      -1.03578                      15.33159
                      -2.27191                      -1.65382                      15.33138
                      -1.78911                      -2.16795                      15.33109
                      -1.19362                      -2.54586                      15.33072
                      -0.52286                      -2.76380                      15.33032
                       0.18103                      -2.80809                      15.32989
                       0.87382                      -2.67593                      15.32947
                       1.51197                      -2.37563                      15.32908
                       2.05540                      -1.92607                      15.32875
                       2.46996                      -1.35549                      15.32850
                       2.72959                      -0.69973                      15.32834
                       2.76782                      -0.00002                      19.70779
                       2.68109                       0.68646                      19.70786
                       2.42638                       1.32980                      19.70807
                       2.01967                       1.88959                      19.70840
                       1.48652                       2.33064                      19.70882
                       0.86044                       2.62525                      19.70932
                       0.18077                       2.75491                      19.70987
                      -0.50980                       2.71146                      19.71042
                      -1.16787                       2.49764                      19.71094
                      -1.75209                       2.12688                      19.71141
                      -2.22575                       1.62249                      19.71178
                      -2.55909                       1.01614                      19.71205
                      -2.73117                       0.34595                      19.71219
                      -2.73117                      -0.34599                      19.71218
                      -2.55909                      -1.01618                      19.71204
                      -2.22575                      -1.62253                      19.71178
                      -1.75209                      -2.12693                      19.71140
                      -1.16787                      -2.49768                      19.71093
                      -0.50980                      -2.71150                      19.71040
                       0.18077                      -2.75495                      19.70985
                       0.86044                      -2.62529                      19.70931
                       1.48652                      -2.33068                      19.70881
                       2.01967                      -1.88963                      19.70839
                       2.42638                      -1.32984                      19.70806
                       2.68109                      -0.68650                      19.70786
                       2.71847                      -0.00003                      24.08734
                       2.63342                       0.67320                      24.08742
                       2.38361                       1.30413                      24.08767
                       1.98475                       1.85312                      24.08806
                       1.46189                       2.28567                      24.08858
                       0.84789                       2.57460                      24.08918
                       0.18132                       2.70175                      24.08984
                      -0.49592                       2.65914                      24.09050
                      -1.14129                       2.44945                      24.09114
                      -1.71424                       2.08584                      24.09170
                      -2.17877                       1.59118                      24.09215
                      -2.50568                       0.99653                      24.09247
                      -2.67443                       0.33926                      24.09263
                      -2.67443                      -0.33933                      24.09263
                      -2.50568                      -0.99659                      24.09246
                      -2.17877                      -1.59124                      24.09214
                      -1.71424                      -2.08591                      24.09168
                      -1.14129                      -2.44951                      24.09112
                      -0.49592                      -2.65921                      24.09049
                       0.18132                      -2.70182                      24.08982
                       0.84789                      -2.57466                      24.08917
                       1.46189                      -2.28573                      24.08856
                       1.98475                      -1.85319                      24.08805
                       2.38361                      -1.30420                      24.08766
                       2.63342                      -0.67327                      24.08742
                       2.66990                      -0.00005                      28.46692
                       2.58653                       0.65994                      28.46702
                       2.34164                       1.27847                      28.46731
                       1.95062                       1.81665                      28.46776
                       1.43805                       2.24069                      28.46836
                       0.83612                       2.52394                      28.46906
                       0.18267                       2.64859                      28.46981
                      -0.48126                       2.60682                      28.47058
                      -1.11393                       2.40125                      28.47131
                      -1.67561                       2.04480                      28.47196
                      -2.13100                       1.55986                      28.47248
                      -2.45148                       0.97691                      28.47285
                      -2.61692                       0.33257                      28.47304
                      -2.61692                      -0.33267                      28.47304
                      -2.45148                      -0.97701                      28.47285
                      -2.13100                      -1.55996                      28.47247
                      -1.67561                      -2.04489                      28.47194
                      -1.11393                      -2.40135                      28.47129
                      -0.48126                      -2.60692                      28.47056
                       0.18267                      -2.64869                      28.46979
                       0.83612                      -2.52403                      28.46903
                       1.43805                      -2.24079                      28.46834
                       1.95062                      -1.81675                      28.46775
                       2.34164                      -1.27856                      28.46730
                       2.58653                      -0.66004                      28.46702
                       2.62209                      -0.00007                      32.84654
                       2.54039                       0.64668                      32.84665
                       2.30041                       1.25279                      32.84697
                       1.91724                       1.78018                      32.84749
                       1.41495                       2.19571                      32.84815
                       0.82511                       2.47327                      32.84894
                       0.18477                       2.59542                      32.84979
                      -0.46584                       2.55449                      32.85065
                      -1.08582                       2.35305                      32.85147
                      -1.63623                       2.00375                      32.85220
                      -2.08248                       1.52854                      32.85279
                      -2.39653                       0.95728                      32.85320
                      -2.55865                       0.32588                      32.85341
                      -2.55865                      -0.32601                      32.85341
                      -2.39653                      -0.95742                      32.85319
                      -2.08248                      -1.52868                      32.85277
                      -1.63623                      -2.00389                      32.85218
                      -1.08582                      -2.35319                      32.85145
                      -0.46584                      -2.55463                      32.85062
                       0.18477                      -2.59556                      32.84976
                       0.82511                      -2.47341                      32.84891
                       1.41495                      -2.19585                      32.84813
                       1.91724                      -1.78032                      32.84747
                       2.30041                      -1.25293                      32.84696
                       2.54039                      -0.64682                      32.84665
                       2.57502                      -0.00010                      37.22618
                       2.49499                       0.63341                      37.22631
                       2.25992                       1.22711                      37.22666
                       1.88460                       1.74370                      37.22723
                       1.39259                       2.15072                      37.22796
                       0.81483                       2.42260                      37.22883
                       0.18759                       2.54225                      37.22976
                      -0.44969                       2.50216                      37.23072
                      -1.05697                       2.30484                      37.23162
                      -1.59611                       1.96269                      37.23242
                      -2.03322                       1.49721                      37.23307
                      -2.34084                       0.93765                      37.23353
                      -2.49964                       0.31917                      37.23376
                      -2.49964                      -0.31937                      37.23376
                      -2.34084                      -0.93785                      37.23351
                      -2.03322                      -1.49741                      37.23305
                      -1.59611                      -1.96288                      37.23240
                      -1.05697                      -2.30503                      37.23159
                      -0.44969                      -2.50235                      37.23068
                       0.18760                      -2.54244                      37.22973
                       0.81483                      -2.42279                      37.22879
                       1.39259                      -2.15092                      37.22793
                       1.88460                      -1.74389                      37.22720
                       2.25992                      -1.22730                      37.22665
                       2.49499                      -0.63360                      37.22630
                       2.52867                      -0.00013                      41.60584
                       2.45031                       0.62013                      41.60598
                       2.22016                       1.20142                      41.60636
                       1.85268                       1.70722                      41.60698
                       1.37096                       2.10573                      41.60778
                       0.80527                       2.37192                      41.60872
                       0.19115                       2.48907                      41.60974
                      -0.43281                       2.44982                      41.61078
                      -1.02740                       2.25662                      41.61176
                      -1.55527                       1.92163                      41.61264
                      -1.98324                       1.46588                      41.61334
                      -2.28443                       0.91802                      41.61384
                      -2.43991                       0.31247                      41.61409
                      -2.43991                      -0.31273                      41.61408
                      -2.28443                      -0.91828                      41.61382
                      -1.98324                      -1.46614                      41.61332
                      -1.55527                      -1.92189                      41.61260
                      -1.02740                      -2.25688                      41.61172
                      -0.43281                      -2.45008                      41.61073
                       0.19115                      -2.48933                      41.60970
                       0.80527                      -2.37218                      41.60868
                       1.37096                      -2.10599                      41.60774
                       1.85268                      -1.70748                      41.60695
                       2.22016                      -1.20168                      41.60634
                       2.45031                      -0.62039                      41.60597
                       2.48306                      -0.00017                      45.98550
                       2.40637                       0.60685                      45.98565
                       2.18114                       1.17573                      45.98607
                       1.82151                       1.67072                      45.98673
                       1.35007                       2.06073                      45.98760
                       0.79646                       2.32124                      45.98862
                       0.19545                       2.43589                      45.98972
                      -0.41519                       2.39747                      45.99084
                      -0.99708                       2.20840                      45.99190
                      -1.51368                       1.88055                      45.99284
                      -1.93252                       1.43454                      45.99361
                      -2.22728                       0.89837                      45.99414
                      -2.37944                       0.30575                      45.99441
                      -2.37944                      -0.30610                      45.99441
                      -2.22728                      -0.89872                      45.99412
                      -1.93252                      -1.43488                      45.99358
                      -1.51368                      -1.88090                      45.99280
                      -0.99708                      -2.20874                      45.99185
                      -0.41519                      -2.39781                      45.99079
                       0.19545                      -2.43623                      45.98967
                       0.79646                      -2.32158                      45.98857
                       1.35007                      -2.06107                      45.98756
                       1.82151                      -1.67107                      45.98670
                       2.18114                      -1.17607                      45.98604
                       2.40637                      -0.60719                      45.98564
                       2.43822                      -0.00022                      50.36516
                       2.36321                       0.59355                      50.36532
                       2.14289                       1.15002                      50.36577
                       1.79110                       1.63422                      50.36649
                       1.32995                       2.01571                      50.36742
                       0.78842                       2.27054                      50.36851
                       0.20052                       2.38269                      50.36969
                      -0.39679                       2.34511                      50.37090
                      -0.96600                       2.16016                      50.37204
                      -1.47133                       1.83947                      50.37305
                      -1.88102                       1.40319                      50.37387
                      -2.16935                       0.87872                      50.37444
                      -2.31819                       0.29902                      50.37473
                      -2.31819                      -0.29947                      50.37473
                      -2.16935                      -0.87917                      50.37442
                      -1.88102                      -1.40364                      50.37383
                      -1.47133                      -1.83992                      50.37300
                      -0.96600                      -2.16061                      50.37198
                      -0.39679                      -2.34556                      50.37084
                       0.20052                      -2.38314                      50.36963
                       0.78842                      -2.27099                      50.36845
                       1.32995                      -2.01616                      50.36737
                       1.79110                      -1.63467                      50.36644
                       2.14289                      -1.15047                      50.36574
                       2.36321                      -0.59400                      50.36531
                       2.39419                      -0.00029                      54.74482
                       2.32085                       0.58025                      54.74499
                       2.10544                       1.12431                      54.74547
                       1.76150                       1.59770                      54.74624
                       1.31064                       1.97069                      54.74723
                       0.78118                       2.21984                      54.74840
                       0.20640                       2.32948                      54.74967
                      -0.37760                       2.29274                      54.75095
                      -0.93411                       2.11192                      54.75218
                      -1.42816                       1.79838                      54.75326
                      -1.82872                       1.37182                      54.75413
                      -2.11062                       0.85905                      54.75474
                      -2.25614                       0.29229                      54.75506
                      -2.25614                      -0.29286                      54.75505
                      -2.11062                      -0.85963                      54.75472
                      -1.82872                      -1.37240                      54.75409
                      -1.42816                      -1.79895                      54.75320
                      -0.93411                      -2.11249                      54.75211
                      -0.37760                      -2.29331                      54.75088
                       0.20640                      -2.33006                      54.74960
                       0.78118                      -2.22041                      54.74833
                       1.31064                      -1.97126                      54.74717
                       1.76150                      -1.59828                      54.74619
                       2.10544                      -1.12488                      54.74544
                       2.32085                      -0.58082                      54.74497
                       2.35100                      -0.00036                      59.12448
                       2.27933                       0.56693                      59.12466
                       2.06884                       1.09858                      59.12518
                       1.73274                       1.56118                      59.12599
                       1.29216                       1.92566                      59.12705
                       0.77478                       2.16912                      59.12830
                       0.21311                       2.27626                      59.12964
                      -0.35756                       2.24036                      59.13101
                      -0.90137                       2.06366                      59.13231
                      -1.38416                       1.75728                      59.13346
                      -1.77558                       1.34045                      59.13439
                      -2.05105                       0.83938                      59.13504
                      -2.19325                       0.28554                      59.13537
                      -2.19325                      -0.28626                      59.13536
                      -2.05105                      -0.84010                      59.13501
                      -1.77558                      -1.34117                      59.13434
                      -1.38416                      -1.75800                      59.13339
                      -0.90137                      -2.06438                      59.13223
                      -0.35756                      -2.24108                      59.13093
                       0.21311                      -2.27698                      59.12956
                       0.77479                      -2.16984                      59.12822
                       1.29216                      -1.92638                      59.12698
                       1.73274                      -1.56190                      59.12594
                       2.06884                      -1.09930                      59.12514
                       2.27933                      -0.56765                      59.12464
                       2.30866                      -0.00044                      63.50417
                       2.23867                       0.55361                      63.50436
                       2.03309                       1.07284                      63.50490
                       1.70484                       1.52464                      63.50576
                       1.27454                       1.88061                      63.50688
                       0.76924                       2.11839                      63.50819
                       0.22068                       2.22303                      63.50961
                      -0.33667                       2.18797                      63.51106
                      -0.86779                       2.01540                      63.51243
                      -1.33930                       1.71616                      63.51364
                      -1.72159                       1.30907                      63.51462
                      -1.99063                       0.81969                      63.51531
                      -2.12951                       0.27878                      63.51566
                      -2.12951                      -0.27967                      63.51565
                      -1.99063                      -0.82058                      63.51527
                      -1.72159                      -1.30996                      63.51457
                      -1.33930                      -1.71705                      63.51357
                      -0.86779                      -2.01629                      63.51234
                      -0.33667                      -2.18886                      63.51097
                       0.22068                      -2.22392                      63.50952
                       0.76924                      -2.11928                      63.50811
                       1.27454                      -1.88150                      63.50680
                       1.70484                      -1.52553                      63.50570
                       2.03309                      -1.07373                      63.50486
                       2.23867                      -0.55449                      63.50433
                       2.26715                      -0.00054                      67.88389
                       2.19883                       0.54027                      67.88409
                       1.99816                       1.04709                      67.88466
                       1.67776                       1.48809                      67.88556
                       1.25775                       1.83556                      67.88673
                       0.76453                       2.06765                      67.88810
                       0.22908                       2.16979                      67.88959
                      -0.31495                       2.13556                      67.89109
                      -0.83337                       1.96712                      67.89253
                      -1.29362                       1.67504                      67.89379
                      -1.66677                       1.27767                      67.89482
                      -1.92937                       0.79999                      67.89553
                      -2.06494                       0.27201                      67.89590
                      -2.06494                      -0.27309                      67.89588
                      -1.92937                      -0.80107                      67.89550
                      -1.66677                      -1.27875                      67.89476
                      -1.29362                      -1.67612                      67.89371
                      -0.83337                      -1.96820                      67.89243
                      -0.31495                      -2.13665                      67.89099
                       0.22908                      -2.17088                      67.88949
                       0.76453                      -2.06873                      67.88801
                       1.25775                      -1.83664                      67.88664
                       1.67776                      -1.48917                      67.88549
                       1.99816                      -1.04817                      67.88461
                       2.19883                      -0.54135                      67.88407
                       2.22638                      -0.00065                      72.26370
                       2.15973                       0.52691                      72.26391
                       1.96398                       1.02133                      72.26449
                       1.65142                       1.45153                      72.26542
                       1.24170                       1.79049                      72.26662
                       0.76055                       2.01690                      72.26803
                       0.23821                       2.11654                      72.26956
                      -0.29249                       2.08315                      72.27111
                      -0.79822                       1.91883                      72.27259
                      -1.24720                       1.63390                      72.27389
                      -1.61121                       1.24626                      72.27494
                      -1.86739                       0.78028                      72.27568
                      -1.99963                       0.26523                      72.27605
                      -1.99963                      -0.26653                      72.27604
                      -1.86739                      -0.78158                      72.27564
                      -1.61121                      -1.24756                      72.27488
                      -1.24720                      -1.63520                      72.27380
                      -0.79822                      -1.92013                      72.27249
                      -0.29249                      -2.08445                      72.27100
                       0.23821                      -2.11784                      72.26945
                       0.76055                      -2.01820                      72.26793
                       1.24170                      -1.79179                      72.26653
                       1.65142                      -1.45283                      72.26534
                       1.96398                      -1.02263                      72.26444
                       2.15973                      -0.52821                      72.26388
                       2.18616                      -0.00077                      76.64364
                       2.12119                       0.51355                      76.64385
                       1.93035                       0.99556                      76.64444
                       1.62564                       1.41496                      76.64537
                       1.22620                       1.74541                      76.64658
                       0.75713                       1.96613                      76.64800
                       0.24790                       2.06327                      76.64954
                      -0.26948                       2.03072                      76.65111
                      -0.76252                       1.87053                      76.65259
                      -1.20022                       1.59275                      76.65390
                      -1.55510                       1.21484                      76.65496
                      -1.80484                       0.76056                      76.65570
                      -1.93376                       0.25844                      76.65608
                      -1.93376                      -0.25997                      76.65606
                      -1.80484                      -0.76210                      76.65566
                      -1.55510                      -1.21638                      76.65489
                      -1.20022                      -1.59429                      76.65381
                      -0.76252                      -1.87206                      76.65248
                      -0.26948                      -2.03226                      76.65099
                       0.24790                      -2.06481                      76.64943
                       0.75713                      -1.96767                      76.64789
                       1.22620                      -1.74695                      76.64648
                       1.62564                      -1.41650                      76.64529
                       1.93035                      -0.99710                      76.64438
                       2.12119                      -0.51509                      76.64382
                       2.14619                      -0.00090                      81.02376
                       2.08289                       0.50018                      81.02396
                       1.89697                       0.96977                      81.02454
                       1.60010                       1.37838                      81.02545
                       1.21095                       1.70032                      81.02664
                       0.75395                       1.91536                      81.02803
                       0.25784                       2.01000                      81.02954
                      -0.24622                       1.97829                      81.03106
                      -0.72656                       1.82221                      81.03251
                      -1.15300                       1.55159                      81.03380
                      -1.49873                       1.18341                      81.03483
                      -1.74205                       0.74083                      81.03555
                      -1.86765                       0.25163                      81.03592
                      -1.86765                      -0.25343                      81.03590
                      -1.74205                      -0.74262                      81.03551
                      -1.49873                      -1.18521                      81.03476
                      -1.15300                      -1.55339                      81.03370
                      -0.72656                      -1.82401                      81.03240
                      -0.24622                      -1.98008                      81.03094
                       0.25784                      -2.01180                      81.02941
                       0.75396                      -1.91716                      81.02791
                       1.21095                      -1.70211                      81.02654
                       1.60010                      -1.38018                      81.02537
                       1.89697                      -0.97157                      81.02448
                       2.08289                      -0.50198                      81.02393
                       2.10601                      -0.00104                      85.40413
                       2.04438                       0.48680                      85.40432
                       1.86337                       0.94398                      85.40487
                       1.57435                       1.34179                      85.40572
                       1.19548                       1.65522                      85.40683
                       0.75056                       1.86458                      85.40813
                       0.26756                       1.95672                      85.40954
                      -0.22318                       1.92584                      85.41097
                      -0.69083                       1.77390                      85.41233
                      -1.10599                       1.51042                      85.41353
                      -1.44259                       1.15198                      85.41449
                      -1.67947                       0.72109                      85.41517
                      -1.80176                       0.24482                      85.41551
                      -1.80176                      -0.24689                      85.41550
                      -1.67947                      -0.72316                      85.41512
                      -1.44259                      -1.15405                      85.41442
                      -1.10599                      -1.51249                      85.41343
                      -0.69083                      -1.77597                      85.41221
                      -0.22318                      -1.92791                      85.41085
                       0.26756                      -1.95879                      85.40942
                       0.75056                      -1.86665                      85.40801
                       1.19548                      -1.65729                      85.40673
                       1.57435                      -1.34386                      85.40563
                       1.86337                      -0.94606                      85.40480
                       2.04438                      -0.48887                      85.40429
                       2.08563                      -0.00111                      87.59443
                       2.02484                       0.48011                      87.59462
                       1.84629                       0.93109                      87.59513
                       1.56119                       1.32349                      87.59594
                       1.18746                       1.63267                      87.59699
                       0.74858                       1.83919                      87.59822
                       0.27214                       1.93008                      87.59955
                      -0.21194                       1.89962                      87.60090
                      -0.67324                       1.74973                      87.60218
                      -1.08277                       1.48984                      87.60332
                      -1.41480                       1.13626                      87.60423
                      -1.64847                       0.71121                      87.60487
                      -1.76910                       0.24141                      87.60519
                      -1.76910                      -0.24363                      87.60517
                      -1.64847                      -0.71343                      87.60482
                      -1.41480                      -1.13847                      87.60416
                      -1.08277                      -1.49205                      87.60322
                      -0.67324                      -1.75195                      87.60207
                      -0.21194                      -1.90183                      87.60078
                       0.27214                      -1.93229                      87.59943
                       0.74859                      -1.84140                      87.59810
                       1.18746                      -1.63488                      87.59689
                       1.56119                      -1.32571                      87.59585
                       1.84629                      -0.93330                      87.59507
                       2.02484                      -0.48232                      87.59459
                       3.00000                       0.00000                       0.00000
                       2.90575                       0.74607                       0.00000
                       2.62892                       1.44526                       0.00000
                       2.18691                       2.05364                       0.00000
                       1.60748                       2.53298                       0.00000
                       0.92705                       2.85317                       0.00000
                       0.18837                       2.99408                       0.00000
                      -0.56214                       2.94686                       0.00000
                      -1.27734                       2.71448                       0.00000
                      -1.91227                       2.31154                       0.00000
                      -2.42705                       1.76336                       0.00000
                      -2.78933                       1.10437                       0.00000
                      -2.97634                       0.37600                       0.00000
                      -2.97634                      -0.37600                       0.00000
                      -2.78933                      -1.10437                       0.00000
                      -2.42705                      -1.76336                       0.00000
                      -1.91227                      -2.31154                       0.00000
                      -1.27734                      -2.71448                       0.00000
                      -0.56214                      -2.94686                       0.00000
                       0.18837                      -2.99408                       0.00000
                       0.92705                      -2.85317                       0.00000
                       1.60748                      -2.53298                       0.00000
                       2.18691                      -2.05364                       0.00000
                       2.62892                      -1.44526                       0.00000
                       2.90575                      -0.74607                       0.00000
        </DataArray>
      </Points>
      <Polys>
        <DataArray type="Int32" Name="connectivity" format="ascii">
      0      1     26     25
      1      2     27     26
      2      3     28     27
      3      4     29     28
      4      5     30     29
      5      6     31     30
      6      7     32     31
      7      8     33     32
      8      9     34     33
      9     10     35     34
     10     11     36     35
     11     12     37     36
     12     13     38     37
     13     14     39     38
     14     15     40     39
     15     16     41     40
     16     17     42     41
     17     18     43     42
     18     19     44     43
     19     20     45     44
     20     21     46     45
     21     22     47     46
     22     23     48     47
     23     24     49     48
     24      0     25     49
     24     23     22     21     20     19     18     17     16     15     14     13     12     11     10      9      8      7      6      5      4      3      2      1      0
     25     26     27     28     29     30     31     32     33     34     35     36     37     38     39     40     41     42     43     44     45     46     47     48     49
     25     26     51     50
     26     27     52     51
     27     28     53     52
     28     29     54     53
     29     30     55     54
     30     31     56     55
     31     32     57     56
     32     33     58     57
     33     34     59     58
     34     35     60     59
     35     36     61     60
     36     37     62     61
     37     38     63     62
     38     39     64     63
     39     40     65     64
     40     41     66     65
     41     42     67     66
     42     43     68     67
     43     44     69     68
     44     45     70     69
     45     46     71     70
     46     47     72     71
     47     48     73     72
     48     49     74     73
     49     25     50     74
     49     48     47     46     45     44     43     42     41     40     39     38     37     36     35     34     33     32     31     30     29     28     27     26     25
     50     51     52     53     54     55     56     57     58     59     60     61     62     63     64     65     66     67     68     69     70     71     72     73     74
     50     51     76     75
     51     52     77     76
     52     53     78     77
     53     54     79     78
     54     55     80     79
     55     56     81     80
     56     57     82     81
     57     58     83     82
     58     59     84     83
     59     60     85     84
     60     61     86     85
     61     62     87     86
     62     63     88     87
     63     64     89     88
     64     65     90     89
     65     66     91     90
     66     67     92     91
     67     68     93     92
     68     69     94     93
     69     70     95     94
     70     71     96     95
     71     72     97     96
     72     73     98     97
     73     74     99     98
     74     50     75     99
     74     73     72     71     70     69     68     67     66     65     64     63     62     61     60     59     58     57     56     55     54     53     52     51     50
     75     76     77     78     79     80     81     82     83     84     85     86     87     88     89     90     91     92     93     94     95     96     97     98     99
     75     76    101    100
     76     77    102    101
     77     78    103    102
     78     79    104    103
     79     80    105    104
     80     81    106    105
     81     82    107    106
     82     83    108    107
     83     84    109    108
     84     85    110    109
     85     86    111    110
     86     87    112    111
     87     88    113    112
     88     89    114    113
     89     90    115    114
     90     91    116    115
     91     92    117    116
     92     93    118    117
     93     94    119    118
     94     95    120    119
     95     96    121    120
     96     97    122    121
     97     98    123    122
     98     99    124    123
     99     75    100    124
     99     98     97     96     95     94     93     92     91     90     89     88     87     86     85     84     83     82     81     80     79     78     77     76     75
    100    101    102    103    104    105    106    107    108    109    110    111    112    113    114    115    116    117    118    119    120    121    122    123    124
    100    101    126    125
    101    102    127    126
    102    103    128    127
    103    104    129    128
    104    105    130    129
    105    106    131    130
    106    107    132    131
    107    108    133    132
    108    109    134    133
    109    110    135    134
    110    111    136    135
    111    112    137    136
    112    113    138    137
    113    114    139    138
    114    115    140    139
    115    116    141    140
    116    117    142    141
    117    118    143    142
    118    119    144    143
    119    120    145    144
    120    121    146    145
    121    122    147    146
    122    123    148    147
    123    124    149    148
    124    100    125    149
    124    123    122    121    120    119    118    117    116    115    114    113    112    111    110    109    108    107    106    105    104    103    102    101    100
    125    126    127    128    129    130    131    132    133    134    135    136    137    138    139    140    141    142    143    144    145    146    147    148    149
    125    126    151    150
    126    127    152    151
    127    128    153    152
    128    129    154    153
    129    130    155    154
    130    131    156    155
    131    132    157    156
    132    133    158    157
    133    134    159    158
    134    135    160    159
    135    136    161    160
    136    137    162    161
    137    138    163    162
    138    139    164    163
    139    140    165    164
    140    141    166    165
    141    142    167    166
    142    143    168    167
    143    144    169    168
    144    145    170    169
    145    146    171    170
    146    147    172    171
    147    148    173    172
    148    149    174    173
    149    125    150    174
    149    148    147    146    145    144    143    142    141    140    139    138    137    136    135    134    133    132    131    130    129    128    127    126    125
    150    151    152    153    154    155    156    157    158    159    160    161    162    163    164    165    166    167    168    169    170    171    172    173    174
    150    151    176    175
    151    152    177    176
    152    153    178    177
    153    154    179    178
    154    155    180    179
    155    156    181    180
    156    157    182    181
    157    158    183    182
    158    159    184    183
    159    160    185    184
    160    161    186    185
    161    162    187    186
    162    163    188    187
    163    164    189    188
    164    165    190    189
    165    166    191    190
    166    167    192    191
    167    168    193    192
    168    169    194    193
    169    170    195    194
    170    171    196    195
    171    172    197    196
    172    173    198    197
    173    174    199    198
    174    150    175    199
    174    173    172    171    170    169    168    167    166    165    164    163    162    161    160    159    158    157    156    155    154    153    152    151    150
    175    176    177    178    179    180    181    182    183    184    185    186    187    188    189    190    191    192    193    194    195    196    197    198    199
    175    176    201    200
    176    177    202    201
    177    178    203    202
    178    179    204    203
    179    180    205    204
    180    181    206    205
    181    182    207    206
    182    183    208    207
    183    184    209    208
    184    185    210    209
    185    186    211    210
    186    187    212    211
    187    188    213    212
    188    189    214    213
    189    190    215    214
    190    191    216    215
    191    192    217    216
    192    193    218    217
    193    194    219    218
    194    195    220    219
    195    196    221    220
    196    197    222    221
    197    198    223    222
    198    199    224    223
    199    175    200    224
    199    198    197    196    195    194    193    192    191    190    189    188    187    186    185    184    183    182    181    180    179    178    177    176    175
    200    201    202    203    204    205    206    207    208    209    210    211    212    213    214    215    216    217    218    219    220    221    222    223    224
    200    201    226    225
    201    202    227    226
    202    203    228    227
    203    204    229    228
    204    205    230    229
    205    206    231    230
    206    207    232    231
    207    208    233    232
    208    209    234    233
    209    210    235    234
    210    211    236    235
    211    212    237    236
    212    213    238    237
    213    214    239    238
    214    215    240    239
    215    216    241    240
    216    217    242    241
    217    218    243    242
    218    219    244    243
    219    220    245    244
    220    221    246    245
    221    222    247    246
    222    223    248    247
    223    224    249    248
    224    200    225    249
    224    223    222    221    220    219    218    217    216    215    214    213    212    211    210    209    208    207    206    205    204    203    202    201    200
    225    226    227    228    229    230    231    232    233    234    235    236    237    238    239    240    241    242    243    244    245    246    247    248    249
    225    226    251    250
    226    227    252    251
    227    228    253    252
    228    229    254    253
    229    230    255    254
    230    231    256    255
    231    232    257    256
    232    233    258    257
    233    234    259    258
    234    235    260    259
    235    236    261    260
    236    237    262    261
    237    238    263    262
    238    239    264    263
    239    240    265    264
    240    241    266    265
    241    242    267    266
    242    243    268    267
    243    244    269    268
    244    245    270    269
    245    246    271    270
    246    247    272    271
    247    248    273    272
    248    249    274    273
    249    225    250    274
    249    248    247    246    245    244    243    242    241    240    239    238    237    236    235    234    233    232    231    230    229    228    227    226    225
    250    251    252    253    254    255    256    257    258    259    260    261    262    263    264    265    266    267    268    269    270    271    272    273    274
    250    251    276    275
    251    252    277    276
    252    253    278    277
    253    254    279    278
    254    255    280    279
    255    256    281    280
    256    257    282    281
    257    258    283    282
    258    259    284    283
    259    260    285    284
    260    261    286    285
    261    262    287    286
    262    263    288    287
    263    264    289    288
    264    265    290    289
    265    266    291    290
    266    267    292    291
    267    268    293    292
    268    269    294    293
    269    270    295    294
    270    271    296    295
    271    272    297    296
    272    273    298    297
    273    274    299    298
    274    250    275    299
    274    273    272    271    270    269    268    267    266    265    264    263    262    261    260    259    258    257    256    255    254    253    252    251    250
    275    276    277    278    279    280    281    282    283    284    285    286    287    288    289    290    291    292    293    294    295    296    297    298    299
    275    276    301    300
    276    277    302    301
    277    278    303    302
    278    279    304    303
    279    280    305    304
    280    281    306    305
    281    282    307    306
    282    283    308    307
    283    284    309    308
    284    285    310    309
    285    286    311    310
    286    287    312    311
    287    288    313    312
    288    289    314    313
    289    290    315    314
    290    291    316    315
    291    292    317    316
    292    293    318    317
    293    294    319    318
    294    295    320    319
    295    296    321    320
    296    297    322    321
    297    298    323    322
    298    299    324    323
    299    275    300    324
    299    298    297    296    295    294    293    292    291    290    289    288    287    286    285    284    283    282    281    280    279    278    277    276    275
    300    301    302    303    304    305    306    307    308    309    310    311    312    313    314    315    316    317    318    319    320    321    322    323    324
    300    301    326    325
    301    302    327    326
    302    303    328    327
    303    304    329    328
    304    305    330    329
    305    306    331    330
    306    307    332    331
    307    308    333    332
    308    309    334    333
    309    310    335    334
    310    311    336    335
    311    312    337    336
    312    313    338    337
    313    314    339    338
    314    315    340    339
    315    316    341    340
    316    317    342    341
    317    318    343    342
    318    319    344    343
    319    320    345    344
    320    321    346    345
    321    322    347    346
    322    323    348    347
    323    324    349    348
    324    300    325    349
    324    323    322    321    320    319    318    317    316    315    314    313    312    311    310    309    308    307    306    305    304    303    302    301    300
    325    326    327    328    329    330    331    332    333    334    335    336    337    338    339    340    341    342    343    344    345    346    347    348    349
    325    326    351    350
    326    327    352    351
    327    328    353    352
    328    329    354    353
    329    330    355    354
    330    331    356    355
    331    332    357    356
    332    333    358    357
    333    334    359    358
    334    335    360    359
    335    336    361    360
    336    337    362    361
    337    338    363    362
    338    339    364    363
    339    340    365    364
    340    341    366    365
    341    342    367    366
    342    343    368    367
    343    344    369    368
    344    345    370    369
    345    346    371    370
    346    347    372    371
    347    348    373    372
    348    349    374    373
    349    325    350    374
    349    348    347    346    345    344    343    342    341    340    339    338    337    336    335    334    333    332    331    330    329    328    327    326    325
    350    351    352    353    354    355    356    357    358    359    360    361    362    363    364    365    366    367    368    369    370    371    372    373    374
    350    351    376    375
    351    352    377    376
    352    353    378    377
    353    354    379    378
    354    355    380    379
    355    356    381    380
    356    357    382    381
    357    358    383    382
    358    359    384    383
    359    360    385    384
    360    361    386    385
    361    362    387    386
    362    363    388    387
    363    364    389    388
    364    365    390    389
    365    366    391    390
    366    367    392    391
    367    368    393    392
    368    369    394    393
    369    370    395    394
    370    371    396    395
    371    372    397    396
    372    373    398    397
    373    374    399    398
    374    350    375    399
    374    373    372    371    370    369    368    367    366    365    364    363    362    361    360    359    358    357    356    355    354    353    352    351    350
    375    376    377    378    379    380    381    382    383    384    385    386    387    388    389    390    391    392    393    394    395    396    397    398    399
    375    376    401    400
    376    377    402    401
    377    378    403    402
    378    379    404    403
    379    380    405    404
    380    381    406    405
    381    382    407    406
    382    383    408    407
    383    384    409    408
    384    385    410    409
    385    386    411    410
    386    387    412    411
    387    388    413    412
    388    389    414    413
    389    390    415    414
    390    391    416    415
    391    392    417    416
    392    393    418    417
    393    394    419    418
    394    395    420    419
    395    396    421    420
    396    397    422    421
    397    398    423    422
    398    399    424    423
    399    375    400    424
    399    398    397    396    395    394    393    392    391    390    389    388    387    386    385    384    383    382    381    380    379    378    377    376    375
    400    401    402    403    404    405    406    407    408    409    410    411    412    413    414    415    416    417    418    419    420    421    422    423    424
    400    401    426    425
    401    402    427    426
    402    403    428    427
    403    404    429    428
    404    405    430    429
    405    406    431    430
    406    407    432    431
    407    408    433    432
    408    409    434    433
    409    410    435    434
    410    411    436    435
    411    412    437    436
    412    413    438    437
    413    414    439    438
    414    415    440    439
    415    416    441    440
    416    417    442    441
    417    418    443    442
    418    419    444    443
    419    420    445    444
    420    421    446    445
    421    422    447    446
    422    423    448    447
    423    424    449    448
    424    400    425    449
    424    423    422    421    420    419    418    417    416    415    414    413    412    411    410    409    408    407    406    405    404    403    402    401    400
    425    426    427    428    429    430    431    432    433    434    435    436    437    438    439    440    441    442    443    444    445    446    447    448    449
    425    426    451    450
    426    427    452    451
    427    428    453    452
    428    429    454    453
    429    430    455    454
    430    431    456    455
    431    432    457    456
    432    433    458    457
    433    434    459    458
    434    435    460    459
    435    436    461    460
    436    437    462    461
    437    438    463    462
    438    439    464    463
    439    440    465    464
    440    441    466    465
    441    442    467    466
    442    443    468    467
    443    444    469    468
    444    445    470    469
    445    446    471    470
    446    447    472    471
    447    448    473    472
    448    449    474    473
    449    425    450    474
    449    448    447    446    445    444    443    442    441    440    439    438    437    436    435    434    433    432    431    430    429    428    427    426    425
    450    451    452    453    454    455    456    457    458    459    460    461    462    463    464    465    466    467    468    469    470    471    472    473    474
    450    451    476    475
    451    452    477    476
    452    453    478    477
    453    454    479    478
    454    455    480    479
    455    456    481    480
    456    457    482    481
    457    458    483    482
    458    459    484    483
    459    460    485    484
    460    461    486    485
    461    462    487    486
    462    463    488    487
    463    464    489    488
    464    465    490    489
    465    466    491    490
    466    467    492    491
    467    468    493    492
    468    469    494    493
    469    470    495    494
    470    471    496    495
    471    472    497    496
    472    473    498    497
    473    474    499    498
    474    450    475    499
    474    473    472    471    470    469    468    467    466    465    464    463    462    461    460    459    458    457    456    455    454    453    452    451    450
    475    476    477    478    479    480    481    482    483    484    485    486    487    488    489    490    491    492    493    494    495    496    497    498    499
    475    476    501    500
    476    477    502    501
    477    478    503    502
    478    479    504    503
    479    480    505    504
    480    481    506    505
    481    482    507    506
    482    483    508    507
    483    484    509    508
    484    485    510    509
    485    486    511    510
    486    487    512    511
    487    488    513    512
    488    489    514    513
    489    490    515    514
    490    491    516    515
    491    492    517    516
    492    493    518    517
    493    494    519    518
    494    495    520    519
    495    496    521    520
    496    497    522    521
    497    498    523    522
    498    499    524    523
    499    475    500    524
    499    498    497    496    495    494    493    492    491    490    489    488    487    486    485    484    483    482    481    480    479    478    477    476    475
    500    501    502    503    504    505    506    507    508    509    510    511    512    513    514    515    516    517    518    519    520    521    522    523    524
    525    526      1      0
    526    527      2      1
    527    528      3      2
    528    529      4      3
    529    530      5      4
    530    531      6      5
    531    532      7      6
    532    533      8      7
    533    534      9      8
    534    535     10      9
    535    536     11     10
    536    537     12     11
    537    538     13     12
    538    539     14     13
    539    540     15     14
    540    541     16     15
    541    542     17     16
    542    543     18     17
    543    544     19     18
    544    545     20     19
    545    546     21     20
    546    547     22     21
    547    548     23     22
    548    549     24     23
    549    525      0     24
    549    548    547    546    545    544    543    542    541    540    539    538    537    536    535    534    533    532    531    530    529    528    527    526    525
      0      1      2      3      4      5      6      7      8      9     10     11     12     13     14     15     16     17     18     19     20     21     22     23     24
        </DataArray>
        <DataArray type="Int32" Name="offsets" format="ascii">
      4
      8
     12
     16
     20
     24
     28
     32
     36
     40
     44
     48
     52
     56
     60
     64
     68
     72
     76
     80
     84
     88
     92
     96
    100
    125
    150
    154
    158
    162
    166
    170
    174
    178
    182
    186
    190
    194
    198
    202
    206
    210
    214
    218
    222
    226
    230
    234
    238
    242
    246
    250
    275
    300
    304
    308
    312
    316
    320
    324
    328
    332
    336
    340
    344
    348
    352
    356
    360
    364
    368
    372
    376
    380
    384
    388
    392
    396
    400
    425
    450
    454
    458
    462
    466
    470
    474
    478
    482
    486
    490
    494
    498
    502
    506
    510
    514
    518
    522
    526
    530
    534
    538
    542
    546
    550
    575
    600
    604
    608
    612
    616
    620
    624
    628
    632
    636
    640
    644
    648
    652
    656
    660
    664
    668
    672
    676
    680
    684
    688
    692
    696
    700
    725
    750
    754
    758
    762
    766
    770
    774
    778
    782
    786
    790
    794
    798
    802
    806
    810
    814
    818
    822
    826
    830
    834
    838
    842
    846
    850
    875
    900
    904
    908
    912
    916
    920
    924
    928
    932
    936
    940
    944
    948
    952
    956
    960
    964
    968
    972
    976
    980
    984
    988
    992
    996
   1000
   1025
   1050
   1054
   1058
   1062
   1066
   1070
   1074
   1078
   1082
   1086
   1090
   1094
   1098
   1102
   1106
   1110
   1114
   1118
   1122
   1126
   1130
   1134
   1138
   1142
   1146
   1150
   1175
   1200
   1204
   1208
   1212
   1216
   1220
   1224
   1228
   1232
   1236
   1240
   1244
   1248
   1252
   1256
   1260
   1264
   1268
   1272
   1276
   1280
   1284
   1288
   1292
   1296
   1300
   1325
   1350
   1354
   1358
   1362
   1366
   1370
   1374
   1378
   1382
   1386
   1390
   1394
   1398
   1402
   1406
   1410
   1414
   1418
   1422
   1426
   1430
   1434
   1438
   1442
   1446
   1450
   1475
   1500
   1504
   1508
   1512
   1516
   1520
   1524
   1528
   1532
   1536
   1540
   1544
   1548
   1552
   1556
   1560
   1564
   1568
   1572
   1576
   1580
   1584
   1588
   1592
   1596
   1600
   1625
   1650
   1654
   1658
   1662
   1666
   1670
   1674
   1678
   1682
   1686
   1690
   1694
   1698
   1702
   1706
   1710
   1714
   1718
   1722
   1726
   1730
   1734
   1738
   1742
   1746
   1750
   1775
   1800
   1804
   1808
   1812
   1816
   1820
   1824
   1828
   1832
   1836
   1840
   1844
   1848
   1852
   1856
   1860
   1864
   1868
   1872
   1876
   1880
   1884
   1888
   1892
   1896
   1900
   1925
   1950
   1954
   1958
   1962
   1966
   1970
   1974
   1978
   1982
   1986
   1990
   1994
   1998
   2002
   2006
   2010
   2014
   2018
   2022
   2026
   2030
   2034
   2038
   2042
   2046
   2050
   2075
   2100
   2104
   2108
   2112
   2116
   2120
   2124
   2128
   2132
   2136
   2140
   2144
   2148
   2152
   2156
   2160
   2164
   2168
   2172
   2176
   2180
   2184
   2188
   2192
   2196
   2200
   2225
   2250
   2254
   2258
   2262
   2266
   2270
   2274
   2278
   2282
   2286
   2290
   2294
   2298
   2302
   2306
   2310
   2314
   2318
   2322
   2326
   2330
   2334
   2338
   2342
   2346
   2350
   2375
   2400
   2404
   2408
   2412
   2416
   2420
   2424
   2428
   2432
   2436
   2440
   2444
   2448
   2452
   2456
   2460
   2464
   2468
   2472
   2476
   2480
   2484
   2488
   2492
   2496
   2500
   2525
   2550
   2554
   2558
   2562
   2566
   2570
   2574
   2578
   2582
   2586
   2590
   2594
   2598
   2602
   2606
   2610
   2614
   2618
   2622
   2626
   2630
   2634
   2638
   2642
   2646
   2650
   2675
   2700
   2704
   2708
   2712
   2716
   2720
   2724
   2728
   2732
   2736
   2740
   2744
   2748
   2752
   2756
   2760
   2764
   2768
   2772
   2776
   2780
   2784
   2788
   2792
   2796
   2800
   2825
   2850
   2854
   2858
   2862
   2866
   2870
   2874
   2878
   2882
   2886
   2890
   2894
   2898
   2902
   2906
   2910
   2914
   2918
   2922
   2926
   2930
   2934
   2938
   2942
   2946
   2950
   2975
   3000
   3004
   3008
   3012
   3016
   3020
   3024
   3028
   3032
   3036
   3040
   3044
   3048
   3052
   3056
   3060
   3064
   3068
   3072
   3076
   3080
   3084
   3088
   3092
   3096
   3100
   3125
   3150
        </DataArray>
      </Polys>
    </Piece>
  </PolyData>
</VTKFile>
