<?xml version="1.0"?>
<VTKFile type="PolyData" version="0.1" byte_order="LittleEndian">
  <PolyData>
    <Piece NumberOfPoints="    550" NumberOfVerts="  0" NumberOfLines="     21"
           NumberOfStrips="  0" NumberOfPolys="    567">
      <Points>
        <DataArray type="Float32" NumberOfComponents="3" format="ascii">
                       2.97346                      -0.00001                       2.18977
                       2.88004                       0.73944                       2.18978
                       2.60567                       1.43243                       2.18980
                       2.16758                       2.03541                       2.18984
                       1.59330                       2.51050                       2.18989
                       0.91891                       2.82784                       2.18995
                       0.18678                       2.96750                       2.19000
                      -0.55707                       2.92070                       2.19006
                      -1.26592                       2.69038                       2.19012
                      -1.89522                       2.29102                       2.19016
                      -2.40543                       1.74770                       2.19020
                      -2.76449                       1.09457                       2.19022
                      -2.94985                       0.37266                       2.19023
                      -2.94985                      -0.37267                       2.19023
                      -2.76449                      -1.09458                       2.19021
                      -2.40543                      -1.74771                       2.19018
                      -1.89522                      -2.29103                       2.19013
                      -1.26592                      -2.69040                       2.19008
                      -0.55707                      -2.92072                       2.19003
                       0.18678                      -2.96751                       2.18997
                       0.91891                      -2.82785                       2.18991
                       1.59330                      -2.51051                       2.18986
                       2.16758                      -2.03542                       2.18982
                       2.60567                      -1.43244                       2.18979
                       2.88004                      -0.73945                       2.18977
                       2.92096                      -0.00006                       6.56921
                       2.82922                       0.72615                       6.56925
                       2.55976                       1.40672                       6.56933
                       2.12951                       1.99891                       6.56946
                       1.56551                       2.46548                       6.56962
                       0.90320                       2.77715                       6.56980
                       0.18419                       2.91430                       6.57000
                      -0.54634                       2.86834                       6.57020
                      -1.24250                       2.64215                       6.57038
                      -1.86052                       2.24994                       6.57054
                      -2.36160                       1.71635                       6.57067
                      -2.71423                       1.07491                       6.57075
                      -2.89627                       0.36593                       6.57079
                      -2.89627                      -0.36605                       6.57078
                      -2.71423                      -1.07503                       6.57072
                      -2.36160                      -1.71646                       6.57061
                      -1.86052                      -2.25005                       6.57046
                      -1.24250                      -2.64227                       6.57029
                      -0.54634                      -2.86846                       6.57010
                       0.18419                      -2.91442                       6.56990
                       0.90320                      -2.77726                       6.56971
                       1.56551                      -2.46560                       6.56954
                       2.12951                      -1.99902                       6.56939
                       2.55976                      -1.40684                       6.56928
                       2.82922                      -0.72626                       6.56922
                       2.86936                      -0.00015                      10.94860
                       2.77929                       0.71281                      10.94866
                       2.51475                       1.38097                      10.94881
                       2.09235                       1.96236                      10.94903
                       1.53864                       2.42043                      10.94931
                       0.88840                       2.72641                      10.94964
                       0.18250                       2.86106                      10.94999
                      -0.53471                       2.81594                      10.95034
                      -1.21817                       2.59387                      10.95066
                      -1.82493                       2.20881                      10.95095
                      -2.31686                       1.68495                      10.95118
                      -2.66307                       1.05521                      10.95133
                      -2.84178                       0.35916                      10.95140
                      -2.84178                      -0.35947                      10.95138
                      -2.66307                      -1.05552                      10.95127
                      -2.31686                      -1.68526                      10.95109
                      -1.82493                      -2.20912                      10.95083
                      -1.21817                      -2.59418                      10.95053
                      -0.53471                      -2.81625                      10.95019
                       0.18250                      -2.86137                      10.94984
                       0.88840                      -2.72671                      10.94950
                       1.53864                      -2.42074                      10.94919
                       2.09235                      -1.96266                      10.94893
                       2.51475                      -1.38128                      10.94874
                       2.77929                      -0.71312                      10.94863
                       2.81874                      -0.00029                      15.32799
                       2.73035                       0.69943                      15.32808
                       2.47071                       1.35519                      15.32829
                       2.05616                       1.92577                      15.32860
                       1.51273                       2.37533                      15.32901
                       0.87457                       2.67563                      15.32947
                       0.18179                       2.80778                      15.32997
                      -0.52210                       2.76350                      15.33047
                      -1.19287                       2.54556                      15.33094
                      -1.78835                       2.16765                      15.33135
                      -2.27115                       1.65352                      15.33168
                      -2.61092                       1.03548                      15.33190
                      -2.78632                       0.35235                      15.33200
                      -2.78632                      -0.35293                      15.33198
                      -2.61092                      -1.03605                      15.33183
                      -2.27115                      -1.65410                      15.33156
                      -1.78835                      -2.16822                      15.33120
                      -1.19287                      -2.54613                      15.33076
                      -0.52210                      -2.76408                      15.33028
                       0.18179                      -2.80836                      15.32977
                       0.87457                      -2.67621                      15.32928
                       1.51273                      -2.37591                      15.32884
                       2.05616                      -1.92635                      15.32847
                       2.47071                      -1.35576                      15.32819
                       2.73035                      -0.70001                      15.32803
                       2.76911                      -0.00046                      19.70741
                       2.68238                       0.68602                      19.70752
                       2.42767                       1.32936                      19.70779
                       2.02096                       1.88915                      19.70820
                       1.48781                       2.33020                      19.70871
                       0.86173                       2.62481                      19.70931
                       0.18206                       2.75447                      19.70995
                      -0.50851                       2.71102                      19.71060
                      -1.16658                       2.49720                      19.71121
                      -1.75080                       2.12644                      19.71174
                      -2.22446                       1.62205                      19.71216
                      -2.55780                       1.01570                      19.71244
                      -2.72988                       0.34551                      19.71258
                      -2.72988                      -0.34643                      19.71255
                      -2.55780                      -1.01662                      19.71236
                      -2.22446                      -1.62297                      19.71202
                      -1.75080                      -2.12737                      19.71155
                      -1.16658                      -2.49812                      19.71099
                      -0.50851                      -2.71194                      19.71036
                       0.18206                      -2.75539                      19.70972
                       0.86173                      -2.62573                      19.70908
                       1.48781                      -2.33112                      19.70851
                       2.02096                      -1.89007                      19.70803
                       2.42767                      -1.33028                      19.70767
                       2.68238                      -0.68694                      19.70746
                       2.72043                      -0.00067                      24.08688
                       2.63538                       0.67257                      24.08701
                       2.38558                       1.30350                      24.08733
                       1.98671                       1.85249                      24.08782
                       1.46385                       2.28503                      24.08844
                       0.84985                       2.57396                      24.08917
                       0.18329                       2.70111                      24.08994
                      -0.49396                       2.65851                      24.09072
                      -1.13933                       2.44881                      24.09145
                      -1.71228                       2.08521                      24.09209
                      -2.17680                       1.59054                      24.09260
                      -2.50371                       0.99589                      24.09294
                      -2.67247                       0.33862                      24.09310
                      -2.67247                      -0.33996                      24.09307
                      -2.50371                      -0.99723                      24.09284
                      -2.17680                      -1.59188                      24.09243
                      -1.71228                      -2.08654                      24.09187
                      -1.13933                      -2.45015                      24.09119
                      -0.49396                      -2.65984                      24.09044
                       0.18329                      -2.70245                      24.08966
                       0.84985                      -2.57530                      24.08890
                       1.46385                      -2.28637                      24.08821
                       1.98671                      -1.85382                      24.08763
                       2.38558                      -1.30484                      24.08720
                       2.63538                      -0.67390                      24.08694
                       2.67267                      -0.00091                      28.46639
                       2.58929                       0.65908                      28.46655
                       2.34440                       1.27760                      28.46692
                       1.95339                       1.81579                      28.46748
                       1.44081                       2.23983                      28.46820
                       0.83889                       2.52307                      28.46903
                       0.18544                       2.64772                      28.46992
                      -0.47849                       2.60595                      28.47082
                      -1.11117                       2.40038                      28.47167
                      -1.67284                       2.04393                      28.47241
                      -2.12823                       1.55899                      28.47300
                      -2.44871                       0.97604                      28.47339
                      -2.61415                       0.33171                      28.47358
                      -2.61415                      -0.33353                      28.47354
                      -2.44871                      -0.97787                      28.47328
                      -2.12823                      -1.56082                      28.47281
                      -1.67284                      -2.04576                      28.47216
                      -1.11117                      -2.40221                      28.47138
                      -0.47849                      -2.60778                      28.47051
                       0.18544                      -2.64955                      28.46961
                       0.83889                      -2.52490                      28.46873
                       1.44081                      -2.24165                      28.46793
                       1.95339                      -1.81762                      28.46726
                       2.34440                      -1.27943                      28.46676
                       2.58929                      -0.66090                      28.46647
                       2.62579                      -0.00119                      32.84595
                       2.54409                       0.64555                      32.84612
                       2.30411                       1.25167                      32.84654
                       1.92094                       1.77906                      32.84717
                       1.41865                       2.19459                      32.84797
                       0.82880                       2.47215                      32.84891
                       0.18846                       2.59430                      32.84991
                      -0.46214                       2.55337                      32.85092
                      -1.08212                       2.35192                      32.85187
                      -1.63253                       2.00262                      32.85270
                      -2.07878                       1.52741                      32.85336
                      -2.39283                       0.95616                      32.85381
                      -2.55495                       0.32475                      32.85401
                      -2.55495                      -0.32714                      32.85397
                      -2.39283                      -0.95855                      32.85367
                      -2.07878                      -1.52980                      32.85315
                      -1.63253                      -2.00501                      32.85242
                      -1.08212                      -2.35431                      32.85154
                      -0.46214                      -2.55576                      32.85057
                       0.18846                      -2.59669                      32.84955
                       0.82880                      -2.47454                      32.84857
                       1.41865                      -2.19698                      32.84767
                       1.92094                      -1.78145                      32.84692
                       2.30411                      -1.25406                      32.84636
                       2.54409                      -0.64794                      32.84603
                       2.57976                      -0.00152                      37.22553
                       2.49973                       0.63199                      37.22572
                       2.26467                       1.22569                      37.22618
                       1.88934                       1.74228                      37.22688
                       1.39734                       2.14930                      37.22777
                       0.81957                       2.42118                      37.22880
                       0.19234                       2.54083                      37.22990
                      -0.44494                       2.50074                      37.23101
                      -1.05223                       2.30342                      37.23205
                      -1.59137                       1.96127                      37.23297
                      -2.02848                       1.49579                      37.23369
                      -2.33610                       0.93624                      37.23419
                      -2.49489                       0.31776                      37.23442
                      -2.49489                      -0.32079                      37.23437
                      -2.33610                      -0.93927                      37.23404
                      -2.02848                      -1.49883                      37.23346
                      -1.59137                      -1.96430                      37.23266
                      -1.05223                      -2.30645                      37.23169
                      -0.44494                      -2.50377                      37.23062
                       0.19234                      -2.54386                      37.22950
                       0.81957                      -2.42421                      37.22842
                       1.39734                      -2.15234                      37.22743
                       1.88934                      -1.74531                      37.22660
                       2.26467                      -1.22872                      37.22599
                       2.49973                      -0.63502                      37.22563
                       2.53458                      -0.00188                      41.60514
                       2.45622                       0.61839                      41.60534
                       2.22607                       1.19968                      41.60584
                       1.85859                       1.70547                      41.60660
                       1.37687                       2.10398                      41.60756
                       0.81118                       2.37018                      41.60868
                       0.19706                       2.48733                      41.60989
                      -0.42689                       2.44807                      41.61109
                      -1.02149                       2.25488                      41.61223
                      -1.54935                       1.91988                      41.61322
                      -1.97733                       1.46413                      41.61401
                      -2.27852                       0.91627                      41.61455
                      -2.43400                       0.31072                      41.61480
                      -2.43400                      -0.31447                      41.61474
                      -2.27852                      -0.92002                      41.61439
                      -1.97733                      -1.46789                      41.61376
                      -1.54935                      -1.92363                      41.61289
                      -1.02149                      -2.25863                      41.61184
                      -0.42689                      -2.45182                      41.61067
                       0.19706                      -2.49108                      41.60945
                       0.81118                      -2.37393                      41.60827
                       1.37687                      -2.10774                      41.60720
                       1.85859                      -1.70922                      41.60630
                       2.22607                      -1.20343                      41.60563
                       2.45622                      -0.62214                      41.60523
                       2.49025                      -0.00228                      45.98474
                       2.41357                       0.60474                      45.98497
                       2.18833                       1.17362                      45.98550
                       1.82870                       1.66862                      45.98632
                       1.35727                       2.05862                      45.98737
                       0.80365                       2.31913                      45.98857
                       0.20265                       2.43378                      45.98987
                      -0.40799                       2.39536                      45.99117
                      -0.98989                       2.20629                      45.99240
                      -1.50648                       1.87845                      45.99347
                      -1.92532                       1.43243                      45.99433
                      -2.22008                       0.89627                      45.99490
                      -2.37224                       0.30365                      45.99517
                      -2.37224                      -0.30820                      45.99511
                      -2.22008                      -0.90082                      45.99473
                      -1.92532                      -1.43699                      45.99405
                      -1.50648                      -1.88300                      45.99311
                      -0.98989                      -2.21085                      45.99197
                      -0.40799                      -2.39992                      45.99071
                       0.20265                      -2.43834                      45.98940
                       0.80365                      -2.32369                      45.98813
                       1.35727                      -2.06318                      45.98697
                       1.82870                      -1.67317                      45.98600
                       2.18833                      -1.17818                      45.98528
                       2.41357                      -0.60930                      45.98485
                       2.44682                      -0.00272                      50.36435
                       2.37181                       0.59106                      50.36459
                       2.15149                       1.14753                      50.36516
                       1.79970                       1.63172                      50.36604
                       1.33855                       2.01322                      50.36716
                       0.79702                       2.26805                      50.36846
                       0.20912                       2.38019                      50.36985
                      -0.38819                       2.34261                      50.37125
                      -0.95739                       2.15767                      50.37257
                      -1.46272                       1.83698                      50.37372
                      -1.87242                       1.40069                      50.37463
                      -2.16075                       0.87622                      50.37526
                      -2.30959                       0.29653                      50.37554
                      -2.30959                      -0.30197                      50.37548
                      -2.16075                      -0.88166                      50.37507
                      -1.87242                      -1.40613                      50.37434
                      -1.46272                      -1.84242                      50.37333
                      -0.95740                      -2.16311                      50.37211
                      -0.38819                      -2.34805                      50.37075
                       0.20912                      -2.38563                      50.36935
                       0.79702                      -2.27349                      50.36798
                       1.33855                      -2.01866                      50.36674
                       1.79970                      -1.63716                      50.36570
                       2.15149                      -1.15297                      50.36492
                       2.37181                      -0.59650                      50.36446
                       2.40432                      -0.00321                      54.74395
                       2.33098                       0.57733                      54.74421
                       2.11558                       1.12139                      54.74482
                       1.77164                       1.59478                      54.74576
                       1.32077                       1.96777                      54.74696
                       0.79132                       2.21692                      54.74835
                       0.21653                       2.32656                      54.74983
                      -0.36746                       2.28982                      54.75133
                      -0.92397                       2.10900                      54.75273
                      -1.41803                       1.79546                      54.75396
                      -1.81859                       1.36891                      54.75494
                      -2.10048                       0.85614                      54.75560
                      -2.24600                       0.28937                      54.75591
                      -2.24600                      -0.29578                      54.75585
                      -2.10048                      -0.86255                      54.75541
                      -1.81859                      -1.37532                      54.75462
                      -1.41803                      -1.80187                      54.75355
                      -0.92397                      -2.11541                      54.75224
                      -0.36746                      -2.29623                      54.75080
                       0.21653                      -2.33297                      54.74930
                       0.79131                      -2.22333                      54.74783
                       1.32077                      -1.97418                      54.74650
                       1.77164                      -1.60119                      54.74539
                       2.11558                      -1.12780                      54.74456
                       2.33098                      -0.58374                      54.74407
                       2.36279                      -0.00373                      59.12356
                       2.29113                       0.56356                      59.12383
                       2.08064                       1.09521                      59.12449
                       1.74454                       1.55781                      59.12548
                       1.30396                       1.92229                      59.12676
                       0.78658                       2.16575                      59.12823
                       0.22491                       2.27289                      59.12981
                      -0.34576                       2.23699                      59.13140
                      -0.88957                       2.06029                      59.13289
                      -1.37236                       1.75391                      59.13420
                      -1.76378                       1.33708                      59.13524
                      -2.03925                       0.83601                      59.13594
                      -2.18145                       0.28217                      59.13627
                      -2.18145                      -0.28963                      59.13620
                      -2.03925                      -0.84347                      59.13573
                      -1.76378                      -1.34454                      59.13490
                      -1.37236                      -1.76137                      59.13376
                      -0.88957                      -2.06775                      59.13238
                      -0.34576                      -2.24445                      59.13084
                       0.22491                      -2.28035                      59.12924
                       0.78658                      -2.17321                      59.12769
                       1.30396                      -1.92975                      59.12628
                       1.74454                      -1.56527                      59.12509
                       2.08063                      -1.10267                      59.12421
                       2.29113                      -0.57102                      59.12369
                       2.32225                      -0.00429                      63.50319
                       2.25226                       0.54976                      63.50348
                       2.04668                       1.06899                      63.50417
                       1.71843                       1.52079                      63.50522
                       1.28813                       1.87676                      63.50656
                       0.78283                       2.11454                      63.50811
                       0.23427                       2.21918                      63.50978
                      -0.32307                       2.18412                      63.51145
                      -0.85419                       2.01155                      63.51303
                      -1.32571                       1.71231                      63.51441
                      -1.70800                       1.30522                      63.51551
                      -1.97703                       0.81584                      63.51625
                      -2.11591                       0.27493                      63.51660
                      -2.11591                      -0.28352                      63.51653
                      -1.97703                      -0.82443                      63.51604
                      -1.70800                      -1.31381                      63.51516
                      -1.32571                      -1.72090                      63.51395
                      -0.85419                      -2.02014                      63.51249
                      -0.32308                      -2.19271                      63.51087
                       0.23427                      -2.22777                      63.50919
                       0.78283                      -2.12313                      63.50755
                       1.28813                      -1.88535                      63.50606
                       1.71843                      -1.52938                      63.50481
                       2.04668                      -1.07758                      63.50388
                       2.25226                      -0.55834                      63.50333
                       2.28266                      -0.00490                      67.88288
                       2.21434                       0.53591                      67.88317
                       2.01367                       1.04274                      67.88389
                       1.69327                       1.48374                      67.88499
                       1.27326                       1.83120                      67.88639
                       0.78004                       2.06330                      67.88801
                       0.24459                       2.16544                      67.88975
                      -0.29944                       2.13121                      67.89150
                      -0.81786                       1.96276                      67.89314
                      -1.27810                       1.67068                      67.89459
                      -1.65125                       1.27332                      67.89573
                      -1.91386                       0.79564                      67.89651
                      -2.04942                       0.26766                      67.89687
                      -2.04942                      -0.27745                      67.89680
                      -1.91386                      -0.80543                      67.89629
                      -1.65125                      -1.28311                      67.89537
                      -1.27810                      -1.68047                      67.89411
                      -0.81786                      -1.97256                      67.89259
                      -0.29944                      -2.14100                      67.89090
                       0.24459                      -2.17523                      67.88914
                       0.78004                      -2.07309                      67.88743
                       1.27326                      -1.84099                      67.88587
                       1.69327                      -1.49353                      67.88457
                       2.01367                      -1.05253                      67.88360
                       2.21434                      -0.54570                      67.88302
                       2.24392                      -0.00553                      72.26266
                       2.17727                       0.52204                      72.26296
                       1.98152                       1.01645                      72.26370
                       1.66896                       1.44665                      72.26482
                       1.25924                       1.78561                      72.26626
                       0.77809                       2.01202                      72.26793
                       0.25576                       2.11166                      72.26972
                      -0.27495                       2.07827                      72.27152
                      -0.78067                       1.91395                      72.27321
                      -1.22965                       1.62902                      72.27469
                      -1.59366                       1.24138                      72.27587
                      -1.84984                       0.77540                      72.27667
                      -1.98208                       0.26035                      72.27705
                      -1.98208                      -0.27141                      72.27697
                      -1.84984                      -0.78646                      72.27644
                      -1.59366                      -1.25244                      72.27550
                      -1.22965                      -1.64008                      72.27421
                      -0.78068                      -1.92501                      72.27264
                      -0.27495                      -2.08933                      72.27090
                       0.25576                      -2.12272                      72.26909
                       0.77809                      -2.02308                      72.26733
                       1.25924                      -1.79667                      72.26573
                       1.66896                      -1.45771                      72.26439
                       1.98152                      -1.02751                      72.26340
                       2.17727                      -0.53309                      72.26280
                       2.20582                      -0.00619                      76.64258
                       2.14085                       0.50813                      76.64289
                       1.95001                       0.99014                      76.64363
                       1.64530                       1.40954                      76.64476
                       1.24586                       1.73998                      76.64622
                       0.77679                       1.96071                      76.64790
                       0.26756                       2.05785                      76.64970
                      -0.24982                       2.02530                      76.65151
                      -0.74285                       1.86510                      76.65321
                      -1.18056                       1.58733                      76.65470
                      -1.53543                       1.20942                      76.65589
                      -1.78518                       0.75514                      76.65670
                      -1.91410                       0.25301                      76.65707
                      -1.91410                      -0.26540                      76.65699
                      -1.78518                      -0.76752                      76.65646
                      -1.53543                      -1.22181                      76.65552
                      -1.18056                      -1.59971                      76.65421
                      -0.74285                      -1.87749                      76.65263
                      -0.24982                      -2.03768                      76.65088
                       0.26756                      -2.07024                      76.64906
                       0.77679                      -1.97309                      76.64729
                       1.24586                      -1.75237                      76.64568
                       1.64529                      -1.42192                      76.64433
                       1.95001                      -1.00252                      76.64332
                       2.14084                      -0.52051                      76.64273
                       2.16800                      -0.00688                      81.02272
                       2.10470                       0.49420                      81.02302
                       1.91878                       0.96380                      81.02375
                       1.62191                       1.37240                      81.02486
                       1.23276                       1.69434                      81.02628
                       0.77577                       1.90938                      81.02792
                       0.27965                       2.00402                      81.02968
                      -0.22441                       1.97231                      81.03145
                      -0.70475                       1.81624                      81.03311
                      -1.13118                       1.54561                      81.03457
                      -1.47692                       1.17744                      81.03573
                      -1.72023                       0.73485                      81.03652
                      -1.84584                       0.24565                      81.03688
                      -1.84584                      -0.25941                      81.03680
                      -1.72023                      -0.74860                      81.03628
                      -1.47692                      -1.19119                      81.03535
                      -1.13118                      -1.55937                      81.03408
                      -0.70475                      -1.82999                      81.03254
                      -0.22441                      -1.98606                      81.03082
                       0.27965                      -2.01778                      81.02904
                       0.77576                      -1.92314                      81.02731
                       1.23275                      -1.70809                      81.02574
                       1.62191                      -1.38615                      81.02442
                       1.91878                      -0.97755                      81.02344
                       2.10470                      -0.50796                      81.02286
                       2.12992                      -0.00758                      85.40315
                       2.06829                       0.48026                      85.40344
                       1.88728                       0.93744                      85.40413
                       1.59826                       1.33525                      85.40517
                       1.21939                       1.64868                      85.40650
                       0.77448                       1.85804                      85.40804
                       0.29148                       1.95017                      85.40968
                      -0.19926                       1.91930                      85.41134
                      -0.66691                       1.76735                      85.41289
                      -1.08207                       1.50388                      85.41425
                      -1.41867                       1.14543                      85.41533
                      -1.65556                       0.71454                      85.41606
                      -1.77784                       0.23828                      85.41640
                      -1.77784                      -0.25344                      85.41632
                      -1.65556                      -0.72970                      85.41583
                      -1.41867                      -1.16059                      85.41496
                      -1.08207                      -1.51904                      85.41376
                      -0.66691                      -1.78251                      85.41232
                      -0.19926                      -1.93446                      85.41071
                       0.29148                      -1.96533                      85.40905
                       0.77448                      -1.87320                      85.40743
                       1.21939                      -1.66383                      85.40596
                       1.59826                      -1.35040                      85.40473
                       1.88728                      -0.95260                      85.40382
                       2.06829                      -0.49542                      85.40328
                       2.11055                      -0.00794                      87.59351
                       2.04976                       0.47328                      87.59378
                       1.87120                       0.92426                      87.59443
                       1.58611                       1.31666                      87.59542
                       1.21238                       1.62584                      87.59668
                       0.77351                       1.83236                      87.59813
                       0.29706                       1.92324                      87.59969
                      -0.18702                       1.89279                      87.60125
                      -0.64832                       1.74290                      87.60272
                      -1.05785                       1.48301                      87.60400
                      -1.38988                       1.12943                      87.60502
                      -1.62355                       0.70438                      87.60571
                      -1.74417                       0.23458                      87.60602
                      -1.74417                      -0.25046                      87.60594
                      -1.62355                      -0.72026                      87.60547
                      -1.38988                      -1.14530                      87.60465
                      -1.05785                      -1.49888                      87.60352
                      -0.64832                      -1.75878                      87.60215
                      -0.18702                      -1.90866                      87.60063
                       0.29706                      -1.93912                      87.59906
                       0.77350                      -1.84823                      87.59753
                       1.21238                      -1.64171                      87.59615
                       1.58611                      -1.33254                      87.59499
                       1.87120                      -0.94013                      87.59413
                       2.04976                      -0.48915                      87.59363
                       3.00000                       0.00000                       0.00000
                       2.90575                       0.74607                       0.00000
                       2.62892                       1.44526                       0.00000
                       2.18691                       2.05364                       0.00000
                       1.60748                       2.53298                       0.00000
                       0.92705                       2.85317                       0.00000
                       0.18837                       2.99408                       0.00000
                      -0.56214                       2.94686                       0.00000
                      -1.27734                       2.71448                       0.00000
                      -1.91227                       2.31154                       0.00000
                      -2.42705                       1.76336                       0.00000
                      -2.78933                       1.10437                       0.00000
                      -2.97634                       0.37600                       0.00000
                      -2.97634                      -0.37600                       0.00000
                      -2.78933                      -1.10437                       0.00000
                      -2.42705                      -1.76336                       0.00000
                      -1.91227                      -2.31154                       0.00000
                      -1.27734                      -2.71448                       0.00000
                      -0.56214                      -2.94686                       0.00000
                       0.18837                      -2.99408                       0.00000
                       0.92705                      -2.85317                       0.00000
                       1.60748                      -2.53298                       0.00000
                       2.18691                      -2.05364                       0.00000
                       2.62892                      -1.44526                       0.00000
                       2.90575                      -0.74607                       0.00000
        </DataArray>
      </Points>
      <Polys>
        <DataArray type="Int32" Name="connectivity" format="ascii">
      0      1     26     25
      1      2     27     26
      2      3     28     27
      3      4     29     28
      4      5     30     29
      5      6     31     30
      6      7     32     31
      7      8     33     32
      8      9     34     33
      9     10     35     34
     10     11     36     35
     11     12     37     36
     12     13     38     37
     13     14     39     38
     14     15     40     39
     15     16     41     40
     16     17     42     41
     17     18     43     42
     18     19     44     43
     19     20     45     44
     20     21     46     45
     21     22     47     46
     22     23     48     47
     23     24     49     48
     24      0     25     49
     24     23     22     21     20     19     18     17     16     15     14     13     12     11     10      9      8      7      6      5      4      3      2      1      0
     25     26     27     28     29     30     31     32     33     34     35     36     37     38     39     40     41     42     43     44     45     46     47     48     49
     25     26     51     50
     26     27     52     51
     27     28     53     52
     28     29     54     53
     29     30     55     54
     30     31     56     55
     31     32     57     56
     32     33     58     57
     33     34     59     58
     34     35     60     59
     35     36     61     60
     36     37     62     61
     37     38     63     62
     38     39     64     63
     39     40     65     64
     40     41     66     65
     41     42     67     66
     42     43     68     67
     43     44     69     68
     44     45     70     69
     45     46     71     70
     46     47     72     71
     47     48     73     72
     48     49     74     73
     49     25     50     74
     49     48     47     46     45     44     43     42     41     40     39     38     37     36     35     34     33     32     31     30     29     28     27     26     25
     50     51     52     53     54     55     56     57     58     59     60     61     62     63     64     65     66     67     68     69     70     71     72     73     74
     50     51     76     75
     51     52     77     76
     52     53     78     77
     53     54     79     78
     54     55     80     79
     55     56     81     80
     56     57     82     81
     57     58     83     82
     58     59     84     83
     59     60     85     84
     60     61     86     85
     61     62     87     86
     62     63     88     87
     63     64     89     88
     64     65     90     89
     65     66     91     90
     66     67     92     91
     67     68     93     92
     68     69     94     93
     69     70     95     94
     70     71     96     95
     71     72     97     96
     72     73     98     97
     73     74     99     98
     74     50     75     99
     74     73     72     71     70     69     68     67     66     65     64     63     62     61     60     59     58     57     56     55     54     53     52     51     50
     75     76     77     78     79     80     81     82     83     84     85     86     87     88     89     90     91     92     93     94     95     96     97     98     99
     75     76    101    100
     76     77    102    101
     77     78    103    102
     78     79    104    103
     79     80    105    104
     80     81    106    105
     81     82    107    106
     82     83    108    107
     83     84    109    108
     84     85    110    109
     85     86    111    110
     86     87    112    111
     87     88    113    112
     88     89    114    113
     89     90    115    114
     90     91    116    115
     91     92    117    116
     92     93    118    117
     93     94    119    118
     94     95    120    119
     95     96    121    120
     96     97    122    121
     97     98    123    122
     98     99    124    123
     99     75    100    124
     99     98     97     96     95     94     93     92     91     90     89     88     87     86     85     84     83     82     81     80     79     78     77     76     75
    100    101    102    103    104    105    106    107    108    109    110    111    112    113    114    115    116    117    118    119    120    121    122    123    124
    100    101    126    125
    101    102    127    126
    102    103    128    127
    103    104    129    128
    104    105    130    129
    105    106    131    130
    106    107    132    131
    107    108    133    132
    108    109    134    133
    109    110    135    134
    110    111    136    135
    111    112    137    136
    112    113    138    137
    113    114    139    138
    114    115    140    139
    115    116    141    140
    116    117    142    141
    117    118    143    142
    118    119    144    143
    119    120    145    144
    120    121    146    145
    121    122    147    146
    122    123    148    147
    123    124    149    148
    124    100    125    149
    124    123    122    121    120    119    118    117    116    115    114    113    112    111    110    109    108    107    106    105    104    103    102    101    100
    125    126    127    128    129    130    131    132    133    134    135    136    137    138    139    140    141    142    143    144    145    146    147    148    149
    125    126    151    150
    126    127    152    151
    127    128    153    152
    128    129    154    153
    129    130    155    154
    130    131    156    155
    131    132    157    156
    132    133    158    157
    133    134    159    158
    134    135    160    159
    135    136    161    160
    136    137    162    161
    137    138    163    162
    138    139    164    163
    139    140    165    164
    140    141    166    165
    141    142    167    166
    142    143    168    167
    143    144    169    168
    144    145    170    169
    145    146    171    170
    146    147    172    171
    147    148    173    172
    148    149    174    173
    149    125    150    174
    149    148    147    146    145    144    143    142    141    140    139    138    137    136    135    134    133    132    131    130    129    128    127    126    125
    150    151    152    153    154    155    156    157    158    159    160    161    162    163    164    165    166    167    168    169    170    171    172    173    174
    150    151    176    175
    151    152    177    176
    152    153    178    177
    153    154    179    178
    154    155    180    179
    155    156    181    180
    156    157    182    181
    157    158    183    182
    158    159    184    183
    159    160    185    184
    160    161    186    185
    161    162    187    186
    162    163    188    187
    163    164    189    188
    164    165    190    189
    165    166    191    190
    166    167    192    191
    167    168    193    192
    168    169    194    193
    169    170    195    194
    170    171    196    195
    171    172    197    196
    172    173    198    197
    173    174    199    198
    174    150    175    199
    174    173    172    171    170    169    168    167    166    165    164    163    162    161    160    159    158    157    156    155    154    153    152    151    150
    175    176    177    178    179    180    181    182    183    184    185    186    187    188    189    190    191    192    193    194    195    196    197    198    199
    175    176    201    200
    176    177    202    201
    177    178    203    202
    178    179    204    203
    179    180    205    204
    180    181    206    205
    181    182    207    206
    182    183    208    207
    183    184    209    208
    184    185    210    209
    185    186    211    210
    186    187    212    211
    187    188    213    212
    188    189    214    213
    189    190    215    214
    190    191    216    215
    191    192    217    216
    192    193    218    217
    193    194    219    218
    194    195    220    219
    195    196    221    220
    196    197    222    221
    197    198    223    222
    198    199    224    223
    199    175    200    224
    199    198    197    196    195    194    193    192    191    190    189    188    187    186    185    184    183    182    181    180    179    178    177    176    175
    200    201    202    203    204    205    206    207    208    209    210    211    212    213    214    215    216    217    218    219    220    221    222    223    224
    200    201    226    225
    201    202    227    226
    202    203    228    227
    203    204    229    228
    204    205    230    229
    205    206    231    230
    206    207    232    231
    207    208    233    232
    208    209    234    233
    209    210    235    234
    210    211    236    235
    211    212    237    236
    212    213    238    237
    213    214    239    238
    214    215    240    239
    215    216    241    240
    216    217    242    241
    217    218    243    242
    218    219    244    243
    219    220    245    244
    220    221    246    245
    221    222    247    246
    222    223    248    247
    223    224    249    248
    224    200    225    249
    224    223    222    221    220    219    218    217    216    215    214    213    212    211    210    209    208    207    206    205    204    203    202    201    200
    225    226    227    228    229    230    231    232    233    234    235    236    237    238    239    240    241    242    243    244    245    246    247    248    249
    225    226    251    250
    226    227    252    251
    227    228    253    252
    228    229    254    253
    229    230    255    254
    230    231    256    255
    231    232    257    256
    232    233    258    257
    233    234    259    258
    234    235    260    259
    235    236    261    260
    236    237    262    261
    237    238    263    262
    238    239    264    263
    239    240    265    264
    240    241    266    265
    241    242    267    266
    242    243    268    267
    243    244    269    268
    244    245    270    269
    245    246    271    270
    246    247    272    271
    247    248    273    272
    248    249    274    273
    249    225    250    274
    249    248    247    246    245    244    243    242    241    240    239    238    237    236    235    234    233    232    231    230    229    228    227    226    225
    250    251    252    253    254    255    256    257    258    259    260    261    262    263    264    265    266    267    268    269    270    271    272    273    274
    250    251    276    275
    251    252    277    276
    252    253    278    277
    253    254    279    278
    254    255    280    279
    255    256    281    280
    256    257    282    281
    257    258    283    282
    258    259    284    283
    259    260    285    284
    260    261    286    285
    261    262    287    286
    262    263    288    287
    263    264    289    288
    264    265    290    289
    265    266    291    290
    266    267    292    291
    267    268    293    292
    268    269    294    293
    269    270    295    294
    270    271    296    295
    271    272    297    296
    272    273    298    297
    273    274    299    298
    274    250    275    299
    274    273    272    271    270    269    268    267    266    265    264    263    262    261    260    259    258    257    256    255    254    253    252    251    250
    275    276    277    278    279    280    281    282    283    284    285    286    287    288    289    290    291    292    293    294    295    296    297    298    299
    275    276    301    300
    276    277    302    301
    277    278    303    302
    278    279    304    303
    279    280    305    304
    280    281    306    305
    281    282    307    306
    282    283    308    307
    283    284    309    308
    284    285    310    309
    285    286    311    310
    286    287    312    311
    287    288    313    312
    288    289    314    313
    289    290    315    314
    290    291    316    315
    291    292    317    316
    292    293    318    317
    293    294    319    318
    294    295    320    319
    295    296    321    320
    296    297    322    321
    297    298    323    322
    298    299    324    323
    299    275    300    324
    299    298    297    296    295    294    293    292    291    290    289    288    287    286    285    284    283    282    281    280    279    278    277    276    275
    300    301    302    303    304    305    306    307    308    309    310    311    312    313    314    315    316    317    318    319    320    321    322    323    324
    300    301    326    325
    301    302    327    326
    302    303    328    327
    303    304    329    328
    304    305    330    329
    305    306    331    330
    306    307    332    331
    307    308    333    332
    308    309    334    333
    309    310    335    334
    310    311    336    335
    311    312    337    336
    312    313    338    337
    313    314    339    338
    314    315    340    339
    315    316    341    340
    316    317    342    341
    317    318    343    342
    318    319    344    343
    319    320    345    344
    320    321    346    345
    321    322    347    346
    322    323    348    347
    323    324    349    348
    324    300    325    349
    324    323    322    321    320    319    318    317    316    315    314    313    312    311    310    309    308    307    306    305    304    303    302    301    300
    325    326    327    328    329    330    331    332    333    334    335    336    337    338    339    340    341    342    343    344    345    346    347    348    349
    325    326    351    350
    326    327    352    351
    327    328    353    352
    328    329    354    353
    329    330    355    354
    330    331    356    355
    331    332    357    356
    332    333    358    357
    333    334    359    358
    334    335    360    359
    335    336    361    360
    336    337    362    361
    337    338    363    362
    338    339    364    363
    339    340    365    364
    340    341    366    365
    341    342    367    366
    342    343    368    367
    343    344    369    368
    344    345    370    369
    345    346    371    370
    346    347    372    371
    347    348    373    372
    348    349    374    373
    349    325    350    374
    349    348    347    346    345    344    343    342    341    340    339    338    337    336    335    334    333    332    331    330    329    328    327    326    325
    350    351    352    353    354    355    356    357    358    359    360    361    362    363    364    365    366    367    368    369    370    371    372    373    374
    350    351    376    375
    351    352    377    376
    352    353    378    377
    353    354    379    378
    354    355    380    379
    355    356    381    380
    356    357    382    381
    357    358    383    382
    358    359    384    383
    359    360    385    384
    360    361    386    385
    361    362    387    386
    362    363    388    387
    363    364    389    388
    364    365    390    389
    365    366    391    390
    366    367    392    391
    367    368    393    392
    368    369    394    393
    369    370    395    394
    370    371    396    395
    371    372    397    396
    372    373    398    397
    373    374    399    398
    374    350    375    399
    374    373    372    371    370    369    368    367    366    365    364    363    362    361    360    359    358    357    356    355    354    353    352    351    350
    375    376    377    378    379    380    381    382    383    384    385    386    387    388    389    390    391    392    393    394    395    396    397    398    399
    375    376    401    400
    376    377    402    401
    377    378    403    402
    378    379    404    403
    379    380    405    404
    380    381    406    405
    381    382    407    406
    382    383    408    407
    383    384    409    408
    384    385    410    409
    385    386    411    410
    386    387    412    411
    387    388    413    412
    388    389    414    413
    389    390    415    414
    390    391    416    415
    391    392    417    416
    392    393    418    417
    393    394    419    418
    394    395    420    419
    395    396    421    420
    396    397    422    421
    397    398    423    422
    398    399    424    423
    399    375    400    424
    399    398    397    396    395    394    393    392    391    390    389    388    387    386    385    384    383    382    381    380    379    378    377    376    375
    400    401    402    403    404    405    406    407    408    409    410    411    412    413    414    415    416    417    418    419    420    421    422    423    424
    400    401    426    425
    401    402    427    426
    402    403    428    427
    403    404    429    428
    404    405    430    429
    405    406    431    430
    406    407    432    431
    407    408    433    432
    408    409    434    433
    409    410    435    434
    410    411    436    435
    411    412    437    436
    412    413    438    437
    413    414    439    438
    414    415    440    439
    415    416    441    440
    416    417    442    441
    417    418    443    442
    418    419    444    443
    419    420    445    444
    420    421    446    445
    421    422    447    446
    422    423    448    447
    423    424    449    448
    424    400    425    449
    424    423    422    421    420    419    418    417    416    415    414    413    412    411    410    409    408    407    406    405    404    403    402    401    400
    425    426    427    428    429    430    431    432    433    434    435    436    437    438    439    440    441    442    443    444    445    446    447    448    449
    425    426    451    450
    426    427    452    451
    427    428    453    452
    428    429    454    453
    429    430    455    454
    430    431    456    455
    431    432    457    456
    432    433    458    457
    433    434    459    458
    434    435    460    459
    435    436    461    460
    436    437    462    461
    437    438    463    462
    438    439    464    463
    439    440    465    464
    440    441    466    465
    441    442    467    466
    442    443    468    467
    443    444    469    468
    444    445    470    469
    445    446    471    470
    446    447    472    471
    447    448    473    472
    448    449    474    473
    449    425    450    474
    449    448    447    446    445    444    443    442    441    440    439    438    437    436    435    434    433    432    431    430    429    428    427    426    425
    450    451    452    453    454    455    456    457    458    459    460    461    462    463    464    465    466    467    468    469    470    471    472    473    474
    450    451    476    475
    451    452    477    476
    452    453    478    477
    453    454    479    478
    454    455    480    479
    455    456    481    480
    456    457    482    481
    457    458    483    482
    458    459    484    483
    459    460    485    484
    460    461    486    485
    461    462    487    486
    462    463    488    487
    463    464    489    488
    464    465    490    489
    465    466    491    490
    466    467    492    491
    467    468    493    492
    468    469    494    493
    469    470    495    494
    470    471    496    495
    471    472    497    496
    472    473    498    497
    473    474    499    498
    474    450    475    499
    474    473    472    471    470    469    468    467    466    465    464    463    462    461    460    459    458    457    456    455    454    453    452    451    450
    475    476    477    478    479    480    481    482    483    484    485    486    487    488    489    490    491    492    493    494    495    496    497    498    499
    475    476    501    500
    476    477    502    501
    477    478    503    502
    478    479    504    503
    479    480    505    504
    480    481    506    505
    481    482    507    506
    482    483    508    507
    483    484    509    508
    484    485    510    509
    485    486    511    510
    486    487    512    511
    487    488    513    512
    488    489    514    513
    489    490    515    514
    490    491    516    515
    491    492    517    516
    492    493    518    517
    493    494    519    518
    494    495    520    519
    495    496    521    520
    496    497    522    521
    497    498    523    522
    498    499    524    523
    499    475    500    524
    499    498    497    496    495    494    493    492    491    490    489    488    487    486    485    484    483    482    481    480    479    478    477    476    475
    500    501    502    503    504    505    506    507    508    509    510    511    512    513    514    515    516    517    518    519    520    521    522    523    524
    525    526      1      0
    526    527      2      1
    527    528      3      2
    528    529      4      3
    529    530      5      4
    530    531      6      5
    531    532      7      6
    532    533      8      7
    533    534      9      8
    534    535     10      9
    535    536     11     10
    536    537     12     11
    537    538     13     12
    538    539     14     13
    539    540     15     14
    540    541     16     15
    541    542     17     16
    542    543     18     17
    543    544     19     18
    544    545     20     19
    545    546     21     20
    546    547     22     21
    547    548     23     22
    548    549     24     23
    549    525      0     24
    549    548    547    546    545    544    543    542    541    540    539    538    537    536    535    534    533    532    531    530    529    528    527    526    525
      0      1      2      3      4      5      6      7      8      9     10     11     12     13     14     15     16     17     18     19     20     21     22     23     24
        </DataArray>
        <DataArray type="Int32" Name="offsets" format="ascii">
      4
      8
     12
     16
     20
     24
     28
     32
     36
     40
     44
     48
     52
     56
     60
     64
     68
     72
     76
     80
     84
     88
     92
     96
    100
    125
    150
    154
    158
    162
    166
    170
    174
    178
    182
    186
    190
    194
    198
    202
    206
    210
    214
    218
    222
    226
    230
    234
    238
    242
    246
    250
    275
    300
    304
    308
    312
    316
    320
    324
    328
    332
    336
    340
    344
    348
    352
    356
    360
    364
    368
    372
    376
    380
    384
    388
    392
    396
    400
    425
    450
    454
    458
    462
    466
    470
    474
    478
    482
    486
    490
    494
    498
    502
    506
    510
    514
    518
    522
    526
    530
    534
    538
    542
    546
    550
    575
    600
    604
    608
    612
    616
    620
    624
    628
    632
    636
    640
    644
    648
    652
    656
    660
    664
    668
    672
    676
    680
    684
    688
    692
    696
    700
    725
    750
    754
    758
    762
    766
    770
    774
    778
    782
    786
    790
    794
    798
    802
    806
    810
    814
    818
    822
    826
    830
    834
    838
    842
    846
    850
    875
    900
    904
    908
    912
    916
    920
    924
    928
    932
    936
    940
    944
    948
    952
    956
    960
    964
    968
    972
    976
    980
    984
    988
    992
    996
   1000
   1025
   1050
   1054
   1058
   1062
   1066
   1070
   1074
   1078
   1082
   1086
   1090
   1094
   1098
   1102
   1106
   1110
   1114
   1118
   1122
   1126
   1130
   1134
   1138
   1142
   1146
   1150
   1175
   1200
   1204
   1208
   1212
   1216
   1220
   1224
   1228
   1232
   1236
   1240
   1244
   1248
   1252
   1256
   1260
   1264
   1268
   1272
   1276
   1280
   1284
   1288
   1292
   1296
   1300
   1325
   1350
   1354
   1358
   1362
   1366
   1370
   1374
   1378
   1382
   1386
   1390
   1394
   1398
   1402
   1406
   1410
   1414
   1418
   1422
   1426
   1430
   1434
   1438
   1442
   1446
   1450
   1475
   1500
   1504
   1508
   1512
   1516
   1520
   1524
   1528
   1532
   1536
   1540
   1544
   1548
   1552
   1556
   1560
   1564
   1568
   1572
   1576
   1580
   1584
   1588
   1592
   1596
   1600
   1625
   1650
   1654
   1658
   1662
   1666
   1670
   1674
   1678
   1682
   1686
   1690
   1694
   1698
   1702
   1706
   1710
   1714
   1718
   1722
   1726
   1730
   1734
   1738
   1742
   1746
   1750
   1775
   1800
   1804
   1808
   1812
   1816
   1820
   1824
   1828
   1832
   1836
   1840
   1844
   1848
   1852
   1856
   1860
   1864
   1868
   1872
   1876
   1880
   1884
   1888
   1892
   1896
   1900
   1925
   1950
   1954
   1958
   1962
   1966
   1970
   1974
   1978
   1982
   1986
   1990
   1994
   1998
   2002
   2006
   2010
   2014
   2018
   2022
   2026
   2030
   2034
   2038
   2042
   2046
   2050
   2075
   2100
   2104
   2108
   2112
   2116
   2120
   2124
   2128
   2132
   2136
   2140
   2144
   2148
   2152
   2156
   2160
   2164
   2168
   2172
   2176
   2180
   2184
   2188
   2192
   2196
   2200
   2225
   2250
   2254
   2258
   2262
   2266
   2270
   2274
   2278
   2282
   2286
   2290
   2294
   2298
   2302
   2306
   2310
   2314
   2318
   2322
   2326
   2330
   2334
   2338
   2342
   2346
   2350
   2375
   2400
   2404
   2408
   2412
   2416
   2420
   2424
   2428
   2432
   2436
   2440
   2444
   2448
   2452
   2456
   2460
   2464
   2468
   2472
   2476
   2480
   2484
   2488
   2492
   2496
   2500
   2525
   2550
   2554
   2558
   2562
   2566
   2570
   2574
   2578
   2582
   2586
   2590
   2594
   2598
   2602
   2606
   2610
   2614
   2618
   2622
   2626
   2630
   2634
   2638
   2642
   2646
   2650
   2675
   2700
   2704
   2708
   2712
   2716
   2720
   2724
   2728
   2732
   2736
   2740
   2744
   2748
   2752
   2756
   2760
   2764
   2768
   2772
   2776
   2780
   2784
   2788
   2792
   2796
   2800
   2825
   2850
   2854
   2858
   2862
   2866
   2870
   2874
   2878
   2882
   2886
   2890
   2894
   2898
   2902
   2906
   2910
   2914
   2918
   2922
   2926
   2930
   2934
   2938
   2942
   2946
   2950
   2975
   3000
   3004
   3008
   3012
   3016
   3020
   3024
   3028
   3032
   3036
   3040
   3044
   3048
   3052
   3056
   3060
   3064
   3068
   3072
   3076
   3080
   3084
   3088
   3092
   3096
   3100
   3125
   3150
        </DataArray>
      </Polys>
    </Piece>
  </PolyData>
</VTKFile>
