<?xml version="1.0"?>
<VTKFile type="PolyData" version="0.1" byte_order="LittleEndian">
  <PolyData>
    <Piece NumberOfPoints="     22" NumberOfVerts="  0" NumberOfLines="     21"
           NumberOfStrips="  0" NumberOfPolys="      0">
      <Points>
        <DataArray type="Float32" NumberOfComponents="3" format="ascii">
                       0.00012                      -0.00000                       2.19000
                       0.00120                      -0.00001                       6.57000
                       0.00358                      -0.00001                      10.95000
                       0.00737                      -0.00003                      15.33000
                       0.01260                      -0.00005                      19.70999
                       0.01923                      -0.00007                      24.08999
                       0.02721                      -0.00010                      28.46998
                       0.03649                      -0.00014                      32.84997
                       0.04705                      -0.00020                      37.22996
                       0.05888                      -0.00026                      41.60994
                       0.07201                      -0.00034                      45.98992
                       0.08650                      -0.00043                      50.36990
                       0.10243                      -0.00055                      54.74987
                       0.11984                      -0.00068                      59.12984
                       0.13878                      -0.00083                      63.50979
                       0.15920                      -0.00100                      67.88975
                       0.18093                      -0.00119                      72.26969
                       0.20367                      -0.00140                      76.64963
                       0.22689                      -0.00162                      81.02957
                       0.24975                      -0.00186                      85.40951
                       0.26070                      -0.00198                      87.59949
                       0.00000                       0.00000                       0.00000
        </DataArray>
      </Points>
      <PointData>
        <DataArray type="Float32" Name="TranslationalVelocity" NumberOfComponents="3" format="ascii">
                       0.00001                      -0.00001                      -0.00000
                       0.00005                      -0.00012                      -0.00000
                       0.00013                      -0.00032                      -0.00000
                       0.00024                      -0.00059                      -0.00000
                       0.00037                      -0.00092                      -0.00000
                       0.00050                      -0.00132                      -0.00000
                       0.00062                      -0.00176                      -0.00000
                       0.00069                      -0.00225                      -0.00000
                       0.00071                      -0.00279                      -0.00000
                       0.00064                      -0.00335                      -0.00000
                       0.00046                      -0.00395                      -0.00000
                       0.00015                      -0.00456                       0.00000
                      -0.00031                      -0.00518                       0.00000
                      -0.00094                      -0.00579                       0.00001
                      -0.00174                      -0.00641                       0.00001
                      -0.00274                      -0.00700                       0.00001
                      -0.00391                      -0.00757                       0.00002
                      -0.00524                      -0.00810                       0.00003
                      -0.00670                      -0.00861                       0.00003
                      -0.00825                      -0.00910                       0.00004
                      -0.00903                      -0.00934                       0.00005
                       0.00000                      -0.00000                       0.00000
        </DataArray>
        <DataArray type="Float32" Name="RotationalVelocity" NumberOfComponents="3" format="ascii">
                       0.00001                       0.00001                       0.00000
                       0.00003                       0.00001                       0.00000
                       0.00005                       0.00002                       0.00000
                       0.00007                       0.00003                       0.00000
                       0.00008                       0.00003                       0.00000
                       0.00010                       0.00003                       0.00000
                       0.00011                       0.00002                       0.00000
                       0.00012                       0.00001                       0.00000
                       0.00013                      -0.00001                       0.00000
                       0.00013                      -0.00003                       0.00000
                       0.00014                      -0.00005                       0.00000
                       0.00014                      -0.00009                       0.00000
                       0.00014                      -0.00012                       0.00000
                       0.00014                      -0.00016                       0.00000
                       0.00014                      -0.00021                       0.00000
                       0.00013                      -0.00025                       0.00000
                       0.00013                      -0.00029                       0.00000
                       0.00012                      -0.00032                       0.00000
                       0.00011                      -0.00035                       0.00000
                       0.00011                      -0.00036                       0.00000
                       0.00011                      -0.00036                       0.00000
                       0.00000                      -0.00000                       0.00000
        </DataArray>
        <DataArray type="Float32" Name="TranslationalAcceleration" NumberOfComponents="3" format="ascii">
                      -0.00060                      -0.00002                       0.00000
                      -0.00549                      -0.00015                       0.00000
                      -0.01532                      -0.00039                       0.00001
                      -0.02972                      -0.00071                       0.00002
                      -0.04797                      -0.00109                       0.00004
                      -0.06902                      -0.00153                       0.00007
                      -0.09165                      -0.00199                       0.00011
                      -0.11445                      -0.00246                       0.00016
                      -0.13596                      -0.00293                       0.00021
                      -0.15467                      -0.00336                       0.00026
                      -0.16915                      -0.00373                       0.00031
                      -0.17805                      -0.00402                       0.00034
                      -0.18021                      -0.00421                       0.00034
                      -0.17468                      -0.00428                       0.00032
                      -0.16078                      -0.00419                       0.00026
                      -0.13819                      -0.00395                       0.00015
                      -0.10695                      -0.00353                      -0.00000
                      -0.06753                      -0.00295                      -0.00021
                      -0.02088                      -0.00221                      -0.00046
                       0.03152                      -0.00136                      -0.00073
                       0.05926                      -0.00090                      -0.00087
                       0.00000                      -0.00000                       0.00000
        </DataArray>
        <DataArray type="Float32" Name="RotationalAcceleration" NumberOfComponents="3" format="ascii">
                       0.00002                      -0.00055                       0.00000
                       0.00004                      -0.00169                       0.00000
                       0.00006                      -0.00279                       0.00000
                       0.00008                      -0.00376                       0.00000
                       0.00009                      -0.00453                       0.00000
                       0.00010                      -0.00504                       0.00000
                       0.00011                      -0.00524                       0.00000
                       0.00011                      -0.00511                       0.00000
                       0.00010                      -0.00465                       0.00000
                       0.00009                      -0.00384                       0.00000
                       0.00008                      -0.00272                       0.00000
                       0.00006                      -0.00130                       0.00000
                       0.00003                       0.00035                       0.00000
                      -0.00000                       0.00220                       0.00000
                      -0.00004                       0.00416                       0.00000
                      -0.00008                       0.00615                       0.00000
                      -0.00011                       0.00809                       0.00000
                      -0.00015                       0.00987                       0.00000
                      -0.00018                       0.01137                       0.00000
                      -0.00020                       0.01248                       0.00000
                      -0.00021                       0.01284                       0.00000
                       0.00000                      -0.00000                       0.00000
        </DataArray>
        <DataArray type="Float32" Name="OrientationX" NumberOfComponents="3" format="ascii">
                       1.00000                       0.00000                      -0.00011
                       1.00000                       0.00000                      -0.00039
                       1.00000                       0.00000                      -0.00070
                       1.00000                       0.00000                      -0.00103
                       1.00000                       0.00000                      -0.00136
                       1.00000                       0.00000                      -0.00167
                       1.00000                       0.00000                      -0.00197
                       1.00000                       0.00000                      -0.00226
                       1.00000                       0.00000                      -0.00255
                       1.00000                       0.00000                      -0.00285
                       1.00000                       0.00000                      -0.00315
                       0.99999                       0.00000                      -0.00347
                       0.99999                       0.00000                      -0.00380
                       0.99999                       0.00000                      -0.00415
                       0.99999                       0.00000                      -0.00450
                       0.99999                       0.00000                      -0.00482
                       0.99999                       0.00000                      -0.00509
                       0.99999                       0.00000                      -0.00527
                       0.99999                       0.00000                      -0.00530
                       0.99999                       0.00000                      -0.00510
                       0.99999                       0.00000                      -0.00489
                       1.00000                      -0.00000                       0.00000
        </DataArray>
        <DataArray type="Float32" Name="OrientationY" NumberOfComponents="3" format="ascii">
                       0.00000                       1.00000                       0.00000
                       0.00000                       1.00000                       0.00000
                       0.00000                       1.00000                       0.00000
                       0.00000                       1.00000                       0.00000
                       0.00000                       1.00000                       0.00000
                       0.00000                       1.00000                       0.00001
                       0.00000                       1.00000                       0.00001
                       0.00000                       1.00000                       0.00001
                       0.00000                       1.00000                       0.00001
                       0.00000                       1.00000                       0.00002
                       0.00000                       1.00000                       0.00002
                       0.00000                       1.00000                       0.00002
                       0.00000                       1.00000                       0.00003
                       0.00000                       1.00000                       0.00003
                       0.00000                       1.00000                       0.00004
                       0.00000                       1.00000                       0.00004
                       0.00000                       1.00000                       0.00005
                       0.00000                       1.00000                       0.00005
                       0.00000                       1.00000                       0.00005
                       0.00000                       1.00000                       0.00006
                       0.00000                       1.00000                       0.00006
                      -0.00000                       1.00000                      -0.00000
        </DataArray>
        <DataArray type="Float32" Name="OrientationZ" NumberOfComponents="3" format="ascii">
                       0.00011                      -0.00000                       1.00000
                       0.00039                      -0.00000                       1.00000
                       0.00070                      -0.00000                       1.00000
                       0.00103                      -0.00000                       1.00000
                       0.00136                      -0.00000                       1.00000
                       0.00167                      -0.00001                       1.00000
                       0.00197                      -0.00001                       1.00000
                       0.00226                      -0.00001                       1.00000
                       0.00255                      -0.00001                       1.00000
                       0.00285                      -0.00002                       1.00000
                       0.00315                      -0.00002                       1.00000
                       0.00347                      -0.00002                       0.99999
                       0.00380                      -0.00003                       0.99999
                       0.00415                      -0.00003                       0.99999
                       0.00450                      -0.00004                       0.99999
                       0.00482                      -0.00004                       0.99999
                       0.00509                      -0.00005                       0.99999
                       0.00527                      -0.00005                       0.99999
                       0.00530                      -0.00005                       0.99999
                       0.00510                      -0.00006                       0.99999
                       0.00489                      -0.00006                       0.99999
                       0.00000                      -0.00000                       1.00000
        </DataArray>
      </PointData>
      <Lines>
        <DataArray type="Int32" Name="connectivity" format="ascii">
      0      1
      1      2
      2      3
      3      4
      4      5
      5      6
      6      7
      7      8
      8      9
      9     10
     10     11
     11     12
     12     13
     13     14
     14     15
     15     16
     16     17
     17     18
     18     19
     19     20
     21      0
        </DataArray>
        <DataArray type="Int32" Name="offsets" format="ascii">
      2
      4
      6
      8
     10
     12
     14
     16
     18
     20
     22
     24
     26
     28
     30
     32
     34
     36
     38
     40
     42
        </DataArray>
      </Lines>
    </Piece>
  </PolyData>
</VTKFile>
