<?xml version="1.0"?>
<VTKFile type="PolyData" version="0.1" byte_order="LittleEndian">
  <PolyData>
    <Piece NumberOfPoints="     19" NumberOfVerts="  0" NumberOfLines="     18"
           NumberOfStrips="  0" NumberOfPolys="      0">
      <Points>
        <DataArray type="Float32" NumberOfComponents="3" format="ascii">
                      -4.79487                      -1.07679                      91.05837
                      -4.76909                      -2.06149                      92.00623
                      -4.74371                      -4.09692                      93.83468
                      -4.72761                      -6.16455                      95.63054
                      -4.70747                      -8.76962                      97.85467
                      -4.60670                     -11.80106                     100.61964
                      -4.45457                     -14.74656                     103.47241
                      -4.28398                     -17.69376                     106.32310
                      -4.09212                     -20.64130                     109.17288
                      -3.88101                     -23.59019                     112.02073
                      -3.65486                     -26.54252                     114.86463
                      -3.41707                     -29.49669                     117.70632
                      -3.17424                     -32.45197                     120.54682
                      -2.93498                     -35.40741                     123.38737
                      -2.70753                     -38.36213                     126.22899
                      -2.53625                     -40.82297                     128.59906
                      -2.41501                     -42.78472                     130.50258
                      -2.30249                     -44.70730                     132.44701
                      -2.26545                     -45.69593                     133.39119
        </DataArray>
      </Points>
      <PointData>
        <DataArray type="Float32" Name="TranslationalVelocity" NumberOfComponents="3" format="ascii">
                      -0.27507                      -2.91251                      -3.00299
                      -0.52417                      -5.55922                      -5.74578
                      -1.03968                     -10.66033                     -11.41707
                      -1.56467                     -15.67052                     -17.18095
                      -2.22861                     -21.87924                     -24.44783
                      -3.00521                     -29.62277                     -32.91101
                      -3.76359                     -37.63160                     -41.14153
                      -4.52470                     -45.64641                     -49.38368
                      -5.28654                     -53.67056                     -57.63301
                      -6.04766                     -61.69970                     -65.89153
                      -6.80709                     -69.72600                     -74.16402
                      -7.56339                     -77.75220                     -82.44494
                      -8.31615                     -85.77824                     -90.73100
                      -9.06596                     -93.80433                     -99.01850
                      -9.81479                    -101.83033                    -107.30395
                     -10.44068                    -108.51928                    -114.20387
                     -10.94330                    -113.88687                    -119.70373
                     -11.44134                    -119.36660                    -125.09308
                     -11.70029                    -122.02284                    -127.86414
        </DataArray>
        <DataArray type="Float32" Name="RotationalVelocity" NumberOfComponents="3" format="ascii">
                       2.78495                      -0.00033                      -0.25244
                       2.78537                      -0.00039                      -0.25253
                       2.78648                      -0.00062                      -0.25284
                       2.78786                      -0.00091                      -0.25329
                       2.78980                      -0.00131                      -0.25397
                       2.79227                      -0.00171                      -0.25483
                       2.79467                      -0.00193                      -0.25561
                       2.79688                      -0.00190                      -0.25620
                       2.79881                      -0.00160                      -0.25652
                       2.80041                      -0.00106                      -0.25656
                       2.80168                      -0.00034                      -0.25632
                       2.80263                       0.00045                      -0.25590
                       2.80329                       0.00118                      -0.25543
                       2.80367                       0.00165                      -0.25513
                       2.80377                       0.00166                      -0.25530
                       2.80365                       0.00113                      -0.25604
                       2.80338                       0.00024                      -0.25723
                       2.80293                      -0.00119                      -0.25913
                       2.80264                      -0.00213                      -0.26040
        </DataArray>
        <DataArray type="Float32" Name="TranslationalAcceleration" NumberOfComponents="3" format="ascii">
                      -0.71248                       8.37480                      -8.07473
                      -0.86850                      10.18694                      -9.79188
                      -2.44020                      29.68544                     -27.49327
                      -3.86598                      47.94108                     -43.47138
                      -5.52794                      69.53728                     -61.89024
                      -7.52371                      93.50545                     -83.52864
                      -9.59769                     116.29091                    -105.28375
                     -11.75286                     139.10883                    -126.95179
                     -14.02844                     162.21123                    -148.82359
                     -16.43442                     185.67301                    -170.98691
                     -18.95213                     209.43871                    -193.38713
                     -21.53806                     233.34475                    -215.91729
                     -24.12046                     257.21419                    -238.43100
                     -26.60019                     280.90802                    -260.80152
                     -28.85060                     304.38637                    -282.97022
                     -30.43258                     323.86167                    -301.33222
                     -31.44433                     339.45589                    -316.06935
                     -32.19599                     354.97176                    -331.24500
                     -32.41629                     363.09099                    -338.68794
        </DataArray>
        <DataArray type="Float32" Name="OrientationX" NumberOfComponents="3" format="ascii">
                       0.95597                      -0.19047                      -0.22326
                       0.95595                      -0.19018                      -0.22358
                       0.95585                      -0.18939                      -0.22466
                       0.95567                      -0.18835                      -0.22632
                       0.95530                      -0.18680                      -0.22913
                       0.96356                      -0.16347                      -0.21172
                       0.96847                      -0.14643                      -0.20157
                       0.97190                      -0.13227                      -0.19474
                       0.97485                      -0.11886                      -0.18853
                       0.97719                      -0.10713                      -0.18337
                       0.97860                      -0.09882                      -0.18048
                       0.97939                      -0.09363                      -0.17895
                       0.97933                      -0.09296                      -0.17963
                       0.97803                      -0.09857                      -0.18369
                       0.97645                      -0.10724                      -0.18719
                       0.97514                      -0.11621                      -0.18869
                       0.97408                      -0.12469                      -0.18875
                       0.97238                      -0.13621                      -0.18956
                       0.97112                      -0.14352                      -0.19061
        </DataArray>
        <DataArray type="Float32" Name="OrientationY" NumberOfComponents="3" format="ascii">
                       0.29284                       0.66896                       0.68318
                       0.29287                       0.66890                       0.68323
                       0.29310                       0.66875                       0.68327
                       0.29357                       0.66857                       0.68325
                       0.29452                       0.66833                       0.68307
                       0.26581                       0.67356                       0.68969
                       0.24670                       0.67661                       0.69378
                       0.23198                       0.67872                       0.69679
                       0.21825                       0.68049                       0.69950
                       0.20644                       0.68182                       0.70178
                       0.19863                       0.68257                       0.70331
                       0.19397                       0.68291                       0.70428
                       0.19402                       0.68273                       0.70444
                       0.20082                       0.68186                       0.70338
                       0.20933                       0.68072                       0.70200
                       0.21661                       0.67966                       0.70081
                       0.22249                       0.67875                       0.69985
                       0.23104                       0.67740                       0.69839
                       0.23685                       0.67645                       0.69736
        </DataArray>
        <DataArray type="Float32" Name="OrientationZ" NumberOfComponents="3" format="ascii">
                       0.01923                      -0.71848                       0.69529
                       0.01961                      -0.71861                       0.69514
                       0.02084                      -0.71896                       0.69474
                       0.02263                      -0.71940                       0.69423
                       0.02554                      -0.72003                       0.69348
                       0.02986                      -0.72083                       0.69247
                       0.03480                      -0.72163                       0.69140
                       0.04001                      -0.72238                       0.69033
                       0.04515                      -0.72305                       0.68931
                       0.04985                      -0.72363                       0.68838
                       0.05369                      -0.72411                       0.68759
                       0.05627                      -0.72448                       0.68699
                       0.05715                      -0.72473                       0.68666
                       0.05592                      -0.72481                       0.68667
                       0.05214                      -0.72465                       0.68714
                       0.04680                      -0.72426                       0.68794
                       0.04085                      -0.72371                       0.68890
                       0.03328                      -0.72289                       0.69016
                       0.02886                      -0.72237                       0.69091
        </DataArray>
        <DataArray type="Float32" Name="Force" NumberOfComponents="3" format="ascii">
                       1.74190                      18.64252                      19.21612
                     203.20634                      92.72995                      90.09146
                     316.16594                     266.28788                     265.73355
                     329.85858                     394.85197                     397.43141
                    1617.79670                    -312.23869                    -382.68895
                    1548.53620                    -226.67603                    -301.57668
                    1496.23524                    -150.30068                    -231.18460
                    2269.12242                    -216.77899                    -356.51912
                    2727.28154                    -207.75823                    -394.48910
                    3064.44912                    -184.90919                    -414.13385
                    4737.68286                    -244.43495                    -624.12376
                    5096.44349                    -220.50767                    -646.75575
                    4352.15460                    -157.59476                    -526.19038
                    2941.64190                     -45.29304                    -286.81705
                    1089.75409                      93.76969                      14.50188
                    1703.10595                     -54.45827                    -172.65003
                     225.21588                     146.02339                     137.92302
                   -1283.60804                     223.67894                     293.80516
                  -19060.15400                     633.74126                    1456.93160
        </DataArray>
        <DataArray type="Float32" Name="Moment" NumberOfComponents="3" format="ascii">
                       0.00000                       0.00000                       0.00000
                       0.00000                       0.00000                       0.00000
                       0.00000                       0.00000                       0.00000
                       0.00000                       0.00000                       0.00000
                     -34.77301                     973.48388                    -941.27356
                     -76.40007                    1826.99957                   -1765.53865
                    -119.60037                    2452.67644                   -2368.62323
                    -219.81690                    3918.68914                   -3781.79145
                    -367.74877                    5807.79151                   -5601.09493
                    -461.46887                    6600.81422                   -6361.95060
                    -554.63898                    7364.67821                   -7094.56779
                    -618.57539                    7835.99385                   -7546.01908
                    -476.14213                    5936.58426                   -5716.21761
                    -459.95397                    5859.21673                   -5642.62691
                    -406.86928                    5556.44699                   -5353.70677
                    -341.12859                    5186.89149                   -5001.14166
                    -263.15162                    4581.68055                   -4421.06455
                    -107.00286                    2285.00898                   -2207.10253
                     -83.83900                    2063.68329                   -1994.48311
        </DataArray>
      </PointData>
      <Lines>
        <DataArray type="Int32" Name="connectivity" format="ascii">
      0      1
      1      2
      2      3
      3      4
      4      5
      5      6
      6      7
      7      8
      8      9
      9     10
     10     11
     11     12
     12     13
     13     14
     14     15
     15     16
     16     17
     17     18
        </DataArray>
        <DataArray type="Int32" Name="offsets" format="ascii">
      2
      4
      6
      8
     10
     12
     14
     16
     18
     20
     22
     24
     26
     28
     30
     32
     34
     36
        </DataArray>
      </Lines>
    </Piece>
  </PolyData>
</VTKFile>
