<?xml version="1.0"?>
<VTKFile type="PolyData" version="0.1" byte_order="LittleEndian">
  <PolyData>
    <Piece NumberOfPoints="    625" NumberOfVerts="  0" NumberOfLines="      0"
           NumberOfStrips="  0" NumberOfPolys="    600">
      <Points>
        <DataArray type="Float32" NumberOfComponents="3" format="ascii">
                      -4.89088                       1.39717                      89.47587
                      -4.89088                       1.39717                      89.47587
                      -4.89088                       1.39717                      89.47587
                      -4.89088                       1.39717                      89.47587
                      -4.89088                       1.39717                      89.47587
                      -4.89088                       1.39717                      89.47587
                      -4.89088                       1.39717                      89.47587
                      -4.89088                       1.39717                      89.47587
                      -4.89088                       1.39717                      89.47587
                      -4.89088                       1.39717                      89.47587
                      -4.89088                       1.39717                      89.47587
                      -4.89088                       1.39717                      89.47587
                      -4.89088                       1.39717                      89.47587
                      -4.89088                       1.39717                      89.47587
                      -4.89088                       1.39717                      89.47587
                      -4.89088                       1.39717                      89.47587
                      -4.89088                       1.39717                      89.47587
                      -4.89088                       1.39717                      89.47587
                      -4.89088                       1.39717                      89.47587
                      -4.89088                       1.39717                      89.47587
                      -4.89088                       1.39717                      89.47587
                      -4.89088                       1.39717                      89.47587
                      -4.89088                       1.39717                      89.47587
                      -4.89088                       1.39717                      89.47587
                      -4.89088                       1.39717                      89.47587
                      -4.28978                       1.28056                      89.46678
                      -4.29603                       1.33423                      89.60700
                      -4.33940                       1.38453                      89.74180
                      -4.41717                       1.42829                      89.86270
                      -4.52445                       1.46278                      89.96211
                      -4.65450                       1.48581                      90.03378
                      -4.79915                       1.49595                      90.07322
                      -4.94931                       1.49255                      90.07794
                      -5.09554                       1.47583                      90.04764
                      -5.22866                       1.44684                      89.98424
                      -5.34030                       1.40741                      89.89170
                      -5.42344                       1.36000                      89.77586
                      -5.47287                       1.30760                      89.64398
                      -5.48548                       1.25350                      89.50435
                      -5.46047                       1.20110                      89.36575
                      -5.39941                       1.15370                      89.23689
                      -5.30615                       1.11426                      89.12586
                      -5.18655                       1.08527                      89.03963
                      -5.04811                       1.06856                      88.98364
                      -4.89953                       1.06516                      88.96138
                      -4.75016                       1.07530                      88.97427
                      -4.60938                       1.09833                      89.02150
                      -4.48602                       1.13282                      89.10009
                      -4.38786                       1.17659                      89.20510
                      -4.32104                       1.22689                      89.32995
                      -4.05699                       1.16394                      89.49095
                      -4.06563                       1.23817                      89.68489
                      -4.12562                       1.30774                      89.87133
                      -4.23319                       1.36828                      90.03855
                      -4.38157                       1.41597                      90.17605
                      -4.56145                       1.44783                      90.27519
                      -4.76151                       1.46185                      90.32973
                      -4.96920                       1.45715                      90.33626
                      -5.17146                       1.43403                      90.29435
                      -5.35557                       1.39393                      90.20665
                      -5.50998                       1.33939                      90.07867
                      -5.62499                       1.27382                      89.91844
                      -5.69335                       1.20134                      89.73603
                      -5.71079                       1.12652                      89.54291
                      -5.67620                       1.05404                      89.35121
                      -5.59175                       0.98848                      89.17298
                      -5.46276                       0.93393                      89.01941
                      -5.29733                       0.89384                      88.90015
                      -5.10585                       0.87072                      88.82270
                      -4.90035                       0.86602                      88.79192
                      -4.69375                       0.88004                      88.80975
                      -4.49903                       0.91190                      88.87506
                      -4.32842                       0.95960                      88.98376
                      -4.19264                       1.02013                      89.12902
                      -4.10023                       1.08970                      89.30169
                      -3.89060                       1.04732                      89.52111
                      -3.90094                       1.13615                      89.75318
                      -3.97273                       1.21940                      89.97627
                      -4.10144                       1.29183                      90.17636
                      -4.27899                       1.34890                      90.34089
                      -4.49423                       1.38702                      90.45952
                      -4.73363                       1.40380                      90.52479
                      -4.98214                       1.39817                      90.53259
                      -5.22416                       1.37051                      90.48245
                      -5.44447                       1.32253                      90.37751
                      -5.62924                       1.25726                      90.22437
                      -5.76684                       1.17880                      90.03264
                      -5.84865                       1.09208                      89.81438
                      -5.86951                       1.00254                      89.58329
                      -5.82812                       0.91582                      89.35391
                      -5.72708                       0.83736                      89.14063
                      -5.57273                       0.77210                      88.95687
                      -5.37477                       0.72412                      88.81417
                      -5.14565                       0.69646                      88.72149
                      -4.89976                       0.69084                      88.68466
                      -4.65254                       0.70761                      88.70599
                      -4.41954                       0.74574                      88.78415
                      -4.21539                       0.80281                      88.91422
                      -4.05292                       0.87525                      89.08803
                      -3.94234                       0.95849                      89.29465
                      -3.76118                       0.93070                      89.55461
                      -3.77284                       1.03080                      89.81612
                      -3.85373                       1.12461                      90.06751
                      -3.99878                       1.20623                      90.29300
                      -4.19885                       1.27055                      90.47840
                      -4.44140                       1.31350                      90.61208
                      -4.71117                       1.33241                      90.68562
                      -4.99121                       1.32607                      90.69442
                      -5.26393                       1.29489                      90.63792
                      -5.51220                       1.24083                      90.51967
                      -5.72041                       1.16728                      90.34709
                      -5.87547                       1.07886                      90.13104
                      -5.96766                       0.98114                      89.88508
                      -5.99117                       0.88024                      89.62468
                      -5.94453                       0.78252                      89.36619
                      -5.83066                       0.69411                      89.12586
                      -5.65673                       0.62056                      88.91878
                      -5.43366                       0.56650                      88.75797
                      -5.17547                       0.53532                      88.65354
                      -4.89838                       0.52899                      88.61204
                      -4.61980                       0.54790                      88.63608
                      -4.35723                       0.59086                      88.72415
                      -4.12718                       0.65517                      88.87072
                      -3.94410                       0.73680                      89.06658
                      -3.81949                       0.83061                      89.29942
                      -3.65723                       0.81409                      89.59041
                      -3.66993                       0.92317                      89.87538
                      -3.75808                       1.02539                      90.14933
                      -3.91614                       1.11434                      90.39505
                      -4.13417                       1.18442                      90.59708
                      -4.39847                       1.23123                      90.74275
                      -4.69245                       1.25183                      90.82290
                      -4.99762                       1.24493                      90.83249
                      -5.29481                       1.21095                      90.77092
                      -5.56535                       1.15204                      90.64206
                      -5.79224                       1.07189                      90.45400
                      -5.96122                       0.97554                      90.21856
                      -6.06168                       0.86905                      89.95053
                      -6.08730                       0.75910                      89.66677
                      -6.03647                       0.65261                      89.38508
                      -5.91239                       0.55626                      89.12319
                      -5.72285                       0.47612                      88.89753
                      -5.47977                       0.41720                      88.72229
                      -5.19841                       0.38323                      88.60849
                      -4.89645                       0.37633                      88.56326
                      -4.59288                       0.39693                      88.58946
                      -4.30676                       0.44375                      88.68544
                      -4.05607                       0.51383                      88.84516
                      -3.85656                       0.60278                      89.05859
                      -3.72077                       0.70501                      89.31232
                      -3.57282                       0.69747                      89.62797
                      -3.58637                       0.81377                      89.93182
                      -3.68035                       0.92277                      90.22391
                      -3.84888                       1.01760                      90.48590
                      -4.08135                       1.09233                      90.70132
                      -4.36316                       1.14224                      90.85664
                      -4.67660                       1.16420                      90.94209
                      -5.00198                       1.15684                      90.95232
                      -5.31886                       1.12061                      90.88667
                      -5.60731                       1.05780                      90.74927
                      -5.84923                       0.97234                      90.54875
                      -6.02940                       0.86961                      90.29772
                      -6.13651                       0.75607                      90.01195
                      -6.16383                       0.63884                      89.70939
                      -6.10963                       0.52530                      89.40905
                      -5.97733                       0.42257                      89.12981
                      -5.77524                       0.33711                      88.88921
                      -5.51606                       0.27430                      88.70236
                      -5.21607                       0.23808                      88.58102
                      -4.89412                       0.23072                      88.53280
                      -4.57044                       0.25269                      88.56073
                      -4.26537                       0.30260                      88.66307
                      -3.99807                       0.37733                      88.83336
                      -3.78535                       0.47217                      89.06093
                      -3.64057                       0.58116                      89.33147
                      -3.50448                       0.58085                      89.66699
                      -3.51870                       0.70293                      89.98593
                      -3.61736                       0.81734                      90.29254
                      -3.79426                       0.91689                      90.56754
                      -4.03828                       0.99533                      90.79367
                      -4.33409                       1.04772                      90.95670
                      -4.66311                       1.07078                      91.04641
                      -5.00466                       1.06305                      91.05714
                      -5.33728                       1.02502                      90.98823
                      -5.64007                       0.95909                      90.84400
                      -5.89401                       0.86938                      90.63352
                      -6.08314                       0.76155                      90.37002
                      -6.19557                       0.64236                      90.07004
                      -6.22424                       0.51931                      89.75245
                      -6.16735                       0.40012                      89.43719
                      -6.02848                       0.29229                      89.14407
                      -5.81635                       0.20259                      88.89151
                      -5.54429                       0.13666                      88.69538
                      -5.22939                       0.09863                      88.56801
                      -4.89144                       0.09091                      88.51740
                      -4.55167                       0.11397                      88.54672
                      -4.23144                       0.16636                      88.65413
                      -3.95087                       0.24480                      88.83289
                      -3.72757                       0.34435                      89.07177
                      -3.57560                       0.45877                      89.35575
                      -3.45002                       0.46423                      89.70725
                      -3.46476                       0.59085                      90.03804
                      -3.56708                       0.70951                      90.35603
                      -3.75055                       0.81275                      90.64124
                      -4.00363                       0.89410                      90.87576
                      -4.31043                       0.94844                      91.04485
                      -4.65166                       0.97235                      91.13788
                      -5.00589                       0.96433                      91.14902
                      -5.35086                       0.92489                      91.07755
                      -5.66489                       0.85651                      90.92796
                      -5.92826                       0.76348                      90.70967
                      -6.12440                       0.65164                      90.43638
                      -6.24101                       0.52803                      90.12527
                      -6.27075                       0.40041                      89.79589
                      -6.21175                       0.27679                      89.46892
                      -6.06772                       0.16496                      89.16492
                      -5.84771                       0.07193                      88.90299
                      -5.56555                       0.00355                      88.69958
                      -5.23896                      -0.03589                      88.56748
                      -4.88846                      -0.04390                      88.51498
                      -4.53608                      -0.01999                      88.54539
                      -4.20396                       0.03436                      88.65680
                      -3.91297                       0.11571                      88.84219
                      -3.68139                       0.21896                      89.08994
                      -3.52377                       0.33762                      89.38446
                      -3.40797                       0.34761                      89.74864
                      -3.42311                       0.47764                      90.08835
                      -3.52819                       0.59950                      90.41492
                      -3.71661                       0.70554                      90.70783
                      -3.97652                       0.78908                      90.94868
                      -4.29159                       0.84488                      91.12233
                      -4.64203                       0.86944                      91.21787
                      -5.00582                       0.86121                      91.22930
                      -5.36010                       0.82070                      91.15590
                      -5.68260                       0.75048                      91.00229
                      -5.95307                       0.65493                      90.77811
                      -6.15451                       0.54008                      90.49744
                      -6.27426                       0.41313                      90.17794
                      -6.30480                       0.28206                      89.83967
                      -6.24421                       0.15512                      89.50388
                      -6.09630                       0.04027                      89.19168
                      -5.87035                      -0.05528                      88.92268
                      -5.58058                      -0.12550                      88.71378
                      -5.24518                      -0.16600                      88.57811
                      -4.88522                      -0.17423                      88.52420
                      -4.52334                      -0.14967                      88.55543
                      -4.18226                      -0.09386                      88.66984
                      -3.88341                      -0.01032                      88.86024
                      -3.64558                       0.09572                      89.11467
                      -3.48371                       0.21758                      89.41714
                      -3.37738                       0.23099                      89.79106
                      -3.39280                       0.36341                      90.13701
                      -3.49981                       0.48751                      90.46957
                      -3.69168                       0.59549                      90.76786
                      -3.95636                       0.68056                      91.01312
                      -4.27722                       0.73739                      91.18996
                      -4.63409                       0.76240                      91.28725
                      -5.00455                       0.75401                      91.29889
                      -5.36533                       0.71277                      91.22415
                      -5.69375                       0.64125                      91.06771
                      -5.96918                       0.54395                      90.83942
                      -6.17432                       0.42699                      90.55361
                      -6.29627                       0.29771                      90.22824
                      -6.32737                       0.16424                      89.88376
                      -6.26567                       0.03497                      89.54181
                      -6.11504                      -0.08199                      89.22388
                      -5.88495                      -0.17929                      88.94994
                      -5.58986                      -0.25080                      88.73721
                      -5.24830                      -0.29204                      88.59906
                      -4.88174                      -0.30042                      88.54416
                      -4.51322                      -0.27541                      88.57596
                      -4.16588                      -0.21858                      88.69247
                      -3.86155                      -0.13350                      88.88636
                      -3.61935                      -0.02552                      89.14546
                      -3.45451                       0.09858                      89.45348
                      -3.35763                       0.11438                      89.83447
                      -3.37322                       0.24820                      90.18410
                      -3.48137                       0.37362                      90.52020
                      -3.67529                       0.48275                      90.82167
                      -3.94279                       0.56873                      91.06955
                      -4.26706                       0.62617                      91.24827
                      -4.62774                       0.65144                      91.34660
                      -5.00215                       0.64297                      91.35837
                      -5.36677                       0.60128                      91.28282
                      -5.69869                       0.52900                      91.12472
                      -5.97706                       0.43067                      90.89399
                      -6.18438                       0.31246                      90.60514
                      -6.30763                       0.18181                      90.27630
                      -6.33906                       0.04691                      89.92815
                      -6.27670                      -0.08374                      89.58255
                      -6.12447                      -0.20195                      89.26123
                      -5.89193                      -0.30028                      88.98438
                      -5.59369                      -0.37256                      88.76938
                      -5.24849                      -0.41424                      88.62976
                      -4.87803                      -0.42271                      88.57427
                      -4.50557                      -0.39743                      88.60641
                      -4.15453                      -0.33999                      88.72416
                      -3.84696                      -0.25401                      88.92012
                      -3.60219                      -0.14487                      89.18198
                      -3.43559                      -0.01945                      89.49328
                      -3.34839                      -0.00224                      89.87882
                      -3.36403                       0.13205                      90.22967
                      -3.47256                       0.25791                      90.56695
                      -3.66715                       0.36742                      90.86946
                      -3.93559                       0.45370                      91.11821
                      -4.26099                       0.51134                      91.29755
                      -4.62293                       0.53670                      91.39623
                      -4.99864                       0.52820                      91.40803
                      -5.36454                       0.48636                      91.33223
                      -5.69762                       0.41383                      91.17357
                      -5.97696                       0.31515                      90.94204
                      -6.18501                       0.19653                      90.65218
                      -6.30869                       0.06542                      90.32219
                      -6.34023                      -0.06994                      89.97282
                      -6.27765                      -0.20105                      89.62602
                      -6.12488                      -0.31967                      89.30358
                      -5.89153                      -0.41834                      89.02576
                      -5.59225                      -0.49087                      88.81002
                      -5.24585                      -0.53270                      88.66990
                      -4.87409                      -0.54120                      88.61422
                      -4.50034                      -0.51583                      88.64647
                      -4.14807                      -0.45820                      88.76464
                      -3.83943                      -0.37191                      88.96128
                      -3.59380                      -0.26240                      89.22405
                      -3.42662                      -0.13654                      89.53644
                      -3.34954                      -0.11886                      89.92410
                      -3.36513                       0.01497                      90.27373
                      -3.47328                       0.14039                      90.60984
                      -3.66719                       0.24952                      90.91130
                      -3.93469                       0.33550                      91.15918
                      -4.25897                       0.39293                      91.33791
                      -4.61964                       0.41820                      91.43624
                      -4.99405                       0.40973                      91.44800
                      -5.35868                       0.36805                      91.37246
                      -5.69060                       0.29577                      91.21436
                      -5.96897                       0.19743                      90.98363
                      -6.17629                       0.07922                      90.69477
                      -6.29954                      -0.05143                      90.36594
                      -6.33097                      -0.18632                      90.01779
                      -6.26861                      -0.31698                      89.67219
                      -6.11638                      -0.43518                      89.35087
                      -5.88383                      -0.53352                      89.07402
                      -5.58560                      -0.60579                      88.85902
                      -5.24040                      -0.64747                      88.71939
                      -4.86993                      -0.65594                      88.66391
                      -4.49748                      -0.63066                      88.69605
                      -4.14644                      -0.57323                      88.81380
                      -3.83887                      -0.48724                      89.00976
                      -3.59409                      -0.37811                      89.27162
                      -3.42749                      -0.25269                      89.58292
                      -3.36119                      -0.23548                      89.97034
                      -3.37661                      -0.10306                      90.31628
                      -3.48362                       0.02103                      90.64884
                      -3.67549                       0.12901                      90.94713
                      -3.94017                       0.21409                      91.19240
                      -4.26103                       0.27091                      91.36923
                      -4.61790                       0.29592                      91.46653
                      -4.98836                       0.28754                      91.47817
                      -5.34914                       0.24629                      91.40342
                      -5.67756                       0.17477                      91.24699
                      -5.95300                       0.07748                      91.01869
                      -6.15813                      -0.03948                      90.73288
                      -6.28008                      -0.16876                      90.40751
                      -6.31118                      -0.30223                      90.06303
                      -6.24948                      -0.43151                      89.72108
                      -6.09885                      -0.54847                      89.40315
                      -5.86876                      -0.64576                      89.12922
                      -5.57367                      -0.71728                      88.91649
                      -5.23211                      -0.75852                      88.77833
                      -4.86555                      -0.76690                      88.72343
                      -4.49703                      -0.74189                      88.75523
                      -4.14969                      -0.68506                      88.87174
                      -3.84536                      -0.59998                      89.06564
                      -3.60317                      -0.49200                      89.32473
                      -3.43832                      -0.36790                      89.63275
                      -3.38369                      -0.35210                      90.01755
                      -3.39883                      -0.22207                      90.35726
                      -3.50391                      -0.10021                      90.68383
                      -3.69233                       0.00583                      90.97674
                      -3.95224                       0.08937                      91.21759
                      -4.26731                       0.14517                      91.39124
                      -4.61775                       0.16973                      91.48678
                      -4.98154                       0.16150                      91.49821
                      -5.33581                       0.12099                      91.42482
                      -5.65832                       0.05076                      91.27120
                      -5.92879                      -0.04478                      91.04702
                      -6.13023                      -0.15963                      90.76636
                      -6.24998                      -0.28658                      90.44685
                      -6.28052                      -0.41765                      90.10858
                      -6.21993                      -0.54459                      89.77279
                      -6.07202                      -0.65945                      89.46059
                      -5.84607                      -0.75499                      89.19159
                      -5.55630                      -0.82521                      88.98269
                      -5.22089                      -0.86571                      88.84703
                      -4.86094                      -0.87394                      88.79312
                      -4.49906                      -0.84938                      88.82435
                      -4.15798                      -0.79357                      88.93876
                      -3.85913                      -0.71003                      89.12916
                      -3.62130                      -0.60399                      89.38358
                      -3.45943                      -0.48213                      89.68605
                      -3.41764                      -0.46872                      90.06580
                      -3.43239                      -0.34210                      90.39659
                      -3.53471                      -0.22344                      90.71458
                      -3.71817                      -0.12020                      90.99979
                      -3.97125                      -0.03885                      91.23431
                      -4.27805                       0.01549                      91.40340
                      -4.61928                       0.03940                      91.49644
                      -4.97351                       0.03138                      91.50757
                      -5.31848                      -0.00805                      91.43610
                      -5.63252                      -0.07644                      91.28651
                      -5.89588                      -0.16947                      91.06822
                      -6.09203                      -0.28131                      90.79494
                      -6.20863                      -0.40492                      90.48382
                      -6.23837                      -0.53254                      90.15444
                      -6.17937                      -0.65616                      89.82747
                      -6.03534                      -0.76799                      89.52347
                      -5.81534                      -0.86102                      89.26154
                      -5.53317                      -0.92940                      89.05813
                      -5.20658                      -0.96884                      88.92603
                      -4.85609                      -0.97685                      88.87353
                      -4.50371                      -0.95293                      88.90394
                      -4.17159                      -0.89859                      89.01535
                      -3.88059                      -0.81724                      89.20074
                      -3.64901                      -0.71399                      89.44849
                      -3.49139                      -0.59533                      89.74301
                      -3.46401                      -0.58534                      90.11517
                      -3.47823                      -0.46325                      90.43412
                      -3.57689                      -0.34884                      90.74073
                      -3.75379                      -0.24929                      91.01573
                      -3.99781                      -0.17086                      91.24186
                      -4.29362                      -0.11846                      91.40489
                      -4.62264                      -0.09541                      91.49459
                      -4.96419                      -0.10314                      91.50533
                      -5.29681                      -0.14116                      91.43641
                      -5.59960                      -0.20710                      91.29219
                      -5.85354                      -0.29680                      91.08171
                      -6.04267                      -0.40464                      90.81821
                      -6.15510                      -0.52382                      90.51823
                      -6.18377                      -0.64688                      90.20064
                      -6.12688                      -0.76606                      89.88537
                      -5.98801                      -0.87390                      89.59226
                      -5.77588                      -0.96360                      89.33970
                      -5.50382                      -1.02953                      89.14357
                      -5.18892                      -1.06755                      89.01620
                      -4.85097                      -1.07528                      88.96558
                      -4.51120                      -1.05222                      88.99490
                      -4.19097                      -0.99982                      89.10232
                      -3.91039                      -0.92139                      89.28108
                      -3.68710                      -0.82183                      89.51996
                      -3.53513                      -0.70742                      89.80394
                      -3.52425                      -0.70196                      90.16580
                      -3.53780                      -0.58565                      90.46964
                      -3.63179                      -0.47666                      90.76174
                      -3.80031                      -0.38182                      91.02372
                      -4.03278                      -0.30710                      91.23914
                      -4.31459                      -0.25718                      91.39446
                      -4.62804                      -0.23522                      91.47992
                      -4.95342                      -0.24258                      91.49014
                      -5.27029                      -0.27881                      91.42449
                      -5.55875                      -0.34162                      91.28709
                      -5.80066                      -0.42708                      91.08658
                      -5.98084                      -0.52981                      90.83555
                      -6.08795                      -0.64336                      90.54977
                      -6.11526                      -0.76058                      90.24721
                      -6.06107                      -0.87413                      89.94688
                      -5.92877                      -0.97686                      89.66763
                      -5.72668                      -1.06231                      89.42703
                      -5.46750                      -1.12512                      89.24019
                      -5.16750                      -1.16135                      89.11885
                      -4.84555                      -1.16870                      89.07063
                      -4.52187                      -1.14674                      89.09856
                      -4.21680                      -1.09682                      89.20089
                      -3.94951                      -1.02210                      89.37119
                      -3.73678                      -0.92726                      89.59876
                      -3.59200                      -0.81826                      89.86929
                      -3.60057                      -0.81857                      90.21787
                      -3.61327                      -0.70950                      90.50284
                      -3.70142                      -0.60727                      90.77679
                      -3.85948                      -0.51832                      91.02251
                      -4.07751                      -0.44824                      91.22455
                      -4.34182                      -0.40143                      91.37022
                      -4.63579                      -0.38083                      91.45037
                      -4.94096                      -0.38773                      91.45995
                      -5.23815                      -0.42171                      91.39838
                      -5.50869                      -0.48063                      91.26952
                      -5.73558                      -0.56077                      91.08146
                      -5.90456                      -0.65712                      90.84602
                      -6.00502                      -0.76361                      90.57800
                      -6.03064                      -0.87356                      90.29423
                      -5.97981                      -0.98005                      90.01255
                      -5.85573                      -1.07640                      89.75065
                      -5.66619                      -1.15655                      89.52499
                      -5.42311                      -1.21546                      89.34976
                      -5.14175                      -1.24943                      89.23595
                      -4.83980                      -1.25633                      89.19073
                      -4.53622                      -1.23573                      89.21692
                      -4.25010                      -1.18891                      89.31290
                      -3.99941                      -1.11883                      89.47262
                      -3.79990                      -1.02988                      89.68605
                      -3.66411                      -0.92765                      89.93978
                      -3.69643                      -0.93519                      90.27171
                      -3.70809                      -0.83510                      90.53322
                      -3.78898                      -0.74129                      90.78461
                      -3.93402                      -0.65966                      91.01010
                      -4.13410                      -0.59535                      91.19550
                      -4.37665                      -0.55240                      91.32918
                      -4.64641                      -0.53349                      91.40272
                      -4.92646                      -0.53983                      91.41152
                      -5.19918                      -0.57101                      91.35502
                      -5.44745                      -0.62507                      91.23677
                      -5.65565                      -0.69862                      91.06419
                      -5.81072                      -0.78703                      90.84814
                      -5.90291                      -0.88476                      90.60218
                      -5.92642                      -0.98565                      90.34178
                      -5.87977                      -1.08338                      90.08329
                      -5.76591                      -1.17179                      89.84296
                      -5.59198                      -1.24534                      89.63588
                      -5.36891                      -1.29940                      89.47507
                      -5.11071                      -1.33057                      89.37064
                      -4.83362                      -1.33691                      89.32914
                      -4.55504                      -1.31800                      89.35318
                      -4.29248                      -1.27504                      89.44125
                      -4.06243                      -1.21073                      89.58782
                      -3.87935                      -1.12910                      89.78368
                      -3.75474                      -1.03529                      90.01652
                      -3.81775                      -1.05181                      90.32785
                      -3.82810                      -0.96298                      90.55991
                      -3.89988                      -0.87974                      90.78300
                      -4.02859                      -0.80730                      90.98310
                      -4.20615                      -0.75023                      91.14763
                      -4.42138                      -0.71211                      91.26626
                      -4.66078                      -0.69534                      91.33152
                      -4.90929                      -0.70096                      91.33933
                      -5.15131                      -0.72863                      91.28919
                      -5.37162                      -0.77661                      91.18425
                      -5.55639                      -0.84187                      91.03111
                      -5.69400                      -0.92033                      90.83938
                      -5.77580                      -1.00706                      90.62112
                      -5.79667                      -1.09659                      90.39003
                      -5.75528                      -1.18331                      90.16064
                      -5.65423                      -1.26177                      89.94737
                      -5.49988                      -1.32704                      89.76361
                      -5.30193                      -1.37501                      89.62090
                      -5.07280                      -1.40268                      89.52823
                      -4.82691                      -1.40830                      89.49140
                      -4.57969                      -1.39152                      89.51273
                      -4.34669                      -1.35340                      89.59089
                      -4.14254                      -1.29632                      89.72096
                      -3.98007                      -1.22389                      89.89476
                      -3.86949                      -1.14064                      90.10139
                      -3.97604                      -1.16843                      90.38732
                      -3.98469                      -1.09420                      90.58126
                      -4.04468                      -1.02463                      90.76770
                      -4.15225                      -0.96409                      90.93493
                      -4.30063                      -0.91640                      91.07242
                      -4.48050                      -0.88454                      91.17156
                      -4.68057                      -0.87052                      91.22611
                      -4.88826                      -0.87522                      91.23263
                      -5.09051                      -0.89834                      91.19073
                      -5.27463                      -0.93844                      91.10303
                      -5.42904                      -0.99298                      90.97504
                      -5.54404                      -1.05855                      90.81482
                      -5.61241                      -1.13103                      90.63241
                      -5.62985                      -1.20585                      90.43929
                      -5.59525                      -1.27833                      90.24759
                      -5.51081                      -1.34390                      90.06935
                      -5.38182                      -1.39844                      89.91578
                      -5.21639                      -1.43853                      89.79652
                      -5.02491                      -1.46165                      89.71907
                      -4.81941                      -1.46635                      89.68829
                      -4.61281                      -1.45233                      89.70612
                      -4.41809                      -1.42047                      89.77144
                      -4.24748                      -1.37277                      89.88014
                      -4.11170                      -1.31224                      90.02539
                      -4.01929                      -1.24267                      90.19807
                      -4.20074                      -1.28505                      90.45280
                      -4.20700                      -1.23138                      90.59301
                      -4.25037                      -1.18108                      90.72781
                      -4.32814                      -1.13732                      90.84871
                      -4.43542                      -1.10283                      90.94812
                      -4.56547                      -1.07980                      91.01980
                      -4.71012                      -1.06966                      91.05923
                      -4.86027                      -1.07306                      91.06395
                      -5.00650                      -1.08978                      91.03366
                      -5.13962                      -1.11877                      90.97025
                      -5.25126                      -1.15820                      90.87772
                      -5.33441                      -1.20561                      90.76187
                      -5.38383                      -1.25801                      90.62999
                      -5.39644                      -1.31211                      90.49037
                      -5.37143                      -1.36451                      90.35177
                      -5.31038                      -1.41191                      90.22290
                      -5.21712                      -1.45135                      90.11187
                      -5.09751                      -1.48033                      90.02565
                      -4.95907                      -1.49705                      89.96965
                      -4.81050                      -1.50045                      89.94740
                      -4.66112                      -1.49031                      89.96029
                      -4.52034                      -1.46727                      90.00751
                      -4.39699                      -1.43279                      90.08610
                      -4.29882                      -1.38902                      90.19112
                      -4.23201                      -1.33872                      90.31596
                      -4.79375                      -1.40167                      90.55152
                      -4.79375                      -1.40167                      90.55152
                      -4.79375                      -1.40167                      90.55152
                      -4.79375                      -1.40167                      90.55152
                      -4.79375                      -1.40167                      90.55152
                      -4.79375                      -1.40167                      90.55152
                      -4.79375                      -1.40167                      90.55152
                      -4.79375                      -1.40167                      90.55152
                      -4.79375                      -1.40167                      90.55152
                      -4.79375                      -1.40167                      90.55152
                      -4.79375                      -1.40167                      90.55152
                      -4.79375                      -1.40167                      90.55152
                      -4.79375                      -1.40167                      90.55152
                      -4.79375                      -1.40167                      90.55152
                      -4.79375                      -1.40167                      90.55152
                      -4.79375                      -1.40167                      90.55152
                      -4.79375                      -1.40167                      90.55152
                      -4.79375                      -1.40167                      90.55152
                      -4.79375                      -1.40167                      90.55152
                      -4.79375                      -1.40167                      90.55152
                      -4.79375                      -1.40167                      90.55152
                      -4.79375                      -1.40167                      90.55152
                      -4.79375                      -1.40167                      90.55152
                      -4.79375                      -1.40167                      90.55152
                      -4.79375                      -1.40167                      90.55152
        </DataArray>
      </Points>
      <Polys>
        <DataArray type="Int32" Name="connectivity" format="ascii">
      0      1     26     25
      1      2     27     26
      2      3     28     27
      3      4     29     28
      4      5     30     29
      5      6     31     30
      6      7     32     31
      7      8     33     32
      8      9     34     33
      9     10     35     34
     10     11     36     35
     11     12     37     36
     12     13     38     37
     13     14     39     38
     14     15     40     39
     15     16     41     40
     16     17     42     41
     17     18     43     42
     18     19     44     43
     19     20     45     44
     20     21     46     45
     21     22     47     46
     22     23     48     47
     23     24     49     48
     24      0     25     49
     25     26     51     50
     26     27     52     51
     27     28     53     52
     28     29     54     53
     29     30     55     54
     30     31     56     55
     31     32     57     56
     32     33     58     57
     33     34     59     58
     34     35     60     59
     35     36     61     60
     36     37     62     61
     37     38     63     62
     38     39     64     63
     39     40     65     64
     40     41     66     65
     41     42     67     66
     42     43     68     67
     43     44     69     68
     44     45     70     69
     45     46     71     70
     46     47     72     71
     47     48     73     72
     48     49     74     73
     49     25     50     74
     50     51     76     75
     51     52     77     76
     52     53     78     77
     53     54     79     78
     54     55     80     79
     55     56     81     80
     56     57     82     81
     57     58     83     82
     58     59     84     83
     59     60     85     84
     60     61     86     85
     61     62     87     86
     62     63     88     87
     63     64     89     88
     64     65     90     89
     65     66     91     90
     66     67     92     91
     67     68     93     92
     68     69     94     93
     69     70     95     94
     70     71     96     95
     71     72     97     96
     72     73     98     97
     73     74     99     98
     74     50     75     99
     75     76    101    100
     76     77    102    101
     77     78    103    102
     78     79    104    103
     79     80    105    104
     80     81    106    105
     81     82    107    106
     82     83    108    107
     83     84    109    108
     84     85    110    109
     85     86    111    110
     86     87    112    111
     87     88    113    112
     88     89    114    113
     89     90    115    114
     90     91    116    115
     91     92    117    116
     92     93    118    117
     93     94    119    118
     94     95    120    119
     95     96    121    120
     96     97    122    121
     97     98    123    122
     98     99    124    123
     99     75    100    124
    100    101    126    125
    101    102    127    126
    102    103    128    127
    103    104    129    128
    104    105    130    129
    105    106    131    130
    106    107    132    131
    107    108    133    132
    108    109    134    133
    109    110    135    134
    110    111    136    135
    111    112    137    136
    112    113    138    137
    113    114    139    138
    114    115    140    139
    115    116    141    140
    116    117    142    141
    117    118    143    142
    118    119    144    143
    119    120    145    144
    120    121    146    145
    121    122    147    146
    122    123    148    147
    123    124    149    148
    124    100    125    149
    125    126    151    150
    126    127    152    151
    127    128    153    152
    128    129    154    153
    129    130    155    154
    130    131    156    155
    131    132    157    156
    132    133    158    157
    133    134    159    158
    134    135    160    159
    135    136    161    160
    136    137    162    161
    137    138    163    162
    138    139    164    163
    139    140    165    164
    140    141    166    165
    141    142    167    166
    142    143    168    167
    143    144    169    168
    144    145    170    169
    145    146    171    170
    146    147    172    171
    147    148    173    172
    148    149    174    173
    149    125    150    174
    150    151    176    175
    151    152    177    176
    152    153    178    177
    153    154    179    178
    154    155    180    179
    155    156    181    180
    156    157    182    181
    157    158    183    182
    158    159    184    183
    159    160    185    184
    160    161    186    185
    161    162    187    186
    162    163    188    187
    163    164    189    188
    164    165    190    189
    165    166    191    190
    166    167    192    191
    167    168    193    192
    168    169    194    193
    169    170    195    194
    170    171    196    195
    171    172    197    196
    172    173    198    197
    173    174    199    198
    174    150    175    199
    175    176    201    200
    176    177    202    201
    177    178    203    202
    178    179    204    203
    179    180    205    204
    180    181    206    205
    181    182    207    206
    182    183    208    207
    183    184    209    208
    184    185    210    209
    185    186    211    210
    186    187    212    211
    187    188    213    212
    188    189    214    213
    189    190    215    214
    190    191    216    215
    191    192    217    216
    192    193    218    217
    193    194    219    218
    194    195    220    219
    195    196    221    220
    196    197    222    221
    197    198    223    222
    198    199    224    223
    199    175    200    224
    200    201    226    225
    201    202    227    226
    202    203    228    227
    203    204    229    228
    204    205    230    229
    205    206    231    230
    206    207    232    231
    207    208    233    232
    208    209    234    233
    209    210    235    234
    210    211    236    235
    211    212    237    236
    212    213    238    237
    213    214    239    238
    214    215    240    239
    215    216    241    240
    216    217    242    241
    217    218    243    242
    218    219    244    243
    219    220    245    244
    220    221    246    245
    221    222    247    246
    222    223    248    247
    223    224    249    248
    224    200    225    249
    225    226    251    250
    226    227    252    251
    227    228    253    252
    228    229    254    253
    229    230    255    254
    230    231    256    255
    231    232    257    256
    232    233    258    257
    233    234    259    258
    234    235    260    259
    235    236    261    260
    236    237    262    261
    237    238    263    262
    238    239    264    263
    239    240    265    264
    240    241    266    265
    241    242    267    266
    242    243    268    267
    243    244    269    268
    244    245    270    269
    245    246    271    270
    246    247    272    271
    247    248    273    272
    248    249    274    273
    249    225    250    274
    250    251    276    275
    251    252    277    276
    252    253    278    277
    253    254    279    278
    254    255    280    279
    255    256    281    280
    256    257    282    281
    257    258    283    282
    258    259    284    283
    259    260    285    284
    260    261    286    285
    261    262    287    286
    262    263    288    287
    263    264    289    288
    264    265    290    289
    265    266    291    290
    266    267    292    291
    267    268    293    292
    268    269    294    293
    269    270    295    294
    270    271    296    295
    271    272    297    296
    272    273    298    297
    273    274    299    298
    274    250    275    299
    275    276    301    300
    276    277    302    301
    277    278    303    302
    278    279    304    303
    279    280    305    304
    280    281    306    305
    281    282    307    306
    282    283    308    307
    283    284    309    308
    284    285    310    309
    285    286    311    310
    286    287    312    311
    287    288    313    312
    288    289    314    313
    289    290    315    314
    290    291    316    315
    291    292    317    316
    292    293    318    317
    293    294    319    318
    294    295    320    319
    295    296    321    320
    296    297    322    321
    297    298    323    322
    298    299    324    323
    299    275    300    324
    300    301    326    325
    301    302    327    326
    302    303    328    327
    303    304    329    328
    304    305    330    329
    305    306    331    330
    306    307    332    331
    307    308    333    332
    308    309    334    333
    309    310    335    334
    310    311    336    335
    311    312    337    336
    312    313    338    337
    313    314    339    338
    314    315    340    339
    315    316    341    340
    316    317    342    341
    317    318    343    342
    318    319    344    343
    319    320    345    344
    320    321    346    345
    321    322    347    346
    322    323    348    347
    323    324    349    348
    324    300    325    349
    325    326    351    350
    326    327    352    351
    327    328    353    352
    328    329    354    353
    329    330    355    354
    330    331    356    355
    331    332    357    356
    332    333    358    357
    333    334    359    358
    334    335    360    359
    335    336    361    360
    336    337    362    361
    337    338    363    362
    338    339    364    363
    339    340    365    364
    340    341    366    365
    341    342    367    366
    342    343    368    367
    343    344    369    368
    344    345    370    369
    345    346    371    370
    346    347    372    371
    347    348    373    372
    348    349    374    373
    349    325    350    374
    350    351    376    375
    351    352    377    376
    352    353    378    377
    353    354    379    378
    354    355    380    379
    355    356    381    380
    356    357    382    381
    357    358    383    382
    358    359    384    383
    359    360    385    384
    360    361    386    385
    361    362    387    386
    362    363    388    387
    363    364    389    388
    364    365    390    389
    365    366    391    390
    366    367    392    391
    367    368    393    392
    368    369    394    393
    369    370    395    394
    370    371    396    395
    371    372    397    396
    372    373    398    397
    373    374    399    398
    374    350    375    399
    375    376    401    400
    376    377    402    401
    377    378    403    402
    378    379    404    403
    379    380    405    404
    380    381    406    405
    381    382    407    406
    382    383    408    407
    383    384    409    408
    384    385    410    409
    385    386    411    410
    386    387    412    411
    387    388    413    412
    388    389    414    413
    389    390    415    414
    390    391    416    415
    391    392    417    416
    392    393    418    417
    393    394    419    418
    394    395    420    419
    395    396    421    420
    396    397    422    421
    397    398    423    422
    398    399    424    423
    399    375    400    424
    400    401    426    425
    401    402    427    426
    402    403    428    427
    403    404    429    428
    404    405    430    429
    405    406    431    430
    406    407    432    431
    407    408    433    432
    408    409    434    433
    409    410    435    434
    410    411    436    435
    411    412    437    436
    412    413    438    437
    413    414    439    438
    414    415    440    439
    415    416    441    440
    416    417    442    441
    417    418    443    442
    418    419    444    443
    419    420    445    444
    420    421    446    445
    421    422    447    446
    422    423    448    447
    423    424    449    448
    424    400    425    449
    425    426    451    450
    426    427    452    451
    427    428    453    452
    428    429    454    453
    429    430    455    454
    430    431    456    455
    431    432    457    456
    432    433    458    457
    433    434    459    458
    434    435    460    459
    435    436    461    460
    436    437    462    461
    437    438    463    462
    438    439    464    463
    439    440    465    464
    440    441    466    465
    441    442    467    466
    442    443    468    467
    443    444    469    468
    444    445    470    469
    445    446    471    470
    446    447    472    471
    447    448    473    472
    448    449    474    473
    449    425    450    474
    450    451    476    475
    451    452    477    476
    452    453    478    477
    453    454    479    478
    454    455    480    479
    455    456    481    480
    456    457    482    481
    457    458    483    482
    458    459    484    483
    459    460    485    484
    460    461    486    485
    461    462    487    486
    462    463    488    487
    463    464    489    488
    464    465    490    489
    465    466    491    490
    466    467    492    491
    467    468    493    492
    468    469    494    493
    469    470    495    494
    470    471    496    495
    471    472    497    496
    472    473    498    497
    473    474    499    498
    474    450    475    499
    475    476    501    500
    476    477    502    501
    477    478    503    502
    478    479    504    503
    479    480    505    504
    480    481    506    505
    481    482    507    506
    482    483    508    507
    483    484    509    508
    484    485    510    509
    485    486    511    510
    486    487    512    511
    487    488    513    512
    488    489    514    513
    489    490    515    514
    490    491    516    515
    491    492    517    516
    492    493    518    517
    493    494    519    518
    494    495    520    519
    495    496    521    520
    496    497    522    521
    497    498    523    522
    498    499    524    523
    499    475    500    524
    500    501    526    525
    501    502    527    526
    502    503    528    527
    503    504    529    528
    504    505    530    529
    505    506    531    530
    506    507    532    531
    507    508    533    532
    508    509    534    533
    509    510    535    534
    510    511    536    535
    511    512    537    536
    512    513    538    537
    513    514    539    538
    514    515    540    539
    515    516    541    540
    516    517    542    541
    517    518    543    542
    518    519    544    543
    519    520    545    544
    520    521    546    545
    521    522    547    546
    522    523    548    547
    523    524    549    548
    524    500    525    549
    525    526    551    550
    526    527    552    551
    527    528    553    552
    528    529    554    553
    529    530    555    554
    530    531    556    555
    531    532    557    556
    532    533    558    557
    533    534    559    558
    534    535    560    559
    535    536    561    560
    536    537    562    561
    537    538    563    562
    538    539    564    563
    539    540    565    564
    540    541    566    565
    541    542    567    566
    542    543    568    567
    543    544    569    568
    544    545    570    569
    545    546    571    570
    546    547    572    571
    547    548    573    572
    548    549    574    573
    549    525    550    574
    550    551    576    575
    551    552    577    576
    552    553    578    577
    553    554    579    578
    554    555    580    579
    555    556    581    580
    556    557    582    581
    557    558    583    582
    558    559    584    583
    559    560    585    584
    560    561    586    585
    561    562    587    586
    562    563    588    587
    563    564    589    588
    564    565    590    589
    565    566    591    590
    566    567    592    591
    567    568    593    592
    568    569    594    593
    569    570    595    594
    570    571    596    595
    571    572    597    596
    572    573    598    597
    573    574    599    598
    574    550    575    599
    575    576    601    600
    576    577    602    601
    577    578    603    602
    578    579    604    603
    579    580    605    604
    580    581    606    605
    581    582    607    606
    582    583    608    607
    583    584    609    608
    584    585    610    609
    585    586    611    610
    586    587    612    611
    587    588    613    612
    588    589    614    613
    589    590    615    614
    590    591    616    615
    591    592    617    616
    592    593    618    617
    593    594    619    618
    594    595    620    619
    595    596    621    620
    596    597    622    621
    597    598    623    622
    598    599    624    623
    599    575    600    624
        </DataArray>
        <DataArray type="Int32" Name="offsets" format="ascii">
      4
      8
     12
     16
     20
     24
     28
     32
     36
     40
     44
     48
     52
     56
     60
     64
     68
     72
     76
     80
     84
     88
     92
     96
    100
    104
    108
    112
    116
    120
    124
    128
    132
    136
    140
    144
    148
    152
    156
    160
    164
    168
    172
    176
    180
    184
    188
    192
    196
    200
    204
    208
    212
    216
    220
    224
    228
    232
    236
    240
    244
    248
    252
    256
    260
    264
    268
    272
    276
    280
    284
    288
    292
    296
    300
    304
    308
    312
    316
    320
    324
    328
    332
    336
    340
    344
    348
    352
    356
    360
    364
    368
    372
    376
    380
    384
    388
    392
    396
    400
    404
    408
    412
    416
    420
    424
    428
    432
    436
    440
    444
    448
    452
    456
    460
    464
    468
    472
    476
    480
    484
    488
    492
    496
    500
    504
    508
    512
    516
    520
    524
    528
    532
    536
    540
    544
    548
    552
    556
    560
    564
    568
    572
    576
    580
    584
    588
    592
    596
    600
    604
    608
    612
    616
    620
    624
    628
    632
    636
    640
    644
    648
    652
    656
    660
    664
    668
    672
    676
    680
    684
    688
    692
    696
    700
    704
    708
    712
    716
    720
    724
    728
    732
    736
    740
    744
    748
    752
    756
    760
    764
    768
    772
    776
    780
    784
    788
    792
    796
    800
    804
    808
    812
    816
    820
    824
    828
    832
    836
    840
    844
    848
    852
    856
    860
    864
    868
    872
    876
    880
    884
    888
    892
    896
    900
    904
    908
    912
    916
    920
    924
    928
    932
    936
    940
    944
    948
    952
    956
    960
    964
    968
    972
    976
    980
    984
    988
    992
    996
   1000
   1004
   1008
   1012
   1016
   1020
   1024
   1028
   1032
   1036
   1040
   1044
   1048
   1052
   1056
   1060
   1064
   1068
   1072
   1076
   1080
   1084
   1088
   1092
   1096
   1100
   1104
   1108
   1112
   1116
   1120
   1124
   1128
   1132
   1136
   1140
   1144
   1148
   1152
   1156
   1160
   1164
   1168
   1172
   1176
   1180
   1184
   1188
   1192
   1196
   1200
   1204
   1208
   1212
   1216
   1220
   1224
   1228
   1232
   1236
   1240
   1244
   1248
   1252
   1256
   1260
   1264
   1268
   1272
   1276
   1280
   1284
   1288
   1292
   1296
   1300
   1304
   1308
   1312
   1316
   1320
   1324
   1328
   1332
   1336
   1340
   1344
   1348
   1352
   1356
   1360
   1364
   1368
   1372
   1376
   1380
   1384
   1388
   1392
   1396
   1400
   1404
   1408
   1412
   1416
   1420
   1424
   1428
   1432
   1436
   1440
   1444
   1448
   1452
   1456
   1460
   1464
   1468
   1472
   1476
   1480
   1484
   1488
   1492
   1496
   1500
   1504
   1508
   1512
   1516
   1520
   1524
   1528
   1532
   1536
   1540
   1544
   1548
   1552
   1556
   1560
   1564
   1568
   1572
   1576
   1580
   1584
   1588
   1592
   1596
   1600
   1604
   1608
   1612
   1616
   1620
   1624
   1628
   1632
   1636
   1640
   1644
   1648
   1652
   1656
   1660
   1664
   1668
   1672
   1676
   1680
   1684
   1688
   1692
   1696
   1700
   1704
   1708
   1712
   1716
   1720
   1724
   1728
   1732
   1736
   1740
   1744
   1748
   1752
   1756
   1760
   1764
   1768
   1772
   1776
   1780
   1784
   1788
   1792
   1796
   1800
   1804
   1808
   1812
   1816
   1820
   1824
   1828
   1832
   1836
   1840
   1844
   1848
   1852
   1856
   1860
   1864
   1868
   1872
   1876
   1880
   1884
   1888
   1892
   1896
   1900
   1904
   1908
   1912
   1916
   1920
   1924
   1928
   1932
   1936
   1940
   1944
   1948
   1952
   1956
   1960
   1964
   1968
   1972
   1976
   1980
   1984
   1988
   1992
   1996
   2000
   2004
   2008
   2012
   2016
   2020
   2024
   2028
   2032
   2036
   2040
   2044
   2048
   2052
   2056
   2060
   2064
   2068
   2072
   2076
   2080
   2084
   2088
   2092
   2096
   2100
   2104
   2108
   2112
   2116
   2120
   2124
   2128
   2132
   2136
   2140
   2144
   2148
   2152
   2156
   2160
   2164
   2168
   2172
   2176
   2180
   2184
   2188
   2192
   2196
   2200
   2204
   2208
   2212
   2216
   2220
   2224
   2228
   2232
   2236
   2240
   2244
   2248
   2252
   2256
   2260
   2264
   2268
   2272
   2276
   2280
   2284
   2288
   2292
   2296
   2300
   2304
   2308
   2312
   2316
   2320
   2324
   2328
   2332
   2336
   2340
   2344
   2348
   2352
   2356
   2360
   2364
   2368
   2372
   2376
   2380
   2384
   2388
   2392
   2396
   2400
        </DataArray>
      </Polys>
    </Piece>
  </PolyData>
</VTKFile>
