<?xml version="1.0"?>
<VTKFile type="PolyData" version="0.1" byte_order="LittleEndian">
  <PolyData>
    <Piece NumberOfPoints="    550" NumberOfVerts="  0" NumberOfLines="     21"
           NumberOfStrips="  0" NumberOfPolys="    567">
      <Points>
        <DataArray type="Float32" NumberOfComponents="3" format="ascii">
                       2.97344                      -0.00000                       2.18981
                       2.88003                       0.73945                       2.18981
                       2.60566                       1.43243                       2.18983
                       2.16757                       2.03541                       2.18986
                       1.59328                       2.51050                       2.18990
                       0.91889                       2.82784                       2.18995
                       0.18677                       2.96750                       2.19000
                      -0.55709                       2.92071                       2.19004
                      -1.26593                       2.69039                       2.19009
                      -1.89523                       2.29102                       2.19013
                      -2.40544                       1.74770                       2.19016
                      -2.76451                       1.09457                       2.19018
                      -2.94986                       0.37266                       2.19019
                      -2.94986                      -0.37267                       2.19019
                      -2.76451                      -1.09458                       2.19018
                      -2.40544                      -1.74771                       2.19015
                      -1.89523                      -2.29103                       2.19012
                      -1.26593                      -2.69039                       2.19008
                      -0.55709                      -2.92071                       2.19003
                       0.18677                      -2.96751                       2.18998
                       0.91889                      -2.82785                       2.18993
                       1.59328                      -2.51051                       2.18989
                       2.16757                      -2.03542                       2.18985
                       2.60566                      -1.43244                       2.18983
                       2.88003                      -0.73945                       2.18981
                       2.92082                      -0.00002                       6.56934
                       2.82908                       0.72618                       6.56937
                       2.55962                       1.40676                       6.56943
                       2.12937                       1.99894                       6.56953
                       1.56537                       2.46552                       6.56967
                       0.90306                       2.77718                       6.56982
                       0.18405                       2.91434                       6.56998
                      -0.54648                       2.86838                       6.57014
                      -1.24264                       2.64218                       6.57030
                      -1.86066                       2.24997                       6.57043
                      -2.36174                       1.71638                       6.57054
                      -2.71437                       1.07495                       6.57062
                      -2.89641                       0.36596                       6.57065
                      -2.89641                      -0.36601                       6.57065
                      -2.71437                      -1.07499                       6.57060
                      -2.36174                      -1.71643                       6.57052
                      -1.86066                      -2.25002                       6.57040
                      -1.24264                      -2.64223                       6.57026
                      -0.54648                      -2.86843                       6.57010
                       0.18405                      -2.91439                       6.56994
                       0.90306                      -2.77723                       6.56978
                       1.56537                      -2.46557                       6.56963
                       2.12937                      -1.99899                       6.56951
                       2.55962                      -1.40681                       6.56941
                       2.82908                      -0.72623                       6.56936
                       2.86895                      -0.00006                      10.94883
                       2.77888                       0.71290                      10.94888
                       2.51434                       1.38106                      10.94899
                       2.09194                       1.96245                      10.94917
                       1.53822                       2.42052                      10.94940
                       0.88799                       2.72650                      10.94967
                       0.18209                       2.86115                      10.94996
                      -0.53513                       2.81603                      10.95025
                      -1.21858                       2.59396                      10.95053
                      -1.82534                       2.20890                      10.95077
                      -2.31728                       1.68504                      10.95096
                      -2.66348                       1.05530                      10.95110
                      -2.84219                       0.35925                      10.95116
                      -2.84219                      -0.35938                      10.95115
                      -2.66348                      -1.05543                      10.95107
                      -2.31728                      -1.68517                      10.95093
                      -1.82534                      -2.20903                      10.95072
                      -1.21858                      -2.59409                      10.95047
                      -0.53513                      -2.81616                      10.95019
                       0.18209                      -2.86128                      10.94989
                       0.88799                      -2.72662                      10.94961
                       1.53822                      -2.42065                      10.94935
                       2.09194                      -1.96258                      10.94913
                       2.51434                      -1.38119                      10.94896
                       2.77888                      -0.71303                      10.94886
                       2.81790                      -0.00012                      15.32832
                       2.72950                       0.69960                      15.32838
                       2.46987                       1.35535                      15.32855
                       2.05532                       1.92594                      15.32880
                       1.51189                       2.37550                      15.32913
                       0.87373                       2.67580                      15.32952
                       0.18094                       2.80795                      15.32993
                      -0.52295                       2.76367                      15.33035
                      -1.19371                       2.54572                      15.33075
                      -1.78920                       2.16781                      15.33110
                      -2.27200                       1.65369                      15.33138
                      -2.61177                       1.03564                      15.33158
                      -2.78716                       0.35252                      15.33167
                      -2.78716                      -0.35276                      15.33166
                      -2.61177                      -1.03589                      15.33155
                      -2.27200                      -1.65393                      15.33134
                      -1.78920                      -2.16806                      15.33104
                      -1.19371                      -2.54596                      15.33068
                      -0.52295                      -2.76391                      15.33027
                       0.18094                      -2.80819                      15.32985
                       0.87373                      -2.67604                      15.32944
                       1.51189                      -2.37574                      15.32906
                       2.05532                      -1.92618                      15.32875
                       2.46987                      -1.35559                      15.32851
                       2.72950                      -0.69984                      15.32836
                       2.76768                      -0.00019                      19.70783
                       2.68096                       0.68629                      19.70791
                       2.42624                       1.32963                      19.70812
                       2.01953                       1.88941                      19.70845
                       1.48639                       2.33047                      19.70888
                       0.86031                       2.62508                      19.70937
                       0.18063                       2.75474                      19.70991
                      -0.50994                       2.71129                      19.71045
                      -1.16800                       2.49747                      19.71097
                      -1.75222                       2.12671                      19.71142
                      -2.22588                       1.62232                      19.71178
                      -2.55923                       1.01597                      19.71203
                      -2.73130                       0.34577                      19.71216
                      -2.73130                      -0.34616                      19.71214
                      -2.55923                      -1.01635                      19.71200
                      -2.22588                      -1.62270                      19.71172
                      -1.75222                      -2.12710                      19.71134
                      -1.16800                      -2.49785                      19.71088
                      -0.50994                      -2.71167                      19.71036
                       0.18063                      -2.75512                      19.70981
                       0.86031                      -2.62546                      19.70928
                       1.48639                      -2.33085                      19.70879
                       2.01953                      -1.88980                      19.70838
                       2.42624                      -1.33001                      19.70807
                       2.68096                      -0.68667                      19.70788
                       2.71828                      -0.00028                      24.08737
                       2.63323                       0.67296                      24.08747
                       2.38342                       1.30389                      24.08773
                       1.98456                       1.85288                      24.08812
                       1.46170                       2.28542                      24.08864
                       0.84770                       2.57435                      24.08924
                       0.18113                       2.70151                      24.08989
                      -0.49611                       2.65890                      24.09054
                      -1.14149                       2.44920                      24.09116
                      -1.71443                       2.08560                      24.09171
                      -2.17896                       1.59093                      24.09215
                      -2.50587                       0.99628                      24.09246
                      -2.67463                       0.33901                      24.09261
                      -2.67463                      -0.33957                      24.09259
                      -2.50587                      -0.99684                      24.09241
                      -2.17896                      -1.59149                      24.09208
                      -1.71443                      -2.08615                      24.09162
                      -1.14149                      -2.44976                      24.09106
                      -0.49611                      -2.65945                      24.09043
                       0.18113                      -2.70206                      24.08977
                       0.84770                      -2.57491                      24.08913
                       1.46170                      -2.28598                      24.08854
                       1.98456                      -1.85343                      24.08805
                       2.38342                      -1.30445                      24.08767
                       2.63323                      -0.67351                      24.08744
                       2.66966                      -0.00038                      28.46696
                       2.58628                       0.65961                      28.46707
                       2.34139                       1.27814                      28.46736
                       1.95037                       1.81632                      28.46782
                       1.43780                       2.24036                      28.46842
                       0.83587                       2.52361                      28.46912
                       0.18242                       2.64826                      28.46987
                      -0.48150                       2.60649                      28.47063
                      -1.11418                       2.40092                      28.47135
                      -1.67586                       2.04447                      28.47198
                      -2.13125                       1.55953                      28.47249
                      -2.45173                       0.97658                      28.47284
                      -2.61716                       0.33224                      28.47302
                      -2.61716                      -0.33300                      28.47300
                      -2.45173                      -0.97733                      28.47279
                      -2.13125                      -1.56029                      28.47241
                      -1.67586                      -2.04522                      28.47188
                      -1.11418                      -2.40168                      28.47123
                      -0.48150                      -2.60725                      28.47050
                       0.18242                      -2.64902                      28.46974
                       0.83587                      -2.52436                      28.46899
                       1.43780                      -2.24112                      28.46831
                       1.95037                      -1.81708                      28.46774
                       2.34139                      -1.27889                      28.46730
                       2.58628                      -0.66037                      28.46704
                       2.62179                      -0.00049                      32.84657
                       2.54009                       0.64626                      32.84670
                       2.30011                       1.25237                      32.84703
                       1.91694                       1.77976                      32.84755
                       1.41465                       2.19529                      32.84822
                       0.82481                       2.47285                      32.84900
                       0.18446                       2.59500                      32.84985
                      -0.46614                       2.55407                      32.85070
                      -1.08612                       2.35262                      32.85151
                      -1.63653                       2.00332                      32.85223
                      -2.08278                       1.52812                      32.85280
                      -2.39683                       0.95686                      32.85320
                      -2.55895                       0.32545                      32.85339
                      -2.55895                      -0.32644                      32.85337
                      -2.39683                      -0.95785                      32.85314
                      -2.08278                      -1.52910                      32.85271
                      -1.63653                      -2.00431                      32.85211
                      -1.08612                      -2.35361                      32.85138
                      -0.46614                      -2.55505                      32.85056
                       0.18446                      -2.59599                      32.84970
                       0.82481                      -2.47383                      32.84887
                       1.41465                      -2.19627                      32.84810
                       1.91694                      -1.78074                      32.84745
                       2.30011                      -1.25335                      32.84696
                       2.54009                      -0.64724                      32.84666
                       2.57467                      -0.00062                      37.22621
                       2.49464                       0.63289                      37.22635
                       2.25958                       1.22659                      37.22671
                       1.88425                       1.74318                      37.22729
                       1.39225                       2.15020                      37.22803
                       0.81448                       2.42208                      37.22889
                       0.18725                       2.54173                      37.22983
                      -0.45003                       2.50163                      37.23077
                      -1.05732                       2.30431                      37.23167
                      -1.59646                       1.96216                      37.23246
                      -2.03357                       1.49669                      37.23309
                      -2.34119                       0.93713                      37.23353
                      -2.49999                       0.31865                      37.23374
                      -2.49999                      -0.31989                      37.23372
                      -2.34119                      -0.93837                      37.23347
                      -2.03357                      -1.49793                      37.23300
                      -1.59646                      -1.96341                      37.23233
                      -1.05732                      -2.30555                      37.23152
                      -0.45003                      -2.50288                      37.23062
                       0.18725                      -2.54297                      37.22967
                       0.81448                      -2.42332                      37.22874
                       1.39225                      -2.15144                      37.22789
                       1.88425                      -1.74442                      37.22718
                       2.25958                      -1.22783                      37.22664
                       2.49464                      -0.63413                      37.22631
                       2.52829                      -0.00077                      41.60586
                       2.44993                       0.61950                      41.60601
                       2.21978                       1.20079                      41.60641
                       1.85230                       1.70658                      41.60703
                       1.37058                       2.10509                      41.60784
                       0.80489                       2.37129                      41.60879
                       0.19077                       2.48844                      41.60981
                      -0.43319                       2.44918                      41.61084
                      -1.02778                       2.25599                      41.61182
                      -1.55565                       1.92099                      41.61268
                      -1.98362                       1.46524                      41.61337
                      -2.28481                       0.91738                      41.61385
                      -2.44029                       0.31183                      41.61408
                      -2.44029                      -0.31336                      41.61406
                      -2.28481                      -0.91891                      41.61379
                      -1.98362                      -1.46678                      41.61327
                      -1.55565                      -1.92252                      41.61254
                      -1.02778                      -2.25752                      41.61166
                      -0.43319                      -2.45071                      41.61067
                       0.19077                      -2.48997                      41.60964
                       0.80489                      -2.37282                      41.60862
                       1.37058                      -2.10662                      41.60770
                       1.85230                      -1.70811                      41.60691
                       2.21978                      -1.20232                      41.60632
                       2.44993                      -0.62103                      41.60596
                       2.48267                      -0.00092                      45.98550
                       2.40598                       0.60610                      45.98567
                       2.18075                       1.17498                      45.98610
                       1.82111                       1.66997                      45.98678
                       1.34968                       2.05998                      45.98766
                       0.79607                       2.32049                      45.98868
                       0.19506                       2.43513                      45.98979
                      -0.41558                       2.39672                      45.99090
                      -0.99748                       2.20765                      45.99196
                      -1.51407                       1.87980                      45.99289
                      -1.93291                       1.43379                      45.99364
                      -2.22767                       0.89762                      45.99416
                      -2.37983                       0.30500                      45.99442
                      -2.37983                      -0.30685                      45.99440
                      -2.22767                      -0.89947                      45.99410
                      -1.93291                      -1.43563                      45.99354
                      -1.51407                      -1.88165                      45.99275
                      -0.99748                      -2.20949                      45.99179
                      -0.41558                      -2.39856                      45.99072
                       0.19506                      -2.43698                      45.98960
                       0.79607                      -2.32233                      45.98850
                       1.34968                      -2.06182                      45.98750
                       1.82111                      -1.67182                      45.98665
                       2.18075                      -1.17682                      45.98601
                       2.40598                      -0.60794                      45.98562
                       2.43784                      -0.00110                      50.36515
                       2.36283                       0.59268                      50.36533
                       2.14251                       1.14915                      50.36579
                       1.79072                       1.63334                      50.36652
                       1.32957                       2.01484                      50.36747
                       0.78804                       2.26967                      50.36857
                       0.20014                       2.38182                      50.36976
                      -0.39717                       2.34424                      50.37097
                      -0.96638                       2.15929                      50.37211
                      -1.47171                       1.83860                      50.37311
                      -1.88140                       1.40231                      50.37392
                      -2.16973                       0.87785                      50.37448
                      -2.31857                       0.29815                      50.37476
                      -2.31857                      -0.30035                      50.37473
                      -2.16973                      -0.88004                      50.37441
                      -1.88140                      -1.40451                      50.37380
                      -1.47171                      -1.84079                      50.37296
                      -0.96638                      -2.16148                      50.37193
                      -0.39718                      -2.34643                      50.37077
                       0.20014                      -2.38401                      50.36957
                       0.78804                      -2.27186                      50.36838
                       1.32957                      -2.01704                      50.36730
                       1.79072                      -1.63554                      50.36639
                       2.14251                      -1.15134                      50.36570
                       2.36283                      -0.59488                      50.36528
                       2.39385                      -0.00128                      54.74479
                       2.32051                       0.57925                      54.74498
                       2.10510                       1.12331                      54.74548
                       1.76116                       1.59670                      54.74626
                       1.31030                       1.96969                      54.74728
                       0.78084                       2.21884                      54.74846
                       0.20606                       2.32848                      54.74974
                      -0.37794                       2.29174                      54.75103
                      -0.93444                       2.11092                      54.75225
                      -1.42850                       1.79738                      54.75333
                      -1.82906                       1.37083                      54.75420
                      -2.11096                       0.85806                      54.75480
                      -2.25648                       0.29129                      54.75509
                      -2.25648                      -0.29386                      54.75507
                      -2.11096                      -0.86063                      54.75472
                      -1.82906                      -1.37340                      54.75407
                      -1.42850                      -1.79995                      54.75317
                      -0.93445                      -2.11349                      54.75206
                      -0.37794                      -2.29431                      54.75082
                       0.20606                      -2.33105                      54.74953
                       0.78084                      -2.22141                      54.74826
                       1.31030                      -1.97226                      54.74710
                       1.76116                      -1.59927                      54.74612
                       2.10510                      -1.12588                      54.74538
                       2.32051                      -0.58182                      54.74493
                       2.35073                      -0.00149                      59.12444
                       2.27907                       0.56581                      59.12464
                       2.06857                       1.09745                      59.12517
                       1.73248                       1.56005                      59.12600
                       1.29190                       1.92453                      59.12708
                       0.77452                       2.16799                      59.12835
                       0.21285                       2.27514                      59.12971
                      -0.35783                       2.23923                      59.13108
                      -0.90164                       2.06254                      59.13239
                      -1.38443                       1.75615                      59.13354
                      -1.77585                       1.33933                      59.13446
                      -2.05132                       0.83825                      59.13511
                      -2.19352                       0.28441                      59.13542
                      -2.19352                      -0.28739                      59.13540
                      -2.05132                      -0.84122                      59.13503
                      -1.77585                      -1.34230                      59.13434
                      -1.38443                      -1.75912                      59.13337
                      -0.90164                      -2.06551                      59.13219
                      -0.35783                      -2.24221                      59.13087
                       0.21285                      -2.27811                      59.12949
                       0.77452                      -2.17097                      59.12814
                       1.29190                      -1.92750                      59.12690
                       1.73248                      -1.56302                      59.12585
                       2.06857                      -1.10043                      59.12507
                       2.27907                      -0.56878                      59.12458
                       2.30850                      -0.00170                      63.50410
                       2.23851                       0.55235                      63.50431
                       2.03293                       1.07159                      63.50488
                       1.70468                       1.52339                      63.50576
                       1.27439                       1.87936                      63.50690
                       0.76908                       2.11713                      63.50824
                       0.22052                       2.22178                      63.50968
                      -0.33683                       2.18671                      63.51113
                      -0.86795                       2.01414                      63.51251
                      -1.33946                       1.71491                      63.51373
                      -1.72175                       1.30781                      63.51471
                      -1.99078                       0.81844                      63.51539
                      -2.12967                       0.27753                      63.51573
                      -2.12967                      -0.28093                      63.51570
                      -1.99078                      -0.82184                      63.51531
                      -1.72175                      -1.31121                      63.51458
                      -1.33946                      -1.71831                      63.51356
                      -0.86795                      -2.01754                      63.51231
                      -0.33683                      -2.19011                      63.51091
                       0.22052                      -2.22518                      63.50945
                       0.76908                      -2.12054                      63.50802
                       1.27439                      -1.88276                      63.50671
                       1.70468                      -1.52679                      63.50560
                       2.03293                      -1.07499                      63.50477
                       2.23851                      -0.55575                      63.50426
                       2.26713                      -0.00193                      67.88381
                       2.19882                       0.53888                      67.88403
                       1.99815                       1.04571                      67.88462
                       1.67775                       1.48671                      67.88554
                       1.25774                       1.83417                      67.88674
                       0.76451                       2.06627                      67.88814
                       0.22906                       2.16841                      67.88965
                      -0.31496                       2.13418                      67.89117
                      -0.83339                       1.96573                      67.89262
                      -1.29363                       1.67365                      67.89389
                      -1.66678                       1.27629                      67.89492
                      -1.92939                       0.79861                      67.89563
                      -2.06495                       0.27063                      67.89598
                      -2.06495                      -0.27448                      67.89595
                      -1.92939                      -0.80246                      67.89555
                      -1.66678                      -1.28014                      67.89478
                      -1.29363                      -1.67750                      67.89372
                      -0.83339                      -1.96959                      67.89241
                      -0.31496                      -2.13803                      67.89095
                       0.22906                      -2.17226                      67.88942
                       0.76451                      -2.07012                      67.88792
                       1.25774                      -1.83802                      67.88655
                       1.67775                      -1.49056                      67.88539
                       1.99815                      -1.04956                      67.88451
                       2.19882                      -0.54273                      67.88397
                       2.22654                      -0.00216                      72.26360
                       2.15989                       0.52540                      72.26383
                       1.96414                       1.01982                      72.26444
                       1.65158                       1.45002                      72.26539
                       1.24186                       1.78897                      72.26662
                       0.76071                       2.01539                      72.26806
                       0.23838                       2.11503                      72.26962
                      -0.29233                       2.08164                      72.27119
                      -0.79806                       1.91732                      72.27268
                      -1.24703                       1.63239                      72.27400
                      -1.61105                       1.24475                      72.27505
                      -1.86722                       0.77877                      72.27579
                      -1.99946                       0.26372                      72.27615
                      -1.99946                      -0.26804                      72.27612
                      -1.86722                      -0.78309                      72.27570
                      -1.61105                      -1.24907                      72.27492
                      -1.24703                      -1.63671                      72.27382
                      -0.79806                      -1.92164                      72.27247
                      -0.29233                      -2.08596                      72.27096
                       0.23838                      -2.11935                      72.26939
                       0.76071                      -2.01971                      72.26784
                       1.24186                      -1.79330                      72.26643
                       1.65158                      -1.45434                      72.26523
                       1.96414                      -1.02414                      72.26433
                       2.15989                      -0.52973                      72.26377
                       2.18653                      -0.00241                      76.64353
                       2.12156                       0.51192                      76.64376
                       1.93072                       0.99392                      76.64437
                       1.62601                       1.41332                      76.64533
                       1.22657                       1.74377                      76.64657
                       0.75750                       1.96450                      76.64803
                       0.24828                       2.06164                      76.64959
                      -0.26911                       2.02909                      76.65118
                      -0.76214                       1.86889                      76.65269
                      -1.19985                       1.59111                      76.65401
                      -1.55472                       1.21321                      76.65508
                      -1.80446                       0.75892                      76.65582
                      -1.93339                       0.25680                      76.65619
                      -1.93339                      -0.26161                      76.65616
                      -1.80447                      -0.76373                      76.65574
                      -1.55472                      -1.21802                      76.65494
                      -1.19985                      -1.59592                      76.65383
                      -0.76214                      -1.87370                      76.65247
                      -0.26911                      -2.03390                      76.65095
                       0.24828                      -2.06645                      76.64936
                       0.75750                      -1.96931                      76.64780
                       1.22657                      -1.74858                      76.64638
                       1.62601                      -1.41813                      76.64517
                       1.93072                      -0.99873                      76.64426
                       2.12156                      -0.51673                      76.64370
                       2.14681                      -0.00266                      81.02364
                       2.08351                       0.49842                      81.02386
                       1.89758                       0.96802                      81.02446
                       1.60071                       1.37662                      81.02540
                       1.21156                       1.69856                      81.02662
                       0.75457                       1.91360                      81.02804
                       0.25846                       2.00824                      81.02958
                      -0.24561                       1.97653                      81.03114
                      -0.72595                       1.82046                      81.03261
                      -1.15238                       1.54983                      81.03391
                      -1.49812                       1.18166                      81.03495
                      -1.74143                       0.73907                      81.03568
                      -1.86704                       0.24987                      81.03604
                      -1.86704                      -0.25519                      81.03601
                      -1.74143                      -0.74438                      81.03559
                      -1.49812                      -1.18697                      81.03482
                      -1.15238                      -1.55514                      81.03373
                      -0.72595                      -1.82577                      81.03240
                      -0.24561                      -1.98184                      81.03091
                       0.25846                      -2.01355                      81.02935
                       0.75457                      -1.91892                      81.02782
                       1.21156                      -1.70387                      81.02643
                       1.60071                      -1.38193                      81.02524
                       1.89758                      -0.97333                      81.02435
                       2.08351                      -0.50373                      81.02380
                       2.10688                      -0.00291                      85.40401
                       2.04525                       0.48493                      85.40422
                       1.86424                       0.94211                      85.40478
                       1.57522                       1.33991                      85.40567
                       1.19635                       1.65334                      85.40681
                       0.75144                       1.86271                      85.40814
                       0.26843                       1.95484                      85.40958
                      -0.22231                       1.92397                      85.41104
                      -0.68995                       1.77202                      85.41242
                      -1.10512                       1.50855                      85.41364
                      -1.44172                       1.15010                      85.41462
                      -1.67860                       0.71921                      85.41530
                      -1.80088                       0.24295                      85.41563
                      -1.80089                      -0.24877                      85.41560
                      -1.67860                      -0.72503                      85.41521
                      -1.44172                      -1.15593                      85.41448
                      -1.10512                      -1.51437                      85.41346
                      -0.68995                      -1.77784                      85.41221
                      -0.22231                      -1.92979                      85.41081
                       0.26843                      -1.96067                      85.40935
                       0.75144                      -1.86853                      85.40792
                       1.19635                      -1.65917                      85.40661
                       1.57522                      -1.34574                      85.40551
                       1.86424                      -0.94793                      85.40467
                       2.04525                      -0.49075                      85.40416
                       2.08664                      -0.00304                      87.59431
                       2.02585                       0.47817                      87.59451
                       1.84729                       0.92915                      87.59505
                       1.56219                       1.32156                      87.59589
                       1.18847                       1.63073                      87.59697
                       0.74959                       1.83725                      87.59823
                       0.27314                       1.92814                      87.59959
                      -0.21094                       1.89768                      87.60097
                      -0.67223                       1.74780                      87.60228
                      -1.08176                       1.48790                      87.60343
                      -1.41380                       1.13432                      87.60435
                      -1.64746                       0.70928                      87.60499
                      -1.76809                       0.23948                      87.60531
                      -1.76809                      -0.24556                      87.60528
                      -1.64746                      -0.71536                      87.60491
                      -1.41380                      -1.14041                      87.60422
                      -1.08176                      -1.49398                      87.60325
                      -0.67223                      -1.75388                      87.60207
                      -0.21094                      -1.90377                      87.60075
                       0.27314                      -1.93422                      87.59937
                       0.74959                      -1.84333                      87.59801
                       1.18847                      -1.63682                      87.59678
                       1.56219                      -1.32764                      87.59573
                       1.84729                      -0.93523                      87.59494
                       2.02585                      -0.48426                      87.59446
                       3.00000                       0.00000                       0.00000
                       2.90575                       0.74607                       0.00000
                       2.62892                       1.44526                       0.00000
                       2.18691                       2.05364                       0.00000
                       1.60748                       2.53298                       0.00000
                       0.92705                       2.85317                       0.00000
                       0.18837                       2.99408                       0.00000
                      -0.56214                       2.94686                       0.00000
                      -1.27734                       2.71448                       0.00000
                      -1.91227                       2.31154                       0.00000
                      -2.42705                       1.76336                       0.00000
                      -2.78933                       1.10437                       0.00000
                      -2.97634                       0.37600                       0.00000
                      -2.97634                      -0.37600                       0.00000
                      -2.78933                      -1.10437                       0.00000
                      -2.42705                      -1.76336                       0.00000
                      -1.91227                      -2.31154                       0.00000
                      -1.27734                      -2.71448                       0.00000
                      -0.56214                      -2.94686                       0.00000
                       0.18837                      -2.99408                       0.00000
                       0.92705                      -2.85317                       0.00000
                       1.60748                      -2.53298                       0.00000
                       2.18691                      -2.05364                       0.00000
                       2.62892                      -1.44526                       0.00000
                       2.90575                      -0.74607                       0.00000
        </DataArray>
      </Points>
      <Polys>
        <DataArray type="Int32" Name="connectivity" format="ascii">
      0      1     26     25
      1      2     27     26
      2      3     28     27
      3      4     29     28
      4      5     30     29
      5      6     31     30
      6      7     32     31
      7      8     33     32
      8      9     34     33
      9     10     35     34
     10     11     36     35
     11     12     37     36
     12     13     38     37
     13     14     39     38
     14     15     40     39
     15     16     41     40
     16     17     42     41
     17     18     43     42
     18     19     44     43
     19     20     45     44
     20     21     46     45
     21     22     47     46
     22     23     48     47
     23     24     49     48
     24      0     25     49
     24     23     22     21     20     19     18     17     16     15     14     13     12     11     10      9      8      7      6      5      4      3      2      1      0
     25     26     27     28     29     30     31     32     33     34     35     36     37     38     39     40     41     42     43     44     45     46     47     48     49
     25     26     51     50
     26     27     52     51
     27     28     53     52
     28     29     54     53
     29     30     55     54
     30     31     56     55
     31     32     57     56
     32     33     58     57
     33     34     59     58
     34     35     60     59
     35     36     61     60
     36     37     62     61
     37     38     63     62
     38     39     64     63
     39     40     65     64
     40     41     66     65
     41     42     67     66
     42     43     68     67
     43     44     69     68
     44     45     70     69
     45     46     71     70
     46     47     72     71
     47     48     73     72
     48     49     74     73
     49     25     50     74
     49     48     47     46     45     44     43     42     41     40     39     38     37     36     35     34     33     32     31     30     29     28     27     26     25
     50     51     52     53     54     55     56     57     58     59     60     61     62     63     64     65     66     67     68     69     70     71     72     73     74
     50     51     76     75
     51     52     77     76
     52     53     78     77
     53     54     79     78
     54     55     80     79
     55     56     81     80
     56     57     82     81
     57     58     83     82
     58     59     84     83
     59     60     85     84
     60     61     86     85
     61     62     87     86
     62     63     88     87
     63     64     89     88
     64     65     90     89
     65     66     91     90
     66     67     92     91
     67     68     93     92
     68     69     94     93
     69     70     95     94
     70     71     96     95
     71     72     97     96
     72     73     98     97
     73     74     99     98
     74     50     75     99
     74     73     72     71     70     69     68     67     66     65     64     63     62     61     60     59     58     57     56     55     54     53     52     51     50
     75     76     77     78     79     80     81     82     83     84     85     86     87     88     89     90     91     92     93     94     95     96     97     98     99
     75     76    101    100
     76     77    102    101
     77     78    103    102
     78     79    104    103
     79     80    105    104
     80     81    106    105
     81     82    107    106
     82     83    108    107
     83     84    109    108
     84     85    110    109
     85     86    111    110
     86     87    112    111
     87     88    113    112
     88     89    114    113
     89     90    115    114
     90     91    116    115
     91     92    117    116
     92     93    118    117
     93     94    119    118
     94     95    120    119
     95     96    121    120
     96     97    122    121
     97     98    123    122
     98     99    124    123
     99     75    100    124
     99     98     97     96     95     94     93     92     91     90     89     88     87     86     85     84     83     82     81     80     79     78     77     76     75
    100    101    102    103    104    105    106    107    108    109    110    111    112    113    114    115    116    117    118    119    120    121    122    123    124
    100    101    126    125
    101    102    127    126
    102    103    128    127
    103    104    129    128
    104    105    130    129
    105    106    131    130
    106    107    132    131
    107    108    133    132
    108    109    134    133
    109    110    135    134
    110    111    136    135
    111    112    137    136
    112    113    138    137
    113    114    139    138
    114    115    140    139
    115    116    141    140
    116    117    142    141
    117    118    143    142
    118    119    144    143
    119    120    145    144
    120    121    146    145
    121    122    147    146
    122    123    148    147
    123    124    149    148
    124    100    125    149
    124    123    122    121    120    119    118    117    116    115    114    113    112    111    110    109    108    107    106    105    104    103    102    101    100
    125    126    127    128    129    130    131    132    133    134    135    136    137    138    139    140    141    142    143    144    145    146    147    148    149
    125    126    151    150
    126    127    152    151
    127    128    153    152
    128    129    154    153
    129    130    155    154
    130    131    156    155
    131    132    157    156
    132    133    158    157
    133    134    159    158
    134    135    160    159
    135    136    161    160
    136    137    162    161
    137    138    163    162
    138    139    164    163
    139    140    165    164
    140    141    166    165
    141    142    167    166
    142    143    168    167
    143    144    169    168
    144    145    170    169
    145    146    171    170
    146    147    172    171
    147    148    173    172
    148    149    174    173
    149    125    150    174
    149    148    147    146    145    144    143    142    141    140    139    138    137    136    135    134    133    132    131    130    129    128    127    126    125
    150    151    152    153    154    155    156    157    158    159    160    161    162    163    164    165    166    167    168    169    170    171    172    173    174
    150    151    176    175
    151    152    177    176
    152    153    178    177
    153    154    179    178
    154    155    180    179
    155    156    181    180
    156    157    182    181
    157    158    183    182
    158    159    184    183
    159    160    185    184
    160    161    186    185
    161    162    187    186
    162    163    188    187
    163    164    189    188
    164    165    190    189
    165    166    191    190
    166    167    192    191
    167    168    193    192
    168    169    194    193
    169    170    195    194
    170    171    196    195
    171    172    197    196
    172    173    198    197
    173    174    199    198
    174    150    175    199
    174    173    172    171    170    169    168    167    166    165    164    163    162    161    160    159    158    157    156    155    154    153    152    151    150
    175    176    177    178    179    180    181    182    183    184    185    186    187    188    189    190    191    192    193    194    195    196    197    198    199
    175    176    201    200
    176    177    202    201
    177    178    203    202
    178    179    204    203
    179    180    205    204
    180    181    206    205
    181    182    207    206
    182    183    208    207
    183    184    209    208
    184    185    210    209
    185    186    211    210
    186    187    212    211
    187    188    213    212
    188    189    214    213
    189    190    215    214
    190    191    216    215
    191    192    217    216
    192    193    218    217
    193    194    219    218
    194    195    220    219
    195    196    221    220
    196    197    222    221
    197    198    223    222
    198    199    224    223
    199    175    200    224
    199    198    197    196    195    194    193    192    191    190    189    188    187    186    185    184    183    182    181    180    179    178    177    176    175
    200    201    202    203    204    205    206    207    208    209    210    211    212    213    214    215    216    217    218    219    220    221    222    223    224
    200    201    226    225
    201    202    227    226
    202    203    228    227
    203    204    229    228
    204    205    230    229
    205    206    231    230
    206    207    232    231
    207    208    233    232
    208    209    234    233
    209    210    235    234
    210    211    236    235
    211    212    237    236
    212    213    238    237
    213    214    239    238
    214    215    240    239
    215    216    241    240
    216    217    242    241
    217    218    243    242
    218    219    244    243
    219    220    245    244
    220    221    246    245
    221    222    247    246
    222    223    248    247
    223    224    249    248
    224    200    225    249
    224    223    222    221    220    219    218    217    216    215    214    213    212    211    210    209    208    207    206    205    204    203    202    201    200
    225    226    227    228    229    230    231    232    233    234    235    236    237    238    239    240    241    242    243    244    245    246    247    248    249
    225    226    251    250
    226    227    252    251
    227    228    253    252
    228    229    254    253
    229    230    255    254
    230    231    256    255
    231    232    257    256
    232    233    258    257
    233    234    259    258
    234    235    260    259
    235    236    261    260
    236    237    262    261
    237    238    263    262
    238    239    264    263
    239    240    265    264
    240    241    266    265
    241    242    267    266
    242    243    268    267
    243    244    269    268
    244    245    270    269
    245    246    271    270
    246    247    272    271
    247    248    273    272
    248    249    274    273
    249    225    250    274
    249    248    247    246    245    244    243    242    241    240    239    238    237    236    235    234    233    232    231    230    229    228    227    226    225
    250    251    252    253    254    255    256    257    258    259    260    261    262    263    264    265    266    267    268    269    270    271    272    273    274
    250    251    276    275
    251    252    277    276
    252    253    278    277
    253    254    279    278
    254    255    280    279
    255    256    281    280
    256    257    282    281
    257    258    283    282
    258    259    284    283
    259    260    285    284
    260    261    286    285
    261    262    287    286
    262    263    288    287
    263    264    289    288
    264    265    290    289
    265    266    291    290
    266    267    292    291
    267    268    293    292
    268    269    294    293
    269    270    295    294
    270    271    296    295
    271    272    297    296
    272    273    298    297
    273    274    299    298
    274    250    275    299
    274    273    272    271    270    269    268    267    266    265    264    263    262    261    260    259    258    257    256    255    254    253    252    251    250
    275    276    277    278    279    280    281    282    283    284    285    286    287    288    289    290    291    292    293    294    295    296    297    298    299
    275    276    301    300
    276    277    302    301
    277    278    303    302
    278    279    304    303
    279    280    305    304
    280    281    306    305
    281    282    307    306
    282    283    308    307
    283    284    309    308
    284    285    310    309
    285    286    311    310
    286    287    312    311
    287    288    313    312
    288    289    314    313
    289    290    315    314
    290    291    316    315
    291    292    317    316
    292    293    318    317
    293    294    319    318
    294    295    320    319
    295    296    321    320
    296    297    322    321
    297    298    323    322
    298    299    324    323
    299    275    300    324
    299    298    297    296    295    294    293    292    291    290    289    288    287    286    285    284    283    282    281    280    279    278    277    276    275
    300    301    302    303    304    305    306    307    308    309    310    311    312    313    314    315    316    317    318    319    320    321    322    323    324
    300    301    326    325
    301    302    327    326
    302    303    328    327
    303    304    329    328
    304    305    330    329
    305    306    331    330
    306    307    332    331
    307    308    333    332
    308    309    334    333
    309    310    335    334
    310    311    336    335
    311    312    337    336
    312    313    338    337
    313    314    339    338
    314    315    340    339
    315    316    341    340
    316    317    342    341
    317    318    343    342
    318    319    344    343
    319    320    345    344
    320    321    346    345
    321    322    347    346
    322    323    348    347
    323    324    349    348
    324    300    325    349
    324    323    322    321    320    319    318    317    316    315    314    313    312    311    310    309    308    307    306    305    304    303    302    301    300
    325    326    327    328    329    330    331    332    333    334    335    336    337    338    339    340    341    342    343    344    345    346    347    348    349
    325    326    351    350
    326    327    352    351
    327    328    353    352
    328    329    354    353
    329    330    355    354
    330    331    356    355
    331    332    357    356
    332    333    358    357
    333    334    359    358
    334    335    360    359
    335    336    361    360
    336    337    362    361
    337    338    363    362
    338    339    364    363
    339    340    365    364
    340    341    366    365
    341    342    367    366
    342    343    368    367
    343    344    369    368
    344    345    370    369
    345    346    371    370
    346    347    372    371
    347    348    373    372
    348    349    374    373
    349    325    350    374
    349    348    347    346    345    344    343    342    341    340    339    338    337    336    335    334    333    332    331    330    329    328    327    326    325
    350    351    352    353    354    355    356    357    358    359    360    361    362    363    364    365    366    367    368    369    370    371    372    373    374
    350    351    376    375
    351    352    377    376
    352    353    378    377
    353    354    379    378
    354    355    380    379
    355    356    381    380
    356    357    382    381
    357    358    383    382
    358    359    384    383
    359    360    385    384
    360    361    386    385
    361    362    387    386
    362    363    388    387
    363    364    389    388
    364    365    390    389
    365    366    391    390
    366    367    392    391
    367    368    393    392
    368    369    394    393
    369    370    395    394
    370    371    396    395
    371    372    397    396
    372    373    398    397
    373    374    399    398
    374    350    375    399
    374    373    372    371    370    369    368    367    366    365    364    363    362    361    360    359    358    357    356    355    354    353    352    351    350
    375    376    377    378    379    380    381    382    383    384    385    386    387    388    389    390    391    392    393    394    395    396    397    398    399
    375    376    401    400
    376    377    402    401
    377    378    403    402
    378    379    404    403
    379    380    405    404
    380    381    406    405
    381    382    407    406
    382    383    408    407
    383    384    409    408
    384    385    410    409
    385    386    411    410
    386    387    412    411
    387    388    413    412
    388    389    414    413
    389    390    415    414
    390    391    416    415
    391    392    417    416
    392    393    418    417
    393    394    419    418
    394    395    420    419
    395    396    421    420
    396    397    422    421
    397    398    423    422
    398    399    424    423
    399    375    400    424
    399    398    397    396    395    394    393    392    391    390    389    388    387    386    385    384    383    382    381    380    379    378    377    376    375
    400    401    402    403    404    405    406    407    408    409    410    411    412    413    414    415    416    417    418    419    420    421    422    423    424
    400    401    426    425
    401    402    427    426
    402    403    428    427
    403    404    429    428
    404    405    430    429
    405    406    431    430
    406    407    432    431
    407    408    433    432
    408    409    434    433
    409    410    435    434
    410    411    436    435
    411    412    437    436
    412    413    438    437
    413    414    439    438
    414    415    440    439
    415    416    441    440
    416    417    442    441
    417    418    443    442
    418    419    444    443
    419    420    445    444
    420    421    446    445
    421    422    447    446
    422    423    448    447
    423    424    449    448
    424    400    425    449
    424    423    422    421    420    419    418    417    416    415    414    413    412    411    410    409    408    407    406    405    404    403    402    401    400
    425    426    427    428    429    430    431    432    433    434    435    436    437    438    439    440    441    442    443    444    445    446    447    448    449
    425    426    451    450
    426    427    452    451
    427    428    453    452
    428    429    454    453
    429    430    455    454
    430    431    456    455
    431    432    457    456
    432    433    458    457
    433    434    459    458
    434    435    460    459
    435    436    461    460
    436    437    462    461
    437    438    463    462
    438    439    464    463
    439    440    465    464
    440    441    466    465
    441    442    467    466
    442    443    468    467
    443    444    469    468
    444    445    470    469
    445    446    471    470
    446    447    472    471
    447    448    473    472
    448    449    474    473
    449    425    450    474
    449    448    447    446    445    444    443    442    441    440    439    438    437    436    435    434    433    432    431    430    429    428    427    426    425
    450    451    452    453    454    455    456    457    458    459    460    461    462    463    464    465    466    467    468    469    470    471    472    473    474
    450    451    476    475
    451    452    477    476
    452    453    478    477
    453    454    479    478
    454    455    480    479
    455    456    481    480
    456    457    482    481
    457    458    483    482
    458    459    484    483
    459    460    485    484
    460    461    486    485
    461    462    487    486
    462    463    488    487
    463    464    489    488
    464    465    490    489
    465    466    491    490
    466    467    492    491
    467    468    493    492
    468    469    494    493
    469    470    495    494
    470    471    496    495
    471    472    497    496
    472    473    498    497
    473    474    499    498
    474    450    475    499
    474    473    472    471    470    469    468    467    466    465    464    463    462    461    460    459    458    457    456    455    454    453    452    451    450
    475    476    477    478    479    480    481    482    483    484    485    486    487    488    489    490    491    492    493    494    495    496    497    498    499
    475    476    501    500
    476    477    502    501
    477    478    503    502
    478    479    504    503
    479    480    505    504
    480    481    506    505
    481    482    507    506
    482    483    508    507
    483    484    509    508
    484    485    510    509
    485    486    511    510
    486    487    512    511
    487    488    513    512
    488    489    514    513
    489    490    515    514
    490    491    516    515
    491    492    517    516
    492    493    518    517
    493    494    519    518
    494    495    520    519
    495    496    521    520
    496    497    522    521
    497    498    523    522
    498    499    524    523
    499    475    500    524
    499    498    497    496    495    494    493    492    491    490    489    488    487    486    485    484    483    482    481    480    479    478    477    476    475
    500    501    502    503    504    505    506    507    508    509    510    511    512    513    514    515    516    517    518    519    520    521    522    523    524
    525    526      1      0
    526    527      2      1
    527    528      3      2
    528    529      4      3
    529    530      5      4
    530    531      6      5
    531    532      7      6
    532    533      8      7
    533    534      9      8
    534    535     10      9
    535    536     11     10
    536    537     12     11
    537    538     13     12
    538    539     14     13
    539    540     15     14
    540    541     16     15
    541    542     17     16
    542    543     18     17
    543    544     19     18
    544    545     20     19
    545    546     21     20
    546    547     22     21
    547    548     23     22
    548    549     24     23
    549    525      0     24
    549    548    547    546    545    544    543    542    541    540    539    538    537    536    535    534    533    532    531    530    529    528    527    526    525
      0      1      2      3      4      5      6      7      8      9     10     11     12     13     14     15     16     17     18     19     20     21     22     23     24
        </DataArray>
        <DataArray type="Int32" Name="offsets" format="ascii">
      4
      8
     12
     16
     20
     24
     28
     32
     36
     40
     44
     48
     52
     56
     60
     64
     68
     72
     76
     80
     84
     88
     92
     96
    100
    125
    150
    154
    158
    162
    166
    170
    174
    178
    182
    186
    190
    194
    198
    202
    206
    210
    214
    218
    222
    226
    230
    234
    238
    242
    246
    250
    275
    300
    304
    308
    312
    316
    320
    324
    328
    332
    336
    340
    344
    348
    352
    356
    360
    364
    368
    372
    376
    380
    384
    388
    392
    396
    400
    425
    450
    454
    458
    462
    466
    470
    474
    478
    482
    486
    490
    494
    498
    502
    506
    510
    514
    518
    522
    526
    530
    534
    538
    542
    546
    550
    575
    600
    604
    608
    612
    616
    620
    624
    628
    632
    636
    640
    644
    648
    652
    656
    660
    664
    668
    672
    676
    680
    684
    688
    692
    696
    700
    725
    750
    754
    758
    762
    766
    770
    774
    778
    782
    786
    790
    794
    798
    802
    806
    810
    814
    818
    822
    826
    830
    834
    838
    842
    846
    850
    875
    900
    904
    908
    912
    916
    920
    924
    928
    932
    936
    940
    944
    948
    952
    956
    960
    964
    968
    972
    976
    980
    984
    988
    992
    996
   1000
   1025
   1050
   1054
   1058
   1062
   1066
   1070
   1074
   1078
   1082
   1086
   1090
   1094
   1098
   1102
   1106
   1110
   1114
   1118
   1122
   1126
   1130
   1134
   1138
   1142
   1146
   1150
   1175
   1200
   1204
   1208
   1212
   1216
   1220
   1224
   1228
   1232
   1236
   1240
   1244
   1248
   1252
   1256
   1260
   1264
   1268
   1272
   1276
   1280
   1284
   1288
   1292
   1296
   1300
   1325
   1350
   1354
   1358
   1362
   1366
   1370
   1374
   1378
   1382
   1386
   1390
   1394
   1398
   1402
   1406
   1410
   1414
   1418
   1422
   1426
   1430
   1434
   1438
   1442
   1446
   1450
   1475
   1500
   1504
   1508
   1512
   1516
   1520
   1524
   1528
   1532
   1536
   1540
   1544
   1548
   1552
   1556
   1560
   1564
   1568
   1572
   1576
   1580
   1584
   1588
   1592
   1596
   1600
   1625
   1650
   1654
   1658
   1662
   1666
   1670
   1674
   1678
   1682
   1686
   1690
   1694
   1698
   1702
   1706
   1710
   1714
   1718
   1722
   1726
   1730
   1734
   1738
   1742
   1746
   1750
   1775
   1800
   1804
   1808
   1812
   1816
   1820
   1824
   1828
   1832
   1836
   1840
   1844
   1848
   1852
   1856
   1860
   1864
   1868
   1872
   1876
   1880
   1884
   1888
   1892
   1896
   1900
   1925
   1950
   1954
   1958
   1962
   1966
   1970
   1974
   1978
   1982
   1986
   1990
   1994
   1998
   2002
   2006
   2010
   2014
   2018
   2022
   2026
   2030
   2034
   2038
   2042
   2046
   2050
   2075
   2100
   2104
   2108
   2112
   2116
   2120
   2124
   2128
   2132
   2136
   2140
   2144
   2148
   2152
   2156
   2160
   2164
   2168
   2172
   2176
   2180
   2184
   2188
   2192
   2196
   2200
   2225
   2250
   2254
   2258
   2262
   2266
   2270
   2274
   2278
   2282
   2286
   2290
   2294
   2298
   2302
   2306
   2310
   2314
   2318
   2322
   2326
   2330
   2334
   2338
   2342
   2346
   2350
   2375
   2400
   2404
   2408
   2412
   2416
   2420
   2424
   2428
   2432
   2436
   2440
   2444
   2448
   2452
   2456
   2460
   2464
   2468
   2472
   2476
   2480
   2484
   2488
   2492
   2496
   2500
   2525
   2550
   2554
   2558
   2562
   2566
   2570
   2574
   2578
   2582
   2586
   2590
   2594
   2598
   2602
   2606
   2610
   2614
   2618
   2622
   2626
   2630
   2634
   2638
   2642
   2646
   2650
   2675
   2700
   2704
   2708
   2712
   2716
   2720
   2724
   2728
   2732
   2736
   2740
   2744
   2748
   2752
   2756
   2760
   2764
   2768
   2772
   2776
   2780
   2784
   2788
   2792
   2796
   2800
   2825
   2850
   2854
   2858
   2862
   2866
   2870
   2874
   2878
   2882
   2886
   2890
   2894
   2898
   2902
   2906
   2910
   2914
   2918
   2922
   2926
   2930
   2934
   2938
   2942
   2946
   2950
   2975
   3000
   3004
   3008
   3012
   3016
   3020
   3024
   3028
   3032
   3036
   3040
   3044
   3048
   3052
   3056
   3060
   3064
   3068
   3072
   3076
   3080
   3084
   3088
   3092
   3096
   3100
   3125
   3150
        </DataArray>
      </Polys>
    </Piece>
  </PolyData>
</VTKFile>
