<?xml version="1.0"?>
<VTKFile type="PolyData" version="0.1" byte_order="LittleEndian">
  <PolyData>
    <Piece NumberOfPoints="     19" NumberOfVerts="  0" NumberOfLines="     18"
           NumberOfStrips="  0" NumberOfPolys="      0">
      <Points>
        <DataArray type="Float32" NumberOfComponents="3" format="ascii">
                      -4.90521                      -1.50151                      90.02981
                      -4.96439                      -2.86721                      90.04044
                      -5.11163                      -5.59853                      89.96787
                      -5.26983                      -8.33010                      89.84929
                      -5.46926                     -11.74507                      89.67127
                      -5.63034                     -15.84521                      89.58953
                      -5.73937                     -19.94678                      89.62830
                      -5.83296                     -24.04927                      89.66302
                      -5.90891                     -28.15275                      89.69561
                      -5.96988                     -32.25713                      89.72492
                      -6.02083                     -36.36225                      89.74847
                      -6.06567                     -40.46793                      89.76899
                      -6.11155                     -44.57387                      89.78823
                      -6.16749                     -48.67961                      89.80826
                      -6.24207                     -52.78459                      89.83091
                      -6.32797                     -56.20431                      89.85374
                      -6.41567                     -58.93894                      89.88329
                      -6.51360                     -61.67265                      89.97032
                      -6.58408                     -63.03848                      89.97548
        </DataArray>
      </Points>
      <PointData>
        <DataArray type="Float32" Name="TranslationalVelocity" NumberOfComponents="3" format="ascii">
                      -0.37841                      -0.03475                      -4.18967
                      -0.72397                      -0.04959                      -8.01208
                      -1.41628                       0.19075                     -15.65628
                      -2.11071                       0.56267                     -23.30057
                      -2.98268                       1.11157                     -32.85628
                      -4.03603                       1.38148                     -44.32762
                      -5.09786                       1.30110                     -55.80108
                      -6.16900                       1.22831                     -67.27539
                      -7.24988                       1.15707                     -78.75100
                      -8.34065                       1.09125                     -90.22809
                      -9.44128                       1.03904                    -101.70674
                     -10.55162                       0.99380                    -113.18697
                     -11.67144                       0.95256                    -124.66845
                     -12.80052                       0.91201                    -136.15042
                     -13.93868                       0.86941                    -147.63169
                     -14.89422                       0.82964                    -157.19768
                     -15.66308                       0.77171                    -164.84821
                     -16.43628                       0.55605                    -172.49694
                     -16.82426                       0.56164                    -176.31879
        </DataArray>
        <DataArray type="Float32" Name="RotationalVelocity" NumberOfComponents="3" format="ascii">
                       2.79899                       0.00096                      -0.25291
                       2.79892                       0.00095                      -0.25307
                       2.79874                       0.00095                      -0.25362
                       2.79850                       0.00094                      -0.25443
                       2.79816                       0.00091                      -0.25574
                       2.79771                       0.00085                      -0.25761
                       2.79727                       0.00077                      -0.25972
                       2.79689                       0.00065                      -0.26196
                       2.79658                       0.00048                      -0.26428
                       2.79638                       0.00027                      -0.26663
                       2.79628                      -0.00001                      -0.26900
                       2.79628                      -0.00034                      -0.27135
                       2.79638                      -0.00072                      -0.27369
                       2.79653                      -0.00114                      -0.27598
                       2.79669                      -0.00158                      -0.27822
                       2.79679                      -0.00194                      -0.28002
                       2.79681                      -0.00221                      -0.28138
                       2.79676                      -0.00244                      -0.28266
                       2.79670                      -0.00254                      -0.28326
        </DataArray>
        <DataArray type="Float32" Name="TranslationalAcceleration" NumberOfComponents="3" format="ascii">
                       0.00103                      11.83468                      -0.05035
                      -0.01052                      14.31390                      -0.05906
                       0.02770                      40.95813                       0.59623
                       0.09485                      65.45235                       1.64495
                       0.20194                      94.03867                       3.22816
                       0.23859                     126.52773                       4.09482
                       0.18387                     158.16818                       4.04204
                       0.10754                     189.71244                       4.07134
                      -0.01662                     221.56004                       4.16198
                      -0.21276                     253.83952                       4.31850
                      -0.49938                     286.48430                       4.55461
                      -0.88955                     319.31124                       4.83925
                      -1.38128                     352.09763                       5.14820
                      -1.95373                     384.65911                       5.45245
                      -2.56204                     416.92721                       5.72071
                      -3.04209                     443.67442                       5.88852
                      -3.37318                     465.11315                       5.90847
                      -3.65957                     486.79153                       5.44073
                      -3.71660                     497.79054                       5.50144
        </DataArray>
        <DataArray type="Float32" Name="OrientationX" NumberOfComponents="3" format="ascii">
                       0.94759                      -0.04396                      -0.31646
                       0.94759                      -0.04356                      -0.31649
                       0.94757                      -0.04232                      -0.31674
                       0.94748                      -0.04056                      -0.31723
                       0.94726                      -0.03773                      -0.31823
                       0.95649                      -0.03376                      -0.28979
                       0.96216                      -0.02928                      -0.27089
                       0.96626                      -0.02465                      -0.25637
                       0.96985                      -0.02027                      -0.24285
                       0.97275                      -0.01652                      -0.23128
                       0.97455                      -0.01380                      -0.22375
                       0.97555                      -0.01254                      -0.21942
                       0.97544                      -0.01312                      -0.21986
                       0.97374                      -0.01594                      -0.22711
                       0.97149                      -0.02140                      -0.23613
                       0.96940                      -0.02815                      -0.24387
                       0.96757                      -0.03521                      -0.25015
                       0.96487                      -0.04379                      -0.25906
                       0.96301                      -0.04867                      -0.26505
        </DataArray>
        <DataArray type="Float32" Name="OrientationY" NumberOfComponents="3" format="ascii">
                       0.31661                      -0.00361                       0.94855
                       0.31664                      -0.00376                       0.94854
                       0.31686                      -0.00408                       0.94846
                       0.31732                      -0.00443                       0.94831
                       0.31827                      -0.00486                       0.94799
                       0.28982                      -0.00422                       0.95707
                       0.27089                      -0.00402                       0.96260
                       0.25635                      -0.00400                       0.96658
                       0.24282                      -0.00406                       0.97006
                       0.23124                      -0.00422                       0.97289
                       0.22371                      -0.00449                       0.97464
                       0.21938                      -0.00485                       0.97563
                       0.21981                      -0.00529                       0.97553
                       0.22704                      -0.00585                       0.97387
                       0.23604                      -0.00650                       0.97172
                       0.24377                      -0.00708                       0.96981
                       0.25004                      -0.00760                       0.96821
                       0.25895                      -0.00828                       0.96585
                       0.26494                      -0.00874                       0.96423
        </DataArray>
        <DataArray type="Float32" Name="OrientationZ" NumberOfComponents="3" format="ascii">
                      -0.04284                      -0.99903                       0.01049
                      -0.04250                      -0.99904                       0.01023
                      -0.04144                      -0.99910                       0.00954
                      -0.03987                      -0.99917                       0.00867
                      -0.03731                      -0.99928                       0.00740
                      -0.03354                      -0.99942                       0.00575
                      -0.02927                      -0.99956                       0.00406
                      -0.02485                      -0.99969                       0.00245
                      -0.02065                      -0.99979                       0.00098
                      -0.01704                      -0.99985                      -0.00028
                      -0.01446                      -0.99989                      -0.00129
                      -0.01330                      -0.99991                      -0.00198
                      -0.01397                      -0.99990                      -0.00228
                      -0.01686                      -0.99986                      -0.00208
                      -0.02233                      -0.99975                      -0.00126
                      -0.02903                      -0.99958                      -0.00001
                      -0.03599                      -0.99935                       0.00145
                      -0.04444                      -0.99901                       0.00335
                      -0.04924                      -0.99878                       0.00448
        </DataArray>
        <DataArray type="Float32" Name="Force" NumberOfComponents="3" format="ascii">
                       2.72850                       0.20017                      30.19559
                     207.08745                      -7.43740                     130.70063
                     326.23998                      -9.55442                     381.05396
                     343.51618                      -7.86231                     567.02267
                    1532.91700                     -61.79707                    -492.64075
                    1426.26000                     -50.92959                    -370.99858
                    1328.80917                     -40.66316                    -257.22228
                    2040.28160                     -53.08620                    -402.06762
                    2510.11797                     -53.88463                    -444.86003
                    2806.38500                     -49.31780                    -446.55528
                    4473.92080                     -66.33935                    -684.26959
                    4787.64287                     -64.74817                    -688.01018
                    3899.12935                     -54.85379                    -509.82851
                    2406.15294                     -40.02678                    -209.69883
                     378.52195                      -6.52488                     185.48874
                     926.18584                     -25.48503                      68.81303
                    -670.65727                      27.09943                     352.92725
                   -2060.46648                      95.96510                     536.46822
                  -19956.33669                     994.79412                    2085.61833
        </DataArray>
        <DataArray type="Float32" Name="Moment" NumberOfComponents="3" format="ascii">
                       0.00000                       0.00000                       0.00000
                       0.00000                       0.00000                       0.00000
                       0.00000                       0.00000                       0.00000
                       0.00000                       0.00000                       0.00000
                      50.46284                    1359.98391                     -13.57515
                      84.60908                    2548.18105                     -24.53716
                      98.37082                    3413.99282                     -31.52012
                     132.77381                    5468.36231                     -48.24716
                     162.06564                    8114.52147                     -68.43530
                     149.98187                    9210.11479                     -74.60606
                     140.05010                   10278.28618                     -80.78950
                     135.53152                   10920.93510                     -84.64130
                     107.61441                    8248.02559                     -64.40005
                     129.28318                    8114.69175                     -65.47418
                     164.59169                    7678.51329                     -65.77327
                     202.59020                    7184.57819                     -65.93256
                     223.44103                    6340.01632                     -62.21808
                     138.60615                    3163.25009                     -33.49365
                     139.30223                    2860.65705                     -31.55067
        </DataArray>
      </PointData>
      <Lines>
        <DataArray type="Int32" Name="connectivity" format="ascii">
      0      1
      1      2
      2      3
      3      4
      4      5
      5      6
      6      7
      7      8
      8      9
      9     10
     10     11
     11     12
     12     13
     13     14
     14     15
     15     16
     16     17
     17     18
        </DataArray>
        <DataArray type="Int32" Name="offsets" format="ascii">
      2
      4
      6
      8
     10
     12
     14
     16
     18
     20
     22
     24
     26
     28
     30
     32
     34
     36
        </DataArray>
      </Lines>
    </Piece>
  </PolyData>
</VTKFile>
