<?xml version="1.0"?>
<VTKFile type="PolyData" version="0.1" byte_order="LittleEndian">
  <PolyData>
    <Piece NumberOfPoints="      8" NumberOfVerts="  0" NumberOfLines="      0"
           NumberOfStrips="  0" NumberOfPolys="      6">
      <Points>
        <DataArray type="Float32" NumberOfComponents="3" format="ascii">
                      -3.34936                       2.39864                      87.60966
                       3.65062                       2.39864                      87.59018
                       3.65062                      -2.40137                      87.58999
                      -3.34936                      -2.40137                      87.60948
                      -3.33600                      -2.40155                      92.40947
                       3.66398                      -2.40155                      92.38998
                       3.66398                       2.39845                      92.39017
                      -3.33600                       2.39845                      92.40965
        </DataArray>
      </Points>
      <Polys>
        <DataArray type="Int32" Name="connectivity" format="ascii">
      0      1      2      3
      4      5      6      7
      7      6      1      0
      6      5      2      1
      5      4      3      2
      4      7      0      3
        </DataArray>
        <DataArray type="Int32" Name="offsets" format="ascii">
      4
      8
     12
     16
     20
     24
        </DataArray>
      </Polys>
    </Piece>
  </PolyData>
</VTKFile>
