<?xml version="1.0"?>
<VTKFile type="PolyData" version="0.1" byte_order="LittleEndian">
  <PolyData>
    <Piece NumberOfPoints="     19" NumberOfVerts="  0" NumberOfLines="     18"
           NumberOfStrips="  0" NumberOfPolys="      0">
      <Points>
        <DataArray type="Float32" NumberOfComponents="3" format="ascii">
                      -4.97470                      -1.30787                      89.28025
                      -5.09559                      -2.49219                      88.60826
                      -5.36530                      -4.81269                      87.18358
                      -5.64580                      -7.11011                      85.71936
                      -5.99845                      -9.96765                      83.86355
                      -6.34642                     -13.46835                      81.74962
                      -6.64566                     -17.03319                      79.73975
                      -6.93166                     -20.59794                      77.72676
                      -7.20258                     -24.16369                      75.71226
                      -7.46143                     -27.72964                      73.69529
                      -7.71336                     -31.29418                      71.67380
                      -7.96247                     -34.85827                      69.65025
                      -8.21593                     -38.42212                      67.62631
                      -8.48260                     -41.98589                      65.60408
                      -8.77074                     -45.54952                      63.58548
                      -9.03640                     -48.51912                      61.90815
                      -9.26881                     -50.89851                      60.57720
                      -9.51257                     -53.30517                      59.29701
                      -9.65547                     -54.48747                      58.62455
        </DataArray>
      </Points>
      <PointData>
        <DataArray type="Float32" Name="TranslationalVelocity" NumberOfComponents="3" format="ascii">
                      -0.33332                       2.08728                      -3.64977
                      -0.63252                       3.99952                      -6.96615
                      -1.22024                       8.05603                     -13.46230
                      -1.80445                      12.22435                     -19.89114
                      -2.53517                      17.50406                     -27.88286
                      -3.43740                      23.50038                     -37.66625
                      -4.36556                      29.18921                     -47.62040
                      -5.30556                      34.87930                     -57.56532
                      -6.25975                      40.56578                     -67.50417
                      -7.22994                      46.25230                     -77.43502
                      -8.21743                      51.94630                     -87.35373
                      -9.22384                      57.64241                     -97.26358
                     -10.25009                      63.33831                    -107.16562
                     -11.29645                      69.03112                    -117.06070
                     -12.36245                      74.71820                    -126.94901
                     -13.26517                      79.45023                    -135.18411
                     -13.99625                      83.21069                    -141.77945
                     -14.74019                      86.83312                    -148.44796
                     -15.10923                      88.74008                    -151.72237
        </DataArray>
        <DataArray type="Float32" Name="RotationalVelocity" NumberOfComponents="3" format="ascii">
                       2.80047                      -0.00092                      -0.25307
                       2.80013                      -0.00081                      -0.25324
                       2.79920                      -0.00045                      -0.25375
                       2.79800                       0.00006                      -0.25450
                       2.79625                       0.00081                      -0.25575
                       2.79397                       0.00184                      -0.25767
                       2.79162                       0.00305                      -0.26002
                       2.78933                       0.00450                      -0.26273
                       2.78714                       0.00630                      -0.26577
                       2.78508                       0.00856                      -0.26906
                       2.78316                       0.01135                      -0.27253
                       2.78136                       0.01469                      -0.27610
                       2.77969                       0.01851                      -0.27967
                       2.77814                       0.02261                      -0.28312
                       2.77675                       0.02663                      -0.28632
                       2.77576                       0.02958                      -0.28870
                       2.77512                       0.03136                      -0.29032
                       2.77467                       0.03233                      -0.29164
                       2.77453                       0.03243                      -0.29216
        </DataArray>
        <DataArray type="Float32" Name="TranslationalAcceleration" NumberOfComponents="3" format="ascii">
                       0.56276                      10.29214                       5.83787
                       0.66147                      12.42647                       7.09986
                       1.94329                      35.15911                      20.98020
                       3.14764                      55.81720                      34.12268
                       4.57498                      79.72712                      49.75466
                       6.12185                     107.34965                      66.67726
                       7.55685                     134.68154                      82.32957
                       8.98559                     161.87357                      97.94210
                      10.41276                     189.28393                     113.69286
                      11.82900                     217.02131                     129.65234
                      13.21485                     245.01819                     145.80810
                      14.54195                     273.12515                     162.05793
                      15.78220                     301.15101                     178.29332
                      16.91191                     328.93554                     194.42884
                      17.91694                     356.41574                     210.44272
                      18.65625                     379.14896                     223.74648
                      19.19064                     397.37058                     234.38438
                      19.67129                     415.98233                     244.80391
                      19.91369                     425.25049                     250.38814
        </DataArray>
        <DataArray type="Float32" Name="OrientationX" NumberOfComponents="3" format="ascii">
                       0.94839                       0.07724                      -0.30757
                       0.94841                       0.07757                      -0.30741
                       0.94843                       0.07865                      -0.30707
                       0.94842                       0.08026                      -0.30670
                       0.94832                       0.08295                      -0.30627
                       0.95735                       0.07138                      -0.27996
                       0.96297                       0.06509                      -0.26164
                       0.96707                       0.06112                      -0.24706
                       0.97066                       0.05739                      -0.23349
                       0.97356                       0.05406                      -0.22196
                       0.97536                       0.05185                      -0.21446
                       0.97632                       0.04999                      -0.21046
                       0.97615                       0.04896                      -0.21152
                       0.97435                       0.04951                      -0.21954
                       0.97189                       0.04876                      -0.23034
                       0.96953                       0.04646                      -0.24055
                       0.96740                       0.04334                      -0.24952
                       0.96438                       0.04038                      -0.26143
                       0.96235                       0.03923                      -0.26895
        </DataArray>
        <DataArray type="Float32" Name="OrientationY" NumberOfComponents="3" format="ascii">
                       0.30466                      -0.49106                       0.81611
                       0.30468                      -0.49116                       0.81605
                       0.30489                      -0.49136                       0.81585
                       0.30534                      -0.49154                       0.81557
                       0.30627                      -0.49170                       0.81513
                       0.27774                      -0.49426                       0.82375
                       0.25875                      -0.49587                       0.82895
                       0.24413                      -0.49706                       0.83266
                       0.23052                      -0.49814                       0.83589
                       0.21887                      -0.49907                       0.83847
                       0.21127                      -0.49977                       0.84000
                       0.20686                      -0.50032                       0.84077
                       0.20723                      -0.50065                       0.84048
                       0.21441                      -0.50065                       0.83868
                       0.22334                      -0.50058                       0.83639
                       0.23099                      -0.50052                       0.83434
                       0.23718                      -0.50048                       0.83262
                       0.24599                      -0.50036                       0.83014
                       0.25191                      -0.50026                       0.82842
        </DataArray>
        <DataArray type="Float32" Name="OrientationZ" NumberOfComponents="3" format="ascii">
                      -0.08800                      -0.86769                      -0.48925
                      -0.08769                      -0.86761                      -0.48945
                      -0.08672                      -0.86740                      -0.49000
                      -0.08529                      -0.86715                      -0.49069
                      -0.08298                      -0.86681                      -0.49169
                      -0.07958                      -0.86638                      -0.49301
                      -0.07578                      -0.86596                      -0.49435
                      -0.07191                      -0.86556                      -0.49562
                      -0.06834                      -0.86520                      -0.49675
                      -0.06545                      -0.86488                      -0.49770
                      -0.06363                      -0.86461                      -0.49840
                      -0.06327                      -0.86440                      -0.49881
                      -0.06474                      -0.86427                      -0.49885
                      -0.06839                      -0.86423                      -0.49842
                      -0.07452                      -0.86432                      -0.49740
                      -0.08163                      -0.86448                      -0.49600
                      -0.08879                      -0.86466                      -0.49445
                      -0.09729                      -0.86488                      -0.49247
                      -0.10205                      -0.86499                      -0.49131
        </DataArray>
        <DataArray type="Float32" Name="Force" NumberOfComponents="3" format="ascii">
                       2.26389                     -14.35340                      25.04879
                     194.09148                     -79.82341                     106.78046
                     318.87371                    -217.60163                     329.35829
                     337.39087                    -308.32556                     487.82569
                    1501.89756                     117.30300                    -461.74146
                    1378.41909                      70.88325                    -348.55666
                    1248.77017                      25.75149                    -237.57477
                    1907.51746                      50.73116                    -367.42467
                    2362.70594                      48.62766                    -412.14716
                    2618.15306                      36.43541                    -409.89378
                    4250.47621                      55.98432                    -643.44744
                    4529.15906                      39.94883                    -647.15548
                    3601.60339                      -0.30480                    -468.79968
                    2121.23352                     -61.24825                    -184.18653
                    -173.13769                    -136.61911                     267.73539
                     632.05451                    -110.95520                      91.96242
                    -938.28692                    -117.09039                     377.01666
                   -2245.46423                     -73.88697                     576.84184
                  -19502.79565                     847.16042                    2560.65213
        </DataArray>
        <DataArray type="Float32" Name="Moment" NumberOfComponents="3" format="ascii">
                       0.00000                       0.00000                       0.00000
                       0.00000                       0.00000                       0.00000
                       0.00000                       0.00000                       0.00000
                       0.00000                       0.00000                       0.00000
                     112.70719                    1181.25100                     666.69114
                     201.16451                    2201.28321                    1243.19277
                     255.52984                    2940.53145                    1661.88148
                     387.28476                    4703.17903                    2660.00153
                     545.35601                    6978.94280                    3949.76769
                     591.50727                    7914.54467                    4481.71285
                     641.06392                    8832.45999                    5003.21553
                     676.52732                    9379.97189                    5313.74428
                     521.87795                    7071.25374                    4004.78541
                     541.94536                    6946.52978                    3931.50272
                     559.32686                    6570.73658                    3714.59570
                     574.86807                    6154.74320                    3474.81961
                     552.53601                    5429.83584                    3061.45334
                     302.98051                    2712.32457                    1526.82639
                     288.40070                    2459.04741                    1383.01185
        </DataArray>
      </PointData>
      <Lines>
        <DataArray type="Int32" Name="connectivity" format="ascii">
      0      1
      1      2
      2      3
      3      4
      4      5
      5      6
      6      7
      7      8
      8      9
      9     10
     10     11
     11     12
     12     13
     13     14
     14     15
     15     16
     16     17
     17     18
        </DataArray>
        <DataArray type="Int32" Name="offsets" format="ascii">
      2
      4
      6
      8
     10
     12
     14
     16
     18
     20
     22
     24
     26
     28
     30
     32
     34
     36
        </DataArray>
      </Lines>
    </Piece>
  </PolyData>
</VTKFile>
