<?xml version="1.0"?>
<VTKFile type="PolyData" version="0.1" byte_order="LittleEndian">
  <PolyData>
    <Piece NumberOfPoints="    550" NumberOfVerts="  0" NumberOfLines="     21"
           NumberOfStrips="  0" NumberOfPolys="    567">
      <Points>
        <DataArray type="Float32" NumberOfComponents="3" format="ascii">
                       2.97359                      -0.00000                       2.18941
                       2.88017                       0.73945                       2.18943
                       2.60580                       1.43243                       2.18949
                       2.16771                       2.03541                       2.18957
                       1.59342                       2.51050                       2.18969
                       0.91903                       2.82784                       2.18982
                       0.18691                       2.96750                       2.18997
                      -0.55694                       2.92071                       2.19012
                      -1.26579                       2.69039                       2.19026
                      -1.89509                       2.29102                       2.19038
                      -2.40530                       1.74770                       2.19048
                      -2.76436                       1.09457                       2.19055
                      -2.94972                       0.37266                       2.19059
                      -2.94972                      -0.37267                       2.19059
                      -2.76436                      -1.09458                       2.19055
                      -2.40530                      -1.74771                       2.19047
                      -1.89509                      -2.29103                       2.19037
                      -1.26579                      -2.69039                       2.19024
                      -0.55694                      -2.92071                       2.19010
                       0.18691                      -2.96751                       2.18996
                       0.91903                      -2.82785                       2.18981
                       1.59342                      -2.51051                       2.18968
                       2.16771                      -2.03542                       2.18956
                       2.60580                      -1.43244                       2.18948
                       2.88017                      -0.73945                       2.18943
                       2.92224                      -0.00002                       6.56799
                       2.83050                       0.72618                       6.56806
                       2.56104                       1.40676                       6.56825
                       2.13079                       1.99894                       6.56855
                       1.56680                       2.46552                       6.56894
                       0.90448                       2.77718                       6.56940
                       0.18547                       2.91434                       6.56989
                      -0.54506                       2.86838                       6.57040
                      -1.24121                       2.64218                       6.57087
                      -1.85924                       2.24997                       6.57130
                      -2.36032                       1.71638                       6.57164
                      -2.71295                       1.07494                       6.57187
                      -2.89498                       0.36596                       6.57199
                      -2.89498                      -0.36601                       6.57199
                      -2.71295                      -1.07499                       6.57186
                      -2.36031                      -1.71643                       6.57161
                      -1.85924                      -2.25002                       6.57126
                      -1.24121                      -2.64223                       6.57083
                      -0.54506                      -2.86843                       6.57035
                       0.18547                      -2.91439                       6.56985
                       0.90448                      -2.77723                       6.56936
                       1.56680                      -2.46557                       6.56891
                       2.13079                      -1.99899                       6.56852
                       2.56104                      -1.40681                       6.56823
                       2.83050                      -0.72623                       6.56805
                       2.87320                      -0.00007                      10.94643
                       2.78314                       0.71290                      10.94655
                       2.51859                       1.38106                      10.94689
                       2.09619                       1.96244                      10.94742
                       1.54248                       2.42052                      10.94811
                       0.89224                       2.72649                      10.94893
                       0.18634                       2.86115                      10.94981
                      -0.53087                       2.81603                      10.95070
                      -1.21432                       2.59396                      10.95155
                      -1.82108                       2.20890                      10.95230
                      -2.31302                       1.68504                      10.95290
                      -2.65922                       1.05530                      10.95333
                      -2.83794                       0.35925                      10.95354
                      -2.83794                      -0.35938                      10.95353
                      -2.65922                      -1.05543                      10.95330
                      -2.31302                      -1.68517                      10.95286
                      -1.82108                      -2.20903                      10.95225
                      -1.21432                      -2.59409                      10.95149
                      -0.53087                      -2.81616                      10.95063
                       0.18634                      -2.86128                      10.94974
                       0.89224                      -2.72663                      10.94886
                       1.54248                      -2.42065                      10.94806
                       2.09619                      -1.96258                      10.94737
                       2.51859                      -1.38119                      10.94685
                       2.78314                      -0.71303                      10.94653
                       2.82668                      -0.00013                      15.32485
                       2.73828                       0.69959                      15.32502
                       2.47865                       1.35535                      15.32551
                       2.06410                       1.92593                      15.32628
                       1.52067                       2.37549                      15.32728
                       0.88251                       2.67579                      15.32845
                       0.18972                       2.80794                      15.32971
                      -0.51416                       2.76366                      15.33100
                      -1.18493                       2.54572                      15.33222
                      -1.78041                       2.16781                      15.33330
                      -2.26321                       1.65368                      15.33418
                      -2.60298                       1.03564                      15.33479
                      -2.77838                       0.35251                      15.33510
                      -2.77838                      -0.35277                      15.33509
                      -2.60298                      -1.03589                      15.33475
                      -2.26321                      -1.65394                      15.33412
                      -1.78041                      -2.16806                      15.33323
                      -1.18493                      -2.54597                      15.33214
                      -0.51416                      -2.76392                      15.33091
                       0.18972                      -2.80820                      15.32962
                       0.88251                      -2.67605                      15.32836
                       1.52067                      -2.37575                      15.32720
                       2.06410                      -1.92619                      15.32621
                       2.47865                      -1.35560                      15.32547
                       2.73828                      -0.69985                      15.32500
                       2.78270                      -0.00021                      19.70334
                       2.69597                       0.68627                      19.70357
                       2.44126                       1.32961                      19.70419
                       2.03455                       1.88940                      19.70518
                       1.50141                       2.33045                      19.70647
                       0.87533                       2.62506                      19.70799
                       0.19565                       2.75472                      19.70962
                      -0.49491                       2.71127                      19.71128
                      -1.15298                       2.49745                      19.71286
                      -1.73719                       2.12670                      19.71426
                      -2.21085                       1.62230                      19.71539
                      -2.54420                       1.01595                      19.71618
                      -2.71627                       0.34576                      19.71658
                      -2.71627                      -0.34618                      19.71656
                      -2.54420                      -1.01637                      19.71613
                      -2.21085                      -1.62272                      19.71532
                      -1.73719                      -2.12712                      19.71417
                      -1.15298                      -2.49787                      19.71276
                      -0.49491                      -2.71169                      19.71117
                       0.19565                      -2.75514                      19.70951
                       0.87533                      -2.62548                      19.70788
                       1.50141                      -2.33087                      19.70638
                       2.03455                      -1.88982                      19.70510
                       2.44126                      -1.33003                      19.70414
                       2.69597                      -0.68669                      19.70354
                       2.74121                      -0.00031                      24.08194
                       2.65616                       0.67292                      24.08221
                       2.40636                       1.30385                      24.08296
                       2.00750                       1.85284                      24.08416
                       1.48464                       2.28539                      24.08572
                       0.87064                       2.57431                      24.08755
                       0.20408                       2.70147                      24.08953
                      -0.47316                       2.65886                      24.09154
                      -1.11853                       2.44917                      24.09345
                      -1.69148                       2.08556                      24.09514
                      -2.15600                       1.59089                      24.09650
                      -2.48291                       0.99625                      24.09746
                      -2.65167                       0.33898                      24.09794
                      -2.65167                      -0.33961                      24.09792
                      -2.48291                      -0.99687                      24.09740
                      -2.15600                      -1.59152                      24.09642
                      -1.69148                      -2.08619                      24.09503
                      -1.11853                      -2.44979                      24.09332
                      -0.47316                      -2.65949                      24.09140
                       0.20408                      -2.70210                      24.08939
                       0.87064                      -2.57494                      24.08742
                       1.48464                      -2.28602                      24.08560
                       2.00750                      -1.85347                      24.08406
                       2.40636                      -1.30448                      24.08290
                       2.65616                      -0.67355                      24.08217
                       2.70214                      -0.00044                      28.46064
                       2.61876                       0.65955                      28.46095
                       2.37387                       1.27807                      28.46183
                       1.98286                       1.81626                      28.46322
                       1.47029                       2.24030                      28.46503
                       0.86837                       2.52354                      28.46715
                       0.21492                       2.64820                      28.46944
                      -0.44901                       2.60643                      28.47177
                      -1.08168                       2.40086                      28.47398
                      -1.64336                       2.04440                      28.47594
                      -2.09874                       1.55947                      28.47752
                      -2.41922                       0.97651                      28.47862
                      -2.58465                       0.33218                      28.47918
                      -2.58465                      -0.33306                      28.47916
                      -2.41922                      -0.97740                      28.47856
                      -2.09874                      -1.56035                      28.47742
                      -1.64335                      -2.04529                      28.47581
                      -1.08168                      -2.40174                      28.47383
                      -0.44901                      -2.60731                      28.47160
                       0.21492                      -2.64908                      28.46927
                       0.86837                      -2.52443                      28.46699
                       1.47029                      -2.24118                      28.46489
                       1.98286                      -1.81714                      28.46310
                       2.37387                      -1.27896                      28.46175
                       2.61876                      -0.66043                      28.46091
                       2.66539                      -0.00060                      32.83943
                       2.58369                       0.64615                      32.83978
                       2.34371                       1.25226                      32.84077
                       1.96055                       1.77965                      32.84234
                       1.45826                       2.19518                      32.84438
                       0.86842                       2.47274                      32.84677
                       0.22808                       2.59490                      32.84935
                      -0.42252                       2.55396                      32.85198
                      -1.04250                       2.35252                      32.85447
                      -1.59290                       2.00322                      32.85667
                      -2.03915                       1.52801                      32.85845
                      -2.35319                       0.95676                      32.85970
                      -2.51531                       0.32535                      32.86032
                      -2.51531                      -0.32654                      32.86030
                      -2.35319                      -0.95795                      32.85962
                      -2.03915                      -1.52921                      32.85833
                      -1.59290                      -2.00441                      32.85652
                      -1.04250                      -2.35371                      32.85428
                      -0.42252                      -2.55516                      32.85178
                       0.22808                      -2.59609                      32.84915
                       0.86842                      -2.47394                      32.84658
                       1.45826                      -2.19638                      32.84421
                       1.96055                      -1.78085                      32.84220
                       2.34371                      -1.25346                      32.84068
                       2.58369                      -0.64735                      32.83973
                       2.63093                      -0.00079                      37.21828
                       2.55090                       0.63272                      37.21867
                       2.31584                       1.22642                      37.21977
                       1.94052                       1.74301                      37.22150
                       1.44852                       2.15003                      37.22376
                       0.87076                       2.42191                      37.22640
                       0.24353                       2.54156                      37.22926
                      -0.39374                       2.50147                      37.23216
                      -1.00102                       2.30415                      37.23492
                      -1.54016                       1.96200                      37.23735
                      -1.97726                       1.49652                      37.23932
                      -2.28488                       0.93696                      37.24070
                      -2.44368                       0.31848                      37.24139
                      -2.44368                      -0.32006                      37.24136
                      -2.28488                      -0.93854                      37.24061
                      -1.97726                      -1.49810                      37.23918
                      -1.54016                      -1.96357                      37.23717
                      -1.00103                      -2.30572                      37.23470
                      -0.39374                      -2.50304                      37.23193
                       0.24353                      -2.54313                      37.22902
                       0.87076                      -2.42348                      37.22617
                       1.44852                      -2.15161                      37.22356
                       1.94052                      -1.74458                      37.22134
                       2.31584                      -1.22799                      37.21965
                       2.55090                      -0.63429                      37.21861
                       2.59877                      -0.00101                      41.59715
                       2.52041                       0.61925                      41.59758
                       2.29027                       1.20054                      41.59878
                       1.92279                       1.70634                      41.60068
                       1.44108                       2.10485                      41.60315
                       0.87539                       2.37104                      41.60604
                       0.26128                       2.48819                      41.60916
                      -0.36267                       2.44894                      41.61233
                      -0.95726                       2.25574                      41.61534
                      -1.48512                       1.92075                      41.61801
                      -1.91309                       1.46500                      41.62015
                      -2.21427                       0.91714                      41.62165
                      -2.36975                       0.31159                      41.62241
                      -2.36975                      -0.31361                      41.62238
                      -2.21427                      -0.91916                      41.62155
                      -1.91309                      -1.46702                      41.61999
                      -1.48512                      -1.92277                      41.61779
                      -0.95726                      -2.25776                      41.61509
                      -0.36267                      -2.45096                      41.61206
                       0.26128                      -2.49021                      41.60889
                       0.87539                      -2.37306                      41.60577
                       1.44108                      -2.10687                      41.60291
                       1.92279                      -1.70836                      41.60049
                       2.29027                      -1.20256                      41.59865
                       2.52041                      -0.62127                      41.59751
                       2.56896                      -0.00128                      45.97601
                       2.49228                       0.60575                      45.97648
                       2.26705                       1.17463                      45.97779
                       1.90742                       1.66962                      45.97985
                       1.43599                       2.05962                      45.98253
                       0.88239                       2.32013                      45.98566
                       0.28139                       2.43478                      45.98905
                      -0.32924                       2.39636                      45.99249
                      -0.91113                       2.20729                      45.99575
                      -1.42772                       1.87945                      45.99864
                      -1.84655                       1.43343                      46.00097
                      -2.14131                       0.89727                      46.00260
                      -2.29346                       0.30465                      46.00341
                      -2.29346                      -0.30720                      46.00337
                      -2.14131                      -0.89982                      46.00248
                      -1.84655                      -1.43599                      46.00078
                      -1.42772                      -1.88200                      45.99840
                      -0.91113                      -2.20985                      45.99547
                      -0.32924                      -2.39892                      45.99218
                       0.28139                      -2.43733                      45.98873
                       0.88239                      -2.32269                      45.98536
                       1.43599                      -2.06217                      45.98226
                       1.90742                      -1.67217                      45.97963
                       2.26705                      -1.17718                      45.97764
                       2.49228                      -0.60830                      45.97640
                       2.54163                      -0.00158                      50.35485
                       2.46662                       0.59219                      50.35537
                       2.24630                       1.14866                      50.35678
                       1.89452                       1.63286                      50.35900
                       1.43338                       2.01435                      50.36189
                       0.89185                       2.26918                      50.36527
                       0.30396                       2.38133                      50.36893
                      -0.29334                       2.34375                      50.37264
                      -0.86253                       2.15880                      50.37616
                      -1.36785                       1.83811                      50.37927
                      -1.77755                       1.40183                      50.38178
                      -2.06587                       0.87736                      50.38353
                      -2.21471                       0.29766                      50.38441
                      -2.21471                      -0.30083                      50.38437
                      -2.06587                      -0.88053                      50.38340
                      -1.77755                      -1.40500                      50.38157
                      -1.36785                      -1.84128                      50.37899
                      -0.86254                      -2.16197                      50.37583
                      -0.29334                      -2.34692                      50.37228
                       0.30396                      -2.38450                      50.36857
                       0.89185                      -2.27235                      50.36493
                       1.43337                      -2.01752                      50.36158
                       1.89452                      -1.63603                      50.35875
                       2.24630                      -1.15183                      50.35660
                       2.46662                      -0.59536                      50.35528
                       2.51689                      -0.00194                      54.73367
                       2.44355                       0.57859                      54.73422
                       2.22815                       1.12265                      54.73574
                       1.88421                       1.59605                      54.73813
                       1.43336                       1.96904                      54.74123
                       0.90391                       2.21818                      54.74486
                       0.32914                       2.32783                      54.74879
                      -0.25484                       2.29109                      54.75277
                      -0.81134                       2.11026                      54.75655
                      -1.30539                       1.79672                      54.75989
                      -1.70594                       1.37017                      54.76258
                      -1.98783                       0.85740                      54.76446
                      -2.13335                       0.29063                      54.76540
                      -2.13335                      -0.29452                      54.76535
                      -1.98783                      -0.86128                      54.76431
                      -1.70594                      -1.37405                      54.76234
                      -1.30539                      -1.80061                      54.75957
                      -0.81134                      -2.11415                      54.75618
                      -0.25484                      -2.29497                      54.75237
                       0.32914                      -2.33171                      54.74838
                       0.90391                      -2.22206                      54.74448
                       1.43336                      -1.97292                      54.74089
                       1.88421                      -1.59993                      54.73785
                       2.22815                      -1.12653                      54.73554
                       2.44355                      -0.58248                      54.73412
                       2.49486                      -0.00235                      59.11249
                       2.42320                       0.56495                      59.11308
                       2.21271                       1.09659                      59.11470
                       1.87662                       1.55919                      59.11725
                       1.43605                       1.92367                      59.12056
                       0.91869                       2.16713                      59.12444
                       0.35703                       2.27428                      59.12863
                      -0.21363                       2.23837                      59.13288
                      -0.75743                       2.06168                      59.13691
                      -1.24020                       1.75529                      59.14048
                      -1.63162                       1.33846                      59.14335
                      -1.90708                       0.83739                      59.14535
                      -2.04928                       0.28355                      59.14636
                      -2.04928                      -0.28825                      59.14630
                      -1.90708                      -0.84209                      59.14519
                      -1.63162                      -1.34316                      59.14309
                      -1.24020                      -1.75999                      59.14013
                      -0.75743                      -2.06637                      59.13650
                      -0.21363                      -2.24307                      59.13244
                       0.35703                      -2.27897                      59.12818
                       0.91869                      -2.17183                      59.12401
                       1.43605                      -1.92837                      59.12018
                       1.87662                      -1.56389                      59.11694
                       2.21271                      -1.10129                      59.11448
                       2.42320                      -0.56964                      59.11297
                       2.47560                      -0.00280                      63.49135
                       2.40561                       0.55125                      63.49198
                       2.20004                       1.07048                      63.49370
                       1.87180                       1.52228                      63.49640
                       1.44152                       1.87825                      63.49991
                       0.93623                       2.11603                      63.50402
                       0.38769                       2.22067                      63.50846
                      -0.16965                       2.18561                      63.51296
                      -0.70075                       2.01304                      63.51723
                      -1.17225                       1.71380                      63.52100
                      -1.55453                       1.30671                      63.52404
                      -1.82356                       0.81733                      63.52616
                      -1.96244                       0.27642                      63.52722
                      -1.96244                      -0.28203                      63.52716
                      -1.82356                      -0.82294                      63.52598
                      -1.55453                      -1.31232                      63.52375
                      -1.17225                      -1.71941                      63.52062
                      -0.70075                      -2.01865                      63.51678
                      -0.16965                      -2.19122                      63.51247
                       0.38768                      -2.22628                      63.50797
                       0.93623                      -2.12164                      63.50355
                       1.44152                      -1.88386                      63.49950
                       1.87180                      -1.52789                      63.49606
                       2.20004                      -1.07609                      63.49346
                       2.40561                      -0.55685                      63.49186
                       2.45903                      -0.00331                      67.87034
                       2.39072                       0.53749                      67.87100
                       2.19006                       1.04432                      67.87280
                       1.86967                       1.48532                      67.87563
                       1.44967                       1.83278                      67.87931
                       0.95646                       2.06488                      67.88362
                       0.42103                       2.16702                      67.88827
                      -0.12298                       2.13279                      67.89298
                      -0.64138                       1.96434                      67.89746
                      -1.10161                       1.67226                      67.90141
                      -1.47475                       1.27490                      67.90459
                      -1.73735                       0.79722                      67.90681
                      -1.87290                       0.26924                      67.90792
                      -1.87290                      -0.27587                      67.90786
                      -1.73735                      -0.80385                      67.90662
                      -1.47475                      -1.28153                      67.90428
                      -1.10161                      -1.67889                      67.90100
                      -0.64139                      -1.97098                      67.89697
                      -0.12298                      -2.13942                      67.89246
                       0.42103                      -2.17365                      67.88774
                       0.95646                      -2.07151                      67.88311
                       1.44967                      -1.83941                      67.87887
                       1.86966                      -1.49195                      67.87527
                       2.19006                      -1.05095                      67.87254
                       2.39072                      -0.54412                      67.87087
                       2.44488                      -0.00387                      72.24957
                       2.37824                       0.52369                      72.25025
                       2.18249                       1.01811                      72.25211
                       1.86995                       1.44831                      72.25503
                       1.46024                       1.78726                      72.25883
                       0.97911                       2.01367                      72.26327
                       0.45679                       2.11331                      72.26808
                      -0.07389                       2.07992                      72.27294
                      -0.57960                       1.91560                      72.27755
                      -1.02856                       1.63067                      72.28163
                      -1.39256                       1.24304                      72.28491
                      -1.64873                       0.77705                      72.28720
                      -1.78096                       0.26200                      72.28834
                      -1.78096                      -0.26975                      72.28827
                      -1.64873                      -0.78481                      72.28699
                      -1.39256                      -1.25079                      72.28458
                      -1.02856                      -1.63842                      72.28119
                      -0.57961                      -1.92335                      72.27704
                      -0.07390                      -2.08767                      72.27238
                       0.45679                      -2.12106                      72.26751
                       0.97911                      -2.02142                      72.26274
                       1.46024                      -1.79501                      72.25836
                       1.86995                      -1.45605                      72.25465
                       2.18249                      -1.02585                      72.25184
                       2.37824                      -0.53144                      72.25011
                       2.43257                      -0.00448                      76.62919
                       2.36760                       0.50984                      76.62988
                       2.17677                       0.99185                      76.63176
                       1.87207                       1.41125                      76.63471
                       1.47265                       1.74170                      76.63855
                       1.00360                       1.96242                      76.64304
                       0.49440                       2.05956                      76.64789
                      -0.02297                       2.02701                      76.65279
                      -0.51598                       1.86681                      76.65745
                      -0.95367                       1.58904                      76.66157
                      -1.30853                       1.21113                      76.66488
                      -1.55826                       0.75685                      76.66719
                      -1.68718                       0.25472                      76.66834
                      -1.68718                      -0.26369                      76.66827
                      -1.55827                      -0.76581                      76.66697
                      -1.30853                      -1.22009                      76.66454
                      -0.95367                      -1.59800                      76.66111
                      -0.51598                      -1.87578                      76.65692
                      -0.02297                      -2.03597                      76.65221
                       0.49439                      -2.06852                      76.64730
                       1.00360                      -1.97138                      76.64248
                       1.47265                      -1.75065                      76.63805
                       1.87207                      -1.42021                      76.63431
                       2.17677                      -1.00081                      76.63148
                       2.36760                      -0.51880                      76.62973
                       2.42115                      -0.00512                      81.00939
                       2.35785                       0.49596                      81.01007
                       2.17194                       0.96555                      81.01191
                       1.87508                       1.37415                      81.01481
                       1.48594                       1.69609                      81.01857
                       1.02897                       1.91114                      81.02297
                       0.53288                       2.00577                      81.02772
                       0.02884                       1.97406                      81.03253
                      -0.45148                       1.81799                      81.03709
                      -0.87790                       1.54736                      81.04112
                      -1.22363                       1.17919                      81.04437
                      -1.46693                       0.73660                      81.04663
                      -1.59253                       0.24740                      81.04775
                      -1.59253                      -0.25766                      81.04767
                      -1.46693                      -0.74685                      81.04640
                      -1.22363                      -1.18944                      81.04401
                      -0.87790                      -1.55761                      81.04065
                      -0.45149                      -1.82824                      81.03654
                       0.02883                      -1.98431                      81.03193
                       0.53288                      -2.01602                      81.02711
                       1.02897                      -1.92138                      81.02239
                       1.48594                      -1.70634                      81.01806
                       1.87508                      -1.38440                      81.01439
                       2.17193                      -0.97580                      81.01162
                       2.35785                      -0.50620                      81.00992
                       2.40914                      -0.00580                      85.39039
                       2.34752                       0.48204                      85.39103
                       2.16651                       0.93922                      85.39277
                       1.87750                       1.33703                      85.39549
                       1.49865                       1.65046                      85.39902
                       1.05375                       1.85982                      85.40315
                       0.57077                       1.95195                      85.40761
                       0.08004                       1.92108                      85.41212
                      -0.38758                       1.76913                      85.41639
                      -0.80273                       1.50566                      85.42017
                      -1.13932                       1.14721                      85.42321
                      -1.37620                       0.71632                      85.42532
                      -1.49848                       0.24006                      85.42637
                      -1.49848                      -0.25166                      85.42630
                      -1.37620                      -0.72792                      85.42510
                      -1.13932                      -1.15882                      85.42285
                      -0.80274                      -1.51726                      85.41970
                      -0.38759                      -1.78073                      85.41584
                       0.08004                      -1.93268                      85.41151
                       0.57076                      -1.96355                      85.40699
                       1.05375                      -1.87142                      85.40256
                       1.49864                      -1.66205                      85.39850
                       1.87750                      -1.34862                      85.39507
                       2.16651                      -0.95082                      85.39247
                       2.34752                      -0.49363                      85.39088
                       2.40229                      -0.00615                      87.58127
                       2.34150                       0.47507                      87.58188
                       2.16295                       0.92605                      87.58353
                       1.87786                       1.31845                      87.58610
                       1.50415                       1.62763                      87.58945
                       1.06529                       1.83415                      87.59336
                       0.58886                       1.92504                      87.59758
                       0.10479                       1.89458                      87.60184
                      -0.35649                       1.74469                      87.60589
                      -0.76600                       1.48480                      87.60946
                      -1.09802                       1.13122                      87.61233
                      -1.33168                       0.70617                      87.61433
                      -1.45230                       0.23637                      87.61532
                      -1.45231                      -0.24867                      87.61524
                      -1.33169                      -0.71847                      87.61410
                      -1.09803                      -1.14351                      87.61197
                      -0.76601                      -1.49709                      87.60899
                      -0.35649                      -1.75699                      87.60533
                       0.10479                      -1.90687                      87.60124
                       0.58886                      -1.93733                      87.59696
                       1.06529                      -1.84644                      87.59277
                       1.50415                      -1.63992                      87.58893
                       1.87786                      -1.33074                      87.58568
                       2.16295                      -0.93834                      87.58323
                       2.34150                      -0.48736                      87.58173
                       3.00000                       0.00000                       0.00000
                       2.90575                       0.74607                       0.00000
                       2.62892                       1.44526                       0.00000
                       2.18691                       2.05364                       0.00000
                       1.60748                       2.53298                       0.00000
                       0.92705                       2.85317                       0.00000
                       0.18837                       2.99408                       0.00000
                      -0.56214                       2.94686                       0.00000
                      -1.27734                       2.71448                       0.00000
                      -1.91227                       2.31154                       0.00000
                      -2.42705                       1.76336                       0.00000
                      -2.78933                       1.10437                       0.00000
                      -2.97634                       0.37600                       0.00000
                      -2.97634                      -0.37600                       0.00000
                      -2.78933                      -1.10437                       0.00000
                      -2.42705                      -1.76336                       0.00000
                      -1.91227                      -2.31154                       0.00000
                      -1.27734                      -2.71448                       0.00000
                      -0.56214                      -2.94686                       0.00000
                       0.18837                      -2.99408                       0.00000
                       0.92705                      -2.85317                       0.00000
                       1.60748                      -2.53298                       0.00000
                       2.18691                      -2.05364                       0.00000
                       2.62892                      -1.44526                       0.00000
                       2.90575                      -0.74607                       0.00000
        </DataArray>
      </Points>
      <Polys>
        <DataArray type="Int32" Name="connectivity" format="ascii">
      0      1     26     25
      1      2     27     26
      2      3     28     27
      3      4     29     28
      4      5     30     29
      5      6     31     30
      6      7     32     31
      7      8     33     32
      8      9     34     33
      9     10     35     34
     10     11     36     35
     11     12     37     36
     12     13     38     37
     13     14     39     38
     14     15     40     39
     15     16     41     40
     16     17     42     41
     17     18     43     42
     18     19     44     43
     19     20     45     44
     20     21     46     45
     21     22     47     46
     22     23     48     47
     23     24     49     48
     24      0     25     49
     24     23     22     21     20     19     18     17     16     15     14     13     12     11     10      9      8      7      6      5      4      3      2      1      0
     25     26     27     28     29     30     31     32     33     34     35     36     37     38     39     40     41     42     43     44     45     46     47     48     49
     25     26     51     50
     26     27     52     51
     27     28     53     52
     28     29     54     53
     29     30     55     54
     30     31     56     55
     31     32     57     56
     32     33     58     57
     33     34     59     58
     34     35     60     59
     35     36     61     60
     36     37     62     61
     37     38     63     62
     38     39     64     63
     39     40     65     64
     40     41     66     65
     41     42     67     66
     42     43     68     67
     43     44     69     68
     44     45     70     69
     45     46     71     70
     46     47     72     71
     47     48     73     72
     48     49     74     73
     49     25     50     74
     49     48     47     46     45     44     43     42     41     40     39     38     37     36     35     34     33     32     31     30     29     28     27     26     25
     50     51     52     53     54     55     56     57     58     59     60     61     62     63     64     65     66     67     68     69     70     71     72     73     74
     50     51     76     75
     51     52     77     76
     52     53     78     77
     53     54     79     78
     54     55     80     79
     55     56     81     80
     56     57     82     81
     57     58     83     82
     58     59     84     83
     59     60     85     84
     60     61     86     85
     61     62     87     86
     62     63     88     87
     63     64     89     88
     64     65     90     89
     65     66     91     90
     66     67     92     91
     67     68     93     92
     68     69     94     93
     69     70     95     94
     70     71     96     95
     71     72     97     96
     72     73     98     97
     73     74     99     98
     74     50     75     99
     74     73     72     71     70     69     68     67     66     65     64     63     62     61     60     59     58     57     56     55     54     53     52     51     50
     75     76     77     78     79     80     81     82     83     84     85     86     87     88     89     90     91     92     93     94     95     96     97     98     99
     75     76    101    100
     76     77    102    101
     77     78    103    102
     78     79    104    103
     79     80    105    104
     80     81    106    105
     81     82    107    106
     82     83    108    107
     83     84    109    108
     84     85    110    109
     85     86    111    110
     86     87    112    111
     87     88    113    112
     88     89    114    113
     89     90    115    114
     90     91    116    115
     91     92    117    116
     92     93    118    117
     93     94    119    118
     94     95    120    119
     95     96    121    120
     96     97    122    121
     97     98    123    122
     98     99    124    123
     99     75    100    124
     99     98     97     96     95     94     93     92     91     90     89     88     87     86     85     84     83     82     81     80     79     78     77     76     75
    100    101    102    103    104    105    106    107    108    109    110    111    112    113    114    115    116    117    118    119    120    121    122    123    124
    100    101    126    125
    101    102    127    126
    102    103    128    127
    103    104    129    128
    104    105    130    129
    105    106    131    130
    106    107    132    131
    107    108    133    132
    108    109    134    133
    109    110    135    134
    110    111    136    135
    111    112    137    136
    112    113    138    137
    113    114    139    138
    114    115    140    139
    115    116    141    140
    116    117    142    141
    117    118    143    142
    118    119    144    143
    119    120    145    144
    120    121    146    145
    121    122    147    146
    122    123    148    147
    123    124    149    148
    124    100    125    149
    124    123    122    121    120    119    118    117    116    115    114    113    112    111    110    109    108    107    106    105    104    103    102    101    100
    125    126    127    128    129    130    131    132    133    134    135    136    137    138    139    140    141    142    143    144    145    146    147    148    149
    125    126    151    150
    126    127    152    151
    127    128    153    152
    128    129    154    153
    129    130    155    154
    130    131    156    155
    131    132    157    156
    132    133    158    157
    133    134    159    158
    134    135    160    159
    135    136    161    160
    136    137    162    161
    137    138    163    162
    138    139    164    163
    139    140    165    164
    140    141    166    165
    141    142    167    166
    142    143    168    167
    143    144    169    168
    144    145    170    169
    145    146    171    170
    146    147    172    171
    147    148    173    172
    148    149    174    173
    149    125    150    174
    149    148    147    146    145    144    143    142    141    140    139    138    137    136    135    134    133    132    131    130    129    128    127    126    125
    150    151    152    153    154    155    156    157    158    159    160    161    162    163    164    165    166    167    168    169    170    171    172    173    174
    150    151    176    175
    151    152    177    176
    152    153    178    177
    153    154    179    178
    154    155    180    179
    155    156    181    180
    156    157    182    181
    157    158    183    182
    158    159    184    183
    159    160    185    184
    160    161    186    185
    161    162    187    186
    162    163    188    187
    163    164    189    188
    164    165    190    189
    165    166    191    190
    166    167    192    191
    167    168    193    192
    168    169    194    193
    169    170    195    194
    170    171    196    195
    171    172    197    196
    172    173    198    197
    173    174    199    198
    174    150    175    199
    174    173    172    171    170    169    168    167    166    165    164    163    162    161    160    159    158    157    156    155    154    153    152    151    150
    175    176    177    178    179    180    181    182    183    184    185    186    187    188    189    190    191    192    193    194    195    196    197    198    199
    175    176    201    200
    176    177    202    201
    177    178    203    202
    178    179    204    203
    179    180    205    204
    180    181    206    205
    181    182    207    206
    182    183    208    207
    183    184    209    208
    184    185    210    209
    185    186    211    210
    186    187    212    211
    187    188    213    212
    188    189    214    213
    189    190    215    214
    190    191    216    215
    191    192    217    216
    192    193    218    217
    193    194    219    218
    194    195    220    219
    195    196    221    220
    196    197    222    221
    197    198    223    222
    198    199    224    223
    199    175    200    224
    199    198    197    196    195    194    193    192    191    190    189    188    187    186    185    184    183    182    181    180    179    178    177    176    175
    200    201    202    203    204    205    206    207    208    209    210    211    212    213    214    215    216    217    218    219    220    221    222    223    224
    200    201    226    225
    201    202    227    226
    202    203    228    227
    203    204    229    228
    204    205    230    229
    205    206    231    230
    206    207    232    231
    207    208    233    232
    208    209    234    233
    209    210    235    234
    210    211    236    235
    211    212    237    236
    212    213    238    237
    213    214    239    238
    214    215    240    239
    215    216    241    240
    216    217    242    241
    217    218    243    242
    218    219    244    243
    219    220    245    244
    220    221    246    245
    221    222    247    246
    222    223    248    247
    223    224    249    248
    224    200    225    249
    224    223    222    221    220    219    218    217    216    215    214    213    212    211    210    209    208    207    206    205    204    203    202    201    200
    225    226    227    228    229    230    231    232    233    234    235    236    237    238    239    240    241    242    243    244    245    246    247    248    249
    225    226    251    250
    226    227    252    251
    227    228    253    252
    228    229    254    253
    229    230    255    254
    230    231    256    255
    231    232    257    256
    232    233    258    257
    233    234    259    258
    234    235    260    259
    235    236    261    260
    236    237    262    261
    237    238    263    262
    238    239    264    263
    239    240    265    264
    240    241    266    265
    241    242    267    266
    242    243    268    267
    243    244    269    268
    244    245    270    269
    245    246    271    270
    246    247    272    271
    247    248    273    272
    248    249    274    273
    249    225    250    274
    249    248    247    246    245    244    243    242    241    240    239    238    237    236    235    234    233    232    231    230    229    228    227    226    225
    250    251    252    253    254    255    256    257    258    259    260    261    262    263    264    265    266    267    268    269    270    271    272    273    274
    250    251    276    275
    251    252    277    276
    252    253    278    277
    253    254    279    278
    254    255    280    279
    255    256    281    280
    256    257    282    281
    257    258    283    282
    258    259    284    283
    259    260    285    284
    260    261    286    285
    261    262    287    286
    262    263    288    287
    263    264    289    288
    264    265    290    289
    265    266    291    290
    266    267    292    291
    267    268    293    292
    268    269    294    293
    269    270    295    294
    270    271    296    295
    271    272    297    296
    272    273    298    297
    273    274    299    298
    274    250    275    299
    274    273    272    271    270    269    268    267    266    265    264    263    262    261    260    259    258    257    256    255    254    253    252    251    250
    275    276    277    278    279    280    281    282    283    284    285    286    287    288    289    290    291    292    293    294    295    296    297    298    299
    275    276    301    300
    276    277    302    301
    277    278    303    302
    278    279    304    303
    279    280    305    304
    280    281    306    305
    281    282    307    306
    282    283    308    307
    283    284    309    308
    284    285    310    309
    285    286    311    310
    286    287    312    311
    287    288    313    312
    288    289    314    313
    289    290    315    314
    290    291    316    315
    291    292    317    316
    292    293    318    317
    293    294    319    318
    294    295    320    319
    295    296    321    320
    296    297    322    321
    297    298    323    322
    298    299    324    323
    299    275    300    324
    299    298    297    296    295    294    293    292    291    290    289    288    287    286    285    284    283    282    281    280    279    278    277    276    275
    300    301    302    303    304    305    306    307    308    309    310    311    312    313    314    315    316    317    318    319    320    321    322    323    324
    300    301    326    325
    301    302    327    326
    302    303    328    327
    303    304    329    328
    304    305    330    329
    305    306    331    330
    306    307    332    331
    307    308    333    332
    308    309    334    333
    309    310    335    334
    310    311    336    335
    311    312    337    336
    312    313    338    337
    313    314    339    338
    314    315    340    339
    315    316    341    340
    316    317    342    341
    317    318    343    342
    318    319    344    343
    319    320    345    344
    320    321    346    345
    321    322    347    346
    322    323    348    347
    323    324    349    348
    324    300    325    349
    324    323    322    321    320    319    318    317    316    315    314    313    312    311    310    309    308    307    306    305    304    303    302    301    300
    325    326    327    328    329    330    331    332    333    334    335    336    337    338    339    340    341    342    343    344    345    346    347    348    349
    325    326    351    350
    326    327    352    351
    327    328    353    352
    328    329    354    353
    329    330    355    354
    330    331    356    355
    331    332    357    356
    332    333    358    357
    333    334    359    358
    334    335    360    359
    335    336    361    360
    336    337    362    361
    337    338    363    362
    338    339    364    363
    339    340    365    364
    340    341    366    365
    341    342    367    366
    342    343    368    367
    343    344    369    368
    344    345    370    369
    345    346    371    370
    346    347    372    371
    347    348    373    372
    348    349    374    373
    349    325    350    374
    349    348    347    346    345    344    343    342    341    340    339    338    337    336    335    334    333    332    331    330    329    328    327    326    325
    350    351    352    353    354    355    356    357    358    359    360    361    362    363    364    365    366    367    368    369    370    371    372    373    374
    350    351    376    375
    351    352    377    376
    352    353    378    377
    353    354    379    378
    354    355    380    379
    355    356    381    380
    356    357    382    381
    357    358    383    382
    358    359    384    383
    359    360    385    384
    360    361    386    385
    361    362    387    386
    362    363    388    387
    363    364    389    388
    364    365    390    389
    365    366    391    390
    366    367    392    391
    367    368    393    392
    368    369    394    393
    369    370    395    394
    370    371    396    395
    371    372    397    396
    372    373    398    397
    373    374    399    398
    374    350    375    399
    374    373    372    371    370    369    368    367    366    365    364    363    362    361    360    359    358    357    356    355    354    353    352    351    350
    375    376    377    378    379    380    381    382    383    384    385    386    387    388    389    390    391    392    393    394    395    396    397    398    399
    375    376    401    400
    376    377    402    401
    377    378    403    402
    378    379    404    403
    379    380    405    404
    380    381    406    405
    381    382    407    406
    382    383    408    407
    383    384    409    408
    384    385    410    409
    385    386    411    410
    386    387    412    411
    387    388    413    412
    388    389    414    413
    389    390    415    414
    390    391    416    415
    391    392    417    416
    392    393    418    417
    393    394    419    418
    394    395    420    419
    395    396    421    420
    396    397    422    421
    397    398    423    422
    398    399    424    423
    399    375    400    424
    399    398    397    396    395    394    393    392    391    390    389    388    387    386    385    384    383    382    381    380    379    378    377    376    375
    400    401    402    403    404    405    406    407    408    409    410    411    412    413    414    415    416    417    418    419    420    421    422    423    424
    400    401    426    425
    401    402    427    426
    402    403    428    427
    403    404    429    428
    404    405    430    429
    405    406    431    430
    406    407    432    431
    407    408    433    432
    408    409    434    433
    409    410    435    434
    410    411    436    435
    411    412    437    436
    412    413    438    437
    413    414    439    438
    414    415    440    439
    415    416    441    440
    416    417    442    441
    417    418    443    442
    418    419    444    443
    419    420    445    444
    420    421    446    445
    421    422    447    446
    422    423    448    447
    423    424    449    448
    424    400    425    449
    424    423    422    421    420    419    418    417    416    415    414    413    412    411    410    409    408    407    406    405    404    403    402    401    400
    425    426    427    428    429    430    431    432    433    434    435    436    437    438    439    440    441    442    443    444    445    446    447    448    449
    425    426    451    450
    426    427    452    451
    427    428    453    452
    428    429    454    453
    429    430    455    454
    430    431    456    455
    431    432    457    456
    432    433    458    457
    433    434    459    458
    434    435    460    459
    435    436    461    460
    436    437    462    461
    437    438    463    462
    438    439    464    463
    439    440    465    464
    440    441    466    465
    441    442    467    466
    442    443    468    467
    443    444    469    468
    444    445    470    469
    445    446    471    470
    446    447    472    471
    447    448    473    472
    448    449    474    473
    449    425    450    474
    449    448    447    446    445    444    443    442    441    440    439    438    437    436    435    434    433    432    431    430    429    428    427    426    425
    450    451    452    453    454    455    456    457    458    459    460    461    462    463    464    465    466    467    468    469    470    471    472    473    474
    450    451    476    475
    451    452    477    476
    452    453    478    477
    453    454    479    478
    454    455    480    479
    455    456    481    480
    456    457    482    481
    457    458    483    482
    458    459    484    483
    459    460    485    484
    460    461    486    485
    461    462    487    486
    462    463    488    487
    463    464    489    488
    464    465    490    489
    465    466    491    490
    466    467    492    491
    467    468    493    492
    468    469    494    493
    469    470    495    494
    470    471    496    495
    471    472    497    496
    472    473    498    497
    473    474    499    498
    474    450    475    499
    474    473    472    471    470    469    468    467    466    465    464    463    462    461    460    459    458    457    456    455    454    453    452    451    450
    475    476    477    478    479    480    481    482    483    484    485    486    487    488    489    490    491    492    493    494    495    496    497    498    499
    475    476    501    500
    476    477    502    501
    477    478    503    502
    478    479    504    503
    479    480    505    504
    480    481    506    505
    481    482    507    506
    482    483    508    507
    483    484    509    508
    484    485    510    509
    485    486    511    510
    486    487    512    511
    487    488    513    512
    488    489    514    513
    489    490    515    514
    490    491    516    515
    491    492    517    516
    492    493    518    517
    493    494    519    518
    494    495    520    519
    495    496    521    520
    496    497    522    521
    497    498    523    522
    498    499    524    523
    499    475    500    524
    499    498    497    496    495    494    493    492    491    490    489    488    487    486    485    484    483    482    481    480    479    478    477    476    475
    500    501    502    503    504    505    506    507    508    509    510    511    512    513    514    515    516    517    518    519    520    521    522    523    524
    525    526      1      0
    526    527      2      1
    527    528      3      2
    528    529      4      3
    529    530      5      4
    530    531      6      5
    531    532      7      6
    532    533      8      7
    533    534      9      8
    534    535     10      9
    535    536     11     10
    536    537     12     11
    537    538     13     12
    538    539     14     13
    539    540     15     14
    540    541     16     15
    541    542     17     16
    542    543     18     17
    543    544     19     18
    544    545     20     19
    545    546     21     20
    546    547     22     21
    547    548     23     22
    548    549     24     23
    549    525      0     24
    549    548    547    546    545    544    543    542    541    540    539    538    537    536    535    534    533    532    531    530    529    528    527    526    525
      0      1      2      3      4      5      6      7      8      9     10     11     12     13     14     15     16     17     18     19     20     21     22     23     24
        </DataArray>
        <DataArray type="Int32" Name="offsets" format="ascii">
      4
      8
     12
     16
     20
     24
     28
     32
     36
     40
     44
     48
     52
     56
     60
     64
     68
     72
     76
     80
     84
     88
     92
     96
    100
    125
    150
    154
    158
    162
    166
    170
    174
    178
    182
    186
    190
    194
    198
    202
    206
    210
    214
    218
    222
    226
    230
    234
    238
    242
    246
    250
    275
    300
    304
    308
    312
    316
    320
    324
    328
    332
    336
    340
    344
    348
    352
    356
    360
    364
    368
    372
    376
    380
    384
    388
    392
    396
    400
    425
    450
    454
    458
    462
    466
    470
    474
    478
    482
    486
    490
    494
    498
    502
    506
    510
    514
    518
    522
    526
    530
    534
    538
    542
    546
    550
    575
    600
    604
    608
    612
    616
    620
    624
    628
    632
    636
    640
    644
    648
    652
    656
    660
    664
    668
    672
    676
    680
    684
    688
    692
    696
    700
    725
    750
    754
    758
    762
    766
    770
    774
    778
    782
    786
    790
    794
    798
    802
    806
    810
    814
    818
    822
    826
    830
    834
    838
    842
    846
    850
    875
    900
    904
    908
    912
    916
    920
    924
    928
    932
    936
    940
    944
    948
    952
    956
    960
    964
    968
    972
    976
    980
    984
    988
    992
    996
   1000
   1025
   1050
   1054
   1058
   1062
   1066
   1070
   1074
   1078
   1082
   1086
   1090
   1094
   1098
   1102
   1106
   1110
   1114
   1118
   1122
   1126
   1130
   1134
   1138
   1142
   1146
   1150
   1175
   1200
   1204
   1208
   1212
   1216
   1220
   1224
   1228
   1232
   1236
   1240
   1244
   1248
   1252
   1256
   1260
   1264
   1268
   1272
   1276
   1280
   1284
   1288
   1292
   1296
   1300
   1325
   1350
   1354
   1358
   1362
   1366
   1370
   1374
   1378
   1382
   1386
   1390
   1394
   1398
   1402
   1406
   1410
   1414
   1418
   1422
   1426
   1430
   1434
   1438
   1442
   1446
   1450
   1475
   1500
   1504
   1508
   1512
   1516
   1520
   1524
   1528
   1532
   1536
   1540
   1544
   1548
   1552
   1556
   1560
   1564
   1568
   1572
   1576
   1580
   1584
   1588
   1592
   1596
   1600
   1625
   1650
   1654
   1658
   1662
   1666
   1670
   1674
   1678
   1682
   1686
   1690
   1694
   1698
   1702
   1706
   1710
   1714
   1718
   1722
   1726
   1730
   1734
   1738
   1742
   1746
   1750
   1775
   1800
   1804
   1808
   1812
   1816
   1820
   1824
   1828
   1832
   1836
   1840
   1844
   1848
   1852
   1856
   1860
   1864
   1868
   1872
   1876
   1880
   1884
   1888
   1892
   1896
   1900
   1925
   1950
   1954
   1958
   1962
   1966
   1970
   1974
   1978
   1982
   1986
   1990
   1994
   1998
   2002
   2006
   2010
   2014
   2018
   2022
   2026
   2030
   2034
   2038
   2042
   2046
   2050
   2075
   2100
   2104
   2108
   2112
   2116
   2120
   2124
   2128
   2132
   2136
   2140
   2144
   2148
   2152
   2156
   2160
   2164
   2168
   2172
   2176
   2180
   2184
   2188
   2192
   2196
   2200
   2225
   2250
   2254
   2258
   2262
   2266
   2270
   2274
   2278
   2282
   2286
   2290
   2294
   2298
   2302
   2306
   2310
   2314
   2318
   2322
   2326
   2330
   2334
   2338
   2342
   2346
   2350
   2375
   2400
   2404
   2408
   2412
   2416
   2420
   2424
   2428
   2432
   2436
   2440
   2444
   2448
   2452
   2456
   2460
   2464
   2468
   2472
   2476
   2480
   2484
   2488
   2492
   2496
   2500
   2525
   2550
   2554
   2558
   2562
   2566
   2570
   2574
   2578
   2582
   2586
   2590
   2594
   2598
   2602
   2606
   2610
   2614
   2618
   2622
   2626
   2630
   2634
   2638
   2642
   2646
   2650
   2675
   2700
   2704
   2708
   2712
   2716
   2720
   2724
   2728
   2732
   2736
   2740
   2744
   2748
   2752
   2756
   2760
   2764
   2768
   2772
   2776
   2780
   2784
   2788
   2792
   2796
   2800
   2825
   2850
   2854
   2858
   2862
   2866
   2870
   2874
   2878
   2882
   2886
   2890
   2894
   2898
   2902
   2906
   2910
   2914
   2918
   2922
   2926
   2930
   2934
   2938
   2942
   2946
   2950
   2975
   3000
   3004
   3008
   3012
   3016
   3020
   3024
   3028
   3032
   3036
   3040
   3044
   3048
   3052
   3056
   3060
   3064
   3068
   3072
   3076
   3080
   3084
   3088
   3092
   3096
   3100
   3125
   3150
        </DataArray>
      </Polys>
    </Piece>
  </PolyData>
</VTKFile>
