<?xml version="1.0"?>
<VTKFile type="PolyData" version="0.1" byte_order="LittleEndian">
  <PolyData>
    <Piece NumberOfPoints="    625" NumberOfVerts="  0" NumberOfLines="      0"
           NumberOfStrips="  0" NumberOfPolys="    600">
      <Points>
        <DataArray type="Float32" NumberOfComponents="3" format="ascii">
                      -4.61664                       1.47936                      90.14743
                      -4.61664                       1.47936                      90.14743
                      -4.61664                       1.47936                      90.14743
                      -4.61664                       1.47936                      90.14743
                      -4.61664                       1.47936                      90.14743
                      -4.61664                       1.47936                      90.14743
                      -4.61664                       1.47936                      90.14743
                      -4.61664                       1.47936                      90.14743
                      -4.61664                       1.47936                      90.14743
                      -4.61664                       1.47936                      90.14743
                      -4.61664                       1.47936                      90.14743
                      -4.61664                       1.47936                      90.14743
                      -4.61664                       1.47936                      90.14743
                      -4.61664                       1.47936                      90.14743
                      -4.61664                       1.47936                      90.14743
                      -4.61664                       1.47936                      90.14743
                      -4.61664                       1.47936                      90.14743
                      -4.61664                       1.47936                      90.14743
                      -4.61664                       1.47936                      90.14743
                      -4.61664                       1.47936                      90.14743
                      -4.61664                       1.47936                      90.14743
                      -4.61664                       1.47936                      90.14743
                      -4.61664                       1.47936                      90.14743
                      -4.61664                       1.47936                      90.14743
                      -4.61664                       1.47936                      90.14743
                      -4.02070                       1.35475                      90.08160
                      -4.02550                       1.34329                      90.23135
                      -4.06750                       1.33255                      90.37523
                      -4.14406                       1.32320                      90.50420
                      -4.25037                       1.31583                      90.61015
                      -4.37975                       1.31091                      90.68642
                      -4.52407                       1.30874                      90.72822
                      -4.67426                       1.30946                      90.73293
                      -4.82089                       1.31303                      90.70025
                      -4.95474                       1.31921                      90.63224
                      -5.06741                       1.32763                      90.53316
                      -5.15180                       1.33775                      90.40924
                      -5.20263                       1.34893                      90.26827
                      -5.21669                       1.36048                      90.11911
                      -5.19311                       1.37167                      89.97112
                      -5.13336                       1.38179                      89.83361
                      -5.04120                       1.39021                      89.71522
                      -4.92242                       1.39640                      89.62339
                      -4.78448                       1.39998                      89.56388
                      -4.63605                       1.40071                      89.54044
                      -4.48646                       1.39855                      89.55453
                      -4.34511                       1.39364                      89.60528
                      -4.22087                       1.38628                      89.68950
                      -4.12156                       1.37694                      89.80188
                      -4.05341                       1.36620                      89.93538
                      -3.79294                       1.23012                      90.05047
                      -3.79958                       1.21427                      90.25760
                      -3.85766                       1.19942                      90.45661
                      -3.96355                       1.18649                      90.63499
                      -4.11059                       1.17630                      90.78153
                      -4.28954                       1.16950                      90.88702
                      -4.48916                       1.16650                      90.94484
                      -4.69689                       1.16749                      90.95136
                      -4.89970                       1.17242                      90.90616
                      -5.08484                       1.18098                      90.81208
                      -5.24066                       1.19261                      90.67504
                      -5.35740                       1.20661                      90.50365
                      -5.42770                       1.22208                      90.30867
                      -5.44715                       1.23805                      90.10236
                      -5.41453                       1.25353                      89.89767
                      -5.33189                       1.26753                      89.70748
                      -5.20442                       1.27918                      89.54373
                      -5.04013                       1.28774                      89.41671
                      -4.84934                       1.29269                      89.33441
                      -4.64405                       1.29370                      89.30198
                      -4.43714                       1.29071                      89.32148
                      -4.24163                       1.28392                      89.39167
                      -4.06979                       1.27374                      89.50815
                      -3.93243                       1.26082                      89.66359
                      -3.83817                       1.24597                      89.84823
                      -3.63156                       1.10550                      90.02561
                      -3.63950                       1.08653                      90.27346
                      -3.70900                       1.06876                      90.51159
                      -3.83571                       1.05329                      90.72503
                      -4.01166                       1.04110                      90.90038
                      -4.22578                       1.03295                      91.02661
                      -4.46464                       1.02936                      91.09580
                      -4.71322                       1.03056                      91.10359
                      -4.95589                       1.03645                      91.04951
                      -5.17742                       1.04669                      90.93694
                      -5.36388                       1.06062                      90.77296
                      -5.50356                       1.07736                      90.56787
                      -5.58768                       1.09587                      90.33456
                      -5.61096                       1.11499                      90.08769
                      -5.57193                       1.13350                      89.84277
                      -5.47304                       1.15026                      89.61519
                      -5.32051                       1.16420                      89.41925
                      -5.12392                       1.17445                      89.26726
                      -4.89563                       1.18036                      89.16877
                      -4.64998                       1.18157                      89.12998
                      -4.40240                       1.17800                      89.15330
                      -4.16845                       1.16987                      89.23729
                      -3.96284                       1.15769                      89.37667
                      -3.79847                       1.14223                      89.56267
                      -3.68568                       1.12446                      89.78361
                      -3.50713                       0.98087                      90.00423
                      -3.51608                       0.95950                      90.28352
                      -3.59441                       0.93947                      90.55186
                      -3.73719                       0.92204                      90.79239
                      -3.93546                       0.90830                      90.98998
                      -4.17675                       0.89912                      91.13223
                      -4.44591                       0.89508                      91.21020
                      -4.72602                       0.89642                      91.21898
                      -4.99949                       0.90307                      91.15803
                      -5.24912                       0.91460                      91.03118
                      -5.45924                       0.93030                      90.84640
                      -5.61664                       0.94917                      90.61529
                      -5.71144                       0.97003                      90.35238
                      -5.73766                       0.99157                      90.07419
                      -5.69368                       1.01243                      89.79819
                      -5.58225                       1.03131                      89.54174
                      -5.41037                       1.04702                      89.32094
                      -5.18884                       1.05857                      89.14967
                      -4.93158                       1.06523                      89.03869
                      -4.65476                       1.06659                      88.99496
                      -4.37578                       1.06257                      89.02125
                      -4.11215                       1.05341                      89.11590
                      -3.88044                       1.03968                      89.27296
                      -3.69522                       1.02226                      89.48256
                      -3.56812                       1.00224                      89.73153
                      -3.40816                       0.85625                      89.98525
                      -3.41791                       0.83296                      90.28960
                      -3.50326                       0.81113                      90.58202
                      -3.65886                       0.79213                      90.84412
                      -3.87491                       0.77717                      91.05944
                      -4.13786                       0.76716                      91.21446
                      -4.43117                       0.76275                      91.29942
                      -4.73641                       0.76422                      91.30899
                      -5.03442                       0.77146                      91.24258
                      -5.30645                       0.78403                      91.10434
                      -5.53542                       0.80113                      90.90298
                      -5.70694                       0.82170                      90.65113
                      -5.81024                       0.84443                      90.36463
                      -5.83882                       0.86790                      90.06148
                      -5.79089                       0.89064                      89.76073
                      -5.66946                       0.91121                      89.48126
                      -5.48216                       0.92833                      89.24065
                      -5.24075                       0.94091                      89.05401
                      -4.96042                       0.94818                      88.93307
                      -4.65876                       0.94966                      88.88543
                      -4.35474                       0.94527                      88.91408
                      -4.06746                       0.93529                      89.01721
                      -3.81496                       0.92033                      89.18836
                      -3.61312                       0.90135                      89.41677
                      -3.47462                       0.87953                      89.68808
                      -3.32872                       0.73162                      89.96811
                      -3.33912                       0.70679                      90.29262
                      -3.43013                       0.68351                      90.60440
                      -3.59603                       0.66326                      90.88386
                      -3.82639                       0.64730                      91.11345
                      -4.10675                       0.63663                      91.27873
                      -4.41949                       0.63193                      91.36932
                      -4.74495                       0.63349                      91.37952
                      -5.06268                       0.64122                      91.30871
                      -5.35273                       0.65462                      91.16132
                      -5.59687                       0.67285                      90.94662
                      -5.77975                       0.69478                      90.67809
                      -5.88989                       0.71902                      90.37262
                      -5.92037                       0.74404                      90.04939
                      -5.86926                       0.76829                      89.72872
                      -5.73979                       0.79022                      89.43075
                      -5.54008                       0.80847                      89.17420
                      -5.28269                       0.82189                      88.97520
                      -4.98378                       0.82964                      88.84625
                      -4.66215                       0.83122                      88.79545
                      -4.33799                       0.82654                      88.82599
                      -4.03169                       0.81589                      88.93596
                      -3.76247                       0.79995                      89.11845
                      -3.54726                       0.77971                      89.36198
                      -3.39959                       0.75645                      89.65126
                      -3.26535                       0.60699                      89.95249
                      -3.27627                       0.58093                      90.29312
                      -3.37180                       0.55650                      90.62040
                      -3.54594                       0.53524                      90.91375
                      -3.78775                       0.51848                      91.15474
                      -4.08204                       0.50729                      91.32823
                      -4.41032                       0.50235                      91.42332
                      -4.75195                       0.50399                      91.43403
                      -5.08548                       0.51210                      91.35970
                      -5.38994                       0.52616                      91.20499
                      -5.64621                       0.54531                      90.97962
                      -5.83818                       0.56832                      90.69775
                      -5.95379                       0.59376                      90.37710
                      -5.98578                       0.62003                      90.03781
                      -5.93214                       0.64548                      89.70120
                      -5.79623                       0.66851                      89.38842
                      -5.58660                       0.68766                      89.11913
                      -5.31642                       0.70175                      88.91024
                      -5.00266                       0.70988                      88.77488
                      -4.66504                       0.71154                      88.72156
                      -4.32478                       0.70663                      88.75362
                      -4.00325                       0.69545                      88.86905
                      -3.72065                       0.67872                      89.06060
                      -3.49475                       0.65747                      89.31624
                      -3.33974                       0.63305                      89.61989
                      -3.21585                       0.48236                      89.93817
                      -3.22717                       0.45533                      90.29145
                      -3.32625                       0.42999                      90.63088
                      -3.50685                       0.40794                      90.93512
                      -3.75764                       0.39057                      91.18506
                      -4.06286                       0.37896                      91.36499
                      -4.40332                       0.37384                      91.46361
                      -4.75764                       0.37554                      91.47472
                      -5.10355                       0.38395                      91.39763
                      -5.41932                       0.39853                      91.23717
                      -5.68510                       0.41839                      91.00343
                      -5.88420                       0.44226                      90.71110
                      -6.00410                       0.46864                      90.37855
                      -6.03728                       0.49589                      90.02666
                      -5.98164                       0.52228                      89.67755
                      -5.84069                       0.54616                      89.35316
                      -5.62327                       0.56603                      89.07387
                      -5.34306                       0.58064                      88.85723
                      -5.01765                       0.58907                      88.71684
                      -4.66750                       0.59079                      88.66154
                      -4.31461                       0.58570                      88.69479
                      -3.98114                       0.57411                      88.81451
                      -3.68805                       0.55675                      89.01317
                      -3.45377                       0.53472                      89.27830
                      -3.29300                       0.50939                      89.59323
                      -3.17876                       0.35773                      89.92502
                      -3.19039                       0.32997                      90.28784
                      -3.29213                       0.30395                      90.63642
                      -3.47761                       0.28131                      90.94887
                      -3.73517                       0.26346                      91.20555
                      -4.04862                       0.25154                      91.39034
                      -4.39827                       0.24628                      91.49162
                      -4.76215                       0.24803                      91.50303
                      -5.11739                       0.25666                      91.42386
                      -5.44168                       0.27164                      91.25907
                      -5.71463                       0.29203                      91.01903
                      -5.91910                       0.31655                      90.71881
                      -6.04224                       0.34364                      90.37728
                      -6.07631                       0.37162                      90.01590
                      -6.01917                       0.39873                      89.65738
                      -5.87441                       0.42325                      89.32423
                      -5.65113                       0.44366                      89.03741
                      -5.36336                       0.45866                      88.81492
                      -5.02918                       0.46732                      88.67074
                      -4.66958                       0.46909                      88.61395
                      -4.30716                       0.46386                      88.64810
                      -3.96470                       0.45196                      88.77105
                      -3.66371                       0.43413                      88.97507
                      -3.42310                       0.41150                      89.24735
                      -3.25799                       0.38549                      89.57077
                      -3.15312                       0.23310                      89.91296
                      -3.16496                       0.20483                      90.28243
                      -3.26858                       0.17833                      90.63741
                      -3.45746                       0.15528                      90.95559
                      -3.71975                       0.13710                      91.21698
                      -4.03895                       0.12496                      91.40516
                      -4.39501                       0.11961                      91.50830
                      -4.76557                       0.12138                      91.51992
                      -5.12733                       0.13018                      91.43930
                      -5.45756                       0.14543                      91.27149
                      -5.73553                       0.16620                      91.02704
                      -5.94375                       0.19116                      90.72131
                      -6.06915                       0.21876                      90.37351
                      -6.10384                       0.24725                      90.00550
                      -6.04566                       0.27485                      89.64040
                      -5.89824                       0.29983                      89.30114
                      -5.67087                       0.32061                      89.00905
                      -5.37781                       0.33588                      88.78248
                      -5.03750                       0.34470                      88.63566
                      -4.67130                       0.34650                      88.57782
                      -4.30223                       0.34118                      88.61260
                      -3.95348                       0.32906                      88.73781
                      -3.64697                       0.31090                      88.94557
                      -3.40194                       0.28786                      89.22285
                      -3.23381                       0.26137                      89.55221
                      -3.13833                       0.10847                      89.90191
                      -3.15029                       0.07990                      90.27532
                      -3.25501                       0.05312                      90.63408
                      -3.44591                       0.02982                      90.95566
                      -3.71099                       0.01145                      91.21983
                      -4.03359                      -0.00082                      91.41002
                      -4.39345                      -0.00623                      91.51426
                      -4.76796                      -0.00444                      91.52600
                      -5.13357                       0.00445                      91.44452
                      -5.46733                       0.01987                      91.27492
                      -5.74825                       0.04085                      91.02787
                      -5.95869                       0.06608                      90.71888
                      -6.08543                       0.09397                      90.36738
                      -6.12049                       0.12277                      89.99544
                      -6.06169                       0.15067                      89.62645
                      -5.91270                       0.17591                      89.28358
                      -5.68290                       0.19691                      88.98837
                      -5.38673                       0.21235                      88.75939
                      -5.04278                       0.22126                      88.61100
                      -4.67268                       0.22308                      88.55255
                      -4.29968                       0.21770                      88.58770
                      -3.94722                       0.20545                      88.71424
                      -3.63744                       0.18710                      88.92422
                      -3.38980                       0.16381                      89.20445
                      -3.21987                       0.13704                      89.53732
                      -3.13403                      -0.01616                      89.89186
                      -3.14604                      -0.04483                      90.26657
                      -3.25112                      -0.07170                      90.62658
                      -3.44269                      -0.09509                      90.94928
                      -3.70869                      -0.11352                      91.21438
                      -4.03242                      -0.12583                      91.40523
                      -4.39354                      -0.13126                      91.50983
                      -4.76935                      -0.12946                      91.52162
                      -5.13624                      -0.12054                      91.43985
                      -5.47116                      -0.10507                      91.26966
                      -5.75306                      -0.08401                      91.02174
                      -5.96424                      -0.05869                      90.71168
                      -6.09142                      -0.03071                      90.35895
                      -6.12661                      -0.00181                      89.98572
                      -6.06759                       0.02618                      89.61543
                      -5.91809                       0.05151                      89.27136
                      -5.68749                       0.07259                      88.97513
                      -5.39028                       0.08808                      88.74534
                      -5.04513                       0.09702                      88.59644
                      -4.67374                       0.09885                      88.53779
                      -4.29944                       0.09345                      88.57306
                      -3.94574                       0.08116                      88.70004
                      -3.63488                       0.06275                      88.91075
                      -3.38638                       0.03938                      89.19196
                      -3.21586                       0.01251                      89.52599
                      -3.14012                      -0.14079                      89.88278
                      -3.15209                      -0.16936                      90.25619
                      -3.25681                      -0.19614                      90.61495
                      -3.44771                      -0.21944                      90.93653
                      -3.71278                      -0.23781                      91.20070
                      -4.03539                      -0.25008                      91.39089
                      -4.39525                      -0.25549                      91.49513
                      -4.76975                      -0.25370                      91.50687
                      -5.13537                      -0.24481                      91.42539
                      -5.46912                      -0.22939                      91.25579
                      -5.75005                      -0.20841                      91.00874
                      -5.96049                      -0.18318                      90.69975
                      -6.08722                      -0.15529                      90.34825
                      -6.12229                      -0.12649                      89.97631
                      -6.06348                      -0.09859                      89.60732
                      -5.91450                      -0.07335                      89.26445
                      -5.68470                      -0.05235                      88.96924
                      -5.38852                      -0.03691                      88.74026
                      -5.04458                      -0.02800                      88.59187
                      -4.67448                      -0.02618                      88.53342
                      -4.30148                      -0.03156                      88.56857
                      -3.94901                      -0.04381                      88.69511
                      -3.63923                      -0.06216                      88.90509
                      -3.39160                      -0.08545                      89.18532
                      -3.22167                      -0.11222                      89.51819
                      -3.15671                      -0.26542                      89.87470
                      -3.16855                      -0.29369                      90.24417
                      -3.27217                      -0.32019                      90.59915
                      -3.46105                      -0.34325                      90.91733
                      -3.72334                      -0.36142                      91.17872
                      -4.04254                      -0.37356                      91.36690
                      -4.39860                      -0.37891                      91.47004
                      -4.76916                      -0.37714                      91.48166
                      -5.13092                      -0.36834                      91.40104
                      -5.46115                      -0.35309                      91.23323
                      -5.73912                      -0.33232                      90.98878
                      -5.94734                      -0.30736                      90.68305
                      -6.07274                      -0.27977                      90.33525
                      -6.10743                      -0.25127                      89.96724
                      -6.04925                      -0.22367                      89.60214
                      -5.90183                      -0.19869                      89.26288
                      -5.67446                      -0.17792                      88.97079
                      -5.38140                      -0.16264                      88.74422
                      -5.04109                      -0.15382                      88.59740
                      -4.67489                      -0.15202                      88.53956
                      -4.30582                      -0.15734                      88.57434
                      -3.95707                      -0.16947                      88.69955
                      -3.65056                      -0.18762                      88.90731
                      -3.40553                      -0.21066                      89.18459
                      -3.23740                      -0.23715                      89.51395
                      -3.18415                      -0.39005                      89.86763
                      -3.19577                      -0.41781                      90.23045
                      -3.29752                      -0.44383                      90.57903
                      -3.48300                      -0.46647                      90.89148
                      -3.74056                      -0.48432                      91.14816
                      -4.05401                      -0.49624                      91.33295
                      -4.40366                      -0.50150                      91.43423
                      -4.76753                      -0.49975                      91.44564
                      -5.12277                      -0.49112                      91.36647
                      -5.44706                      -0.47614                      91.20168
                      -5.72001                      -0.45575                      90.96164
                      -5.92448                      -0.43124                      90.66142
                      -6.04762                      -0.40414                      90.31989
                      -6.08169                      -0.37616                      89.95851
                      -6.02456                      -0.34905                      89.59999
                      -5.87980                      -0.32453                      89.26684
                      -5.65652                      -0.30412                      88.98002
                      -5.36875                      -0.28912                      88.75753
                      -5.03456                      -0.28046                      88.61335
                      -4.67496                      -0.27869                      88.55656
                      -4.31255                      -0.28392                      88.59071
                      -3.97008                      -0.29583                      88.71366
                      -3.66909                      -0.31365                      88.91768
                      -3.42848                      -0.33628                      89.18996
                      -3.26338                      -0.36229                      89.51338
                      -3.22303                      -0.51468                      89.86165
                      -3.23435                      -0.54171                      90.21493
                      -3.33343                      -0.56705                      90.55436
                      -3.51403                      -0.58910                      90.85860
                      -3.76482                      -0.60647                      91.10854
                      -4.07004                      -0.61809                      91.28847
                      -4.41050                      -0.62320                      91.38709
                      -4.76482                      -0.62150                      91.39820
                      -5.11073                      -0.61310                      91.32111
                      -5.42650                      -0.59851                      91.16065
                      -5.69228                      -0.57866                      90.92691
                      -5.89138                      -0.55479                      90.63458
                      -6.01128                      -0.52840                      90.30203
                      -6.04446                      -0.50115                      89.95014
                      -5.98882                      -0.47476                      89.60103
                      -5.84787                      -0.45088                      89.27664
                      -5.63045                      -0.43101                      88.99735
                      -5.35024                      -0.41640                      88.78071
                      -5.02483                      -0.40797                      88.64032
                      -4.67468                      -0.40625                      88.58502
                      -4.32179                      -0.41134                      88.61827
                      -3.98832                      -0.42293                      88.73799
                      -3.69523                      -0.44029                      88.93665
                      -3.46095                      -0.46232                      89.20178
                      -3.30018                      -0.48765                      89.51671
                      -3.27433                      -0.63931                      89.85684
                      -3.28524                      -0.66538                      90.19747
                      -3.38077                      -0.68981                      90.52475
                      -3.55491                      -0.71107                      90.81810
                      -3.79673                      -0.72782                      91.05909
                      -4.09102                      -0.73902                      91.23258
                      -4.41929                      -0.74395                      91.32767
                      -4.76093                      -0.74231                      91.33838
                      -5.09445                      -0.73421                      91.26405
                      -5.39892                      -0.72014                      91.10934
                      -5.65518                      -0.70100                      90.88397
                      -5.84716                      -0.67798                      90.60210
                      -5.96277                      -0.65254                      90.28145
                      -5.99476                      -0.62627                      89.94216
                      -5.94111                      -0.60082                      89.60555
                      -5.80520                      -0.57780                      89.29277
                      -5.59557                      -0.55864                      89.02348
                      -5.32539                      -0.54455                      88.81459
                      -5.01163                      -0.53642                      88.67923
                      -4.67402                      -0.53476                      88.62591
                      -4.33375                      -0.53967                      88.65797
                      -4.01222                      -0.55085                      88.77340
                      -3.72963                      -0.56758                      88.96495
                      -3.50373                      -0.58883                      89.22059
                      -3.34871                      -0.61325                      89.52424
                      -3.33949                      -0.76395                      89.85333
                      -3.34989                      -0.78878                      90.17784
                      -3.44090                      -0.81205                      90.48962
                      -3.60680                      -0.83230                      90.76908
                      -3.83716                      -0.84826                      90.99867
                      -4.11752                      -0.85893                      91.16395
                      -4.43026                      -0.86363                      91.25454
                      -4.75572                      -0.86207                      91.26474
                      -5.07345                      -0.85435                      91.19393
                      -5.36350                      -0.84095                      91.04654
                      -5.60764                      -0.82271                      90.83184
                      -5.79052                      -0.80078                      90.56331
                      -5.90066                      -0.77655                      90.25784
                      -5.93114                      -0.75152                      89.93461
                      -5.88003                      -0.72728                      89.61394
                      -5.75056                      -0.70534                      89.31597
                      -5.55085                      -0.68709                      89.05942
                      -5.29346                      -0.67367                      88.86042
                      -4.99455                      -0.66593                      88.73147
                      -4.67292                      -0.66434                      88.68067
                      -4.34876                      -0.66902                      88.71121
                      -4.04246                      -0.67967                      88.82118
                      -3.77324                      -0.69561                      89.00367
                      -3.55803                      -0.71585                      89.24720
                      -3.41036                      -0.73912                      89.53648
                      -3.42072                      -0.88858                      89.85134
                      -3.43047                      -0.91187                      90.15569
                      -3.51583                      -0.93369                      90.44811
                      -3.67142                      -0.95269                      90.71021
                      -3.88748                      -0.96766                      90.92553
                      -4.15042                      -0.97766                      91.08055
                      -4.44373                      -0.98207                      91.16551
                      -4.74898                      -0.98061                      91.17508
                      -5.04698                      -0.97336                      91.10867
                      -5.31901                      -0.96080                      90.97043
                      -5.54799                      -0.94369                      90.76907
                      -5.71951                      -0.92313                      90.51722
                      -5.82281                      -0.90040                      90.23072
                      -5.85139                      -0.87693                      89.92757
                      -5.80346                      -0.85419                      89.62682
                      -5.68203                      -0.83361                      89.34735
                      -5.49472                      -0.81650                      89.10674
                      -5.25332                      -0.80391                      88.92010
                      -4.97298                      -0.79665                      88.79916
                      -4.67133                      -0.79516                      88.75152
                      -4.36730                      -0.79955                      88.78017
                      -4.08002                      -0.80954                      88.88330
                      -3.82753                      -0.82449                      89.05445
                      -3.62569                      -0.84347                      89.28286
                      -3.48719                      -0.86529                      89.55417
                      -3.52149                      -1.01321                      89.85119
                      -3.53044                      -1.03458                      90.13048
                      -3.60877                      -1.05461                      90.39882
                      -3.75155                      -1.07204                      90.63935
                      -3.94982                      -1.08578                      90.83694
                      -4.19111                      -1.09496                      90.97919
                      -4.46027                      -1.09901                      91.05716
                      -4.74038                      -1.09766                      91.06594
                      -5.01385                      -1.09102                      91.00499
                      -5.26348                      -1.07948                      90.87814
                      -5.47360                      -1.06379                      90.69335
                      -5.63100                      -1.04492                      90.46225
                      -5.72580                      -1.02406                      90.19934
                      -5.75202                      -1.00252                      89.92115
                      -5.70804                      -0.98165                      89.64515
                      -5.59661                      -0.96277                      89.38870
                      -5.42473                      -0.94707                      89.16790
                      -5.20320                      -0.93552                      88.99663
                      -4.94594                      -0.92885                      88.88565
                      -4.66912                      -0.92749                      88.84192
                      -4.39014                      -0.93152                      88.86821
                      -4.12651                      -0.94068                      88.96286
                      -3.89480                      -0.95440                      89.11992
                      -3.70958                      -0.97182                      89.32952
                      -3.58248                      -0.99184                      89.57849
                      -3.64771                      -1.13785                      89.85344
                      -3.65565                      -1.15681                      90.10129
                      -3.72516                      -1.17459                      90.33942
                      -3.85187                      -1.19005                      90.55286
                      -4.02781                      -1.20225                      90.72821
                      -4.24194                      -1.21039                      90.85444
                      -4.48080                      -1.21398                      90.92363
                      -4.72937                      -1.21279                      90.93142
                      -4.97205                      -1.20689                      90.87734
                      -5.19358                      -1.19666                      90.76477
                      -5.38004                      -1.18273                      90.60079
                      -5.51972                      -1.16598                      90.39570
                      -5.60384                      -1.14747                      90.16239
                      -5.62711                      -1.12836                      89.91552
                      -5.58808                      -1.10984                      89.67060
                      -5.48919                      -1.09309                      89.44302
                      -5.33666                      -1.07915                      89.24708
                      -5.14008                      -1.06890                      89.09509
                      -4.91179                      -1.06298                      88.99660
                      -4.66613                      -1.06178                      88.95781
                      -4.41856                      -1.06535                      88.98113
                      -4.18461                      -1.07348                      89.06512
                      -3.97899                      -1.08566                      89.20450
                      -3.81462                      -1.10112                      89.39050
                      -3.70184                      -1.11888                      89.61144
                      -3.81089                      -1.26248                      89.85917
                      -3.81753                      -1.27833                      90.06630
                      -3.87561                      -1.29319                      90.26531
                      -3.98151                      -1.30611                      90.44369
                      -4.12854                      -1.31630                      90.59023
                      -4.30749                      -1.32311                      90.69572
                      -4.50711                      -1.32611                      90.75354
                      -4.71484                      -1.32511                      90.76006
                      -4.91765                      -1.32018                      90.71486
                      -5.10279                      -1.31163                      90.62078
                      -5.25861                      -1.29999                      90.48374
                      -5.37535                      -1.28600                      90.31235
                      -5.44565                      -1.27053                      90.11737
                      -5.46510                      -1.25455                      89.91106
                      -5.43248                      -1.23908                      89.70637
                      -5.34984                      -1.22508                      89.51618
                      -5.22237                      -1.21343                      89.35243
                      -5.05808                      -1.20486                      89.22541
                      -4.86729                      -1.19992                      89.14311
                      -4.66200                      -1.19891                      89.11068
                      -4.45509                      -1.20190                      89.13018
                      -4.25958                      -1.20869                      89.20037
                      -4.08774                      -1.21887                      89.31685
                      -3.95038                      -1.23179                      89.47229
                      -3.85612                      -1.24664                      89.65693
                      -4.04045                      -1.38712                      89.87117
                      -4.04525                      -1.39858                      90.02092
                      -4.08725                      -1.40932                      90.16480
                      -4.16380                      -1.41867                      90.29377
                      -4.27011                      -1.42603                      90.39972
                      -4.39949                      -1.43095                      90.47599
                      -4.54381                      -1.43312                      90.51779
                      -4.69401                      -1.43240                      90.52250
                      -4.84064                      -1.42884                      90.48982
                      -4.97449                      -1.42265                      90.42181
                      -5.08715                      -1.41424                      90.32273
                      -5.17155                      -1.40412                      90.19881
                      -5.22238                      -1.39294                      90.05784
                      -5.23644                      -1.38139                      89.90868
                      -5.21286                      -1.37020                      89.76069
                      -5.15311                      -1.36008                      89.62318
                      -5.06095                      -1.35165                      89.50479
                      -4.94217                      -1.34546                      89.41296
                      -4.80423                      -1.34189                      89.35345
                      -4.65580                      -1.34116                      89.33001
                      -4.50621                      -1.34332                      89.34410
                      -4.36485                      -1.34823                      89.39485
                      -4.24062                      -1.35559                      89.47907
                      -4.14130                      -1.36493                      89.59145
                      -4.07315                      -1.37566                      89.72495
                      -4.63818                      -1.51177                      89.91787
                      -4.63818                      -1.51177                      89.91787
                      -4.63818                      -1.51177                      89.91787
                      -4.63818                      -1.51177                      89.91787
                      -4.63818                      -1.51177                      89.91787
                      -4.63818                      -1.51177                      89.91787
                      -4.63818                      -1.51177                      89.91787
                      -4.63818                      -1.51177                      89.91787
                      -4.63818                      -1.51177                      89.91787
                      -4.63818                      -1.51177                      89.91787
                      -4.63818                      -1.51177                      89.91787
                      -4.63818                      -1.51177                      89.91787
                      -4.63818                      -1.51177                      89.91787
                      -4.63818                      -1.51177                      89.91787
                      -4.63818                      -1.51177                      89.91787
                      -4.63818                      -1.51177                      89.91787
                      -4.63818                      -1.51177                      89.91787
                      -4.63818                      -1.51177                      89.91787
                      -4.63818                      -1.51177                      89.91787
                      -4.63818                      -1.51177                      89.91787
                      -4.63818                      -1.51177                      89.91787
                      -4.63818                      -1.51177                      89.91787
                      -4.63818                      -1.51177                      89.91787
                      -4.63818                      -1.51177                      89.91787
                      -4.63818                      -1.51177                      89.91787
        </DataArray>
      </Points>
      <Polys>
        <DataArray type="Int32" Name="connectivity" format="ascii">
      0      1     26     25
      1      2     27     26
      2      3     28     27
      3      4     29     28
      4      5     30     29
      5      6     31     30
      6      7     32     31
      7      8     33     32
      8      9     34     33
      9     10     35     34
     10     11     36     35
     11     12     37     36
     12     13     38     37
     13     14     39     38
     14     15     40     39
     15     16     41     40
     16     17     42     41
     17     18     43     42
     18     19     44     43
     19     20     45     44
     20     21     46     45
     21     22     47     46
     22     23     48     47
     23     24     49     48
     24      0     25     49
     25     26     51     50
     26     27     52     51
     27     28     53     52
     28     29     54     53
     29     30     55     54
     30     31     56     55
     31     32     57     56
     32     33     58     57
     33     34     59     58
     34     35     60     59
     35     36     61     60
     36     37     62     61
     37     38     63     62
     38     39     64     63
     39     40     65     64
     40     41     66     65
     41     42     67     66
     42     43     68     67
     43     44     69     68
     44     45     70     69
     45     46     71     70
     46     47     72     71
     47     48     73     72
     48     49     74     73
     49     25     50     74
     50     51     76     75
     51     52     77     76
     52     53     78     77
     53     54     79     78
     54     55     80     79
     55     56     81     80
     56     57     82     81
     57     58     83     82
     58     59     84     83
     59     60     85     84
     60     61     86     85
     61     62     87     86
     62     63     88     87
     63     64     89     88
     64     65     90     89
     65     66     91     90
     66     67     92     91
     67     68     93     92
     68     69     94     93
     69     70     95     94
     70     71     96     95
     71     72     97     96
     72     73     98     97
     73     74     99     98
     74     50     75     99
     75     76    101    100
     76     77    102    101
     77     78    103    102
     78     79    104    103
     79     80    105    104
     80     81    106    105
     81     82    107    106
     82     83    108    107
     83     84    109    108
     84     85    110    109
     85     86    111    110
     86     87    112    111
     87     88    113    112
     88     89    114    113
     89     90    115    114
     90     91    116    115
     91     92    117    116
     92     93    118    117
     93     94    119    118
     94     95    120    119
     95     96    121    120
     96     97    122    121
     97     98    123    122
     98     99    124    123
     99     75    100    124
    100    101    126    125
    101    102    127    126
    102    103    128    127
    103    104    129    128
    104    105    130    129
    105    106    131    130
    106    107    132    131
    107    108    133    132
    108    109    134    133
    109    110    135    134
    110    111    136    135
    111    112    137    136
    112    113    138    137
    113    114    139    138
    114    115    140    139
    115    116    141    140
    116    117    142    141
    117    118    143    142
    118    119    144    143
    119    120    145    144
    120    121    146    145
    121    122    147    146
    122    123    148    147
    123    124    149    148
    124    100    125    149
    125    126    151    150
    126    127    152    151
    127    128    153    152
    128    129    154    153
    129    130    155    154
    130    131    156    155
    131    132    157    156
    132    133    158    157
    133    134    159    158
    134    135    160    159
    135    136    161    160
    136    137    162    161
    137    138    163    162
    138    139    164    163
    139    140    165    164
    140    141    166    165
    141    142    167    166
    142    143    168    167
    143    144    169    168
    144    145    170    169
    145    146    171    170
    146    147    172    171
    147    148    173    172
    148    149    174    173
    149    125    150    174
    150    151    176    175
    151    152    177    176
    152    153    178    177
    153    154    179    178
    154    155    180    179
    155    156    181    180
    156    157    182    181
    157    158    183    182
    158    159    184    183
    159    160    185    184
    160    161    186    185
    161    162    187    186
    162    163    188    187
    163    164    189    188
    164    165    190    189
    165    166    191    190
    166    167    192    191
    167    168    193    192
    168    169    194    193
    169    170    195    194
    170    171    196    195
    171    172    197    196
    172    173    198    197
    173    174    199    198
    174    150    175    199
    175    176    201    200
    176    177    202    201
    177    178    203    202
    178    179    204    203
    179    180    205    204
    180    181    206    205
    181    182    207    206
    182    183    208    207
    183    184    209    208
    184    185    210    209
    185    186    211    210
    186    187    212    211
    187    188    213    212
    188    189    214    213
    189    190    215    214
    190    191    216    215
    191    192    217    216
    192    193    218    217
    193    194    219    218
    194    195    220    219
    195    196    221    220
    196    197    222    221
    197    198    223    222
    198    199    224    223
    199    175    200    224
    200    201    226    225
    201    202    227    226
    202    203    228    227
    203    204    229    228
    204    205    230    229
    205    206    231    230
    206    207    232    231
    207    208    233    232
    208    209    234    233
    209    210    235    234
    210    211    236    235
    211    212    237    236
    212    213    238    237
    213    214    239    238
    214    215    240    239
    215    216    241    240
    216    217    242    241
    217    218    243    242
    218    219    244    243
    219    220    245    244
    220    221    246    245
    221    222    247    246
    222    223    248    247
    223    224    249    248
    224    200    225    249
    225    226    251    250
    226    227    252    251
    227    228    253    252
    228    229    254    253
    229    230    255    254
    230    231    256    255
    231    232    257    256
    232    233    258    257
    233    234    259    258
    234    235    260    259
    235    236    261    260
    236    237    262    261
    237    238    263    262
    238    239    264    263
    239    240    265    264
    240    241    266    265
    241    242    267    266
    242    243    268    267
    243    244    269    268
    244    245    270    269
    245    246    271    270
    246    247    272    271
    247    248    273    272
    248    249    274    273
    249    225    250    274
    250    251    276    275
    251    252    277    276
    252    253    278    277
    253    254    279    278
    254    255    280    279
    255    256    281    280
    256    257    282    281
    257    258    283    282
    258    259    284    283
    259    260    285    284
    260    261    286    285
    261    262    287    286
    262    263    288    287
    263    264    289    288
    264    265    290    289
    265    266    291    290
    266    267    292    291
    267    268    293    292
    268    269    294    293
    269    270    295    294
    270    271    296    295
    271    272    297    296
    272    273    298    297
    273    274    299    298
    274    250    275    299
    275    276    301    300
    276    277    302    301
    277    278    303    302
    278    279    304    303
    279    280    305    304
    280    281    306    305
    281    282    307    306
    282    283    308    307
    283    284    309    308
    284    285    310    309
    285    286    311    310
    286    287    312    311
    287    288    313    312
    288    289    314    313
    289    290    315    314
    290    291    316    315
    291    292    317    316
    292    293    318    317
    293    294    319    318
    294    295    320    319
    295    296    321    320
    296    297    322    321
    297    298    323    322
    298    299    324    323
    299    275    300    324
    300    301    326    325
    301    302    327    326
    302    303    328    327
    303    304    329    328
    304    305    330    329
    305    306    331    330
    306    307    332    331
    307    308    333    332
    308    309    334    333
    309    310    335    334
    310    311    336    335
    311    312    337    336
    312    313    338    337
    313    314    339    338
    314    315    340    339
    315    316    341    340
    316    317    342    341
    317    318    343    342
    318    319    344    343
    319    320    345    344
    320    321    346    345
    321    322    347    346
    322    323    348    347
    323    324    349    348
    324    300    325    349
    325    326    351    350
    326    327    352    351
    327    328    353    352
    328    329    354    353
    329    330    355    354
    330    331    356    355
    331    332    357    356
    332    333    358    357
    333    334    359    358
    334    335    360    359
    335    336    361    360
    336    337    362    361
    337    338    363    362
    338    339    364    363
    339    340    365    364
    340    341    366    365
    341    342    367    366
    342    343    368    367
    343    344    369    368
    344    345    370    369
    345    346    371    370
    346    347    372    371
    347    348    373    372
    348    349    374    373
    349    325    350    374
    350    351    376    375
    351    352    377    376
    352    353    378    377
    353    354    379    378
    354    355    380    379
    355    356    381    380
    356    357    382    381
    357    358    383    382
    358    359    384    383
    359    360    385    384
    360    361    386    385
    361    362    387    386
    362    363    388    387
    363    364    389    388
    364    365    390    389
    365    366    391    390
    366    367    392    391
    367    368    393    392
    368    369    394    393
    369    370    395    394
    370    371    396    395
    371    372    397    396
    372    373    398    397
    373    374    399    398
    374    350    375    399
    375    376    401    400
    376    377    402    401
    377    378    403    402
    378    379    404    403
    379    380    405    404
    380    381    406    405
    381    382    407    406
    382    383    408    407
    383    384    409    408
    384    385    410    409
    385    386    411    410
    386    387    412    411
    387    388    413    412
    388    389    414    413
    389    390    415    414
    390    391    416    415
    391    392    417    416
    392    393    418    417
    393    394    419    418
    394    395    420    419
    395    396    421    420
    396    397    422    421
    397    398    423    422
    398    399    424    423
    399    375    400    424
    400    401    426    425
    401    402    427    426
    402    403    428    427
    403    404    429    428
    404    405    430    429
    405    406    431    430
    406    407    432    431
    407    408    433    432
    408    409    434    433
    409    410    435    434
    410    411    436    435
    411    412    437    436
    412    413    438    437
    413    414    439    438
    414    415    440    439
    415    416    441    440
    416    417    442    441
    417    418    443    442
    418    419    444    443
    419    420    445    444
    420    421    446    445
    421    422    447    446
    422    423    448    447
    423    424    449    448
    424    400    425    449
    425    426    451    450
    426    427    452    451
    427    428    453    452
    428    429    454    453
    429    430    455    454
    430    431    456    455
    431    432    457    456
    432    433    458    457
    433    434    459    458
    434    435    460    459
    435    436    461    460
    436    437    462    461
    437    438    463    462
    438    439    464    463
    439    440    465    464
    440    441    466    465
    441    442    467    466
    442    443    468    467
    443    444    469    468
    444    445    470    469
    445    446    471    470
    446    447    472    471
    447    448    473    472
    448    449    474    473
    449    425    450    474
    450    451    476    475
    451    452    477    476
    452    453    478    477
    453    454    479    478
    454    455    480    479
    455    456    481    480
    456    457    482    481
    457    458    483    482
    458    459    484    483
    459    460    485    484
    460    461    486    485
    461    462    487    486
    462    463    488    487
    463    464    489    488
    464    465    490    489
    465    466    491    490
    466    467    492    491
    467    468    493    492
    468    469    494    493
    469    470    495    494
    470    471    496    495
    471    472    497    496
    472    473    498    497
    473    474    499    498
    474    450    475    499
    475    476    501    500
    476    477    502    501
    477    478    503    502
    478    479    504    503
    479    480    505    504
    480    481    506    505
    481    482    507    506
    482    483    508    507
    483    484    509    508
    484    485    510    509
    485    486    511    510
    486    487    512    511
    487    488    513    512
    488    489    514    513
    489    490    515    514
    490    491    516    515
    491    492    517    516
    492    493    518    517
    493    494    519    518
    494    495    520    519
    495    496    521    520
    496    497    522    521
    497    498    523    522
    498    499    524    523
    499    475    500    524
    500    501    526    525
    501    502    527    526
    502    503    528    527
    503    504    529    528
    504    505    530    529
    505    506    531    530
    506    507    532    531
    507    508    533    532
    508    509    534    533
    509    510    535    534
    510    511    536    535
    511    512    537    536
    512    513    538    537
    513    514    539    538
    514    515    540    539
    515    516    541    540
    516    517    542    541
    517    518    543    542
    518    519    544    543
    519    520    545    544
    520    521    546    545
    521    522    547    546
    522    523    548    547
    523    524    549    548
    524    500    525    549
    525    526    551    550
    526    527    552    551
    527    528    553    552
    528    529    554    553
    529    530    555    554
    530    531    556    555
    531    532    557    556
    532    533    558    557
    533    534    559    558
    534    535    560    559
    535    536    561    560
    536    537    562    561
    537    538    563    562
    538    539    564    563
    539    540    565    564
    540    541    566    565
    541    542    567    566
    542    543    568    567
    543    544    569    568
    544    545    570    569
    545    546    571    570
    546    547    572    571
    547    548    573    572
    548    549    574    573
    549    525    550    574
    550    551    576    575
    551    552    577    576
    552    553    578    577
    553    554    579    578
    554    555    580    579
    555    556    581    580
    556    557    582    581
    557    558    583    582
    558    559    584    583
    559    560    585    584
    560    561    586    585
    561    562    587    586
    562    563    588    587
    563    564    589    588
    564    565    590    589
    565    566    591    590
    566    567    592    591
    567    568    593    592
    568    569    594    593
    569    570    595    594
    570    571    596    595
    571    572    597    596
    572    573    598    597
    573    574    599    598
    574    550    575    599
    575    576    601    600
    576    577    602    601
    577    578    603    602
    578    579    604    603
    579    580    605    604
    580    581    606    605
    581    582    607    606
    582    583    608    607
    583    584    609    608
    584    585    610    609
    585    586    611    610
    586    587    612    611
    587    588    613    612
    588    589    614    613
    589    590    615    614
    590    591    616    615
    591    592    617    616
    592    593    618    617
    593    594    619    618
    594    595    620    619
    595    596    621    620
    596    597    622    621
    597    598    623    622
    598    599    624    623
    599    575    600    624
        </DataArray>
        <DataArray type="Int32" Name="offsets" format="ascii">
      4
      8
     12
     16
     20
     24
     28
     32
     36
     40
     44
     48
     52
     56
     60
     64
     68
     72
     76
     80
     84
     88
     92
     96
    100
    104
    108
    112
    116
    120
    124
    128
    132
    136
    140
    144
    148
    152
    156
    160
    164
    168
    172
    176
    180
    184
    188
    192
    196
    200
    204
    208
    212
    216
    220
    224
    228
    232
    236
    240
    244
    248
    252
    256
    260
    264
    268
    272
    276
    280
    284
    288
    292
    296
    300
    304
    308
    312
    316
    320
    324
    328
    332
    336
    340
    344
    348
    352
    356
    360
    364
    368
    372
    376
    380
    384
    388
    392
    396
    400
    404
    408
    412
    416
    420
    424
    428
    432
    436
    440
    444
    448
    452
    456
    460
    464
    468
    472
    476
    480
    484
    488
    492
    496
    500
    504
    508
    512
    516
    520
    524
    528
    532
    536
    540
    544
    548
    552
    556
    560
    564
    568
    572
    576
    580
    584
    588
    592
    596
    600
    604
    608
    612
    616
    620
    624
    628
    632
    636
    640
    644
    648
    652
    656
    660
    664
    668
    672
    676
    680
    684
    688
    692
    696
    700
    704
    708
    712
    716
    720
    724
    728
    732
    736
    740
    744
    748
    752
    756
    760
    764
    768
    772
    776
    780
    784
    788
    792
    796
    800
    804
    808
    812
    816
    820
    824
    828
    832
    836
    840
    844
    848
    852
    856
    860
    864
    868
    872
    876
    880
    884
    888
    892
    896
    900
    904
    908
    912
    916
    920
    924
    928
    932
    936
    940
    944
    948
    952
    956
    960
    964
    968
    972
    976
    980
    984
    988
    992
    996
   1000
   1004
   1008
   1012
   1016
   1020
   1024
   1028
   1032
   1036
   1040
   1044
   1048
   1052
   1056
   1060
   1064
   1068
   1072
   1076
   1080
   1084
   1088
   1092
   1096
   1100
   1104
   1108
   1112
   1116
   1120
   1124
   1128
   1132
   1136
   1140
   1144
   1148
   1152
   1156
   1160
   1164
   1168
   1172
   1176
   1180
   1184
   1188
   1192
   1196
   1200
   1204
   1208
   1212
   1216
   1220
   1224
   1228
   1232
   1236
   1240
   1244
   1248
   1252
   1256
   1260
   1264
   1268
   1272
   1276
   1280
   1284
   1288
   1292
   1296
   1300
   1304
   1308
   1312
   1316
   1320
   1324
   1328
   1332
   1336
   1340
   1344
   1348
   1352
   1356
   1360
   1364
   1368
   1372
   1376
   1380
   1384
   1388
   1392
   1396
   1400
   1404
   1408
   1412
   1416
   1420
   1424
   1428
   1432
   1436
   1440
   1444
   1448
   1452
   1456
   1460
   1464
   1468
   1472
   1476
   1480
   1484
   1488
   1492
   1496
   1500
   1504
   1508
   1512
   1516
   1520
   1524
   1528
   1532
   1536
   1540
   1544
   1548
   1552
   1556
   1560
   1564
   1568
   1572
   1576
   1580
   1584
   1588
   1592
   1596
   1600
   1604
   1608
   1612
   1616
   1620
   1624
   1628
   1632
   1636
   1640
   1644
   1648
   1652
   1656
   1660
   1664
   1668
   1672
   1676
   1680
   1684
   1688
   1692
   1696
   1700
   1704
   1708
   1712
   1716
   1720
   1724
   1728
   1732
   1736
   1740
   1744
   1748
   1752
   1756
   1760
   1764
   1768
   1772
   1776
   1780
   1784
   1788
   1792
   1796
   1800
   1804
   1808
   1812
   1816
   1820
   1824
   1828
   1832
   1836
   1840
   1844
   1848
   1852
   1856
   1860
   1864
   1868
   1872
   1876
   1880
   1884
   1888
   1892
   1896
   1900
   1904
   1908
   1912
   1916
   1920
   1924
   1928
   1932
   1936
   1940
   1944
   1948
   1952
   1956
   1960
   1964
   1968
   1972
   1976
   1980
   1984
   1988
   1992
   1996
   2000
   2004
   2008
   2012
   2016
   2020
   2024
   2028
   2032
   2036
   2040
   2044
   2048
   2052
   2056
   2060
   2064
   2068
   2072
   2076
   2080
   2084
   2088
   2092
   2096
   2100
   2104
   2108
   2112
   2116
   2120
   2124
   2128
   2132
   2136
   2140
   2144
   2148
   2152
   2156
   2160
   2164
   2168
   2172
   2176
   2180
   2184
   2188
   2192
   2196
   2200
   2204
   2208
   2212
   2216
   2220
   2224
   2228
   2232
   2236
   2240
   2244
   2248
   2252
   2256
   2260
   2264
   2268
   2272
   2276
   2280
   2284
   2288
   2292
   2296
   2300
   2304
   2308
   2312
   2316
   2320
   2324
   2328
   2332
   2336
   2340
   2344
   2348
   2352
   2356
   2360
   2364
   2368
   2372
   2376
   2380
   2384
   2388
   2392
   2396
   2400
        </DataArray>
      </Polys>
    </Piece>
  </PolyData>
</VTKFile>
