<?xml version="1.0"?>
<VTKFile type="PolyData" version="0.1" byte_order="LittleEndian">
  <PolyData>
    <Piece NumberOfPoints="     19" NumberOfVerts="  0" NumberOfLines="     18"
           NumberOfStrips="  0" NumberOfPolys="      0">
      <Points>
        <DataArray type="Float32" NumberOfComponents="3" format="ascii">
                      -4.56862                      -1.49979                      90.18424
                      -4.61680                      -2.86002                      90.31016
                      -4.73904                      -5.58832                      90.46840
                      -4.86768                      -8.32083                      90.58051
                      -5.02204                     -11.73989                      90.69027
                      -5.11278                     -15.83352                      90.95165
                      -5.12732                     -19.91803                      91.33063
                      -5.09307                     -24.00340                      91.70216
                      -4.99665                     -28.08851                      92.06684
                      -4.82811                     -32.17211                      92.42197
                      -4.57873                     -36.25274                      92.76320
                      -4.23823                     -40.32799                      93.09116
                      -3.79944                     -44.39527                      93.40518
                      -3.25727                     -48.45161                      93.70463
                      -2.60685                     -52.49331                      93.98848
                      -1.97996                     -55.84706                      94.21232
                      -1.42616                     -58.51865                      94.39105
                      -0.82141                     -61.17472                      94.61667
                      -0.50904                     -62.50163                      94.68547
        </DataArray>
      </Points>
      <PointData>
        <DataArray type="Float32" Name="TranslationalVelocity" NumberOfComponents="3" format="ascii">
                      -0.33415                      -0.25637                      -2.64539
                      -0.56596                      -0.47092                      -5.05144
                      -1.03121                      -0.73012                      -9.87748
                      -1.49765                      -0.90666                     -14.71095
                      -2.08220                      -1.07466                     -20.75863
                      -2.78424                      -1.52165                     -27.99890
                      -3.48825                      -2.18957                     -35.22211
                      -4.19754                      -2.85267                     -42.44569
                      -4.91387                      -3.51457                     -49.66744
                      -5.63918                      -4.17257                     -56.88499
                      -6.37537                      -4.82101                     -64.09561
                      -7.12411                      -5.46345                     -71.29503
                      -7.88683                      -6.10078                     -78.47865
                      -8.66454                      -6.73372                     -85.64134
                      -9.45769                      -7.36253                     -92.77674
                     -10.13062                      -7.88345                     -98.69663
                     -10.67588                      -8.31219                    -103.41196
                     -11.22590                      -8.83635                    -108.09966
                     -11.50388                      -9.02389                    -110.44144
        </DataArray>
        <DataArray type="Float32" Name="RotationalVelocity" NumberOfComponents="3" format="ascii">
                       1.76879                      -0.00122                      -0.17033
                       1.76880                      -0.00122                      -0.17037
                       1.76880                      -0.00123                      -0.17051
                       1.76876                      -0.00124                      -0.17072
                       1.76868                      -0.00127                      -0.17111
                       1.76852                      -0.00132                      -0.17180
                       1.76832                      -0.00137                      -0.17281
                       1.76808                      -0.00138                      -0.17423
                       1.76778                      -0.00130                      -0.17613
                       1.76743                      -0.00108                      -0.17857
                       1.76702                      -0.00069                      -0.18159
                       1.76654                      -0.00009                      -0.18518
                       1.76601                       0.00070                      -0.18927
                       1.76542                       0.00166                      -0.19374
                       1.76480                       0.00271                      -0.19838
                       1.76427                       0.00356                      -0.20217
                       1.76386                       0.00416                      -0.20499
                       1.76346                       0.00461                      -0.20746
                       1.76328                       0.00476                      -0.20852
        </DataArray>
        <DataArray type="Float32" Name="TranslationalAcceleration" NumberOfComponents="3" format="ascii">
                      -0.02402                       4.70802                      -0.57162
                      -0.04832                       5.68919                      -0.65385
                      -0.11260                      16.30974                      -1.57096
                      -0.15732                      26.09626                      -2.23676
                      -0.19716                      37.53708                      -2.87743
                      -0.27808                      50.49565                      -3.98320
                      -0.38990                      63.07027                      -5.42664
                      -0.49701                      75.60722                      -6.84121
                      -0.60520                      88.26237                      -8.24901
                      -0.72035                     101.08264                      -9.64852
                      -0.84891                     114.03588                     -11.02482
                      -1.00003                     127.03962                     -12.37505
                      -1.18331                     139.99481                     -13.69160
                      -1.40936                     152.81643                     -14.97061
                      -1.68975                     165.46322                     -16.21582
                      -1.97537                     175.88869                     -17.23819
                      -2.24348                     184.20104                     -18.08333
                      -2.56137                     192.54848                     -19.11764
                      -2.72796                     196.78136                     -19.51522
        </DataArray>
        <DataArray type="Float32" Name="OrientationX" NumberOfComponents="3" format="ascii">
                       0.94614                      -0.06323                      -0.31753
                       0.94616                      -0.06249                      -0.31762
                       0.94621                      -0.06009                      -0.31793
                       0.94625                      -0.05658                      -0.31844
                       0.94627                      -0.05080                      -0.31937
                       0.95599                      -0.03935                      -0.29076
                       0.96220                      -0.02640                      -0.27105
                       0.96695                      -0.01139                      -0.25472
                       0.97127                       0.00618                      -0.23791
                       0.97489                       0.02642                      -0.22113
                       0.97730                       0.04917                      -0.20606
                       0.97865                       0.07434                      -0.19161
                       0.97856                       0.10129                      -0.17933
                       0.97670                       0.12899                      -0.17152
                       0.97400                       0.15659                      -0.16371
                       0.97139                       0.17840                      -0.15675
                       0.96924                       0.19408                      -0.15138
                       0.96685                       0.20708                      -0.14941
                       0.96556                       0.21225                      -0.15046
        </DataArray>
        <DataArray type="Float32" Name="OrientationY" NumberOfComponents="3" format="ascii">
                       0.32190                       0.07868                       0.94350
                       0.32192                       0.07864                       0.94349
                       0.32201                       0.07862                       0.94347
                       0.32218                       0.07872                       0.94340
                       0.32259                       0.07905                       0.94323
                       0.29308                       0.08111                       0.95264
                       0.27232                       0.08266                       0.95865
                       0.25476                       0.08407                       0.96334
                       0.23654                       0.08539                       0.96786
                       0.21815                       0.08649                       0.97208
                       0.20131                       0.08727                       0.97563
                       0.18499                       0.08758                       0.97883
                       0.17080                       0.08745                       0.98142
                       0.16112                       0.08720                       0.98307
                       0.15160                       0.08641                       0.98466
                       0.14344                       0.08525                       0.98598
                       0.13730                       0.08411                       0.98695
                       0.13469                       0.08353                       0.98736
                       0.13545                       0.08366                       0.98725
        </DataArray>
        <DataArray type="Float32" Name="OrientationZ" NumberOfComponents="3" format="ascii">
                      -0.03467                      -0.99489                       0.09480
                      -0.03398                      -0.99494                       0.09452
                      -0.03170                      -0.99509                       0.09374
                      -0.02831                      -0.99529                       0.09272
                      -0.02267                      -0.99558                       0.09119
                      -0.01390                      -0.99593                       0.08907
                      -0.00290                      -0.99623                       0.08673
                       0.01044                      -0.99639                       0.08419
                       0.02630                      -0.99633                       0.08148
                       0.04481                      -0.99590                       0.07855
                       0.06596                      -0.99497                       0.07539
                       0.08954                      -0.99338                       0.07196
                       0.11509                      -0.99101                       0.06827
                       0.14176                      -0.98780                       0.06439
                       0.16833                      -0.98388                       0.06043
                       0.18926                      -0.98026                       0.05722
                       0.20428                      -0.97737                       0.05488
                       0.21695                      -0.97475                       0.05286
                       0.22213                      -0.97363                       0.05203
        </DataArray>
        <DataArray type="Float32" Name="Force" NumberOfComponents="3" format="ascii">
                       1.51398                       1.44510                      15.71958
                     184.64324                       0.82387                      74.84030
                     251.98984                      10.16198                     191.29516
                     241.41891                      18.02385                     262.59666
                    1815.17799                    -122.69766                    -869.15427
                    2153.44443                    -108.40488                    -848.61689
                    2472.89737                     -83.13538                    -836.99426
                    3278.47523                     -53.59314                    -990.04791
                    3610.14280                      12.37066                    -958.39633
                    4205.55162                     103.42427                   -1021.78605
                    5404.41177                     261.57706                   -1193.80267
                    6232.23308                     461.59498                   -1288.37236
                    7336.63492                     740.21978                   -1500.09870
                    8005.46728                    1036.41670                   -1584.99819
                    8613.28475                    1361.94030                   -1659.80661
                    8985.42127                    1626.42258                   -1686.63253
                    8810.69545                    1742.05132                   -1606.58214
                    6397.18791                    1355.20985                   -1144.16868
                    1770.96245                     397.39156                    -143.28805
        </DataArray>
        <DataArray type="Float32" Name="Moment" NumberOfComponents="3" format="ascii">
                       0.00000                       0.00000                       0.00000
                       0.00000                       0.00000                       0.00000
                       0.00000                       0.00000                       0.00000
                       0.00000                       0.00000                       0.00000
                      15.88429                     704.78938                     -66.32101
                      18.93523                    1392.60460                    -129.84559
                       4.41713                    1821.97634                    -167.91941
                     -29.30418                    2641.97021                    -240.05355
                    -100.51956                    3704.05730                    -330.83218
                    -190.85868                    4162.24813                    -364.25289
                    -303.02321                    4504.17093                    -384.88305
                    -435.43718                    4771.74322                    -396.72793
                    -465.37837                    3964.75801                    -319.65823
                    -573.24669                    3956.10834                    -308.47410
                    -662.60086                    3838.22540                    -289.03130
                    -711.26295                    3652.33219                    -267.25545
                    -683.49817                    3242.68953                    -232.27113
                    -365.02137                    1626.50347                    -114.36842
                    -325.72342                    1415.95222                     -98.79732
        </DataArray>
      </PointData>
      <Lines>
        <DataArray type="Int32" Name="connectivity" format="ascii">
      0      1
      1      2
      2      3
      3      4
      4      5
      5      6
      6      7
      7      8
      8      9
      9     10
     10     11
     11     12
     12     13
     13     14
     14     15
     15     16
     16     17
     17     18
        </DataArray>
        <DataArray type="Int32" Name="offsets" format="ascii">
      2
      4
      6
      8
     10
     12
     14
     16
     18
     20
     22
     24
     26
     28
     30
     32
     34
     36
        </DataArray>
      </Lines>
    </Piece>
  </PolyData>
</VTKFile>
