<?xml version="1.0"?>
<VTKFile type="PolyData" version="0.1" byte_order="LittleEndian">
  <PolyData>
    <Piece NumberOfPoints="     19" NumberOfVerts="  0" NumberOfLines="     18"
           NumberOfStrips="  0" NumberOfPolys="      0">
      <Points>
        <DataArray type="Float32" NumberOfComponents="3" format="ascii">
                      -4.94684                      -1.32274                      89.30504
                      -5.06609                      -2.51885                      88.65397
                      -5.33231                      -4.86438                      87.27024
                      -5.60892                      -7.18753                      85.84650
                      -5.95604                     -10.07768                      84.04088
                      -6.29592                     -13.61538                      81.98814
                      -6.58503                     -17.21526                      80.04021
                      -6.85833                     -20.81501                      78.08870
                      -7.11322                     -24.41566                      76.13516
                      -7.35182                     -28.01639                      74.17850
                      -7.57839                     -31.61560                      72.21648
                      -7.79605                     -35.21420                      70.25137
                      -8.01100                     -38.81238                      68.28464
                      -8.23122                     -42.41028                      66.31807
                      -8.46406                     -46.00786                      64.35328
                      -8.67614                     -49.00564                      62.71900
                      -8.86077                     -51.40740                      61.42130
                      -9.05237                     -53.83557                      60.17359
                      -9.16722                     -55.02929                      59.51638
        </DataArray>
      </Points>
      <PointData>
        <DataArray type="Float32" Name="TranslationalVelocity" NumberOfComponents="3" format="ascii">
                      -0.33972                       2.00174                      -3.64981
                      -0.64125                       3.83965                      -6.97109
                      -1.23361                       7.74794                     -13.48222
                      -1.82196                      11.76839                     -19.92869
                      -2.55693                      16.86385                     -27.94443
                      -3.46217                      22.63933                     -37.74986
                      -4.39162                      28.10791                     -47.72018
                      -5.33240                      33.57901                     -57.68229
                      -6.28747                      39.04778                     -67.63909
                      -7.25922                      44.51788                     -77.58848
                      -8.24942                      49.99676                     -87.52619
                      -9.25983                      55.47907                     -97.45496
                     -10.29121                      60.96256                    -107.37541
                     -11.34321                      66.44455                    -117.28793
                     -12.41415                      71.92264                    -127.19222
                     -13.31907                      76.48228                    -135.43925
                     -14.04969                      80.10604                    -142.04262
                     -14.79026                      83.59268                    -148.71502
                     -15.15604                      85.43270                    -151.99333
        </DataArray>
        <DataArray type="Float32" Name="RotationalVelocity" NumberOfComponents="3" format="ascii">
                       2.77706                       0.00011                      -0.25200
                       2.77674                       0.00020                      -0.25211
                       2.77586                       0.00044                      -0.25247
                       2.77475                       0.00079                      -0.25302
                       2.77317                       0.00133                      -0.25400
                       2.77112                       0.00215                      -0.25565
                       2.76906                       0.00317                      -0.25785
                       2.76705                       0.00445                      -0.26059
                       2.76511                       0.00603                      -0.26385
                       2.76322                       0.00795                      -0.26757
                       2.76137                       0.01023                      -0.27168
                       2.75951                       0.01283                      -0.27602
                       2.75765                       0.01566                      -0.28040
                       2.75581                       0.01852                      -0.28457
                       2.75406                       0.02115                      -0.28820
                       2.75278                       0.02291                      -0.29058
                       2.75195                       0.02381                      -0.29185
                       2.75140                       0.02405                      -0.29237
                       2.75126                       0.02387                      -0.29231
        </DataArray>
        <DataArray type="Float32" Name="TranslationalAcceleration" NumberOfComponents="3" format="ascii">
                       0.54738                      10.22957                       5.62543
                       0.61612                      12.35731                       6.76462
                       1.81624                      34.98350                      20.00175
                       2.94899                      55.55774                      32.53751
                       4.29616                      79.37986                      47.45056
                       5.75668                     106.87477                      63.56038
                       7.10988                     134.05321                      78.44089
                       8.45726                     161.08667                      93.31064
                       9.80389                     188.32995                     108.34263
                      11.14341                     215.89035                     123.60481
                      12.46155                     243.70007                     139.08384
                      13.73689                     271.60880                     154.67761
                      14.94961                     299.42465                     170.27763
                      16.08548                     326.98606                     185.79746
                      17.14073                     354.22725                     201.21248
                      17.96478                     376.74606                     214.02621
                      18.59675                     394.78256                     224.27511
                      19.19637                     413.18674                     234.30951
                      19.51968                     422.35181                     239.69459
        </DataArray>
        <DataArray type="Float32" Name="OrientationX" NumberOfComponents="3" format="ascii">
                       0.94815                       0.07334                      -0.30924
                       0.94818                       0.07370                      -0.30908
                       0.94821                       0.07488                      -0.30870
                       0.94821                       0.07665                      -0.30827
                       0.94814                       0.07957                      -0.30775
                       0.95723                       0.06883                      -0.28102
                       0.96291                       0.06333                      -0.26229
                       0.96709                       0.06018                      -0.24723
                       0.97077                       0.05739                      -0.23304
                       0.97378                       0.05511                      -0.22071
                       0.97573                       0.05404                      -0.21221
                       0.97689                       0.05343                      -0.20697
                       0.97696                       0.05371                      -0.20655
                       0.97549                       0.05556                      -0.21290
                       0.97346                       0.05616                      -0.22184
                       0.97154                       0.05498                      -0.23039
                       0.96983                       0.05271                      -0.23802
                       0.96728                       0.05047                      -0.24866
                       0.96551                       0.04962                      -0.25558
        </DataArray>
        <DataArray type="Float32" Name="OrientationY" NumberOfComponents="3" format="ascii">
                       0.30574                      -0.47620                       0.82448
                       0.30576                      -0.47629                       0.82442
                       0.30597                      -0.47648                       0.82423
                       0.30640                      -0.47664                       0.82397
                       0.30732                      -0.47678                       0.82355
                       0.27878                      -0.47921                       0.83225
                       0.25975                      -0.48073                       0.83751
                       0.24505                      -0.48186                       0.84129
                       0.23130                      -0.48287                       0.84460
                       0.21941                      -0.48374                       0.84726
                       0.21145                      -0.48440                       0.84891
                       0.20657                      -0.48492                       0.84982
                       0.20632                      -0.48521                       0.84971
                       0.21274                      -0.48516                       0.84815
                       0.22081                      -0.48503                       0.84616
                       0.22769                      -0.48493                       0.84440
                       0.23323                      -0.48485                       0.84293
                       0.24142                      -0.48465                       0.84073
                       0.24704                      -0.48449                       0.83919
        </DataArray>
        <DataArray type="Float32" Name="OrientationZ" NumberOfComponents="3" format="ascii">
                      -0.08679                      -0.87628                      -0.47393
                      -0.08645                      -0.87619                      -0.47414
                      -0.08537                      -0.87599                      -0.47471
                      -0.08378                      -0.87575                      -0.47544
                      -0.08120                      -0.87542                      -0.47650
                      -0.07739                      -0.87499                      -0.47791
                      -0.07305                      -0.87458                      -0.47935
                      -0.06850                      -0.87418                      -0.48074
                      -0.06406                      -0.87381                      -0.48203
                      -0.06007                      -0.87347                      -0.48315
                      -0.05692                      -0.87318                      -0.48407
                      -0.05496                      -0.87293                      -0.48474
                      -0.05458                      -0.87275                      -0.48511
                      -0.05617                      -0.87266                      -0.48509
                      -0.06007                      -0.87269                      -0.48456
                      -0.06530                      -0.87282                      -0.48365
                      -0.07097                      -0.87301                      -0.48251
                      -0.07808                      -0.87325                      -0.48098
                      -0.08219                      -0.87339                      -0.48004
        </DataArray>
        <DataArray type="Float32" Name="Force" NumberOfComponents="3" format="ascii">
                       2.26896                     -13.74597                      25.00025
                     194.52387                     -76.92033                     106.73920
                     317.95242                    -208.60848                     328.38612
                     335.92022                    -294.93082                     485.72530
                    1516.16461                     115.96162                    -473.02422
                    1403.20843                      71.40959                    -359.61051
                    1286.41825                      29.05229                    -250.25442
                    1956.66592                      55.18475                    -381.46705
                    2408.42495                      54.90010                    -422.27997
                    2682.79738                      46.90733                    -421.00107
                    4318.94642                      75.71491                    -648.57651
                    4649.29698                      68.89161                    -655.21761
                    3865.85308                      36.08060                    -502.50631
                    2513.11158                     -26.06837                    -244.01307
                     754.41927                     -95.60433                      81.93896
                    1409.70567                     -32.85331                    -130.73225
                      16.65779                    -109.60207                     199.54889
                   -1385.02515                     -93.62033                     398.81606
                  -17970.44580                     508.99257                    2152.50049
        </DataArray>
        <DataArray type="Float32" Name="Moment" NumberOfComponents="3" format="ascii">
                       0.00000                       0.00000                       0.00000
                       0.00000                       0.00000                       0.00000
                       0.00000                       0.00000                       0.00000
                       0.00000                       0.00000                       0.00000
                     109.57378                    1185.34987                     641.80005
                     193.52458                    2199.80855                    1191.96394
                     243.20333                    2933.18277                    1590.68871
                     363.75174                    4686.47212                    2543.76471
                     503.49141                    6948.85892                    3775.01764
                     534.61519                    7881.38612                    4284.92733
                     564.23921                    8793.82259                    4783.92659
                     578.14027                    9343.22988                    5084.74734
                     433.38397                    7056.88848                    3840.77867
                     439.50023                    6953.83229                    3783.55985
                     446.21526                    6593.56480                    3584.86339
                     454.16556                    6164.44443                    3348.19721
                     436.73476                    5444.43366                    2953.89336
                     240.03628                    2714.77937                    1470.89070
                     230.84590                    2477.68329                    1341.36150
        </DataArray>
      </PointData>
      <Lines>
        <DataArray type="Int32" Name="connectivity" format="ascii">
      0      1
      1      2
      2      3
      3      4
      4      5
      5      6
      6      7
      7      8
      8      9
      9     10
     10     11
     11     12
     12     13
     13     14
     14     15
     15     16
     16     17
     17     18
        </DataArray>
        <DataArray type="Int32" Name="offsets" format="ascii">
      2
      4
      6
      8
     10
     12
     14
     16
     18
     20
     22
     24
     26
     28
     30
     32
     34
     36
        </DataArray>
      </Lines>
    </Piece>
  </PolyData>
</VTKFile>
