<?xml version="1.0"?>
<VTKFile type="PolyData" version="0.1" byte_order="LittleEndian">
  <PolyData>
    <Piece NumberOfPoints="     19" NumberOfVerts="  0" NumberOfLines="     18"
           NumberOfStrips="  0" NumberOfPolys="      0">
      <Points>
        <DataArray type="Float32" NumberOfComponents="3" format="ascii">
                      -4.99460                       0.94822                      88.86608
                      -5.14964                       1.81517                      87.82055
                      -5.47528                       3.62136                      85.79103
                      -5.80642                       5.46142                      83.78952
                      -6.22017                       7.78108                      81.30261
                      -6.66338                      10.45333                      78.21807
                      -7.07884                      13.02311                      75.04496
                      -7.48562                      15.58858                      71.86675
                      -7.88295                      18.14865                      68.68239
                      -8.27437                      20.70501                      65.49372
                      -8.66539                      23.26062                      62.30384
                      -9.06109                      25.81429                      59.11255
                      -9.46941                      28.36565                      55.92081
                      -9.89994                      30.91385                      52.72969
                     -10.36151                      33.45787                      49.54024
                     -10.77960                      35.57328                      46.88447
                     -11.14010                      37.25564                      44.75680
                     -11.52416                      38.89143                      42.59625
                     -11.73334                      39.73910                      41.54344
        </DataArray>
      </Points>
      <PointData>
        <DataArray type="Float32" Name="TranslationalVelocity" NumberOfComponents="3" format="ascii">
                       0.23647                       3.23953                       2.63924
                       0.45588                       6.19090                       5.05401
                       0.91236                      11.92414                      10.08317
                       1.37572                      17.57790                      15.20406
                       1.95649                      24.59879                      21.65552
                       2.62053                      33.28210                      29.08140
                       3.25493                      42.19631                      36.21602
                       3.88701                      51.11430                      43.33232
                       4.51973                      60.03946                      50.42746
                       5.15656                      68.96848                      57.50655
                       5.80043                      77.89506                      64.57824
                       6.45164                      86.82188                      71.63984
                       7.10836                      95.74878                      78.69096
                       7.76566                     104.67534                      85.73008
                       8.41476                     113.60037                      92.75524
                       8.93923                     121.03585                      98.59566
                       9.33963                     126.99554                     103.24012
                       9.70760                     133.04789                     107.75596
                       9.88755                     136.00050                     110.09623
        </DataArray>
        <DataArray type="Float32" Name="RotationalVelocity" NumberOfComponents="3" format="ascii">
                       2.78590                      -0.00064                      -0.25260
                       2.78544                      -0.00060                      -0.25250
                       2.78428                      -0.00033                      -0.25211
                       2.78286                       0.00011                      -0.25154
                       2.78087                       0.00074                      -0.25076
                       2.77832                       0.00140                      -0.24991
                       2.77579                       0.00169                      -0.24932
                       2.77340                       0.00141                      -0.24903
                       2.77124                       0.00044                      -0.24898
                       2.76937                      -0.00123                      -0.24903
                       2.76780                      -0.00347                      -0.24894
                       2.76651                      -0.00601                      -0.24841
                       2.76545                      -0.00839                      -0.24707
                       2.76456                      -0.00996                      -0.24449
                       2.76374                      -0.00986                      -0.24018
                       2.76304                      -0.00778                      -0.23496
                       2.76243                      -0.00417                      -0.22943
                       2.76173                       0.00165                      -0.22253
                       2.76134                       0.00555                      -0.21852
        </DataArray>
        <DataArray type="Float32" Name="TranslationalAcceleration" NumberOfComponents="3" format="ascii">
                       0.84035                      -7.42249                       9.06519
                       0.99447                      -8.97935                      10.93491
                       2.87926                     -26.23821                      30.81051
                       4.65057                     -42.38886                      48.81329
                       6.72952                     -61.42544                      69.62678
                       9.12427                     -82.21632                      93.91037
                      11.44710                    -101.63425                     118.16104
                      13.71050                    -120.92316                     142.32656
                      15.99719                    -140.32400                     166.71796
                      18.39567                    -159.92792                     191.41987
                      20.99417                    -179.71207                     216.35816
                      23.87676                    -199.54764                     241.39242
                      27.11346                    -219.28770                     266.34274
                      30.75365                    -238.80749                     291.05611
                      34.81866                    -258.05646                     315.46641
                      38.52563                    -273.93212                     335.62639
                      41.67263                    -286.56044                     351.77070
                      45.00717                    -298.95886                     368.30597
                      46.67225                    -305.48798                     376.47690
        </DataArray>
        <DataArray type="Float32" Name="OrientationX" NumberOfComponents="3" format="ascii">
                       0.97844                       0.20507                       0.02458
                       0.97846                       0.20495                       0.02476
                       0.97850                       0.20468                       0.02544
                       0.97853                       0.20438                       0.02651
                       0.97856                       0.20402                       0.02838
                       0.98363                       0.17988                       0.01105
                       0.98661                       0.16307                       0.00041
                       0.98870                       0.14974                      -0.00733
                       0.99040                       0.13746                      -0.01472
                       0.99164                       0.12725                      -0.02147
                       0.99230                       0.12100                      -0.02655
                       0.99250                       0.11830                      -0.03084
                       0.99213                       0.12062                      -0.03362
                       0.99097                       0.12976                      -0.03382
                       0.98927                       0.14188                      -0.03489
                       0.98746                       0.15340                      -0.03723
                       0.98572                       0.16355                      -0.04017
                       0.98338                       0.17653                      -0.04237
                       0.98190                       0.18449                      -0.04282
        </DataArray>
        <DataArray type="Float32" Name="OrientationY" NumberOfComponents="3" format="ascii">
                       0.17270                      -0.74704                      -0.64196
                       0.17275                      -0.74715                      -0.64181
                       0.17303                      -0.74746                      -0.64138
                       0.17355                      -0.74782                      -0.64081
                       0.17457                      -0.74832                      -0.63995
                       0.14525                      -0.75499                      -0.63945
                       0.12576                      -0.75928                      -0.63849
                       0.11075                      -0.76248                      -0.63747
                       0.09674                      -0.76520                      -0.63649
                       0.08470                      -0.76734                      -0.63563
                       0.07675                      -0.76870                      -0.63499
                       0.07200                      -0.76950                      -0.63457
                       0.07207                      -0.76961                      -0.63444
                       0.07900                      -0.76876                      -0.63464
                       0.08769                      -0.76753                      -0.63498
                       0.09511                      -0.76637                      -0.63532
                       0.10108                      -0.76533                      -0.63565
                       0.10969                      -0.76373                      -0.63614
                       0.11553                      -0.76257                      -0.63650
        </DataArray>
        <DataArray type="Float32" Name="OrientationZ" NumberOfComponents="3" format="ascii">
                      -0.11329                       0.63236                      -0.76634
                      -0.11304                       0.63226                      -0.76646
                      -0.11227                       0.63199                      -0.76680
                      -0.11115                       0.63165                      -0.76724
                      -0.10933                       0.63118                      -0.76789
                      -0.10668                       0.63058                      -0.76875
                      -0.10381                       0.63000                      -0.76963
                      -0.10104                       0.62945                      -0.77044
                      -0.09876                       0.62895                      -0.77115
                      -0.09735                       0.62849                      -0.77170
                      -0.09724                       0.62806                      -0.77207
                      -0.09880                       0.62759                      -0.77225
                      -0.10240                       0.62702                      -0.77224
                      -0.10835                       0.62623                      -0.77207
                      -0.11687                       0.62511                      -0.77174
                      -0.12599                       0.62382                      -0.77135
                      -0.13470                       0.62251                      -0.77093
                      -0.14466                       0.62093                      -0.77041
                      -0.15008                       0.62003                      -0.77009
        </DataArray>
        <DataArray type="Float32" Name="Force" NumberOfComponents="3" format="ascii">
                      -0.71671                      -9.70697                      -7.90393
                     142.28626                     -67.78391                     -76.91690
                     226.87274                    -232.07635                    -224.70056
                     231.49674                    -374.46091                    -342.45865
                    1292.67037                     244.48775                      17.51468
                    1226.64400                     176.84058                     -24.53845
                    1091.57881                      96.23516                     -68.04333
                    1667.03808                     153.08107                     -92.71832
                    2108.77340                     164.34587                    -134.99166
                    2285.33518                     139.77566                    -173.55595
                    3775.27343                     218.86738                    -295.90020
                    3924.90965                     196.74005                    -340.91175
                    2812.90680                      90.99848                    -298.73346
                    1334.69731                     -50.39198                    -229.30505
                    1539.68466                      66.44848                    -179.02886
                    -330.06796                    -205.60145                    -115.78196
                   -1886.50734                    -358.88302                      34.27773
                   -2972.00968                    -440.53595                     196.30637
                  -17938.28269                   -1081.48052                    2621.07327
        </DataArray>
        <DataArray type="Float32" Name="Moment" NumberOfComponents="3" format="ascii">
                       0.00000                       0.00000                       0.00000
                       0.00000                       0.00000                       0.00000
                       0.00000                       0.00000                       0.00000
                       0.00000                       0.00000                       0.00000
                     133.56885                    -773.38856                     937.70105
                     250.92939                   -1489.82644                    1806.92964
                     330.70536                   -2019.07981                    2449.68158
                     517.22589                   -3246.23833                    3939.86434
                     753.04219                   -4838.11005                    5873.48809
                     843.98545                   -5502.82178                    6681.58630
                     943.54496                   -6161.17968                    7481.09996
                    1019.23087                   -6551.45473                    7953.54092
                     795.83942                   -4936.20009                    5990.07354
                     824.88795                   -4835.73585                    5864.05751
                     841.62461                   -4573.59776                    5540.60327
                     853.14623                   -4299.79475                    5203.29601
                     804.86183                   -3792.90470                    4585.15332
                     434.14736                   -1904.30406                    2299.34352
                     413.40700                   -1747.26691                    2108.36400
        </DataArray>
      </PointData>
      <Lines>
        <DataArray type="Int32" Name="connectivity" format="ascii">
      0      1
      1      2
      2      3
      3      4
      4      5
      5      6
      6      7
      7      8
      8      9
      9     10
     10     11
     11     12
     12     13
     13     14
     14     15
     15     16
     16     17
     17     18
        </DataArray>
        <DataArray type="Int32" Name="offsets" format="ascii">
      2
      4
      6
      8
     10
     12
     14
     16
     18
     20
     22
     24
     26
     28
     30
     32
     34
     36
        </DataArray>
      </Lines>
    </Piece>
  </PolyData>
</VTKFile>
