<?xml version="1.0"?>
<VTKFile type="PolyData" version="0.1" byte_order="LittleEndian">
  <PolyData>
    <Piece NumberOfPoints="    625" NumberOfVerts="  0" NumberOfLines="      0"
           NumberOfStrips="  0" NumberOfPolys="    600">
      <Points>
        <DataArray type="Float32" NumberOfComponents="3" format="ascii">
                      -4.38125                       0.32481                      91.49800
                      -4.38125                       0.32481                      91.49800
                      -4.38125                       0.32481                      91.49800
                      -4.38125                       0.32481                      91.49800
                      -4.38125                       0.32481                      91.49800
                      -4.38125                       0.32481                      91.49800
                      -4.38125                       0.32481                      91.49800
                      -4.38125                       0.32481                      91.49800
                      -4.38125                       0.32481                      91.49800
                      -4.38125                       0.32481                      91.49800
                      -4.38125                       0.32481                      91.49800
                      -4.38125                       0.32481                      91.49800
                      -4.38125                       0.32481                      91.49800
                      -4.38125                       0.32481                      91.49800
                      -4.38125                       0.32481                      91.49800
                      -4.38125                       0.32481                      91.49800
                      -4.38125                       0.32481                      91.49800
                      -4.38125                       0.32481                      91.49800
                      -4.38125                       0.32481                      91.49800
                      -4.38125                       0.32481                      91.49800
                      -4.38125                       0.32481                      91.49800
                      -4.38125                       0.32481                      91.49800
                      -4.38125                       0.32481                      91.49800
                      -4.38125                       0.32481                      91.49800
                      -4.38125                       0.32481                      91.49800
                      -3.79620                       0.29736                      91.31923
                      -3.81181                       0.15192                      91.35362
                      -3.86394                       0.01561                      91.38946
                      -3.94930                      -0.10299                      91.42450
                      -4.06254                      -0.19644                      91.45652
                      -4.19654                      -0.25886                      91.48353
                      -4.34287                      -0.28633                      91.50381
                      -4.49236                      -0.27713                      91.51610
                      -4.63559                      -0.23183                      91.51963
                      -4.76358                      -0.15328                      91.51417
                      -4.86828                      -0.04641                      91.50007
                      -4.94311                       0.08205                      91.47821
                      -4.98337                       0.22405                      91.44997
                      -4.98653                       0.37065                      91.41712
                      -4.95239                       0.51264                      91.38172
                      -4.88310                       0.64111                      91.34600
                      -4.78301                       0.74798                      91.31220
                      -4.65841                       0.82653                      91.28246
                      -4.51713                       0.87183                      91.25862
                      -4.36804                       0.88104                      91.24220
                      -4.22052                       0.85357                      91.23423
                      -4.08383                       0.79115                      91.23520
                      -3.96656                       0.69771                      91.24506
                      -3.87609                       0.57911                      91.26318
                      -3.81808                       0.44280                      91.28844
                      -3.57925                       0.26991                      91.17585
                      -3.60084                       0.06874                      91.22343
                      -3.67294                      -0.11979                      91.27300
                      -3.79101                      -0.28383                      91.32146
                      -3.94763                      -0.41308                      91.36575
                      -4.13297                      -0.49942                      91.40310
                      -4.33537                      -0.53741                      91.43116
                      -4.54212                      -0.52468                      91.44816
                      -4.74023                      -0.46203                      91.45304
                      -4.91726                      -0.35338                      91.44549
                      -5.06207                      -0.20557                      91.42599
                      -5.16557                      -0.02789                      91.39575
                      -5.22125                       0.16851                      91.35669
                      -5.22563                       0.37127                      91.31125
                      -5.17841                       0.56767                      91.26229
                      -5.08257                       0.74536                      91.21288
                      -4.94413                       0.89317                      91.16614
                      -4.77180                       1.00182                      91.12499
                      -4.57639                       1.06448                      91.09203
                      -4.37018                       1.07721                      91.06932
                      -4.16614                       1.03922                      91.05829
                      -3.97708                       0.95289                      91.05964
                      -3.81489                       0.82364                      91.07327
                      -3.68974                       0.65960                      91.09834
                      -3.60952                       0.47108                      91.13327
                      -3.42867                       0.24245                      91.03886
                      -3.45451                       0.00174                      91.09579
                      -3.54078                      -0.22385                      91.15511
                      -3.68206                      -0.42014                      91.21309
                      -3.86947                      -0.57480                      91.26609
                      -4.09124                      -0.67811                      91.31078
                      -4.33343                      -0.72357                      91.34436
                      -4.58083                      -0.70834                      91.36470
                      -4.81789                      -0.63337                      91.37054
                      -5.02971                      -0.50337                      91.36151
                      -5.20299                      -0.32650                      91.33817
                      -5.32684                      -0.11388                      91.30199
                      -5.39347                       0.12112                      91.25525
                      -5.39870                       0.36375                      91.20087
                      -5.34220                       0.59875                      91.14229
                      -5.22753                       0.81137                      91.08317
                      -5.06187                       0.98824                      91.02724
                      -4.85566                       1.11825                      90.97800
                      -4.62183                       1.19323                      90.93856
                      -4.37509                       1.20847                      90.91139
                      -4.13094                       1.16300                      90.89819
                      -3.90471                       1.05970                      90.89980
                      -3.71063                       0.90505                      90.91612
                      -3.56089                       0.70876                      90.94611
                      -3.46489                       0.48317                      90.98790
                      -3.31505                       0.21500                      90.90543
                      -3.34416                      -0.05625                      90.96958
                      -3.44137                      -0.31046                      91.03642
                      -3.60058                      -0.53166                      91.10176
                      -3.81177                      -0.70594                      91.16148
                      -4.06167                      -0.82236                      91.21184
                      -4.33460                      -0.87359                      91.24968
                      -4.61338                      -0.85643                      91.27260
                      -4.88052                      -0.77194                      91.27918
                      -5.11921                      -0.62544                      91.26900
                      -5.31448                      -0.42614                      91.24270
                      -5.45404                      -0.18655                      91.20194
                      -5.52912                       0.07827                      91.14926
                      -5.53502                       0.35168                      91.08799
                      -5.47135                       0.61650                      91.02197
                      -5.34212                       0.85610                      90.95536
                      -5.15545                       1.05541                      90.89233
                      -4.92307                       1.20191                      90.83685
                      -4.65958                       1.28640                      90.79240
                      -4.38154                       1.30357                      90.76178
                      -4.10641                       1.25234                      90.74691
                      -3.85148                       1.13593                      90.74872
                      -3.63278                       0.96166                      90.76711
                      -3.46403                       0.74047                      90.80091
                      -3.35586                       0.48626                      90.84800
                      -3.22686                       0.18755                      90.77443
                      -3.25859                      -0.10804                      90.84434
                      -3.36453                      -0.38507                      90.91718
                      -3.53802                      -0.62611                      90.98838
                      -3.76815                      -0.81603                      91.05347
                      -4.04048                      -0.94289                      91.10835
                      -4.33789                      -0.99872                      91.14958
                      -4.64169                      -0.98001                      91.17456
                      -4.93280                      -0.88795                      91.18173
                      -5.19291                      -0.72830                      91.17064
                      -5.40569                      -0.51112                      91.14198
                      -5.55778                      -0.25003                      91.09755
                      -5.63960                       0.03855                      91.04015
                      -5.64602                       0.33649                      90.97338
                      -5.57664                       0.62508                      90.90144
                      -5.43582                       0.88617                      90.82885
                      -5.23240                       1.10336                      90.76016
                      -4.97917                       1.26301                      90.69970
                      -4.69204                       1.35508                      90.65127
                      -4.38905                       1.37379                      90.61790
                      -4.08923                       1.31796                      90.60169
                      -3.81143                       1.19111                      90.60367
                      -3.57310                       1.00120                      90.62371
                      -3.38922                       0.76016                      90.66054
                      -3.27134                       0.48314                      90.71186
                      -3.15822                       0.16009                      90.64532
                      -3.19205                      -0.15508                      90.71986
                      -3.30500                      -0.45044                      90.79752
                      -3.48998                      -0.70745                      90.87344
                      -3.73536                      -0.90994                      90.94284
                      -4.02572                      -1.04521                      91.00135
                      -4.34283                      -1.10474                      91.04531
                      -4.66675                      -1.08479                      91.07195
                      -4.97713                      -0.98663                      91.07959
                      -5.25447                      -0.81641                      91.06776
                      -5.48135                      -0.58484                      91.03721
                      -5.64350                      -0.30646                      90.98984
                      -5.73074                       0.00123                      90.92864
                      -5.73759                       0.31890                      90.85744
                      -5.66362                       0.62660                      90.78074
                      -5.51347                       0.90498                      90.70334
                      -5.29658                       1.13656                      90.63011
                      -5.02658                       1.30678                      90.56564
                      -4.72043                       1.40495                      90.51400
                      -4.39737                       1.42490                      90.47842
                      -4.07770                       1.36538                      90.46114
                      -3.78150                       1.23012                      90.46325
                      -3.52739                       1.02763                      90.48461
                      -3.33133                       0.77063                      90.52388
                      -3.20564                       0.47526                      90.57860
                      -3.10564                       0.13264                      90.51776
                      -3.14115                      -0.19819                      90.59600
                      -3.25971                      -0.50823                      90.67752
                      -3.45388                      -0.77801                      90.75721
                      -3.71145                      -0.99057                      90.83005
                      -4.01625                      -1.13255                      90.89148
                      -4.34911                      -1.19504                      90.93762
                      -4.68913                      -1.17411                      90.96558
                      -5.01493                      -1.07106                      90.97360
                      -5.30606                      -0.89239                      90.96119
                      -5.54421                      -0.64931                      90.92911
                      -5.71442                      -0.35710                      90.87939
                      -5.80599                      -0.03412                      90.81515
                      -5.81318                       0.29934                      90.74042
                      -5.73553                       0.62233                      90.65990
                      -5.57792                       0.91454                      90.57865
                      -5.35026                       1.15763                      90.50178
                      -5.06684                       1.33630                      90.43412
                      -4.74548                       1.43935                      90.37991
                      -4.40636                       1.46029                      90.34256
                      -4.07081                       1.39781                      90.32442
                      -3.75989                       1.25584                      90.32664
                      -3.49315                       1.04328                      90.34906
                      -3.28735                       0.77351                      90.39028
                      -3.15541                       0.46347                      90.44772
                      -3.06692                       0.10519                      90.39152
                      -3.10375                      -0.23793                      90.47267
                      -3.22671                      -0.55948                      90.55722
                      -3.42809                      -0.83927                      90.63986
                      -3.69523                      -1.05972                      90.71541
                      -4.01134                      -1.20698                      90.77912
                      -4.35656                      -1.27179                      90.82697
                      -4.70920                      -1.25007                      90.85597
                      -5.04710                      -1.14321                      90.86429
                      -5.34903                      -0.95790                      90.85142
                      -5.59602                      -0.70580                      90.81815
                      -5.77255                      -0.40274                      90.76658
                      -5.86753                      -0.06776                      90.69995
                      -5.87499                       0.27808                      90.62245
                      -5.79445                       0.61305                      90.53895
                      -5.63099                       0.91612                      90.45468
                      -5.39487                       1.16822                      90.37496
                      -5.10093                       1.35354                      90.30478
                      -4.76764                       1.46041                      90.24855
                      -4.41593                       1.48213                      90.20982
                      -4.06792                       1.41733                      90.19101
                      -3.74546                       1.27008                      90.19331
                      -3.46882                       1.04964                      90.21656
                      -3.25537                       0.76985                      90.25932
                      -3.11854                       0.44830                      90.31888
                      -3.04061                       0.07773                      90.26648
                      -3.07843                      -0.27464                      90.34982
                      -3.20472                      -0.60487                      90.43665
                      -3.41153                      -0.89221                      90.52153
                      -3.68587                      -1.11861                      90.59911
                      -4.01051                      -1.26983                      90.66453
                      -4.36504                      -1.33639                      90.71368
                      -4.72720                      -1.31409                      90.74346
                      -5.07422                      -1.20434                      90.75201
                      -5.38429                      -1.01404                      90.73879
                      -5.63795                      -0.75513                      90.70462
                      -5.81924                      -0.44389                      90.65166
                      -5.91678                      -0.09988                      90.58324
                      -5.92444                       0.25529                      90.50364
                      -5.84173                       0.59930                      90.41788
                      -5.67386                       0.91054                      90.33135
                      -5.43137                       1.16945                      90.24947
                      -5.12950                       1.35976                      90.17740
                      -4.78722                       1.46952                      90.11966
                      -4.42602                       1.49183                      90.07988
                      -4.06862                       1.42528                      90.06056
                      -3.73746                       1.27406                      90.06292
                      -3.45335                       1.04767                      90.08680
                      -3.23415                       0.76033                      90.13071
                      -3.09363                       0.43010                      90.19188
                      -3.02576                       0.05028                      90.14254
                      -3.06427                      -0.30856                      90.22741
                      -3.19287                      -0.64485                      90.31583
                      -3.40348                      -0.93746                      90.40227
                      -3.68286                      -1.16801                      90.48128
                      -4.01345                      -1.32202                      90.54790
                      -4.37449                      -1.38979                      90.59795
                      -4.74329                      -1.36709                      90.62828
                      -5.09668                      -1.25532                      90.63698
                      -5.41245                      -1.06152                      90.62351
                      -5.67075                      -0.79787                      90.58872
                      -5.85537                      -0.48092                      90.53479
                      -5.95470                      -0.13060                      90.46511
                      -5.96250                       0.23109                      90.38405
                      -5.87828                       0.58142                      90.29672
                      -5.70733                       0.89837                      90.20860
                      -5.46039                       1.16203                      90.12522
                      -5.15298                       1.35584                      90.05182
                      -4.80441                       1.46761                      89.99302
                      -4.43659                       1.49032                      89.95252
                      -4.07263                       1.42255                      89.93284
                      -3.73539                       1.26856                      89.93524
                      -3.44607                       1.03801                      89.95956
                      -3.22285                       0.74540                      90.00428
                      -3.07974                       0.40911                      90.06658
                      -3.02174                       0.02282                      90.01965
                      -3.06066                      -0.33984                      90.10541
                      -3.19064                      -0.67971                      90.19478
                      -3.40349                      -0.97544                      90.28214
                      -3.68584                      -1.20845                      90.36199
                      -4.01996                      -1.36410                      90.42932
                      -4.38485                      -1.43260                      90.47990
                      -4.75758                      -1.40965                      90.51056
                      -5.11473                      -1.29669                      90.51935
                      -5.43386                      -1.10083                      90.50574
                      -5.69493                      -0.83436                      90.47058
                      -5.88151                      -0.51404                      90.41607
                      -5.98190                      -0.15998                      90.34565
                      -5.98978                       0.20556                      90.26373
                      -5.90466                       0.55962                      90.17547
                      -5.73189                       0.87995                      90.08640
                      -5.48232                       1.14642                      90.00214
                      -5.17163                       1.34230                      89.92796
                      -4.81935                       1.45526                      89.86853
                      -4.44761                       1.47821                      89.82759
                      -4.07977                       1.40972                      89.80771
                      -3.73894                       1.25409                      89.81014
                      -3.44653                       1.02108                      89.83472
                      -3.22093                       0.72535                      89.87991
                      -3.07630                       0.38548                      89.94287
                      -3.02822                      -0.00463                      89.89776
                      -3.06728                      -0.36856                      89.98383
                      -3.19771                      -0.70962                      90.07351
                      -3.41130                      -1.00638                      90.16117
                      -3.69464                      -1.24020                      90.24130
                      -4.02992                      -1.39639                      90.30886
                      -4.39609                      -1.46513                      90.35962
                      -4.77012                      -1.44210                      90.39038
                      -5.12852                      -1.32875                      90.39921
                      -5.44876                      -1.13220                      90.38555
                      -5.71074                      -0.86481                      90.35027
                      -5.89797                      -0.54336                      90.29557
                      -5.99871                      -0.18807                      90.22490
                      -6.00662                       0.17875                      90.14270
                      -5.92120                       0.53404                      90.05412
                      -5.74783                       0.85549                      89.96475
                      -5.49739                       1.12289                      89.88019
                      -5.18561                       1.31945                      89.80575
                      -4.83210                       1.43280                      89.74612
                      -4.45907                       1.45584                      89.70504
                      -4.08994                       1.38711                      89.68509
                      -3.74792                       1.23093                      89.68752
                      -3.45450                       0.99711                      89.71219
                      -3.22811                       0.70035                      89.75753
                      -3.08297                       0.35929                      89.82072
                      -3.04508                      -0.03209                      89.77687
                      -3.08401                      -0.39475                      89.86264
                      -3.21398                      -0.73462                      89.95201
                      -3.42683                      -1.03035                      90.03936
                      -3.70919                      -1.26336                      90.11921
                      -4.04331                      -1.41901                      90.18655
                      -4.40820                      -1.48751                      90.23713
                      -4.78093                      -1.46456                      90.26778
                      -5.13808                      -1.35160                      90.27658
                      -5.45721                      -1.15574                      90.26297
                      -5.71827                      -0.88927                      90.22780
                      -5.90486                      -0.56895                      90.17330
                      -6.00525                      -0.21489                      90.10287
                      -6.01313                       0.15065                      90.02096
                      -5.92801                       0.50471                      89.93269
                      -5.75523                       0.82504                      89.84363
                      -5.50566                       1.09152                      89.75936
                      -5.19498                       1.28739                      89.68518
                      -4.84270                       1.40035                      89.62576
                      -4.47096                       1.42331                      89.58482
                      -4.10311                       1.35481                      89.56494
                      -3.76228                       1.19918                      89.56736
                      -3.46988                       0.96617                      89.59194
                      -3.24428                       0.67045                      89.63713
                      -3.09965                       0.33057                      89.70010
                      -3.07245                      -0.05954                      89.65699
                      -3.11096                      -0.41838                      89.74186
                      -3.23956                      -0.75467                      89.83028
                      -3.45017                      -1.04728                      89.91672
                      -3.72955                      -1.27783                      89.99573
                      -4.06014                      -1.43183                      90.06235
                      -4.42118                      -1.49961                      90.11240
                      -4.78998                      -1.47691                      90.14272
                      -5.14337                      -1.36514                      90.15143
                      -5.45914                      -1.17134                      90.13796
                      -5.71745                      -0.90769                      90.10317
                      -5.90207                      -0.59074                      90.04924
                      -6.00140                      -0.24041                      89.97956
                      -6.00919                       0.12127                      89.89850
                      -5.92497                       0.47160                      89.81117
                      -5.75402                       0.78855                      89.72305
                      -5.50708                       1.05221                      89.63967
                      -5.19967                       1.24602                      89.56627
                      -4.85110                       1.35779                      89.50747
                      -4.48328                       1.38050                      89.46696
                      -4.11932                       1.31273                      89.44729
                      -3.78208                       1.15874                      89.44969
                      -3.49276                       0.92819                      89.47401
                      -3.26954                       0.63558                      89.51873
                      -3.12644                       0.29930                      89.58103
                      -3.11065                      -0.08699                      89.53816
                      -3.14847                      -0.43937                      89.62149
                      -3.27476                      -0.76960                      89.70832
                      -3.48157                      -1.05694                      89.79320
                      -3.75591                      -1.28333                      89.87078
                      -4.08055                      -1.43456                      89.93621
                      -4.43508                      -1.50112                      89.98535
                      -4.79724                      -1.47882                      90.01514
                      -5.14426                      -1.36907                      90.02368
                      -5.45433                      -1.17876                      90.01046
                      -5.70799                      -0.91986                      89.97629
                      -5.88928                      -0.60862                      89.92333
                      -5.98682                      -0.26461                      89.85491
                      -5.99448                       0.09056                      89.77532
                      -5.91177                       0.43457                      89.68956
                      -5.74390                       0.74581                      89.60302
                      -5.50141                       1.00472                      89.52114
                      -5.19954                       1.19504                      89.44907
                      -4.85725                       1.30479                      89.39133
                      -4.49606                       1.32710                      89.35155
                      -4.13866                       1.26055                      89.33223
                      -3.80750                       1.10933                      89.33459
                      -3.52339                       0.88294                      89.35847
                      -3.30419                       0.59560                      89.40238
                      -3.16367                       0.26537                      89.46356
                      -3.16030                      -0.11445                      89.42042
                      -3.19713                      -0.45756                      89.50156
                      -3.32010                      -0.77912                      89.58612
                      -3.52147                      -1.05891                      89.66876
                      -3.78861                      -1.27936                      89.74431
                      -4.10472                      -1.42661                      89.80801
                      -4.44994                      -1.49142                      89.85587
                      -4.80258                      -1.46971                      89.88487
                      -5.14048                      -1.36284                      89.89319
                      -5.44241                      -1.17754                      89.88032
                      -5.68941                      -0.92543                      89.84705
                      -5.86594                      -0.62237                      89.79548
                      -5.96091                      -0.28740                      89.72885
                      -5.96837                       0.05844                      89.65135
                      -5.88784                       0.39342                      89.56784
                      -5.72438                       0.69648                      89.48358
                      -5.48826                       0.94859                      89.40385
                      -5.19432                       1.13390                      89.33367
                      -4.86102                       1.24078                      89.27745
                      -4.50932                       1.26249                      89.23872
                      -4.16130                       1.19769                      89.21991
                      -3.83884                       1.05045                      89.22220
                      -3.56220                       0.83000                      89.24546
                      -3.34876                       0.55021                      89.28821
                      -3.21193                       0.22866                      89.34778
                      -3.22237                      -0.14190                      89.30388
                      -3.25788                      -0.47274                      89.38212
                      -3.37644                      -0.78278                      89.46364
                      -3.57061                      -1.05256                      89.54333
                      -3.82818                      -1.26511                      89.61617
                      -4.13298                      -1.40710                      89.67760
                      -4.46584                      -1.46959                      89.72374
                      -4.80586                      -1.44865                      89.75170
                      -5.13166                      -1.34561                      89.75973
                      -5.42279                      -1.16694                      89.74731
                      -5.66094                      -0.92386                      89.71523
                      -5.83115                      -0.63165                      89.66551
                      -5.92272                      -0.30866                      89.60127
                      -5.92991                       0.02480                      89.52654
                      -5.85226                       0.34778                      89.44602
                      -5.69465                       0.64000                      89.36478
                      -5.46699                       0.88308                      89.28790
                      -5.18357                       1.06176                      89.22024
                      -4.86221                       1.16481                      89.16603
                      -4.52309                       1.18575                      89.12868
                      -4.18754                       1.12327                      89.11055
                      -3.87662                       0.98129                      89.11276
                      -3.60988                       0.76874                      89.13518
                      -3.40408                       0.49897                      89.17641
                      -3.27214                       0.18892                      89.23384
                      -3.29829                      -0.16936                      89.18867
                      -3.33212                      -0.48453                      89.26321
                      -3.44508                      -0.77990                      89.34087
                      -3.63005                      -1.03690                      89.41679
                      -3.87543                      -1.23940                      89.48618
                      -4.16580                      -1.37466                      89.54470
                      -4.48290                      -1.43419                      89.58866
                      -4.80682                      -1.41425                      89.61529
                      -5.11721                      -1.31608                      89.62294
                      -5.39455                      -1.14587                      89.61111
                      -5.62142                      -0.91430                      89.58055
                      -5.78358                      -0.63592                      89.53318
                      -5.87082                      -0.32822                      89.47198
                      -5.87767                      -0.01055                      89.40079
                      -5.80370                       0.29714                      89.32409
                      -5.65355                       0.57553                      89.24669
                      -5.43666                       0.80710                      89.17345
                      -5.16666                       0.97732                      89.10899
                      -4.86051                       1.07549                      89.05735
                      -4.53745                       1.09544                      89.02177
                      -4.21777                       1.03592                      89.00449
                      -3.92158                       0.90067                      89.00660
                      -3.66746                       0.69818                      89.02796
                      -3.47140                       0.44117                      89.06723
                      -3.34571                       0.14581                      89.12195
                      -3.39029                      -0.19682                      89.07501
                      -3.42201                      -0.49241                      89.14491
                      -3.52795                      -0.76943                      89.21775
                      -3.70144                      -1.01047                      89.28895
                      -3.93158                      -1.20039                      89.35404
                      -4.20391                      -1.32725                      89.40892
                      -4.50131                      -1.38308                      89.45015
                      -4.80511                      -1.36438                      89.47513
                      -5.09622                      -1.27231                      89.48230
                      -5.35633                      -1.11267                      89.47121
                      -5.56912                      -0.89548                      89.44255
                      -5.72120                      -0.63439                      89.39812
                      -5.80302                      -0.34581                      89.34072
                      -5.80944                      -0.04787                      89.27395
                      -5.74007                       0.24071                      89.20201
                      -5.59924                       0.50180                      89.12942
                      -5.39583                       0.71900                      89.06073
                      -5.14259                       0.87864                      89.00027
                      -4.85546                       0.97072                      88.95184
                      -4.55247                       0.98943                      88.91847
                      -4.25265                       0.93360                      88.90226
                      -3.97485                       0.80675                      88.90424
                      -3.73652                       0.61683                      88.92428
                      -3.55264                       0.37580                      88.96111
                      -3.43476                       0.09878                      89.01243
                      -3.50181                      -0.22427                      88.96322
                      -3.53093                      -0.49553                      89.02737
                      -3.62814                      -0.74974                      89.09422
                      -3.78735                      -0.97093                      89.15955
                      -3.99854                      -1.14521                      89.21928
                      -4.24844                      -1.26163                      89.26964
                      -4.52136                      -1.31286                      89.30747
                      -4.80015                      -1.29570                      89.33040
                      -5.06728                      -1.21121                      89.33698
                      -5.30598                      -1.06471                      89.32680
                      -5.50125                      -0.86541                      89.30050
                      -5.64080                      -0.62582                      89.25973
                      -5.71589                      -0.36100                      89.20706
                      -5.72179                      -0.08759                      89.14579
                      -5.65812                       0.17723                      89.07977
                      -5.52889                       0.41683                      89.01315
                      -5.34222                       0.61613                      88.95012
                      -5.10984                       0.76264                      88.89464
                      -4.84635                       0.84713                      88.85019
                      -4.56830                       0.86430                      88.81957
                      -4.29317                       0.81307                      88.80470
                      -4.03825                       0.69666                      88.80652
                      -3.81954                       0.52238                      88.82490
                      -3.65080                       0.30119                      88.85870
                      -3.54263                       0.04698                      88.90580
                      -3.63879                      -0.25173                      88.85388
                      -3.66462                      -0.49244                      88.91081
                      -3.75089                      -0.71803                      88.97013
                      -3.89217                      -0.91432                      89.02811
                      -4.07958                      -1.06898                      89.08111
                      -4.30135                      -1.17229                      89.12580
                      -4.54355                      -1.21776                      89.15938
                      -4.79094                      -1.20252                      89.17972
                      -5.02800                      -1.12755                      89.18556
                      -5.23983                      -0.99755                      89.17653
                      -5.41311                      -0.82068                      89.15319
                      -5.53695                      -0.60807                      89.11701
                      -5.60358                      -0.37306                      89.07027
                      -5.60882                      -0.13043                      89.01589
                      -5.55232                       0.10457                      88.95731
                      -5.43764                       0.31719                      88.89819
                      -5.27199                       0.49406                      88.84226
                      -5.06577                       0.62407                      88.79303
                      -4.83194                       0.69905                      88.75358
                      -4.58520                       0.71428                      88.72641
                      -4.34105                       0.66882                      88.71321
                      -4.11482                       0.56552                      88.71482
                      -3.92074                       0.41086                      88.73114
                      -3.77100                       0.21458                      88.76113
                      -3.67500                      -0.01101                      88.80292
                      -3.81271                      -0.27918                      88.74810
                      -3.83430                      -0.48035                      88.79567
                      -3.90640                      -0.66888                      88.84525
                      -4.02447                      -0.83292                      88.89370
                      -4.18109                      -0.96217                      88.93800
                      -4.36643                      -1.04851                      88.97534
                      -4.56883                      -1.08650                      89.00340
                      -4.77558                      -1.07378                      89.02041
                      -4.97369                      -1.01112                      89.02528
                      -5.15072                      -0.90247                      89.01774
                      -5.29553                      -0.75466                      88.99823
                      -5.39903                      -0.57698                      88.96800
                      -5.45471                      -0.38058                      88.92893
                      -5.45909                      -0.17782                      88.88349
                      -5.41187                       0.01858                      88.83453
                      -5.31603                       0.19627                      88.78513
                      -5.17759                       0.34408                      88.73838
                      -5.00526                       0.45273                      88.69724
                      -4.80985                       0.51539                      88.66428
                      -4.60364                       0.52812                      88.64157
                      -4.39960                       0.49013                      88.63054
                      -4.21054                       0.40380                      88.63188
                      -4.04835                       0.27455                      88.64552
                      -3.92320                       0.11051                      88.67059
                      -3.84298                      -0.07802                      88.70551
                      -4.05301                      -0.30664                      88.64870
                      -4.06862                      -0.45208                      88.68309
                      -4.12074                      -0.58839                      88.71893
                      -4.20611                      -0.70699                      88.75397
                      -4.31934                      -0.80044                      88.78599
                      -4.45334                      -0.86286                      88.81299
                      -4.59968                      -0.89033                      88.83328
                      -4.74916                      -0.88113                      88.84557
                      -4.89240                      -0.83583                      88.84910
                      -5.02038                      -0.75728                      88.84364
                      -5.12508                      -0.65041                      88.82954
                      -5.19991                      -0.52195                      88.80768
                      -5.24017                      -0.37995                      88.77944
                      -5.24333                      -0.23335                      88.74659
                      -5.20920                      -0.09136                      88.71119
                      -5.13991                       0.03711                      88.67547
                      -5.03982                       0.14398                      88.64167
                      -4.91522                       0.22253                      88.61192
                      -4.77393                       0.26783                      88.58809
                      -4.62485                       0.27704                      88.57167
                      -4.47733                       0.24957                      88.56370
                      -4.34064                       0.18715                      88.56467
                      -4.22337                       0.09371                      88.57453
                      -4.13289                      -0.02489                      88.59265
                      -4.07489                      -0.16120                      88.61790
                      -4.66141                      -0.33410                      88.58469
                      -4.66141                      -0.33410                      88.58469
                      -4.66141                      -0.33410                      88.58469
                      -4.66141                      -0.33410                      88.58469
                      -4.66141                      -0.33410                      88.58469
                      -4.66141                      -0.33410                      88.58469
                      -4.66141                      -0.33410                      88.58469
                      -4.66141                      -0.33410                      88.58469
                      -4.66141                      -0.33410                      88.58469
                      -4.66141                      -0.33410                      88.58469
                      -4.66141                      -0.33410                      88.58469
                      -4.66141                      -0.33410                      88.58469
                      -4.66141                      -0.33410                      88.58469
                      -4.66141                      -0.33410                      88.58469
                      -4.66141                      -0.33410                      88.58469
                      -4.66141                      -0.33410                      88.58469
                      -4.66141                      -0.33410                      88.58469
                      -4.66141                      -0.33410                      88.58469
                      -4.66141                      -0.33410                      88.58469
                      -4.66141                      -0.33410                      88.58469
                      -4.66141                      -0.33410                      88.58469
                      -4.66141                      -0.33410                      88.58469
                      -4.66141                      -0.33410                      88.58469
                      -4.66141                      -0.33410                      88.58469
                      -4.66141                      -0.33410                      88.58469
        </DataArray>
      </Points>
      <Polys>
        <DataArray type="Int32" Name="connectivity" format="ascii">
      0      1     26     25
      1      2     27     26
      2      3     28     27
      3      4     29     28
      4      5     30     29
      5      6     31     30
      6      7     32     31
      7      8     33     32
      8      9     34     33
      9     10     35     34
     10     11     36     35
     11     12     37     36
     12     13     38     37
     13     14     39     38
     14     15     40     39
     15     16     41     40
     16     17     42     41
     17     18     43     42
     18     19     44     43
     19     20     45     44
     20     21     46     45
     21     22     47     46
     22     23     48     47
     23     24     49     48
     24      0     25     49
     25     26     51     50
     26     27     52     51
     27     28     53     52
     28     29     54     53
     29     30     55     54
     30     31     56     55
     31     32     57     56
     32     33     58     57
     33     34     59     58
     34     35     60     59
     35     36     61     60
     36     37     62     61
     37     38     63     62
     38     39     64     63
     39     40     65     64
     40     41     66     65
     41     42     67     66
     42     43     68     67
     43     44     69     68
     44     45     70     69
     45     46     71     70
     46     47     72     71
     47     48     73     72
     48     49     74     73
     49     25     50     74
     50     51     76     75
     51     52     77     76
     52     53     78     77
     53     54     79     78
     54     55     80     79
     55     56     81     80
     56     57     82     81
     57     58     83     82
     58     59     84     83
     59     60     85     84
     60     61     86     85
     61     62     87     86
     62     63     88     87
     63     64     89     88
     64     65     90     89
     65     66     91     90
     66     67     92     91
     67     68     93     92
     68     69     94     93
     69     70     95     94
     70     71     96     95
     71     72     97     96
     72     73     98     97
     73     74     99     98
     74     50     75     99
     75     76    101    100
     76     77    102    101
     77     78    103    102
     78     79    104    103
     79     80    105    104
     80     81    106    105
     81     82    107    106
     82     83    108    107
     83     84    109    108
     84     85    110    109
     85     86    111    110
     86     87    112    111
     87     88    113    112
     88     89    114    113
     89     90    115    114
     90     91    116    115
     91     92    117    116
     92     93    118    117
     93     94    119    118
     94     95    120    119
     95     96    121    120
     96     97    122    121
     97     98    123    122
     98     99    124    123
     99     75    100    124
    100    101    126    125
    101    102    127    126
    102    103    128    127
    103    104    129    128
    104    105    130    129
    105    106    131    130
    106    107    132    131
    107    108    133    132
    108    109    134    133
    109    110    135    134
    110    111    136    135
    111    112    137    136
    112    113    138    137
    113    114    139    138
    114    115    140    139
    115    116    141    140
    116    117    142    141
    117    118    143    142
    118    119    144    143
    119    120    145    144
    120    121    146    145
    121    122    147    146
    122    123    148    147
    123    124    149    148
    124    100    125    149
    125    126    151    150
    126    127    152    151
    127    128    153    152
    128    129    154    153
    129    130    155    154
    130    131    156    155
    131    132    157    156
    132    133    158    157
    133    134    159    158
    134    135    160    159
    135    136    161    160
    136    137    162    161
    137    138    163    162
    138    139    164    163
    139    140    165    164
    140    141    166    165
    141    142    167    166
    142    143    168    167
    143    144    169    168
    144    145    170    169
    145    146    171    170
    146    147    172    171
    147    148    173    172
    148    149    174    173
    149    125    150    174
    150    151    176    175
    151    152    177    176
    152    153    178    177
    153    154    179    178
    154    155    180    179
    155    156    181    180
    156    157    182    181
    157    158    183    182
    158    159    184    183
    159    160    185    184
    160    161    186    185
    161    162    187    186
    162    163    188    187
    163    164    189    188
    164    165    190    189
    165    166    191    190
    166    167    192    191
    167    168    193    192
    168    169    194    193
    169    170    195    194
    170    171    196    195
    171    172    197    196
    172    173    198    197
    173    174    199    198
    174    150    175    199
    175    176    201    200
    176    177    202    201
    177    178    203    202
    178    179    204    203
    179    180    205    204
    180    181    206    205
    181    182    207    206
    182    183    208    207
    183    184    209    208
    184    185    210    209
    185    186    211    210
    186    187    212    211
    187    188    213    212
    188    189    214    213
    189    190    215    214
    190    191    216    215
    191    192    217    216
    192    193    218    217
    193    194    219    218
    194    195    220    219
    195    196    221    220
    196    197    222    221
    197    198    223    222
    198    199    224    223
    199    175    200    224
    200    201    226    225
    201    202    227    226
    202    203    228    227
    203    204    229    228
    204    205    230    229
    205    206    231    230
    206    207    232    231
    207    208    233    232
    208    209    234    233
    209    210    235    234
    210    211    236    235
    211    212    237    236
    212    213    238    237
    213    214    239    238
    214    215    240    239
    215    216    241    240
    216    217    242    241
    217    218    243    242
    218    219    244    243
    219    220    245    244
    220    221    246    245
    221    222    247    246
    222    223    248    247
    223    224    249    248
    224    200    225    249
    225    226    251    250
    226    227    252    251
    227    228    253    252
    228    229    254    253
    229    230    255    254
    230    231    256    255
    231    232    257    256
    232    233    258    257
    233    234    259    258
    234    235    260    259
    235    236    261    260
    236    237    262    261
    237    238    263    262
    238    239    264    263
    239    240    265    264
    240    241    266    265
    241    242    267    266
    242    243    268    267
    243    244    269    268
    244    245    270    269
    245    246    271    270
    246    247    272    271
    247    248    273    272
    248    249    274    273
    249    225    250    274
    250    251    276    275
    251    252    277    276
    252    253    278    277
    253    254    279    278
    254    255    280    279
    255    256    281    280
    256    257    282    281
    257    258    283    282
    258    259    284    283
    259    260    285    284
    260    261    286    285
    261    262    287    286
    262    263    288    287
    263    264    289    288
    264    265    290    289
    265    266    291    290
    266    267    292    291
    267    268    293    292
    268    269    294    293
    269    270    295    294
    270    271    296    295
    271    272    297    296
    272    273    298    297
    273    274    299    298
    274    250    275    299
    275    276    301    300
    276    277    302    301
    277    278    303    302
    278    279    304    303
    279    280    305    304
    280    281    306    305
    281    282    307    306
    282    283    308    307
    283    284    309    308
    284    285    310    309
    285    286    311    310
    286    287    312    311
    287    288    313    312
    288    289    314    313
    289    290    315    314
    290    291    316    315
    291    292    317    316
    292    293    318    317
    293    294    319    318
    294    295    320    319
    295    296    321    320
    296    297    322    321
    297    298    323    322
    298    299    324    323
    299    275    300    324
    300    301    326    325
    301    302    327    326
    302    303    328    327
    303    304    329    328
    304    305    330    329
    305    306    331    330
    306    307    332    331
    307    308    333    332
    308    309    334    333
    309    310    335    334
    310    311    336    335
    311    312    337    336
    312    313    338    337
    313    314    339    338
    314    315    340    339
    315    316    341    340
    316    317    342    341
    317    318    343    342
    318    319    344    343
    319    320    345    344
    320    321    346    345
    321    322    347    346
    322    323    348    347
    323    324    349    348
    324    300    325    349
    325    326    351    350
    326    327    352    351
    327    328    353    352
    328    329    354    353
    329    330    355    354
    330    331    356    355
    331    332    357    356
    332    333    358    357
    333    334    359    358
    334    335    360    359
    335    336    361    360
    336    337    362    361
    337    338    363    362
    338    339    364    363
    339    340    365    364
    340    341    366    365
    341    342    367    366
    342    343    368    367
    343    344    369    368
    344    345    370    369
    345    346    371    370
    346    347    372    371
    347    348    373    372
    348    349    374    373
    349    325    350    374
    350    351    376    375
    351    352    377    376
    352    353    378    377
    353    354    379    378
    354    355    380    379
    355    356    381    380
    356    357    382    381
    357    358    383    382
    358    359    384    383
    359    360    385    384
    360    361    386    385
    361    362    387    386
    362    363    388    387
    363    364    389    388
    364    365    390    389
    365    366    391    390
    366    367    392    391
    367    368    393    392
    368    369    394    393
    369    370    395    394
    370    371    396    395
    371    372    397    396
    372    373    398    397
    373    374    399    398
    374    350    375    399
    375    376    401    400
    376    377    402    401
    377    378    403    402
    378    379    404    403
    379    380    405    404
    380    381    406    405
    381    382    407    406
    382    383    408    407
    383    384    409    408
    384    385    410    409
    385    386    411    410
    386    387    412    411
    387    388    413    412
    388    389    414    413
    389    390    415    414
    390    391    416    415
    391    392    417    416
    392    393    418    417
    393    394    419    418
    394    395    420    419
    395    396    421    420
    396    397    422    421
    397    398    423    422
    398    399    424    423
    399    375    400    424
    400    401    426    425
    401    402    427    426
    402    403    428    427
    403    404    429    428
    404    405    430    429
    405    406    431    430
    406    407    432    431
    407    408    433    432
    408    409    434    433
    409    410    435    434
    410    411    436    435
    411    412    437    436
    412    413    438    437
    413    414    439    438
    414    415    440    439
    415    416    441    440
    416    417    442    441
    417    418    443    442
    418    419    444    443
    419    420    445    444
    420    421    446    445
    421    422    447    446
    422    423    448    447
    423    424    449    448
    424    400    425    449
    425    426    451    450
    426    427    452    451
    427    428    453    452
    428    429    454    453
    429    430    455    454
    430    431    456    455
    431    432    457    456
    432    433    458    457
    433    434    459    458
    434    435    460    459
    435    436    461    460
    436    437    462    461
    437    438    463    462
    438    439    464    463
    439    440    465    464
    440    441    466    465
    441    442    467    466
    442    443    468    467
    443    444    469    468
    444    445    470    469
    445    446    471    470
    446    447    472    471
    447    448    473    472
    448    449    474    473
    449    425    450    474
    450    451    476    475
    451    452    477    476
    452    453    478    477
    453    454    479    478
    454    455    480    479
    455    456    481    480
    456    457    482    481
    457    458    483    482
    458    459    484    483
    459    460    485    484
    460    461    486    485
    461    462    487    486
    462    463    488    487
    463    464    489    488
    464    465    490    489
    465    466    491    490
    466    467    492    491
    467    468    493    492
    468    469    494    493
    469    470    495    494
    470    471    496    495
    471    472    497    496
    472    473    498    497
    473    474    499    498
    474    450    475    499
    475    476    501    500
    476    477    502    501
    477    478    503    502
    478    479    504    503
    479    480    505    504
    480    481    506    505
    481    482    507    506
    482    483    508    507
    483    484    509    508
    484    485    510    509
    485    486    511    510
    486    487    512    511
    487    488    513    512
    488    489    514    513
    489    490    515    514
    490    491    516    515
    491    492    517    516
    492    493    518    517
    493    494    519    518
    494    495    520    519
    495    496    521    520
    496    497    522    521
    497    498    523    522
    498    499    524    523
    499    475    500    524
    500    501    526    525
    501    502    527    526
    502    503    528    527
    503    504    529    528
    504    505    530    529
    505    506    531    530
    506    507    532    531
    507    508    533    532
    508    509    534    533
    509    510    535    534
    510    511    536    535
    511    512    537    536
    512    513    538    537
    513    514    539    538
    514    515    540    539
    515    516    541    540
    516    517    542    541
    517    518    543    542
    518    519    544    543
    519    520    545    544
    520    521    546    545
    521    522    547    546
    522    523    548    547
    523    524    549    548
    524    500    525    549
    525    526    551    550
    526    527    552    551
    527    528    553    552
    528    529    554    553
    529    530    555    554
    530    531    556    555
    531    532    557    556
    532    533    558    557
    533    534    559    558
    534    535    560    559
    535    536    561    560
    536    537    562    561
    537    538    563    562
    538    539    564    563
    539    540    565    564
    540    541    566    565
    541    542    567    566
    542    543    568    567
    543    544    569    568
    544    545    570    569
    545    546    571    570
    546    547    572    571
    547    548    573    572
    548    549    574    573
    549    525    550    574
    550    551    576    575
    551    552    577    576
    552    553    578    577
    553    554    579    578
    554    555    580    579
    555    556    581    580
    556    557    582    581
    557    558    583    582
    558    559    584    583
    559    560    585    584
    560    561    586    585
    561    562    587    586
    562    563    588    587
    563    564    589    588
    564    565    590    589
    565    566    591    590
    566    567    592    591
    567    568    593    592
    568    569    594    593
    569    570    595    594
    570    571    596    595
    571    572    597    596
    572    573    598    597
    573    574    599    598
    574    550    575    599
    575    576    601    600
    576    577    602    601
    577    578    603    602
    578    579    604    603
    579    580    605    604
    580    581    606    605
    581    582    607    606
    582    583    608    607
    583    584    609    608
    584    585    610    609
    585    586    611    610
    586    587    612    611
    587    588    613    612
    588    589    614    613
    589    590    615    614
    590    591    616    615
    591    592    617    616
    592    593    618    617
    593    594    619    618
    594    595    620    619
    595    596    621    620
    596    597    622    621
    597    598    623    622
    598    599    624    623
    599    575    600    624
        </DataArray>
        <DataArray type="Int32" Name="offsets" format="ascii">
      4
      8
     12
     16
     20
     24
     28
     32
     36
     40
     44
     48
     52
     56
     60
     64
     68
     72
     76
     80
     84
     88
     92
     96
    100
    104
    108
    112
    116
    120
    124
    128
    132
    136
    140
    144
    148
    152
    156
    160
    164
    168
    172
    176
    180
    184
    188
    192
    196
    200
    204
    208
    212
    216
    220
    224
    228
    232
    236
    240
    244
    248
    252
    256
    260
    264
    268
    272
    276
    280
    284
    288
    292
    296
    300
    304
    308
    312
    316
    320
    324
    328
    332
    336
    340
    344
    348
    352
    356
    360
    364
    368
    372
    376
    380
    384
    388
    392
    396
    400
    404
    408
    412
    416
    420
    424
    428
    432
    436
    440
    444
    448
    452
    456
    460
    464
    468
    472
    476
    480
    484
    488
    492
    496
    500
    504
    508
    512
    516
    520
    524
    528
    532
    536
    540
    544
    548
    552
    556
    560
    564
    568
    572
    576
    580
    584
    588
    592
    596
    600
    604
    608
    612
    616
    620
    624
    628
    632
    636
    640
    644
    648
    652
    656
    660
    664
    668
    672
    676
    680
    684
    688
    692
    696
    700
    704
    708
    712
    716
    720
    724
    728
    732
    736
    740
    744
    748
    752
    756
    760
    764
    768
    772
    776
    780
    784
    788
    792
    796
    800
    804
    808
    812
    816
    820
    824
    828
    832
    836
    840
    844
    848
    852
    856
    860
    864
    868
    872
    876
    880
    884
    888
    892
    896
    900
    904
    908
    912
    916
    920
    924
    928
    932
    936
    940
    944
    948
    952
    956
    960
    964
    968
    972
    976
    980
    984
    988
    992
    996
   1000
   1004
   1008
   1012
   1016
   1020
   1024
   1028
   1032
   1036
   1040
   1044
   1048
   1052
   1056
   1060
   1064
   1068
   1072
   1076
   1080
   1084
   1088
   1092
   1096
   1100
   1104
   1108
   1112
   1116
   1120
   1124
   1128
   1132
   1136
   1140
   1144
   1148
   1152
   1156
   1160
   1164
   1168
   1172
   1176
   1180
   1184
   1188
   1192
   1196
   1200
   1204
   1208
   1212
   1216
   1220
   1224
   1228
   1232
   1236
   1240
   1244
   1248
   1252
   1256
   1260
   1264
   1268
   1272
   1276
   1280
   1284
   1288
   1292
   1296
   1300
   1304
   1308
   1312
   1316
   1320
   1324
   1328
   1332
   1336
   1340
   1344
   1348
   1352
   1356
   1360
   1364
   1368
   1372
   1376
   1380
   1384
   1388
   1392
   1396
   1400
   1404
   1408
   1412
   1416
   1420
   1424
   1428
   1432
   1436
   1440
   1444
   1448
   1452
   1456
   1460
   1464
   1468
   1472
   1476
   1480
   1484
   1488
   1492
   1496
   1500
   1504
   1508
   1512
   1516
   1520
   1524
   1528
   1532
   1536
   1540
   1544
   1548
   1552
   1556
   1560
   1564
   1568
   1572
   1576
   1580
   1584
   1588
   1592
   1596
   1600
   1604
   1608
   1612
   1616
   1620
   1624
   1628
   1632
   1636
   1640
   1644
   1648
   1652
   1656
   1660
   1664
   1668
   1672
   1676
   1680
   1684
   1688
   1692
   1696
   1700
   1704
   1708
   1712
   1716
   1720
   1724
   1728
   1732
   1736
   1740
   1744
   1748
   1752
   1756
   1760
   1764
   1768
   1772
   1776
   1780
   1784
   1788
   1792
   1796
   1800
   1804
   1808
   1812
   1816
   1820
   1824
   1828
   1832
   1836
   1840
   1844
   1848
   1852
   1856
   1860
   1864
   1868
   1872
   1876
   1880
   1884
   1888
   1892
   1896
   1900
   1904
   1908
   1912
   1916
   1920
   1924
   1928
   1932
   1936
   1940
   1944
   1948
   1952
   1956
   1960
   1964
   1968
   1972
   1976
   1980
   1984
   1988
   1992
   1996
   2000
   2004
   2008
   2012
   2016
   2020
   2024
   2028
   2032
   2036
   2040
   2044
   2048
   2052
   2056
   2060
   2064
   2068
   2072
   2076
   2080
   2084
   2088
   2092
   2096
   2100
   2104
   2108
   2112
   2116
   2120
   2124
   2128
   2132
   2136
   2140
   2144
   2148
   2152
   2156
   2160
   2164
   2168
   2172
   2176
   2180
   2184
   2188
   2192
   2196
   2200
   2204
   2208
   2212
   2216
   2220
   2224
   2228
   2232
   2236
   2240
   2244
   2248
   2252
   2256
   2260
   2264
   2268
   2272
   2276
   2280
   2284
   2288
   2292
   2296
   2300
   2304
   2308
   2312
   2316
   2320
   2324
   2328
   2332
   2336
   2340
   2344
   2348
   2352
   2356
   2360
   2364
   2368
   2372
   2376
   2380
   2384
   2388
   2392
   2396
   2400
        </DataArray>
      </Polys>
    </Piece>
  </PolyData>
</VTKFile>
