<?xml version="1.0"?>
<VTKFile type="PolyData" version="0.1" byte_order="LittleEndian">
  <PolyData>
    <Piece NumberOfPoints="    550" NumberOfVerts="  0" NumberOfLines="     21"
           NumberOfStrips="  0" NumberOfPolys="    567">
      <Points>
        <DataArray type="Float32" NumberOfComponents="3" format="ascii">
                       2.97345                      -0.00001                       2.18980
                       2.88003                       0.73944                       2.18981
                       2.60566                       1.43243                       2.18983
                       2.16757                       2.03541                       2.18986
                       1.59328                       2.51050                       2.18991
                       0.91889                       2.82784                       2.18995
                       0.18677                       2.96750                       2.19000
                      -0.55708                       2.92070                       2.19005
                      -1.26593                       2.69038                       2.19010
                      -1.89523                       2.29102                       2.19014
                      -2.40544                       1.74770                       2.19017
                      -2.76450                       1.09457                       2.19019
                      -2.94986                       0.37266                       2.19020
                      -2.94986                      -0.37267                       2.19020
                      -2.76450                      -1.09458                       2.19018
                      -2.40544                      -1.74771                       2.19015
                      -1.89523                      -2.29103                       2.19012
                      -1.26593                      -2.69040                       2.19007
                      -0.55708                      -2.92071                       2.19002
                       0.18677                      -2.96751                       2.18997
                       0.91889                      -2.82785                       2.18993
                       1.59328                      -2.51051                       2.18988
                       2.16757                      -2.03542                       2.18985
                       2.60566                      -1.43244                       2.18982
                       2.88003                      -0.73945                       2.18980
                       2.92083                      -0.00005                       6.56933
                       2.82909                       0.72616                       6.56936
                       2.55963                       1.40674                       6.56943
                       2.12939                       1.99892                       6.56954
                       1.56539                       2.46550                       6.56967
                       0.90308                       2.77716                       6.56983
                       0.18407                       2.91432                       6.57000
                      -0.54647                       2.86836                       6.57016
                      -1.24262                       2.64216                       6.57032
                      -1.86065                       2.24995                       6.57046
                      -2.36172                       1.71636                       6.57057
                      -2.71435                       1.07492                       6.57064
                      -2.89639                       0.36594                       6.57067
                      -2.89639                      -0.36603                       6.57066
                      -2.71435                      -1.07501                       6.57061
                      -2.36172                      -1.71645                       6.57052
                      -1.86065                      -2.25004                       6.57040
                      -1.24262                      -2.64225                       6.57025
                      -0.54647                      -2.86845                       6.57009
                       0.18407                      -2.91441                       6.56992
                       0.90308                      -2.77725                       6.56976
                       1.56539                      -2.46559                       6.56961
                       2.12939                      -1.99901                       6.56948
                       2.55963                      -1.40683                       6.56939
                       2.82909                      -0.72625                       6.56934
                       2.86899                      -0.00012                      10.94881
                       2.77893                       0.71284                      10.94886
                       2.51438                       1.38101                      10.94898
                       2.09198                       1.96239                      10.94917
                       1.53827                       2.42046                      10.94941
                       0.88803                       2.72644                      10.94969
                       0.18213                       2.86110                      10.94998
                      -0.53508                       2.81598                      10.95028
                      -1.21854                       2.59391                      10.95056
                      -1.82530                       2.20885                      10.95080
                      -2.31723                       1.68499                      10.95100
                      -2.66343                       1.05525                      10.95113
                      -2.84215                       0.35920                      10.95119
                      -2.84215                      -0.35943                      10.95117
                      -2.66343                      -1.05549                      10.95109
                      -2.31723                      -1.68523                      10.95093
                      -1.82530                      -2.20908                      10.95071
                      -1.21854                      -2.59415                      10.95045
                      -0.53508                      -2.81621                      10.95016
                       0.18213                      -2.86134                      10.94987
                       0.88803                      -2.72668                      10.94958
                       1.53827                      -2.42070                      10.94931
                       2.09198                      -1.96263                      10.94909
                       2.51438                      -1.38125                      10.94893
                       2.77893                      -0.71308                      10.94883
                       2.81798                      -0.00023                      15.32829
                       2.72959                       0.69949                      15.32836
                       2.46996                       1.35525                      15.32854
                       2.05540                       1.92583                      15.32880
                       1.51198                       2.37540                      15.32915
                       0.87382                       2.67569                      15.32954
                       0.18103                       2.80785                      15.32997
                      -0.52286                       2.76356                      15.33040
                      -1.19362                       2.54562                      15.33080
                      -1.78911                       2.16771                      15.33115
                      -2.27191                       1.65358                      15.33143
                      -2.61168                       1.03554                      15.33162
                      -2.78708                       0.35242                      15.33171
                      -2.78708                      -0.35287                      15.33169
                      -2.61168                      -1.03599                      15.33156
                      -2.27191                      -1.65403                      15.33134
                      -1.78911                      -2.16816                      15.33103
                      -1.19362                      -2.54607                      15.33066
                      -0.52286                      -2.76401                      15.33024
                       0.18103                      -2.80830                      15.32981
                       0.87382                      -2.67614                      15.32940
                       1.51198                      -2.37585                      15.32902
                       2.05540                      -1.92628                      15.32870
                       2.46996                      -1.35570                      15.32846
                       2.72959                      -0.69995                      15.32832
                       2.76782                      -0.00036                      19.70779
                       2.68109                       0.68612                      19.70789
                       2.42638                       1.32946                      19.70811
                       2.01967                       1.88925                      19.70846
                       1.48652                       2.33030                      19.70890
                       0.86045                       2.62491                      19.70941
                       0.18077                       2.75457                      19.70995
                      -0.50980                       2.71112                      19.71050
                      -1.16787                       2.49730                      19.71102
                      -1.75209                       2.12654                      19.71148
                      -2.22575                       1.62215                      19.71184
                      -2.55909                       1.01580                      19.71208
                      -2.73117                       0.34561                      19.71220
                      -2.73117                      -0.34633                      19.71217
                      -2.55909                      -1.01652                      19.71201
                      -2.22575                      -1.62287                      19.71173
                      -1.75209                      -2.12727                      19.71133
                      -1.16787                      -2.49802                      19.71085
                      -0.50980                      -2.71184                      19.71032
                       0.18077                      -2.75529                      19.70976
                       0.86045                      -2.62563                      19.70923
                       1.48652                      -2.33102                      19.70874
                       2.01967                      -1.88997                      19.70833
                       2.42638                      -1.33018                      19.70802
                       2.68109                      -0.68684                      19.70784
                       2.71847                      -0.00053                      24.08734
                       2.63342                       0.67271                      24.08745
                       2.38362                       1.30364                      24.08772
                       1.98475                       1.85263                      24.08814
                       1.46189                       2.28517                      24.08867
                       0.84789                       2.57410                      24.08928
                       0.18133                       2.70126                      24.08994
                      -0.49592                       2.65865                      24.09060
                      -1.14129                       2.44895                      24.09123
                      -1.71424                       2.08535                      24.09178
                      -2.17876                       1.59068                      24.09221
                      -2.50568                       0.99603                      24.09251
                      -2.67443                       0.33876                      24.09265
                      -2.67443                      -0.33982                      24.09262
                      -2.50568                      -0.99709                      24.09243
                      -2.17876                      -1.59174                      24.09208
                      -1.71424                      -2.08640                      24.09160
                      -1.14129                      -2.45001                      24.09103
                      -0.49592                      -2.65970                      24.09038
                       0.18133                      -2.70231                      24.08972
                       0.84789                      -2.57516                      24.08907
                       1.46189                      -2.28623                      24.08848
                       1.98475                      -1.85368                      24.08798
                       2.38362                      -1.30470                      24.08761
                       2.63342                      -0.67376                      24.08739
                       2.66991                      -0.00073                      28.46692
                       2.58653                       0.65927                      28.46705
                       2.34164                       1.27779                      28.46737
                       1.95062                       1.81598                      28.46784
                       1.43805                       2.24002                      28.46846
                       0.83612                       2.52326                      28.46917
                       0.18267                       2.64791                      28.46993
                      -0.48125                       2.60614                      28.47070
                      -1.11393                       2.40057                      28.47142
                      -1.67561                       2.04412                      28.47205
                      -2.13100                       1.55918                      28.47255
                      -2.45148                       0.97623                      28.47290
                      -2.61691                       0.33189                      28.47306
                      -2.61691                      -0.33334                      28.47302
                      -2.45148                      -0.97768                      28.47280
                      -2.13100                      -1.56063                      28.47240
                      -1.67561                      -2.04557                      28.47185
                      -1.11393                      -2.40202                      28.47118
                      -0.48125                      -2.60759                      28.47044
                       0.18267                      -2.64936                      28.46967
                       0.83612                      -2.52471                      28.46892
                       1.43805                      -2.24147                      28.46824
                       1.95062                      -1.81743                      28.46767
                       2.34164                      -1.27924                      28.46724
                       2.58653                      -0.66072                      28.46699
                       2.62209                      -0.00096                      32.84654
                       2.54039                       0.64579                      32.84669
                       2.30041                       1.25190                      32.84704
                       1.91724                       1.77929                      32.84758
                       1.41496                       2.19482                      32.84827
                       0.82511                       2.47238                      32.84907
                       0.18477                       2.59454                      32.84992
                      -0.46584                       2.55360                      32.85078
                      -1.08582                       2.35216                      32.85159
                      -1.63623                       2.00286                      32.85230
                      -2.08248                       1.52765                      32.85287
                      -2.39653                       0.95640                      32.85325
                      -2.55864                       0.32499                      32.85343
                      -2.55864                      -0.32690                      32.85339
                      -2.39653                      -0.95831                      32.85314
                      -2.08248                      -1.52957                      32.85269
                      -1.63623                      -2.00477                      32.85207
                      -1.08582                      -2.35407                      32.85132
                      -0.46584                      -2.55552                      32.85049
                       0.18477                      -2.59645                      32.84963
                       0.82511                      -2.47430                      32.84878
                       1.41495                      -2.19674                      32.84802
                       1.91724                      -1.78121                      32.84738
                       2.30041                      -1.25382                      32.84690
                       2.54039                      -0.64771                      32.84661
                       2.57502                      -0.00122                      37.22619
                       2.49499                       0.63228                      37.22635
                       2.25992                       1.22598                      37.22674
                       1.88460                       1.74257                      37.22733
                       1.39259                       2.14960                      37.22809
                       0.81482                       2.42147                      37.22897
                       0.18759                       2.54112                      37.22991
                      -0.44969                       2.50103                      37.23086
                      -1.05698                       2.30371                      37.23175
                      -1.59611                       1.96156                      37.23254
                      -2.03322                       1.49609                      37.23316
                      -2.34084                       0.93653                      37.23358
                      -2.49964                       0.31805                      37.23378
                      -2.49964                      -0.32049                      37.23374
                      -2.34084                      -0.93898                      37.23346
                      -2.03322                      -1.49853                      37.23296
                      -1.59611                      -1.96401                      37.23228
                      -1.05698                      -2.30616                      37.23145
                      -0.44969                      -2.50348                      37.23053
                       0.18759                      -2.54357                      37.22958
                       0.81482                      -2.42392                      37.22865
                       1.39259                      -2.15204                      37.22781
                       1.88460                      -1.74502                      37.22710
                       2.25992                      -1.22843                      37.22658
                       2.49498                      -0.63473                      37.22626
                       2.52866                      -0.00153                      41.60584
                       2.45031                       0.61873                      41.60602
                       2.22016                       1.20003                      41.60644
                       1.85268                       1.70582                      41.60709
                       1.37096                       2.10433                      41.60792
                       0.80527                       2.37052                      41.60888
                       0.19115                       2.48767                      41.60991
                      -0.43281                       2.44842                      41.61094
                      -1.02740                       2.25522                      41.61191
                      -1.55527                       1.92023                      41.61276
                      -1.98325                       1.46448                      41.61344
                      -2.28443                       0.91662                      41.61389
                      -2.43991                       0.31107                      41.61411
                      -2.43991                      -0.31413                      41.61406
                      -2.28443                      -0.91968                      41.61376
                      -1.98325                      -1.46754                      41.61322
                      -1.55527                      -1.92329                      41.61247
                      -1.02740                      -2.25828                      41.61157
                      -0.43281                      -2.45148                      41.61057
                       0.19115                      -2.49073                      41.60954
                       0.80527                      -2.37358                      41.60853
                       1.37096                      -2.10739                      41.60761
                       1.85268                      -1.70888                      41.60684
                       2.22016                      -1.20308                      41.60627
                       2.45031                      -0.62179                      41.60593
                       2.48305                      -0.00187                      45.98551
                       2.40637                       0.60515                      45.98570
                       2.18113                       1.17403                      45.98616
                       1.82150                       1.66902                      45.98686
                       1.35006                       2.05902                      45.98775
                       0.79645                       2.31954                      45.98879
                       0.19544                       2.43418                      45.98990
                      -0.41519                       2.39577                      45.99101
                      -0.99709                       2.20670                      45.99206
                      -1.51369                       1.87885                      45.99298
                      -1.93253                       1.43284                      45.99371
                      -2.22728                       0.89667                      45.99420
                      -2.37944                       0.30405                      45.99443
                      -2.37944                      -0.30780                      45.99438
                      -2.22728                      -0.90042                      45.99405
                      -1.93253                      -1.43659                      45.99347
                      -1.51369                      -1.88260                      45.99266
                      -0.99709                      -2.21044                      45.99169
                      -0.41519                      -2.39951                      45.99061
                       0.19544                      -2.43793                      45.98949
                       0.79645                      -2.32328                      45.98840
                       1.35006                      -2.06277                      45.98741
                       1.82150                      -1.67277                      45.98658
                       2.18113                      -1.17777                      45.98596
                       2.40637                      -0.60890                      45.98560
                       2.43821                      -0.00226                      50.36517
                       2.36320                       0.59152                      50.36537
                       2.14287                       1.14799                      50.36587
                       1.79109                       1.63218                      50.36662
                       1.32994                       2.01368                      50.36758
                       0.78840                       2.26850                      50.36869
                       0.20051                       2.38065                      50.36989
                      -0.39681                       2.34307                      50.37108
                      -0.96601                       2.15813                      50.37221
                      -1.47134                       1.83743                      50.37320
                      -1.88104                       1.40115                      50.37398
                      -2.16937                       0.87668                      50.37451
                      -2.31821                       0.29699                      50.37475
                      -2.31821                      -0.30151                      50.37470
                      -2.16937                      -0.88121                      50.37435
                      -1.88104                      -1.40567                      50.37372
                      -1.47134                      -1.84196                      50.37285
                      -0.96601                      -2.16265                      50.37181
                      -0.39681                      -2.34760                      50.37065
                       0.20051                      -2.38518                      50.36944
                       0.78840                      -2.27303                      50.36827
                       1.32994                      -2.01820                      50.36721
                       1.79109                      -1.63670                      50.36631
                       2.14287                      -1.15251                      50.36565
                       2.36320                      -0.59604                      50.36526
                       2.39417                      -0.00269                      54.74483
                       2.32083                       0.57784                      54.74505
                       2.10542                       1.12190                      54.74558
                       1.76148                       1.59530                      54.74638
                       1.31062                       1.96829                      54.74741
                       0.78116                       2.21743                      54.74860
                       0.20638                       2.32708                      54.74987
                      -0.37762                       2.29033                      54.75115
                      -0.93413                       2.10951                      54.75236
                      -1.42818                       1.79597                      54.75341
                      -1.82875                       1.36942                      54.75425
                      -2.11064                       0.85665                      54.75482
                      -2.25616                       0.28988                      54.75508
                      -2.25616                      -0.29527                      54.75502
                      -2.11064                      -0.86203                      54.75464
                      -1.82875                      -1.37480                      54.75396
                      -1.42818                      -1.80136                      54.75304
                      -0.93413                      -2.11490                      54.75192
                      -0.37762                      -2.29572                      54.75068
                       0.20638                      -2.33246                      54.74939
                       0.78116                      -2.22281                      54.74814
                       1.31062                      -1.97367                      54.74700
                       1.76148                      -1.60068                      54.74605
                       2.10542                      -1.12729                      54.74534
                       2.32083                      -0.58323                      54.74493
                       2.35097                      -0.00317                      59.12449
                       2.27930                       0.56413                      59.12472
                       2.06881                       1.09577                      59.12529
                       1.73271                       1.55837                      59.12614
                       1.29213                       1.92285                      59.12724
                       0.77475                       2.16631                      59.12850
                       0.21308                       2.27346                      59.12986
                      -0.35759                       2.23755                      59.13122
                      -0.90140                       2.06086                      59.13250
                      -1.38419                       1.75447                      59.13362
                      -1.77561                       1.33764                      59.13451
                      -2.05108                       0.83657                      59.13511
                      -2.19328                       0.28273                      59.13539
                      -2.19328                      -0.28907                      59.13532
                      -2.05108                      -0.84291                      59.13492
                      -1.77561                      -1.34398                      59.13421
                      -1.38419                      -1.76080                      59.13322
                      -0.90140                      -2.06719                      59.13203
                      -0.35759                      -2.24389                      59.13071
                       0.21308                      -2.27979                      59.12934
                       0.77475                      -2.17265                      59.12801
                       1.29213                      -1.92918                      59.12680
                       1.73271                      -1.56470                      59.12579
                       2.06881                      -1.10211                      59.12504
                       2.27930                      -0.57046                      59.12460
                       2.30862                      -0.00368                      63.50417
                       2.23863                       0.55037                      63.50442
                       2.03305                       1.06960                      63.50502
                       1.70480                       1.52140                      63.50592
                       1.27450                       1.87737                      63.50708
                       0.76920                       2.11515                      63.50841
                       0.22064                       2.21979                      63.50984
                      -0.33671                       2.18473                      63.51128
                      -0.86783                       2.01216                      63.51263
                      -1.33935                       1.71292                      63.51381
                      -1.72163                       1.30583                      63.51475
                      -1.99067                       0.81645                      63.51539
                      -2.12955                       0.27554                      63.51568
                      -2.12955                      -0.28291                      63.51561
                      -1.99067                      -0.82382                      63.51518
                      -1.72163                      -1.31320                      63.51443
                      -1.33935                      -1.72029                      63.51339
                      -0.86783                      -2.01953                      63.51213
                      -0.33671                      -2.19210                      63.51074
                       0.22064                      -2.22716                      63.50930
                       0.76920                      -2.12252                      63.50789
                       1.27450                      -1.88474                      63.50661
                       1.70480                      -1.52877                      63.50554
                       2.03305                      -1.07697                      63.50475
                       2.23863                      -0.55773                      63.50428
                       2.26709                      -0.00424                      67.88390
                       2.19877                       0.53656                      67.88416
                       1.99811                       1.04339                      67.88478
                       1.67770                       1.48439                      67.88573
                       1.25769                       1.83185                      67.88693
                       0.76447                       2.06395                      67.88833
                       0.22902                       2.16609                      67.88982
                      -0.31501                       2.13186                      67.89132
                      -0.83343                       1.96342                      67.89274
                      -1.29368                       1.67133                      67.89397
                      -1.66683                       1.27397                      67.89495
                      -1.92943                       0.79629                      67.89561
                      -2.06499                       0.26831                      67.89592
                      -2.06499                      -0.27680                      67.89585
                      -1.92943                      -0.80478                      67.89540
                      -1.66683                      -1.28246                      67.89461
                      -1.29368                      -1.67982                      67.89353
                      -0.83343                      -1.97190                      67.89222
                      -0.31501                      -2.14035                      67.89076
                       0.22902                      -2.17458                      67.88925
                       0.76447                      -2.07243                      67.88778
                       1.25769                      -1.84034                      67.88645
                       1.67770                      -1.49288                      67.88533
                       1.99811                      -1.05188                      67.88451
                       2.19877                      -0.54505                      67.88402
                       2.22630                      -0.00484                      72.26371
                       2.15966                       0.52272                      72.26398
                       1.96391                       1.01714                      72.26462
                       1.65135                       1.44734                      72.26559
                       1.24162                       1.78629                      72.26683
                       0.76048                       2.01271                      72.26827
                       0.23814                       2.11235                      72.26981
                      -0.29257                       2.07896                      72.27135
                      -0.79830                       1.91464                      72.27280
                      -1.24727                       1.62971                      72.27407
                      -1.61128                       1.24207                      72.27508
                      -1.86746                       0.77609                      72.27576
                      -1.99970                       0.26104                      72.27607
                      -1.99970                      -0.27072                      72.27600
                      -1.86746                      -0.78577                      72.27554
                      -1.61128                      -1.25176                      72.27473
                      -1.24727                      -1.63939                      72.27361
                      -0.79830                      -1.92432                      72.27226
                      -0.29257                      -2.08864                      72.27076
                       0.23814                      -2.12203                      72.26921
                       0.76048                      -2.02239                      72.26770
                       1.24162                      -1.79598                      72.26633
                       1.65135                      -1.45702                      72.26518
                       1.96390                      -1.02682                      72.26433
                       2.15966                      -0.53241                      72.26383
                       2.18607                      -0.00547                      76.64364
                       2.12110                       0.50885                      76.64392
                       1.93026                       0.99085                      76.64456
                       1.62554                       1.41026                      76.64554
                       1.22611                       1.74070                      76.64680
                       0.75704                       1.96143                      76.64824
                       0.24781                       2.05857                      76.64979
                      -0.26957                       2.02602                      76.65135
                      -0.76261                       1.86582                      76.65281
                      -1.20031                       1.58804                      76.65409
                      -1.55519                       1.21014                      76.65510
                      -1.80493                       0.75585                      76.65579
                      -1.93385                       0.25373                      76.65610
                      -1.93385                      -0.26468                      76.65602
                      -1.80493                      -0.76680                      76.65556
                      -1.55519                      -1.22109                      76.65474
                      -1.20031                      -1.59899                      76.65362
                      -0.76261                      -1.87677                      76.65226
                      -0.26957                      -2.03697                      76.65075
                       0.24781                      -2.06952                      76.64918
                       0.75704                      -1.97238                      76.64766
                       1.22610                      -1.75165                      76.64628
                       1.62554                      -1.42120                      76.64512
                       1.93026                      -1.00180                      76.64427
                       2.12110                      -0.51980                      76.64376
                       2.14608                      -0.00614                      81.02376
                       2.08278                       0.49494                      81.02403
                       1.89686                       0.96454                      81.02467
                       1.59999                       1.37314                      81.02563
                       1.21084                       1.69508                      81.02685
                       0.75384                       1.91012                      81.02827
                       0.25773                       2.00476                      81.02978
                      -0.24633                       1.97305                      81.03130
                      -0.72667                       1.81698                      81.03273
                      -1.15311                       1.54635                      81.03398
                      -1.49884                       1.17818                      81.03497
                      -1.74216                       0.73559                      81.03564
                      -1.86776                       0.24639                      81.03594
                      -1.86776                      -0.25867                      81.03586
                      -1.74216                      -0.74786                      81.03541
                      -1.49884                      -1.19045                      81.03461
                      -1.15311                      -1.55862                      81.03350
                      -0.72667                      -1.82925                      81.03217
                      -0.24633                      -1.98532                      81.03070
                       0.25773                      -2.01703                      81.02917
                       0.75384                      -1.92240                      81.02768
                       1.21083                      -1.70735                      81.02633
                       1.59999                      -1.38541                      81.02520
                       1.89686                      -0.97681                      81.02437
                       2.08278                      -0.50721                      81.02388
                       2.10588                      -0.00682                      85.40414
                       2.04425                       0.48102                      85.40439
                       1.86324                       0.93820                      85.40499
                       1.57422                       1.33601                      85.40590
                       1.19535                       1.64944                      85.40705
                       0.75043                       1.85880                      85.40837
                       0.26743                       1.95093                      85.40979
                      -0.22331                       1.92006                      85.41121
                      -0.69096                       1.76811                      85.41255
                      -1.10612                       1.50464                      85.41371
                      -1.44272                       1.14619                      85.41463
                      -1.67961                       0.71530                      85.41525
                      -1.80189                       0.23904                      85.41553
                      -1.80189                      -0.25268                      85.41546
                      -1.67961                      -0.72894                      85.41502
                      -1.44272                      -1.15983                      85.41427
                      -1.10612                      -1.51828                      85.41323
                      -0.69096                      -1.78175                      85.41199
                      -0.22331                      -1.93370                      85.41060
                       0.26743                      -1.96457                      85.40917
                       0.75043                      -1.87244                      85.40778
                       1.19535                      -1.66307                      85.40652
                       1.57422                      -1.34964                      85.40547
                       1.86324                      -0.95184                      85.40469
                       2.04425                      -0.49466                      85.40424
                       2.08549                      -0.00717                      87.59444
                       2.02470                       0.47405                      87.59469
                       1.84615                       0.92503                      87.59526
                       1.56105                       1.31743                      87.59611
                       1.18732                       1.62661                      87.59720
                       0.74844                       1.83313                      87.59846
                       0.27200                       1.92401                      87.59980
                      -0.21208                       1.89356                      87.60114
                      -0.67338                       1.74367                      87.60240
                      -1.08291                       1.48377                      87.60350
                      -1.41494                       1.13020                      87.60437
                      -1.64861                       0.70515                      87.60495
                      -1.76924                       0.23535                      87.60521
                      -1.76924                      -0.24969                      87.60513
                      -1.64861                      -0.71949                      87.60472
                      -1.41494                      -1.14453                      87.60400
                      -1.08291                      -1.49811                      87.60302
                      -0.67338                      -1.75801                      87.60184
                      -0.21208                      -1.90789                      87.60054
                       0.27200                      -1.93835                      87.59918
                       0.74844                      -1.84746                      87.59787
                       1.18732                      -1.64094                      87.59668
                       1.56105                      -1.33177                      87.59569
                       1.84614                      -0.93936                      87.59496
                       2.02470                      -0.48838                      87.59454
                       3.00000                       0.00000                       0.00000
                       2.90575                       0.74607                       0.00000
                       2.62892                       1.44526                       0.00000
                       2.18691                       2.05364                       0.00000
                       1.60748                       2.53298                       0.00000
                       0.92705                       2.85317                       0.00000
                       0.18837                       2.99408                       0.00000
                      -0.56214                       2.94686                       0.00000
                      -1.27734                       2.71448                       0.00000
                      -1.91227                       2.31154                       0.00000
                      -2.42705                       1.76336                       0.00000
                      -2.78933                       1.10437                       0.00000
                      -2.97634                       0.37600                       0.00000
                      -2.97634                      -0.37600                       0.00000
                      -2.78933                      -1.10437                       0.00000
                      -2.42705                      -1.76336                       0.00000
                      -1.91227                      -2.31154                       0.00000
                      -1.27734                      -2.71448                       0.00000
                      -0.56214                      -2.94686                       0.00000
                       0.18837                      -2.99408                       0.00000
                       0.92705                      -2.85317                       0.00000
                       1.60748                      -2.53298                       0.00000
                       2.18691                      -2.05364                       0.00000
                       2.62892                      -1.44526                       0.00000
                       2.90575                      -0.74607                       0.00000
        </DataArray>
      </Points>
      <Polys>
        <DataArray type="Int32" Name="connectivity" format="ascii">
      0      1     26     25
      1      2     27     26
      2      3     28     27
      3      4     29     28
      4      5     30     29
      5      6     31     30
      6      7     32     31
      7      8     33     32
      8      9     34     33
      9     10     35     34
     10     11     36     35
     11     12     37     36
     12     13     38     37
     13     14     39     38
     14     15     40     39
     15     16     41     40
     16     17     42     41
     17     18     43     42
     18     19     44     43
     19     20     45     44
     20     21     46     45
     21     22     47     46
     22     23     48     47
     23     24     49     48
     24      0     25     49
     24     23     22     21     20     19     18     17     16     15     14     13     12     11     10      9      8      7      6      5      4      3      2      1      0
     25     26     27     28     29     30     31     32     33     34     35     36     37     38     39     40     41     42     43     44     45     46     47     48     49
     25     26     51     50
     26     27     52     51
     27     28     53     52
     28     29     54     53
     29     30     55     54
     30     31     56     55
     31     32     57     56
     32     33     58     57
     33     34     59     58
     34     35     60     59
     35     36     61     60
     36     37     62     61
     37     38     63     62
     38     39     64     63
     39     40     65     64
     40     41     66     65
     41     42     67     66
     42     43     68     67
     43     44     69     68
     44     45     70     69
     45     46     71     70
     46     47     72     71
     47     48     73     72
     48     49     74     73
     49     25     50     74
     49     48     47     46     45     44     43     42     41     40     39     38     37     36     35     34     33     32     31     30     29     28     27     26     25
     50     51     52     53     54     55     56     57     58     59     60     61     62     63     64     65     66     67     68     69     70     71     72     73     74
     50     51     76     75
     51     52     77     76
     52     53     78     77
     53     54     79     78
     54     55     80     79
     55     56     81     80
     56     57     82     81
     57     58     83     82
     58     59     84     83
     59     60     85     84
     60     61     86     85
     61     62     87     86
     62     63     88     87
     63     64     89     88
     64     65     90     89
     65     66     91     90
     66     67     92     91
     67     68     93     92
     68     69     94     93
     69     70     95     94
     70     71     96     95
     71     72     97     96
     72     73     98     97
     73     74     99     98
     74     50     75     99
     74     73     72     71     70     69     68     67     66     65     64     63     62     61     60     59     58     57     56     55     54     53     52     51     50
     75     76     77     78     79     80     81     82     83     84     85     86     87     88     89     90     91     92     93     94     95     96     97     98     99
     75     76    101    100
     76     77    102    101
     77     78    103    102
     78     79    104    103
     79     80    105    104
     80     81    106    105
     81     82    107    106
     82     83    108    107
     83     84    109    108
     84     85    110    109
     85     86    111    110
     86     87    112    111
     87     88    113    112
     88     89    114    113
     89     90    115    114
     90     91    116    115
     91     92    117    116
     92     93    118    117
     93     94    119    118
     94     95    120    119
     95     96    121    120
     96     97    122    121
     97     98    123    122
     98     99    124    123
     99     75    100    124
     99     98     97     96     95     94     93     92     91     90     89     88     87     86     85     84     83     82     81     80     79     78     77     76     75
    100    101    102    103    104    105    106    107    108    109    110    111    112    113    114    115    116    117    118    119    120    121    122    123    124
    100    101    126    125
    101    102    127    126
    102    103    128    127
    103    104    129    128
    104    105    130    129
    105    106    131    130
    106    107    132    131
    107    108    133    132
    108    109    134    133
    109    110    135    134
    110    111    136    135
    111    112    137    136
    112    113    138    137
    113    114    139    138
    114    115    140    139
    115    116    141    140
    116    117    142    141
    117    118    143    142
    118    119    144    143
    119    120    145    144
    120    121    146    145
    121    122    147    146
    122    123    148    147
    123    124    149    148
    124    100    125    149
    124    123    122    121    120    119    118    117    116    115    114    113    112    111    110    109    108    107    106    105    104    103    102    101    100
    125    126    127    128    129    130    131    132    133    134    135    136    137    138    139    140    141    142    143    144    145    146    147    148    149
    125    126    151    150
    126    127    152    151
    127    128    153    152
    128    129    154    153
    129    130    155    154
    130    131    156    155
    131    132    157    156
    132    133    158    157
    133    134    159    158
    134    135    160    159
    135    136    161    160
    136    137    162    161
    137    138    163    162
    138    139    164    163
    139    140    165    164
    140    141    166    165
    141    142    167    166
    142    143    168    167
    143    144    169    168
    144    145    170    169
    145    146    171    170
    146    147    172    171
    147    148    173    172
    148    149    174    173
    149    125    150    174
    149    148    147    146    145    144    143    142    141    140    139    138    137    136    135    134    133    132    131    130    129    128    127    126    125
    150    151    152    153    154    155    156    157    158    159    160    161    162    163    164    165    166    167    168    169    170    171    172    173    174
    150    151    176    175
    151    152    177    176
    152    153    178    177
    153    154    179    178
    154    155    180    179
    155    156    181    180
    156    157    182    181
    157    158    183    182
    158    159    184    183
    159    160    185    184
    160    161    186    185
    161    162    187    186
    162    163    188    187
    163    164    189    188
    164    165    190    189
    165    166    191    190
    166    167    192    191
    167    168    193    192
    168    169    194    193
    169    170    195    194
    170    171    196    195
    171    172    197    196
    172    173    198    197
    173    174    199    198
    174    150    175    199
    174    173    172    171    170    169    168    167    166    165    164    163    162    161    160    159    158    157    156    155    154    153    152    151    150
    175    176    177    178    179    180    181    182    183    184    185    186    187    188    189    190    191    192    193    194    195    196    197    198    199
    175    176    201    200
    176    177    202    201
    177    178    203    202
    178    179    204    203
    179    180    205    204
    180    181    206    205
    181    182    207    206
    182    183    208    207
    183    184    209    208
    184    185    210    209
    185    186    211    210
    186    187    212    211
    187    188    213    212
    188    189    214    213
    189    190    215    214
    190    191    216    215
    191    192    217    216
    192    193    218    217
    193    194    219    218
    194    195    220    219
    195    196    221    220
    196    197    222    221
    197    198    223    222
    198    199    224    223
    199    175    200    224
    199    198    197    196    195    194    193    192    191    190    189    188    187    186    185    184    183    182    181    180    179    178    177    176    175
    200    201    202    203    204    205    206    207    208    209    210    211    212    213    214    215    216    217    218    219    220    221    222    223    224
    200    201    226    225
    201    202    227    226
    202    203    228    227
    203    204    229    228
    204    205    230    229
    205    206    231    230
    206    207    232    231
    207    208    233    232
    208    209    234    233
    209    210    235    234
    210    211    236    235
    211    212    237    236
    212    213    238    237
    213    214    239    238
    214    215    240    239
    215    216    241    240
    216    217    242    241
    217    218    243    242
    218    219    244    243
    219    220    245    244
    220    221    246    245
    221    222    247    246
    222    223    248    247
    223    224    249    248
    224    200    225    249
    224    223    222    221    220    219    218    217    216    215    214    213    212    211    210    209    208    207    206    205    204    203    202    201    200
    225    226    227    228    229    230    231    232    233    234    235    236    237    238    239    240    241    242    243    244    245    246    247    248    249
    225    226    251    250
    226    227    252    251
    227    228    253    252
    228    229    254    253
    229    230    255    254
    230    231    256    255
    231    232    257    256
    232    233    258    257
    233    234    259    258
    234    235    260    259
    235    236    261    260
    236    237    262    261
    237    238    263    262
    238    239    264    263
    239    240    265    264
    240    241    266    265
    241    242    267    266
    242    243    268    267
    243    244    269    268
    244    245    270    269
    245    246    271    270
    246    247    272    271
    247    248    273    272
    248    249    274    273
    249    225    250    274
    249    248    247    246    245    244    243    242    241    240    239    238    237    236    235    234    233    232    231    230    229    228    227    226    225
    250    251    252    253    254    255    256    257    258    259    260    261    262    263    264    265    266    267    268    269    270    271    272    273    274
    250    251    276    275
    251    252    277    276
    252    253    278    277
    253    254    279    278
    254    255    280    279
    255    256    281    280
    256    257    282    281
    257    258    283    282
    258    259    284    283
    259    260    285    284
    260    261    286    285
    261    262    287    286
    262    263    288    287
    263    264    289    288
    264    265    290    289
    265    266    291    290
    266    267    292    291
    267    268    293    292
    268    269    294    293
    269    270    295    294
    270    271    296    295
    271    272    297    296
    272    273    298    297
    273    274    299    298
    274    250    275    299
    274    273    272    271    270    269    268    267    266    265    264    263    262    261    260    259    258    257    256    255    254    253    252    251    250
    275    276    277    278    279    280    281    282    283    284    285    286    287    288    289    290    291    292    293    294    295    296    297    298    299
    275    276    301    300
    276    277    302    301
    277    278    303    302
    278    279    304    303
    279    280    305    304
    280    281    306    305
    281    282    307    306
    282    283    308    307
    283    284    309    308
    284    285    310    309
    285    286    311    310
    286    287    312    311
    287    288    313    312
    288    289    314    313
    289    290    315    314
    290    291    316    315
    291    292    317    316
    292    293    318    317
    293    294    319    318
    294    295    320    319
    295    296    321    320
    296    297    322    321
    297    298    323    322
    298    299    324    323
    299    275    300    324
    299    298    297    296    295    294    293    292    291    290    289    288    287    286    285    284    283    282    281    280    279    278    277    276    275
    300    301    302    303    304    305    306    307    308    309    310    311    312    313    314    315    316    317    318    319    320    321    322    323    324
    300    301    326    325
    301    302    327    326
    302    303    328    327
    303    304    329    328
    304    305    330    329
    305    306    331    330
    306    307    332    331
    307    308    333    332
    308    309    334    333
    309    310    335    334
    310    311    336    335
    311    312    337    336
    312    313    338    337
    313    314    339    338
    314    315    340    339
    315    316    341    340
    316    317    342    341
    317    318    343    342
    318    319    344    343
    319    320    345    344
    320    321    346    345
    321    322    347    346
    322    323    348    347
    323    324    349    348
    324    300    325    349
    324    323    322    321    320    319    318    317    316    315    314    313    312    311    310    309    308    307    306    305    304    303    302    301    300
    325    326    327    328    329    330    331    332    333    334    335    336    337    338    339    340    341    342    343    344    345    346    347    348    349
    325    326    351    350
    326    327    352    351
    327    328    353    352
    328    329    354    353
    329    330    355    354
    330    331    356    355
    331    332    357    356
    332    333    358    357
    333    334    359    358
    334    335    360    359
    335    336    361    360
    336    337    362    361
    337    338    363    362
    338    339    364    363
    339    340    365    364
    340    341    366    365
    341    342    367    366
    342    343    368    367
    343    344    369    368
    344    345    370    369
    345    346    371    370
    346    347    372    371
    347    348    373    372
    348    349    374    373
    349    325    350    374
    349    348    347    346    345    344    343    342    341    340    339    338    337    336    335    334    333    332    331    330    329    328    327    326    325
    350    351    352    353    354    355    356    357    358    359    360    361    362    363    364    365    366    367    368    369    370    371    372    373    374
    350    351    376    375
    351    352    377    376
    352    353    378    377
    353    354    379    378
    354    355    380    379
    355    356    381    380
    356    357    382    381
    357    358    383    382
    358    359    384    383
    359    360    385    384
    360    361    386    385
    361    362    387    386
    362    363    388    387
    363    364    389    388
    364    365    390    389
    365    366    391    390
    366    367    392    391
    367    368    393    392
    368    369    394    393
    369    370    395    394
    370    371    396    395
    371    372    397    396
    372    373    398    397
    373    374    399    398
    374    350    375    399
    374    373    372    371    370    369    368    367    366    365    364    363    362    361    360    359    358    357    356    355    354    353    352    351    350
    375    376    377    378    379    380    381    382    383    384    385    386    387    388    389    390    391    392    393    394    395    396    397    398    399
    375    376    401    400
    376    377    402    401
    377    378    403    402
    378    379    404    403
    379    380    405    404
    380    381    406    405
    381    382    407    406
    382    383    408    407
    383    384    409    408
    384    385    410    409
    385    386    411    410
    386    387    412    411
    387    388    413    412
    388    389    414    413
    389    390    415    414
    390    391    416    415
    391    392    417    416
    392    393    418    417
    393    394    419    418
    394    395    420    419
    395    396    421    420
    396    397    422    421
    397    398    423    422
    398    399    424    423
    399    375    400    424
    399    398    397    396    395    394    393    392    391    390    389    388    387    386    385    384    383    382    381    380    379    378    377    376    375
    400    401    402    403    404    405    406    407    408    409    410    411    412    413    414    415    416    417    418    419    420    421    422    423    424
    400    401    426    425
    401    402    427    426
    402    403    428    427
    403    404    429    428
    404    405    430    429
    405    406    431    430
    406    407    432    431
    407    408    433    432
    408    409    434    433
    409    410    435    434
    410    411    436    435
    411    412    437    436
    412    413    438    437
    413    414    439    438
    414    415    440    439
    415    416    441    440
    416    417    442    441
    417    418    443    442
    418    419    444    443
    419    420    445    444
    420    421    446    445
    421    422    447    446
    422    423    448    447
    423    424    449    448
    424    400    425    449
    424    423    422    421    420    419    418    417    416    415    414    413    412    411    410    409    408    407    406    405    404    403    402    401    400
    425    426    427    428    429    430    431    432    433    434    435    436    437    438    439    440    441    442    443    444    445    446    447    448    449
    425    426    451    450
    426    427    452    451
    427    428    453    452
    428    429    454    453
    429    430    455    454
    430    431    456    455
    431    432    457    456
    432    433    458    457
    433    434    459    458
    434    435    460    459
    435    436    461    460
    436    437    462    461
    437    438    463    462
    438    439    464    463
    439    440    465    464
    440    441    466    465
    441    442    467    466
    442    443    468    467
    443    444    469    468
    444    445    470    469
    445    446    471    470
    446    447    472    471
    447    448    473    472
    448    449    474    473
    449    425    450    474
    449    448    447    446    445    444    443    442    441    440    439    438    437    436    435    434    433    432    431    430    429    428    427    426    425
    450    451    452    453    454    455    456    457    458    459    460    461    462    463    464    465    466    467    468    469    470    471    472    473    474
    450    451    476    475
    451    452    477    476
    452    453    478    477
    453    454    479    478
    454    455    480    479
    455    456    481    480
    456    457    482    481
    457    458    483    482
    458    459    484    483
    459    460    485    484
    460    461    486    485
    461    462    487    486
    462    463    488    487
    463    464    489    488
    464    465    490    489
    465    466    491    490
    466    467    492    491
    467    468    493    492
    468    469    494    493
    469    470    495    494
    470    471    496    495
    471    472    497    496
    472    473    498    497
    473    474    499    498
    474    450    475    499
    474    473    472    471    470    469    468    467    466    465    464    463    462    461    460    459    458    457    456    455    454    453    452    451    450
    475    476    477    478    479    480    481    482    483    484    485    486    487    488    489    490    491    492    493    494    495    496    497    498    499
    475    476    501    500
    476    477    502    501
    477    478    503    502
    478    479    504    503
    479    480    505    504
    480    481    506    505
    481    482    507    506
    482    483    508    507
    483    484    509    508
    484    485    510    509
    485    486    511    510
    486    487    512    511
    487    488    513    512
    488    489    514    513
    489    490    515    514
    490    491    516    515
    491    492    517    516
    492    493    518    517
    493    494    519    518
    494    495    520    519
    495    496    521    520
    496    497    522    521
    497    498    523    522
    498    499    524    523
    499    475    500    524
    499    498    497    496    495    494    493    492    491    490    489    488    487    486    485    484    483    482    481    480    479    478    477    476    475
    500    501    502    503    504    505    506    507    508    509    510    511    512    513    514    515    516    517    518    519    520    521    522    523    524
    525    526      1      0
    526    527      2      1
    527    528      3      2
    528    529      4      3
    529    530      5      4
    530    531      6      5
    531    532      7      6
    532    533      8      7
    533    534      9      8
    534    535     10      9
    535    536     11     10
    536    537     12     11
    537    538     13     12
    538    539     14     13
    539    540     15     14
    540    541     16     15
    541    542     17     16
    542    543     18     17
    543    544     19     18
    544    545     20     19
    545    546     21     20
    546    547     22     21
    547    548     23     22
    548    549     24     23
    549    525      0     24
    549    548    547    546    545    544    543    542    541    540    539    538    537    536    535    534    533    532    531    530    529    528    527    526    525
      0      1      2      3      4      5      6      7      8      9     10     11     12     13     14     15     16     17     18     19     20     21     22     23     24
        </DataArray>
        <DataArray type="Int32" Name="offsets" format="ascii">
      4
      8
     12
     16
     20
     24
     28
     32
     36
     40
     44
     48
     52
     56
     60
     64
     68
     72
     76
     80
     84
     88
     92
     96
    100
    125
    150
    154
    158
    162
    166
    170
    174
    178
    182
    186
    190
    194
    198
    202
    206
    210
    214
    218
    222
    226
    230
    234
    238
    242
    246
    250
    275
    300
    304
    308
    312
    316
    320
    324
    328
    332
    336
    340
    344
    348
    352
    356
    360
    364
    368
    372
    376
    380
    384
    388
    392
    396
    400
    425
    450
    454
    458
    462
    466
    470
    474
    478
    482
    486
    490
    494
    498
    502
    506
    510
    514
    518
    522
    526
    530
    534
    538
    542
    546
    550
    575
    600
    604
    608
    612
    616
    620
    624
    628
    632
    636
    640
    644
    648
    652
    656
    660
    664
    668
    672
    676
    680
    684
    688
    692
    696
    700
    725
    750
    754
    758
    762
    766
    770
    774
    778
    782
    786
    790
    794
    798
    802
    806
    810
    814
    818
    822
    826
    830
    834
    838
    842
    846
    850
    875
    900
    904
    908
    912
    916
    920
    924
    928
    932
    936
    940
    944
    948
    952
    956
    960
    964
    968
    972
    976
    980
    984
    988
    992
    996
   1000
   1025
   1050
   1054
   1058
   1062
   1066
   1070
   1074
   1078
   1082
   1086
   1090
   1094
   1098
   1102
   1106
   1110
   1114
   1118
   1122
   1126
   1130
   1134
   1138
   1142
   1146
   1150
   1175
   1200
   1204
   1208
   1212
   1216
   1220
   1224
   1228
   1232
   1236
   1240
   1244
   1248
   1252
   1256
   1260
   1264
   1268
   1272
   1276
   1280
   1284
   1288
   1292
   1296
   1300
   1325
   1350
   1354
   1358
   1362
   1366
   1370
   1374
   1378
   1382
   1386
   1390
   1394
   1398
   1402
   1406
   1410
   1414
   1418
   1422
   1426
   1430
   1434
   1438
   1442
   1446
   1450
   1475
   1500
   1504
   1508
   1512
   1516
   1520
   1524
   1528
   1532
   1536
   1540
   1544
   1548
   1552
   1556
   1560
   1564
   1568
   1572
   1576
   1580
   1584
   1588
   1592
   1596
   1600
   1625
   1650
   1654
   1658
   1662
   1666
   1670
   1674
   1678
   1682
   1686
   1690
   1694
   1698
   1702
   1706
   1710
   1714
   1718
   1722
   1726
   1730
   1734
   1738
   1742
   1746
   1750
   1775
   1800
   1804
   1808
   1812
   1816
   1820
   1824
   1828
   1832
   1836
   1840
   1844
   1848
   1852
   1856
   1860
   1864
   1868
   1872
   1876
   1880
   1884
   1888
   1892
   1896
   1900
   1925
   1950
   1954
   1958
   1962
   1966
   1970
   1974
   1978
   1982
   1986
   1990
   1994
   1998
   2002
   2006
   2010
   2014
   2018
   2022
   2026
   2030
   2034
   2038
   2042
   2046
   2050
   2075
   2100
   2104
   2108
   2112
   2116
   2120
   2124
   2128
   2132
   2136
   2140
   2144
   2148
   2152
   2156
   2160
   2164
   2168
   2172
   2176
   2180
   2184
   2188
   2192
   2196
   2200
   2225
   2250
   2254
   2258
   2262
   2266
   2270
   2274
   2278
   2282
   2286
   2290
   2294
   2298
   2302
   2306
   2310
   2314
   2318
   2322
   2326
   2330
   2334
   2338
   2342
   2346
   2350
   2375
   2400
   2404
   2408
   2412
   2416
   2420
   2424
   2428
   2432
   2436
   2440
   2444
   2448
   2452
   2456
   2460
   2464
   2468
   2472
   2476
   2480
   2484
   2488
   2492
   2496
   2500
   2525
   2550
   2554
   2558
   2562
   2566
   2570
   2574
   2578
   2582
   2586
   2590
   2594
   2598
   2602
   2606
   2610
   2614
   2618
   2622
   2626
   2630
   2634
   2638
   2642
   2646
   2650
   2675
   2700
   2704
   2708
   2712
   2716
   2720
   2724
   2728
   2732
   2736
   2740
   2744
   2748
   2752
   2756
   2760
   2764
   2768
   2772
   2776
   2780
   2784
   2788
   2792
   2796
   2800
   2825
   2850
   2854
   2858
   2862
   2866
   2870
   2874
   2878
   2882
   2886
   2890
   2894
   2898
   2902
   2906
   2910
   2914
   2918
   2922
   2926
   2930
   2934
   2938
   2942
   2946
   2950
   2975
   3000
   3004
   3008
   3012
   3016
   3020
   3024
   3028
   3032
   3036
   3040
   3044
   3048
   3052
   3056
   3060
   3064
   3068
   3072
   3076
   3080
   3084
   3088
   3092
   3096
   3100
   3125
   3150
        </DataArray>
      </Polys>
    </Piece>
  </PolyData>
</VTKFile>
