<?xml version="1.0"?>
<VTKFile type="PolyData" version="0.1" byte_order="LittleEndian">
  <PolyData>
    <Piece NumberOfPoints="     19" NumberOfVerts="  0" NumberOfLines="     18"
           NumberOfStrips="  0" NumberOfPolys="      0">
      <Points>
        <DataArray type="Float32" NumberOfComponents="3" format="ascii">
                      -4.85563                       1.37712                      90.59087
                      -4.86808                       2.63770                      91.11957
                      -4.90596                       5.12255                      92.26465
                      -4.94781                       7.59127                      93.45005
                      -4.99852                      10.66909                      94.95394
                      -5.00823                      14.42196                      96.61799
                      -4.99173                      18.22790                      98.15465
                      -4.96456                      22.03738                      99.68335
                      -4.92574                      25.85093                     101.20277
                      -4.87867                      29.66754                     102.71548
                      -4.82881                      33.48552                     104.22575
                      -4.78152                      37.30510                     105.73294
                      -4.74522                      41.12588                     107.23769
                      -4.73028                      44.94741                     108.74033
                      -4.74659                      48.76914                     110.24090
                      -4.79488                      51.95375                     111.48939
                      -4.86124                      54.50389                     112.47921
                      -4.95436                      57.07398                     113.41618
                      -5.01817                      58.34320                     113.92221
        </DataArray>
      </Points>
      <PointData>
        <DataArray type="Float32" Name="TranslationalVelocity" NumberOfComponents="3" format="ascii">
                       0.34767                      -1.61787                       3.87444
                       0.66621                      -3.09546                       7.40486
                       1.29541                      -6.29346                      14.36516
                       1.92236                      -9.60430                      21.28192
                       2.70703                     -13.80672                      29.90789
                       3.66909                     -18.47046                      40.42987
                       4.65227                     -22.78553                      51.10507
                       5.64672                     -27.08263                      61.79430
                       6.65570                     -31.35818                      72.49835
                       7.68265                     -35.61828                      83.21363
                       8.73128                     -39.87329                      93.93468
                       9.80616                     -44.11968                     104.66159
                      10.91202                     -48.35663                     115.39303
                      12.05385                     -52.58187                     126.12796
                      13.23682                     -56.79239                     136.86557
                      14.25881                     -60.28544                     145.81585
                      15.10163                     -63.04644                     152.98549
                      15.97205                     -65.65102                     160.21409
                      16.41399                     -67.05360                     163.78563
        </DataArray>
        <DataArray type="Float32" Name="RotationalVelocity" NumberOfComponents="3" format="ascii">
                       2.80040                      -0.00053                      -0.25294
                       2.80061                      -0.00047                      -0.25307
                       2.80117                      -0.00027                      -0.25349
                       2.80188                       0.00004                      -0.25410
                       2.80287                       0.00054                      -0.25509
                       2.80407                       0.00132                      -0.25660
                       2.80519                       0.00240                      -0.25849
                       2.80615                       0.00393                      -0.26084
                       2.80692                       0.00610                      -0.26377
                       2.80752                       0.00909                      -0.26740
                       2.80797                       0.01306                      -0.27186
                       2.80834                       0.01812                      -0.27724
                       2.80867                       0.02426                      -0.28360
                       2.80902                       0.03137                      -0.29091
                       2.80945                       0.03919                      -0.29909
                       2.80988                       0.04593                      -0.30642
                       2.81028                       0.05124                      -0.31251
                       2.81073                       0.05619                      -0.31867
                       2.81096                       0.05845                      -0.32173
        </DataArray>
        <DataArray type="Float32" Name="TranslationalAcceleration" NumberOfComponents="3" format="ascii">
                      -0.47189                     -10.93586                      -4.51689
                      -0.51635                     -13.23404                      -5.46968
                      -1.51912                     -37.59464                     -16.32864
                      -2.44393                     -59.85778                     -26.67798
                      -3.50083                     -85.77432                     -39.00781
                      -4.55046                    -115.69714                     -52.02175
                      -5.43094                    -145.29088                     -63.69905
                      -6.27154                    -174.86567                     -75.25207
                      -7.10511                    -204.78990                     -86.82056
                      -7.95450                    -235.16890                     -98.47123
                      -8.83047                    -265.92173                    -110.21229
                      -9.72599                    -296.87406                    -121.97275
                     -10.61984                    -327.81091                    -133.67960
                     -11.47470                    -358.55371                    -145.27652
                     -12.23662                    -389.03226                    -156.75641
                     -12.74534                    -414.30240                    -166.27637
                     -13.02950                    -434.57862                    -173.86511
                     -13.12835                    -455.23133                    -181.16398
                     -13.15242                    -465.58941                    -185.18689
        </DataArray>
        <DataArray type="Float32" Name="OrientationX" NumberOfComponents="3" format="ascii">
                       0.98887                      -0.04884                       0.14052
                       0.98887                      -0.04908                       0.14045
                       0.98884                      -0.04986                       0.14036
                       0.98879                      -0.05107                       0.14033
                       0.98866                      -0.05314                       0.14045
                       0.99273                      -0.04435                       0.11185
                       0.99494                      -0.03973                       0.09232
                       0.99635                      -0.03687                       0.07701
                       0.99744                      -0.03407                       0.06285
                       0.99821                      -0.03129                       0.05096
                       0.99864                      -0.02893                       0.04348
                       0.99886                      -0.02622                       0.03979
                       0.99886                      -0.02338                       0.04154
                       0.99849                      -0.02081                       0.05079
                       0.99789                      -0.01630                       0.06287
                       0.99720                      -0.01050                       0.07403
                       0.99649                      -0.00435                       0.08362
                       0.99536                       0.00217                       0.09624
                       0.99454                       0.00536                       0.10419
        </DataArray>
        <DataArray type="Float32" Name="OrientationY" NumberOfComponents="3" format="ascii">
                       0.14849                       0.38163                      -0.91231
                       0.14852                       0.38138                      -0.91241
                       0.14874                       0.38067                      -0.91267
                       0.14919                       0.37973                      -0.91299
                       0.15010                       0.37832                      -0.91343
                       0.12031                       0.37800                      -0.91796
                       0.10049                       0.37707                      -0.92072
                       0.08523                       0.37604                      -0.92268
                       0.07105                       0.37514                      -0.92424
                       0.05898                       0.37440                      -0.92539
                       0.05115                       0.37379                      -0.92610
                       0.04670                       0.37332                      -0.92653
                       0.04726                       0.37292                      -0.92666
                       0.05489                       0.37255                      -0.92639
                       0.06441                       0.37230                      -0.92587
                       0.07261                       0.37221                      -0.92530
                       0.07923                       0.37224                      -0.92475
                       0.08852                       0.37239                      -0.92385
                       0.09471                       0.37255                      -0.92317
        </DataArray>
        <DataArray type="Float32" Name="OrientationZ" NumberOfComponents="3" format="ascii">
                      -0.00907                       0.92302                       0.38463
                      -0.00879                       0.92312                       0.38442
                      -0.00792                       0.92337                       0.38384
                      -0.00666                       0.92369                       0.38309
                      -0.00460                       0.92415                       0.38200
                      -0.00157                       0.92474                       0.38059
                       0.00176                       0.92533                       0.37916
                       0.00506                       0.92587                       0.37781
                       0.00791                       0.92634                       0.37660
                       0.00988                       0.92674                       0.37558
                       0.01054                       0.92706                       0.37475
                       0.00944                       0.92733                       0.37412
                       0.00617                       0.92757                       0.37360
                       0.00036                       0.92778                       0.37313
                      -0.00832                       0.92797                       0.37256
                      -0.01784                       0.92809                       0.37193
                      -0.02710                       0.92813                       0.37127
                      -0.03785                       0.92807                       0.37047
                      -0.04377                       0.92800                       0.37001
        </DataArray>
        <DataArray type="Float32" Name="Force" NumberOfComponents="3" format="ascii">
                      -0.93155                       4.28803                     -10.31214
                     171.45323                      47.96935                    -111.21365
                     241.66586                     137.12995                    -324.23188
                     231.30768                     205.46656                    -489.42841
                    1505.37150                     -79.59885                     208.42818
                    1475.68235                     -47.69473                     119.51405
                    1377.80135                     -16.08407                      30.87753
                    2064.07501                     -29.35290                      40.71584
                    2509.21486                     -22.63911                      -1.10801
                    2756.81700                      -9.98013                     -51.86231
                    4301.48767                      -5.58297                    -113.13640
                    4477.29519                      17.12544                    -160.91854
                    3320.34253                      48.12385                    -176.84177
                    1674.27832                      79.56718                    -197.07224
                    1768.31303                      50.32692                     -87.37777
                    -378.93129                      79.90881                    -207.82468
                   -2174.07766                      28.13177                    -212.81042
                   -3359.88857                     -57.88253                    -178.81894
                  -19669.13336                   -1304.38300                     955.44709
        </DataArray>
        <DataArray type="Float32" Name="Moment" NumberOfComponents="3" format="ascii">
                       0.00000                       0.00000                       0.00000
                       0.00000                       0.00000                       0.00000
                       0.00000                       0.00000                       0.00000
                       0.00000                       0.00000                       0.00000
                       5.57406                   -1171.90623                    -487.81034
                       3.02608                   -2214.11903                    -920.95733
                      -7.07004                   -2996.31488                   -1245.30115
                     -29.10041                   -4826.68238                   -2004.42188
                     -66.19869                   -7191.10290                   -2984.25354
                     -93.67639                   -8200.39861                   -3401.46077
                    -112.09401                   -9183.67414                   -3808.66663
                    -108.43827                   -9783.13884                   -4058.26872
                     -56.38477                   -7402.93371                   -3073.22443
                     -10.22682                   -7270.25001                   -3022.22105
                      54.11141                   -6868.58146                   -2861.00962
                     116.64248                   -6453.39795                   -2694.01509
                     159.32987                   -5688.08701                   -2379.63657
                     113.02353                   -2857.84538                   -1198.57090
                     119.44103                   -2601.31101                   -1092.47746
        </DataArray>
      </PointData>
      <Lines>
        <DataArray type="Int32" Name="connectivity" format="ascii">
      0      1
      1      2
      2      3
      3      4
      4      5
      5      6
      6      7
      7      8
      8      9
      9     10
     10     11
     11     12
     12     13
     13     14
     14     15
     15     16
     16     17
     17     18
        </DataArray>
        <DataArray type="Int32" Name="offsets" format="ascii">
      2
      4
      6
      8
     10
     12
     14
     16
     18
     20
     22
     24
     26
     28
     30
     32
     34
     36
        </DataArray>
      </Lines>
    </Piece>
  </PolyData>
</VTKFile>
