<?xml version="1.0"?>
<VTKFile type="PolyData" version="0.1" byte_order="LittleEndian">
  <PolyData>
    <Piece NumberOfPoints="      8" NumberOfVerts="  0" NumberOfLines="      0"
           NumberOfStrips="  0" NumberOfPolys="      6">
      <Points>
        <DataArray type="Float32" NumberOfComponents="3" format="ascii">
                      -3.01461                       2.39993                      87.63020
                       3.98510                       2.39993                      87.56649
                       3.98510                      -2.40008                      87.56624
                      -3.01461                      -2.40008                      87.62995
                      -2.97092                      -2.40033                      92.42975
                       4.02879                      -2.40033                      92.36604
                       4.02879                       2.39968                      92.36630
                      -2.97092                       2.39967                      92.43001
        </DataArray>
      </Points>
      <Polys>
        <DataArray type="Int32" Name="connectivity" format="ascii">
      0      1      2      3
      4      5      6      7
      7      6      1      0
      6      5      2      1
      5      4      3      2
      4      7      0      3
        </DataArray>
        <DataArray type="Int32" Name="offsets" format="ascii">
      4
      8
     12
     16
     20
     24
        </DataArray>
      </Polys>
    </Piece>
  </PolyData>
</VTKFile>
