<?xml version="1.0"?>
<VTKFile type="PolyData" version="0.1" byte_order="LittleEndian">
  <PolyData>
    <Piece NumberOfPoints="     19" NumberOfVerts="  0" NumberOfLines="     18"
           NumberOfStrips="  0" NumberOfPolys="      0">
      <Points>
        <DataArray type="Float32" NumberOfComponents="3" format="ascii">
                      -4.94442                      -1.35806                      89.37545
                      -5.05776                      -2.58762                      88.78883
                      -5.31240                      -5.00458                      87.53162
                      -5.57757                      -7.40134                      86.23323
                      -5.91047                     -10.38486                      84.58354
                      -6.23305                     -14.02802                      82.72133
                      -6.50468                     -17.72741                      80.96699
                      -6.76066                     -21.42675                      79.20900
                      -6.99843                     -25.12698                      77.44898
                      -7.22023                     -28.82738                      75.68586
                      -7.43042                     -32.52650                      73.91735
                      -7.63226                     -36.22516                      72.14584
                      -7.83208                     -39.92352                      70.37286
                      -8.03802                     -43.62167                      68.60027
                      -8.25760                     -47.31954                      66.82973
                      -8.45958                     -50.40086                      65.35759
                      -8.63678                     -52.86904                      64.18996
                      -8.82145                     -55.36099                      63.07384
                      -8.93324                     -56.58849                      62.48149
        </DataArray>
      </Points>
      <PointData>
        <DataArray type="Float32" Name="TranslationalVelocity" NumberOfComponents="3" format="ascii">
                      -0.34698                       1.81885                      -3.75825
                      -0.65688                       3.47853                      -7.17715
                      -1.26706                       7.03758                     -13.89603
                      -1.87386                      10.71246                     -20.55626
                      -2.63252                      15.37849                     -28.84286
                      -3.56502                      20.62898                     -38.95519
                      -4.52055                      25.56405                     -49.21606
                      -5.48730                      30.50241                     -59.46902
                      -6.46770                      35.43903                     -69.71699
                      -7.46362                      40.37773                     -79.95843
                      -8.47647                      45.32618                     -90.18983
                      -9.50781                      50.27891                    -100.41402
                     -10.55845                      55.23365                    -110.63183
                     -11.62857                      60.18768                    -120.84376
                     -12.71746                      65.13863                    -131.04952
                     -13.63841                      69.25959                    -139.54919
                     -14.38334                      72.53223                    -146.35445
                     -15.13985                      75.66406                    -153.22235
                     -15.51527                      77.32990                    -156.60374
        </DataArray>
        <DataArray type="Float32" Name="RotationalVelocity" NumberOfComponents="3" format="ascii">
                       2.78086                      -0.00026                      -0.25212
                       2.78056                      -0.00019                      -0.25223
                       2.77972                       0.00005                      -0.25263
                       2.77865                       0.00038                      -0.25325
                       2.77711                       0.00091                      -0.25434
                       2.77512                       0.00168                      -0.25609
                       2.77313                       0.00262                      -0.25833
                       2.77122                       0.00374                      -0.26104
                       2.76943                       0.00509                      -0.26419
                       2.76776                       0.00671                      -0.26773
                       2.76621                       0.00862                      -0.27160
                       2.76474                       0.01082                      -0.27570
                       2.76333                       0.01326                      -0.27988
                       2.76196                       0.01583                      -0.28398
                       2.76066                       0.01835                      -0.28777
                       2.75965                       0.02025                      -0.29050
                       2.75896                       0.02148                      -0.29225
                       2.75840                       0.02231                      -0.29351
                       2.75818                       0.02253                      -0.29391
        </DataArray>
        <DataArray type="Float32" Name="TranslationalAcceleration" NumberOfComponents="3" format="ascii">
                       0.51234                      10.54576                       5.13351
                       0.56227                      12.72998                       6.14333
                       1.66332                      36.08262                      18.24218
                       2.70431                      57.34359                      29.73843
                       3.94183                      81.98311                      43.44136
                       5.27068                     110.36698                      58.14280
                       6.48694                     138.37236                      71.62304
                       7.68966                     166.23446                      85.09875
                       8.88261                     194.31830                      98.72809
                      10.06019                     222.73723                     112.57349
                      11.21059                     251.42738                     126.61991
                      12.31614                     280.24064                     140.76067
                      13.36182                     308.99074                     154.87613
                      14.33881                     337.52753                     168.85677
                      15.24912                     365.80543                     182.63785
                      15.96852                     389.25755                     193.97320
                      16.52864                     408.09972                     202.92750
                      17.06764                     427.35841                     211.51831
                      17.36606                     437.00339                     216.13170
        </DataArray>
        <DataArray type="Float32" Name="OrientationX" NumberOfComponents="3" format="ascii">
                       0.94785                       0.06137                      -0.31274
                       0.94788                       0.06175                      -0.31259
                       0.94790                       0.06295                      -0.31228
                       0.94789                       0.06473                      -0.31195
                       0.94780                       0.06767                      -0.31159
                       0.95694                       0.05840                      -0.28434
                       0.96264                       0.05391                      -0.26536
                       0.96682                       0.05156                      -0.25019
                       0.97051                       0.04951                      -0.23593
                       0.97351                       0.04784                      -0.22357
                       0.97545                       0.04716                      -0.21513
                       0.97658                       0.04673                      -0.21000
                       0.97662                       0.04690                      -0.20977
                       0.97511                       0.04825                      -0.21643
                       0.97302                       0.04818                      -0.22562
                       0.97105                       0.04637                      -0.23433
                       0.96930                       0.04354                      -0.24201
                       0.96670                       0.04057                      -0.25269
                       0.96490                       0.03927                      -0.25965
        </DataArray>
        <DataArray type="Float32" Name="OrientationY" NumberOfComponents="3" format="ascii">
                       0.30785                      -0.43024                       0.84860
                       0.30787                      -0.43035                       0.84854
                       0.30808                      -0.43056                       0.84836
                       0.30852                      -0.43075                       0.84810
                       0.30944                      -0.43093                       0.84767
                       0.28091                      -0.43307                       0.85647
                       0.26189                      -0.43442                       0.86179
                       0.24722                      -0.43544                       0.86561
                       0.23350                      -0.43635                       0.86895
                       0.22166                      -0.43715                       0.87165
                       0.21377                      -0.43776                       0.87331
                       0.20896                      -0.43825                       0.87423
                       0.20882                      -0.43854                       0.87412
                       0.21536                      -0.43853                       0.87253
                       0.22356                      -0.43846                       0.87050
                       0.23056                      -0.43841                       0.86870
                       0.23621                      -0.43839                       0.86719
                       0.24449                      -0.43827                       0.86495
                       0.25016                      -0.43817                       0.86338
        </DataArray>
        <DataArray type="Float32" Name="OrientationZ" NumberOfComponents="3" format="ascii">
                      -0.08247                      -0.90062                      -0.42670
                      -0.08213                      -0.90055                      -0.42693
                      -0.08105                      -0.90037                      -0.42752
                      -0.07948                      -0.90015                      -0.42828
                      -0.07691                      -0.89984                      -0.42938
                      -0.07312                      -0.89947                      -0.43083
                      -0.06882                      -0.89910                      -0.43231
                      -0.06431                      -0.89874                      -0.43374
                      -0.05993                      -0.89841                      -0.43504
                      -0.05603                      -0.89812                      -0.43618
                      -0.05299                      -0.89785                      -0.43709
                      -0.05118                      -0.89764                      -0.43775
                      -0.05100                      -0.89749                      -0.43808
                      -0.05281                      -0.89742                      -0.43801
                      -0.05698                      -0.89746                      -0.43741
                      -0.06245                      -0.89758                      -0.43641
                      -0.06834                      -0.89773                      -0.43521
                      -0.07566                      -0.89793                      -0.43359
                      -0.07987                      -0.89803                      -0.43262
        </DataArray>
        <DataArray type="Float32" Name="Force" NumberOfComponents="3" format="ascii">
                       2.35981                     -12.54750                      26.02736
                     197.31007                     -70.47313                     110.76726
                     320.25912                    -189.77660                     339.66070
                     338.38790                    -267.88043                     502.14087
                    1517.66179                      97.87902                    -478.82825
                    1403.55478                      58.78376                    -362.82929
                    1287.43165                      21.69537                    -251.43340
                    1960.25936                      44.08170                    -384.63257
                    2412.81057                      43.66485                    -425.61840
                    2687.45646                      36.85371                    -424.09764
                    4325.67298                      60.71878                    -653.88313
                    4651.63350                      54.36326                    -659.93110
                    3851.56167                      25.08933                    -502.69854
                    2481.65282                     -29.99126                    -237.63218
                     689.21137                     -90.33123                      99.33471
                    1330.29342                     -42.26219                    -102.71634
                     -86.41553                    -100.12654                     224.32655
                   -1479.37130                     -77.38820                     422.89432
                  -18251.00937                     575.77287                    2176.49607
        </DataArray>
        <DataArray type="Float32" Name="Moment" NumberOfComponents="3" format="ascii">
                       0.00000                       0.00000                       0.00000
                       0.00000                       0.00000                       0.00000
                       0.00000                       0.00000                       0.00000
                       0.00000                       0.00000                       0.00000
                     104.03183                    1221.44325                     579.41195
                     183.37041                    2268.12782                    1076.81354
                     229.79473                    3025.42199                    1437.68747
                     342.51106                    4834.64730                    2299.67519
                     472.34697                    7168.79612                    3413.17050
                     499.92242                    8130.96883                    3874.52304
                     526.58094                    9072.43947                    4325.97849
                     539.63614                    9638.55204                    4597.71137
                     405.78608                    7278.99283                    3472.32994
                     414.05509                    7170.21212                    3419.13825
                     424.10017                    6796.75241                    3238.18674
                     435.44652                    6355.66751                    3024.51591
                     421.60965                    5612.90448                    2667.69269
                     233.23906                    2798.68529                    1328.06795
                     224.52762                    2548.96479                    1208.47032
        </DataArray>
      </PointData>
      <Lines>
        <DataArray type="Int32" Name="connectivity" format="ascii">
      0      1
      1      2
      2      3
      3      4
      4      5
      5      6
      6      7
      7      8
      8      9
      9     10
     10     11
     11     12
     12     13
     13     14
     14     15
     15     16
     16     17
     17     18
        </DataArray>
        <DataArray type="Int32" Name="offsets" format="ascii">
      2
      4
      6
      8
     10
     12
     14
     16
     18
     20
     22
     24
     26
     28
     30
     32
     34
     36
        </DataArray>
      </Lines>
    </Piece>
  </PolyData>
</VTKFile>
