<?xml version="1.0"?>
<VTKFile type="PolyData" version="0.1" byte_order="LittleEndian">
  <PolyData>
    <Piece NumberOfPoints="    625" NumberOfVerts="  0" NumberOfLines="      0"
           NumberOfStrips="  0" NumberOfPolys="    600">
      <Points>
        <DataArray type="Float32" NumberOfComponents="3" format="ascii">
                      -4.95429                       0.82258                      88.77018
                      -4.95429                       0.82258                      88.77018
                      -4.95429                       0.82258                      88.77018
                      -4.95429                       0.82258                      88.77018
                      -4.95429                       0.82258                      88.77018
                      -4.95429                       0.82258                      88.77018
                      -4.95429                       0.82258                      88.77018
                      -4.95429                       0.82258                      88.77018
                      -4.95429                       0.82258                      88.77018
                      -4.95429                       0.82258                      88.77018
                      -4.95429                       0.82258                      88.77018
                      -4.95429                       0.82258                      88.77018
                      -4.95429                       0.82258                      88.77018
                      -4.95429                       0.82258                      88.77018
                      -4.95429                       0.82258                      88.77018
                      -4.95429                       0.82258                      88.77018
                      -4.95429                       0.82258                      88.77018
                      -4.95429                       0.82258                      88.77018
                      -4.95429                       0.82258                      88.77018
                      -4.95429                       0.82258                      88.77018
                      -4.95429                       0.82258                      88.77018
                      -4.95429                       0.82258                      88.77018
                      -4.95429                       0.82258                      88.77018
                      -4.95429                       0.82258                      88.77018
                      -4.95429                       0.82258                      88.77018
                      -4.34788                       0.75335                      88.81989
                      -4.35921                       0.87746                      88.90384
                      -4.40734                       0.99378                      88.98590
                      -4.48925                       1.09500                      89.06092
                      -4.59979                       1.17474                      89.12418
                      -4.73202                       1.22801                      89.17171
                      -4.87762                       1.25145                      89.20053
                      -5.02746                       1.24359                      89.20881
                      -5.17211                       1.20493                      89.19605
                      -5.30248                       1.13789                      89.16304
                      -5.41039                       1.04669                      89.11186
                      -5.48905                       0.93706                      89.04573
                      -5.53352                       0.81588                      88.96879
                      -5.54101                       0.69078                      88.88588
                      -5.51104                       0.56960                      88.80222
                      -5.44550                       0.45997                      88.72306
                      -5.34851                       0.36877                      88.65337
                      -5.22616                       0.30174                      88.59753
                      -5.08614                       0.26308                      88.55905
                      -4.93725                       0.25523                      88.54035
                      -4.78883                       0.27867                      88.54261
                      -4.65023                       0.33194                      88.56568
                      -4.53014                       0.41169                      88.60810
                      -4.43612                       0.51290                      88.66723
                      -4.37406                       0.62923                      88.73934
                      -4.10977                       0.68410                      88.90288
                      -4.12544                       0.85578                      89.01898
                      -4.19201                       1.01666                      89.13248
                      -4.30530                       1.15665                      89.23624
                      -4.45820                       1.26695                      89.32374
                      -4.64108                       1.34062                      89.38949
                      -4.84248                       1.37304                      89.42934
                      -5.04972                       1.36217                      89.44080
                      -5.24978                       1.30870                      89.42315
                      -5.43011                       1.21598                      89.37750
                      -5.57936                       1.08984                      89.30671
                      -5.68816                       0.93820                      89.21523
                      -5.74966                       0.77060                      89.10882
                      -5.76002                       0.59756                      88.99415
                      -5.71857                       0.42996                      88.87843
                      -5.62793                       0.27833                      88.76894
                      -5.49377                       0.15219                      88.67255
                      -5.32455                       0.05948                      88.59532
                      -5.13088                       0.00601                      88.54210
                      -4.92494                      -0.00485                      88.51624
                      -4.71967                       0.02757                      88.51936
                      -4.52796                       0.10125                      88.55126
                      -4.36186                       0.21155                      88.60994
                      -4.23181                       0.35154                      88.69172
                      -4.14598                       0.51243                      88.79146
                      -3.93806                       0.61486                      88.99186
                      -3.95681                       0.82028                      89.13079
                      -4.03647                       1.01280                      89.26660
                      -4.17204                       1.18030                      89.39076
                      -4.35499                       1.31228                      89.49546
                      -4.57383                       1.40044                      89.57413
                      -4.81481                       1.43923                      89.62182
                      -5.06279                       1.42623                      89.63553
                      -5.30219                       1.36224                      89.61441
                      -5.51797                       1.25129                      89.55978
                      -5.69656                       1.10036                      89.47508
                      -5.82674                       0.91891                      89.36562
                      -5.90034                       0.71836                      89.23828
                      -5.91273                       0.51131                      89.10107
                      -5.86314                       0.31076                      88.96261
                      -5.75467                       0.12932                      88.83159
                      -5.59415                      -0.02162                      88.71625
                      -5.39165                      -0.13256                      88.62384
                      -5.15991                      -0.19654                      88.56016
                      -4.91349                      -0.20954                      88.52921
                      -4.66786                      -0.17074                      88.53294
                      -4.43847                      -0.08257                      88.57112
                      -4.23972                       0.04941                      88.64134
                      -4.08410                       0.21692                      88.73919
                      -3.98140                       0.40944                      88.85853
                      -3.80333                       0.54562                      89.08418
                      -3.82446                       0.77710                      89.24074
                      -3.91423                       0.99404                      89.39378
                      -4.06699                       1.18280                      89.53369
                      -4.27315                       1.33152                      89.65168
                      -4.51976                       1.43086                      89.74032
                      -4.79132                       1.47458                      89.79406
                      -5.07076                       1.45993                      89.80952
                      -5.34053                       1.38782                      89.78572
                      -5.58368                       1.26280                      89.72416
                      -5.78493                       1.09271                      89.62871
                      -5.93163                       0.88824                      89.50536
                      -6.01457                       0.66225                      89.36187
                      -6.02853                       0.42893                      89.20725
                      -5.97265                       0.20293                      89.05122
                      -5.85042                      -0.00153                      88.90358
                      -5.66953                      -0.17161                      88.77360
                      -5.44134                      -0.29663                      88.66947
                      -5.18020                      -0.36873                      88.59771
                      -4.90251                      -0.38337                      88.56283
                      -4.62572                      -0.33965                      88.56704
                      -4.36723                      -0.24030                      88.61006
                      -4.14326                      -0.09157                      88.68919
                      -3.96790                       0.09719                      88.79946
                      -3.85217                       0.31413                      88.93394
                      -3.69406                       0.47638                      89.17880
                      -3.71709                       0.72863                      89.34941
                      -3.81491                       0.96503                      89.51618
                      -3.98138                       1.17073                      89.66864
                      -4.20604                       1.33280                      89.79722
                      -4.47477                       1.44105                      89.89382
                      -4.77069                       1.48869                      89.95238
                      -5.07521                       1.47272                      89.96922
                      -5.36919                       1.39415                      89.94329
                      -5.63415                       1.25790                      89.87620
                      -5.85346                       1.07255                      89.77218
                      -6.01332                       0.84974                      89.63777
                      -6.10370                       0.60347                      89.48140
                      -6.11892                       0.34921                      89.31291
                      -6.05802                       0.10294                      89.14288
                      -5.92482                      -0.11986                      88.98199
                      -5.72770                      -0.30521                      88.84036
                      -5.47904                      -0.44144                      88.72688
                      -5.19447                      -0.52001                      88.64868
                      -4.89186                      -0.53597                      88.61068
                      -4.59024                      -0.48832                      88.61526
                      -4.30855                      -0.38006                      88.66214
                      -4.06449                      -0.21799                      88.74837
                      -3.87340                      -0.01228                      88.86853
                      -3.74728                       0.22412                      89.01508
                      -3.60434                       0.40713                      89.27519
                      -3.62888                       0.67609                      89.45709
                      -3.73318                       0.92815                      89.63491
                      -3.91068                       1.14747                      89.79747
                      -4.15022                       1.32027                      89.93456
                      -4.43675                       1.43569                      90.03756
                      -4.75227                       1.48649                      90.10000
                      -5.07695                       1.46946                      90.11796
                      -5.39040                       1.38568                      90.09030
                      -5.67291                       1.24042                      90.01878
                      -5.90674                       1.04279                      89.90787
                      -6.07720                       0.80523                      89.76455
                      -6.17356                       0.54264                      89.59783
                      -6.18979                       0.27155                      89.41818
                      -6.12485                       0.00897                      89.23689
                      -5.98283                      -0.22860                      89.06535
                      -5.77266                      -0.42621                      88.91433
                      -5.50753                      -0.57147                      88.79333
                      -5.20411                      -0.65524                      88.70996
                      -4.88147                      -0.67226                      88.66944
                      -4.55987                      -0.62146                      88.67433
                      -4.25952                      -0.50602                      88.72431
                      -3.99930                      -0.33322                      88.81625
                      -3.79555                      -0.11389                      88.94437
                      -3.66108                       0.13817                      89.10062
                      -3.53068                       0.33789                      89.37302
                      -3.55645                       0.62021                      89.56397
                      -3.66593                       0.88480                      89.75063
                      -3.85225                       1.11502                      89.92126
                      -4.10369                       1.29640                      90.06516
                      -4.40446                       1.41756                      90.17328
                      -4.73566                       1.47088                      90.23882
                      -5.07648                       1.45301                      90.25767
                      -5.40550                       1.36507                      90.22865
                      -5.70205                       1.21258                      90.15356
                      -5.94750                       1.00514                      90.03715
                      -6.12642                       0.75576                      89.88671
                      -6.22758                       0.48013                      89.71170
                      -6.24461                       0.19557                      89.52313
                      -6.17644                      -0.08006                      89.33282
                      -6.02737                      -0.32943                      89.15276
                      -5.80675                      -0.53687                      88.99424
                      -5.52845                      -0.68934                      88.86723
                      -5.20996                      -0.77728                      88.77971
                      -4.87128                      -0.79514                      88.73718
                      -4.53370                      -0.74181                      88.74231
                      -4.21842                      -0.62064                      88.79477
                      -3.94527                      -0.43925                      88.89128
                      -3.73140                      -0.20902                      89.02577
                      -3.59025                       0.05556                      89.18979
                      -3.47090                       0.26864                      89.47212
                      -3.49763                       0.56145                      89.67015
                      -3.61117                       0.83586                      89.86374
                      -3.80441                       1.07462                      90.04071
                      -4.06518                       1.26274                      90.18995
                      -4.37712                       1.38840                      90.30208
                      -4.72061                       1.44370                      90.37006
                      -5.07408                       1.42516                      90.38961
                      -5.41532                       1.33396                      90.35950
                      -5.72288                       1.17581                      90.28163
                      -5.97744                       0.96066                      90.16090
                      -6.16301                       0.70203                      90.00487
                      -6.26792                       0.41617                      89.82337
                      -6.28558                       0.12104                      89.62779
                      -6.21489                      -0.16482                      89.43042
                      -6.06028                      -0.42345                      89.24367
                      -5.83147                      -0.63859                      89.07927
                      -5.54284                      -0.79672                      88.94754
                      -5.21252                      -0.88792                      88.85677
                      -4.86126                      -0.90645                      88.81266
                      -4.51115                      -0.85114                      88.81798
                      -4.18417                      -0.72547                      88.87240
                      -3.90088                      -0.53734                      88.97249
                      -3.67907                      -0.29857                      89.11197
                      -3.53267                      -0.02416                      89.28208
                      -3.42354                       0.19940                      89.57233
                      -3.45098                       0.50011                      89.77571
                      -3.56759                       0.78192                      89.97452
                      -3.76604                       1.02712                      90.15626
                      -4.03385                       1.22032                      90.30953
                      -4.35420                       1.34937                      90.42469
                      -4.70697                       1.40616                      90.49450
                      -5.06997                       1.38712                      90.51458
                      -5.42042                       1.29345                      90.48366
                      -5.73628                       1.13104                      90.40369
                      -5.99771                       0.91009                      90.27969
                      -6.18828                       0.64448                      90.11946
                      -6.29602                       0.35091                      89.93306
                      -6.31416                       0.04781                      89.73220
                      -6.24156                      -0.24576                      89.52951
                      -6.08278                      -0.51137                      89.33772
                      -5.84779                      -0.73231                      89.16888
                      -5.55137                      -0.89471                      89.03360
                      -5.21214                      -0.98837                      88.94038
                      -4.85141                      -1.00740                      88.89508
                      -4.49185                      -0.95060                      88.90055
                      -4.15605                      -0.82154                      88.95643
                      -3.86511                      -0.62833                      89.05922
                      -3.63732                      -0.38312                      89.20247
                      -3.48698                      -0.10131                      89.37716
                      -3.38763                       0.13016                      89.67358
                      -3.41558                       0.43638                      89.88069
                      -3.53433                       0.72336                      90.08314
                      -3.73642                       0.97307                      90.26823
                      -4.00914                       1.16981                      90.42431
                      -4.33537                       1.30123                      90.54158
                      -4.69461                       1.35906                      90.61267
                      -5.06428                       1.33967                      90.63311
                      -5.42115                       1.24429                      90.60163
                      -5.74281                       1.07889                      90.52019
                      -6.00903                       0.85389                      90.39392
                      -6.20310                       0.58341                      90.23075
                      -6.31282                       0.28444                      90.04093
                      -6.33129                      -0.02421                      89.83638
                      -6.25736                      -0.32317                      89.62997
                      -6.09567                      -0.59365                      89.43466
                      -5.85637                      -0.81865                      89.26273
                      -5.55451                      -0.98403                      89.12497
                      -5.20906                      -1.07941                      89.03004
                      -4.84171                      -1.09878                      88.98390
                      -4.47555                      -1.04094                      88.98947
                      -4.13359                      -0.90952                      89.04638
                      -3.83731                      -0.71277                      89.15106
                      -3.60533                      -0.46305                      89.29693
                      -3.45223                      -0.17607                      89.47483
                      -3.36257                       0.06091                      89.77581
                      -3.39081                       0.37040                      89.98512
                      -3.51083                       0.66044                      90.18974
                      -3.71507                       0.91281                      90.37679
                      -3.99071                       1.11165                      90.53454
                      -4.32041                       1.24446                      90.65306
                      -4.68348                       1.30291                      90.72490
                      -5.05709                       1.28332                      90.74557
                      -5.41776                       1.18692                      90.71375
                      -5.74285                       1.01976                      90.63144
                      -6.01191                       0.79236                      90.50383
                      -6.20805                       0.51899                      90.33891
                      -6.31893                       0.21684                      90.14707
                      -6.33760                      -0.09510                      89.94035
                      -6.26288                      -0.39725                      89.73174
                      -6.09947                      -0.67061                      89.53435
                      -5.85762                      -0.89801                      89.36058
                      -5.55254                      -1.06515                      89.22135
                      -5.20341                      -1.16154                      89.12541
                      -4.83214                      -1.18113                      89.07878
                      -4.46208                      -1.12267                      89.08440
                      -4.11648                      -0.98984                      89.14192
                      -3.81704                      -0.79100                      89.24772
                      -3.58259                      -0.53862                      89.39514
                      -3.42786                      -0.24858                      89.57494
                      -3.34801                      -0.00833                      89.87898
                      -3.37635                       0.30224                      90.08903
                      -3.49679                       0.59329                      90.29436
                      -3.70174                       0.84654                      90.48207
                      -3.97834                       1.04607                      90.64036
                      -4.30920                       1.17935                      90.75929
                      -4.67353                       1.23800                      90.83139
                      -5.04844                       1.21834                      90.85213
                      -5.41038                       1.12160                      90.82020
                      -5.73659                       0.95386                      90.73761
                      -6.00660                       0.72567                      90.60954
                      -6.20342                       0.45135                      90.44406
                      -6.31469                       0.14814                      90.25154
                      -6.33343                      -0.16489                      90.04410
                      -6.25845                      -0.46809                      89.83476
                      -6.09446                      -0.74241                      89.63668
                      -5.85177                      -0.97060                      89.46230
                      -5.54563                      -1.13833                      89.32259
                      -5.19527                      -1.23506                      89.22631
                      -4.82271                      -1.25471                      89.17953
                      -4.45136                      -1.19604                      89.18517
                      -4.10455                      -1.06275                      89.24288
                      -3.80407                      -0.86321                      89.34905
                      -3.56880                      -0.60996                      89.49699
                      -3.41353                      -0.31890                      89.67741
                      -3.34384                      -0.07758                      89.98310
                      -3.37209                       0.23191                      90.19241
                      -3.49210                       0.52195                      90.39703
                      -3.69634                       0.77432                      90.58409
                      -3.97198                       0.97316                      90.74183
                      -4.30169                       1.10597                      90.86035
                      -4.66475                       1.16442                      90.93220
                      -5.03836                       1.14483                      90.95286
                      -5.39904                       1.04843                      90.92104
                      -5.72412                       0.88127                      90.83873
                      -5.99318                       0.65387                      90.71112
                      -6.18932                       0.38050                      90.54621
                      -6.30021                       0.07835                      90.35436
                      -6.31888                      -0.23359                      90.14764
                      -6.24415                      -0.53574                      89.93903
                      -6.08074                      -0.80910                      89.74164
                      -5.83889                      -1.03650                      89.56787
                      -5.53382                      -1.20364                      89.42864
                      -5.18468                      -1.30003                      89.33270
                      -4.81341                      -1.31962                      89.28607
                      -4.44335                      -1.26116                      89.29170
                      -4.09775                      -1.12833                      89.34921
                      -3.79831                      -0.92948                      89.45501
                      -3.56386                      -0.67711                      89.60244
                      -3.40913                      -0.38707                      89.78223
                      -3.35017                      -0.14682                      90.08816
                      -3.37812                       0.15940                      90.29527
                      -3.49687                       0.44638                      90.49773
                      -3.69896                       0.69609                      90.68281
                      -3.97169                       0.89283                      90.83889
                      -4.29792                       1.02425                      90.95616
                      -4.65716                       1.08208                      91.02725
                      -5.02682                       1.06269                      91.04770
                      -5.38370                       0.96731                      91.01621
                      -5.70535                       0.80192                      90.93478
                      -5.97158                       0.57691                      90.80850
                      -6.16565                       0.30643                      90.64533
                      -6.27537                       0.00747                      90.45551
                      -6.29384                      -0.30119                      90.25097
                      -6.21991                      -0.60015                      90.04456
                      -6.05821                      -0.87063                      89.84925
                      -5.81892                      -1.09563                      89.67731
                      -5.51706                      -1.26101                      89.53955
                      -5.17160                      -1.35639                      89.44462
                      -4.80425                      -1.37576                      89.39849
                      -4.43809                      -1.31792                      89.40405
                      -4.09613                      -1.18650                      89.46096
                      -3.79986                      -0.98975                      89.56564
                      -3.56788                      -0.74003                      89.71151
                      -3.41478                      -0.45305                      89.88941
                      -3.36735                      -0.21607                      90.19421
                      -3.39480                       0.08464                      90.39758
                      -3.51141                       0.36645                      90.59639
                      -3.70986                       0.61166                      90.77814
                      -3.97767                       0.80485                      90.93141
                      -4.29802                       0.93390                      91.04656
                      -4.65078                       0.99069                      91.11637
                      -5.01379                       0.97165                      91.13645
                      -5.36423                       0.87799                      91.10553
                      -5.68009                       0.71558                      91.02556
                      -5.94152                       0.49462                      90.90157
                      -6.13209                       0.22902                      90.74134
                      -6.23984                      -0.06456                      90.55493
                      -6.25798                      -0.36766                      90.35408
                      -6.18537                      -0.66123                      90.15139
                      -6.02659                      -0.92683                      89.95960
                      -5.79161                      -1.14778                      89.79076
                      -5.49519                      -1.31018                      89.65548
                      -5.15596                      -1.40384                      89.56226
                      -4.79523                      -1.42286                      89.51696
                      -4.43567                      -1.36606                      89.52242
                      -4.09987                      -1.23701                      89.57831
                      -3.80893                      -1.04380                      89.68110
                      -3.58114                      -0.79859                      89.82434
                      -3.43079                      -0.51677                      89.99904
                      -3.39599                      -0.28531                      90.30128
                      -3.42272                       0.00749                      90.49932
                      -3.53626                       0.28190                      90.69291
                      -3.72950                       0.52067                      90.86988
                      -3.99027                       0.70879                      91.01912
                      -4.30221                       0.83444                      91.13125
                      -4.64570                       0.88974                      91.19923
                      -4.99917                       0.87121                      91.21878
                      -5.34041                       0.78000                      91.18867
                      -5.64797                       0.62185                      91.11080
                      -5.90253                       0.40671                      90.99006
                      -6.08810                       0.14808                      90.83404
                      -6.19301                      -0.13779                      90.65254
                      -6.21067                      -0.43292                      90.45696
                      -6.13998                      -0.71878                      90.25959
                      -5.98537                      -0.97741                      90.07284
                      -5.75656                      -1.19255                      89.90844
                      -5.46793                      -1.35068                      89.77671
                      -5.13761                      -1.44188                      89.68594
                      -4.78636                      -1.46040                      89.64183
                      -4.43624                      -1.40510                      89.64715
                      -4.10926                      -1.27943                      89.70157
                      -3.82597                      -1.09130                      89.80166
                      -3.60416                      -0.85253                      89.94114
                      -3.45776                      -0.57812                      90.11124
                      -3.43705                      -0.35456                      90.40949
                      -3.46281                      -0.07223                      90.60043
                      -3.57230                       0.19235                      90.78709
                      -3.75861                       0.42257                      90.95773
                      -4.01005                       0.60396                      91.10162
                      -4.31082                       0.72512                      91.20974
                      -4.64202                       0.77843                      91.27528
                      -4.98284                       0.76056                      91.29413
                      -5.31186                       0.67262                      91.26511
                      -5.60841                       0.52014                      91.19002
                      -5.85386                       0.31269                      91.07361
                      -6.03279                       0.06332                      90.92317
                      -6.13394                      -0.21231                      90.74816
                      -6.15097                      -0.49688                      90.55959
                      -6.08281                      -0.77251                      90.36928
                      -5.93373                      -1.02188                      90.18922
                      -5.71311                      -1.22931                      90.03070
                      -5.43481                      -1.38179                      89.90369
                      -5.11632                      -1.46972                      89.81617
                      -4.77764                      -1.48759                      89.77364
                      -4.44006                      -1.43426                      89.77877
                      -4.12479                      -1.31309                      89.83123
                      -3.85163                      -1.13169                      89.92774
                      -3.63776                      -0.90147                      90.06223
                      -3.49661                      -0.63688                      90.22625
                      -3.49197                      -0.42380                      90.51894
                      -3.51652                      -0.15484                      90.70085
                      -3.62082                       0.09722                      90.87867
                      -3.79832                       0.31654                      91.04123
                      -4.03785                       0.48934                      91.17831
                      -4.32439                       0.60476                      91.28131
                      -4.63991                       0.65555                      91.34375
                      -4.96459                       0.63853                      91.36171
                      -5.27804                       0.55475                      91.33406
                      -5.56055                       0.40948                      91.26253
                      -5.79438                       0.21186                      91.15162
                      -5.96483                      -0.02571                      91.00831
                      -6.06120                      -0.28829                      90.84158
                      -6.07742                      -0.55939                      90.66193
                      -6.01249                      -0.82197                      90.48064
                      -5.87047                      -1.05953                      90.30910
                      -5.66029                      -1.25715                      90.15808
                      -5.39517                      -1.40241                      90.03709
                      -5.09175                      -1.48618                      89.95371
                      -4.76910                      -1.50319                      89.91319
                      -4.44750                      -1.45239                      89.91808
                      -4.14715                      -1.33696                      89.96806
                      -3.88693                      -1.16415                      90.06000
                      -3.68318                      -0.94483                      90.18812
                      -3.54871                      -0.69276                      90.34438
                      -3.56297                      -0.49305                      90.62984
                      -3.58599                      -0.24080                      90.80045
                      -3.68381                      -0.00439                      90.96723
                      -3.85028                       0.20130                      91.11969
                      -4.07495                       0.36337                      91.24826
                      -4.34368                       0.47163                      91.34486
                      -4.63960                       0.51926                      91.40342
                      -4.94412                       0.50329                      91.42027
                      -5.23809                       0.42472                      91.39433
                      -5.50306                       0.28848                      91.32725
                      -5.72236                       0.10313                      91.22323
                      -5.88223                      -0.11968                      91.08882
                      -5.97261                      -0.36595                      90.93245
                      -5.98783                      -0.62021                      90.76396
                      -5.92692                      -0.86648                      90.59393
                      -5.79373                      -1.08929                      90.43304
                      -5.59661                      -1.27463                      90.29140
                      -5.34795                      -1.41087                      90.17792
                      -5.06338                      -1.48943                      90.09972
                      -4.76077                      -1.50539                      90.06172
                      -4.45915                      -1.45775                      90.06631
                      -4.17746                      -1.34948                      90.11318
                      -3.93340                      -1.18741                      90.19942
                      -3.74230                      -0.98171                      90.31958
                      -3.61619                      -0.74530                      90.46612
                      -3.65351                      -0.56229                      90.74252
                      -3.67464                      -0.33081                      90.89908
                      -3.76441                      -0.11387                      91.05212
                      -3.91717                       0.07489                      91.19203
                      -4.12334                       0.22361                      91.31001
                      -4.36994                       0.32295                      91.39866
                      -4.64150                       0.36667                      91.45240
                      -4.92094                       0.35201                      91.46786
                      -5.19071                       0.27991                      91.44406
                      -5.43386                       0.15488                      91.38250
                      -5.63511                      -0.01520                      91.28704
                      -5.78181                      -0.21967                      91.16370
                      -5.86475                      -0.44566                      91.02020
                      -5.87872                      -0.67899                      90.86559
                      -5.82283                      -0.90498                      90.70955
                      -5.70060                      -1.10944                      90.56191
                      -5.51971                      -1.27953                      90.43194
                      -5.29152                      -1.40454                      90.32780
                      -5.03038                      -1.47664                      90.25604
                      -4.75269                      -1.49129                      90.22117
                      -4.47590                      -1.44756                      90.22538
                      -4.21741                      -1.34821                      90.26840
                      -3.99344                      -1.19949                      90.34753
                      -3.81808                      -1.01072                      90.45780
                      -3.70235                      -0.79378                      90.59228
                      -3.76952                      -0.63154                      90.85749
                      -3.78827                      -0.42612                      90.99642
                      -3.86793                      -0.23361                      91.13223
                      -4.00349                      -0.06610                      91.25639
                      -4.18644                       0.06588                      91.36109
                      -4.40528                       0.15404                      91.43976
                      -4.64627                       0.19283                      91.48745
                      -4.89425                       0.17983                      91.50116
                      -5.13365                       0.11584                      91.48004
                      -5.34942                       0.00489                      91.42541
                      -5.52801                      -0.14605                      91.34071
                      -5.65819                      -0.32749                      91.23125
                      -5.73180                      -0.52804                      91.10391
                      -5.74419                      -0.73510                      90.96670
                      -5.69459                      -0.93565                      90.82824
                      -5.58612                      -1.11709                      90.69722
                      -5.42560                      -1.26802                      90.58188
                      -5.22311                      -1.37896                      90.48947
                      -4.99137                      -1.44294                      90.42579
                      -4.74494                      -1.45594                      90.39484
                      -4.49932                      -1.41714                      90.39857
                      -4.26992                      -1.32898                      90.43675
                      -4.07117                      -1.19699                      90.50697
                      -3.91556                      -1.02948                      90.60482
                      -3.81285                      -0.83696                      90.72416
                      -3.92249                      -0.70079                      90.97580
                      -3.93816                      -0.52912                      91.09191
                      -4.00473                      -0.36823                      91.20540
                      -4.11803                      -0.22824                      91.30916
                      -4.27092                      -0.11795                      91.39667
                      -4.45381                      -0.04427                      91.46241
                      -4.65520                      -0.01185                      91.50226
                      -4.86244                      -0.02272                      91.51372
                      -5.06251                      -0.07619                      91.49607
                      -5.24283                      -0.16891                      91.45042
                      -5.39208                      -0.29506                      91.37963
                      -5.50088                      -0.44669                      91.28815
                      -5.56239                      -0.61429                      91.18174
                      -5.57275                      -0.78733                      91.06707
                      -5.53130                      -0.95493                      90.95135
                      -5.44065                      -1.10656                      90.84186
                      -5.30650                      -1.23270                      90.74547
                      -5.13727                      -1.32542                      90.66824
                      -4.94361                      -1.37888                      90.61502
                      -4.73767                      -1.38975                      90.58916
                      -4.53239                      -1.35732                      90.59228
                      -4.34069                      -1.28364                      90.62418
                      -4.17459                      -1.17334                      90.68287
                      -4.04454                      -1.03335                      90.76464
                      -3.95871                      -0.87246                      90.86438
                      -4.14187                      -0.77004                      91.10011
                      -4.15320                      -0.64592                      91.18405
                      -4.20134                      -0.52960                      91.26611
                      -4.28325                      -0.42839                      91.34113
                      -4.39379                      -0.34864                      91.40439
                      -4.52602                      -0.29538                      91.45193
                      -4.67162                      -0.27194                      91.48074
                      -4.82146                      -0.27979                      91.48903
                      -4.96611                      -0.31846                      91.47627
                      -5.09648                      -0.38549                      91.44326
                      -5.20439                      -0.47669                      91.39208
                      -5.28305                      -0.58632                      91.32594
                      -5.32752                      -0.70750                      91.24900
                      -5.33501                      -0.83261                      91.16610
                      -5.30504                      -0.95378                      91.08243
                      -5.23950                      -1.06341                      91.00327
                      -5.14251                      -1.15461                      90.93358
                      -5.02016                      -1.22164                      90.87774
                      -4.88014                      -1.26030                      90.83926
                      -4.73124                      -1.26815                      90.82057
                      -4.58283                      -1.24471                      90.82282
                      -4.44423                      -1.19144                      90.84589
                      -4.32414                      -1.11169                      90.88832
                      -4.23012                      -1.01048                      90.94744
                      -4.16806                      -0.89416                      91.01955
                      -4.72956                      -0.83929                      91.25769
                      -4.72956                      -0.83929                      91.25769
                      -4.72956                      -0.83929                      91.25769
                      -4.72956                      -0.83929                      91.25769
                      -4.72956                      -0.83929                      91.25769
                      -4.72956                      -0.83929                      91.25769
                      -4.72956                      -0.83929                      91.25769
                      -4.72956                      -0.83929                      91.25769
                      -4.72956                      -0.83929                      91.25769
                      -4.72956                      -0.83929                      91.25769
                      -4.72956                      -0.83929                      91.25769
                      -4.72956                      -0.83929                      91.25769
                      -4.72956                      -0.83929                      91.25769
                      -4.72956                      -0.83929                      91.25769
                      -4.72956                      -0.83929                      91.25769
                      -4.72956                      -0.83929                      91.25769
                      -4.72956                      -0.83929                      91.25769
                      -4.72956                      -0.83929                      91.25769
                      -4.72956                      -0.83929                      91.25769
                      -4.72956                      -0.83929                      91.25769
                      -4.72956                      -0.83929                      91.25769
                      -4.72956                      -0.83929                      91.25769
                      -4.72956                      -0.83929                      91.25769
                      -4.72956                      -0.83929                      91.25769
                      -4.72956                      -0.83929                      91.25769
        </DataArray>
      </Points>
      <Polys>
        <DataArray type="Int32" Name="connectivity" format="ascii">
      0      1     26     25
      1      2     27     26
      2      3     28     27
      3      4     29     28
      4      5     30     29
      5      6     31     30
      6      7     32     31
      7      8     33     32
      8      9     34     33
      9     10     35     34
     10     11     36     35
     11     12     37     36
     12     13     38     37
     13     14     39     38
     14     15     40     39
     15     16     41     40
     16     17     42     41
     17     18     43     42
     18     19     44     43
     19     20     45     44
     20     21     46     45
     21     22     47     46
     22     23     48     47
     23     24     49     48
     24      0     25     49
     25     26     51     50
     26     27     52     51
     27     28     53     52
     28     29     54     53
     29     30     55     54
     30     31     56     55
     31     32     57     56
     32     33     58     57
     33     34     59     58
     34     35     60     59
     35     36     61     60
     36     37     62     61
     37     38     63     62
     38     39     64     63
     39     40     65     64
     40     41     66     65
     41     42     67     66
     42     43     68     67
     43     44     69     68
     44     45     70     69
     45     46     71     70
     46     47     72     71
     47     48     73     72
     48     49     74     73
     49     25     50     74
     50     51     76     75
     51     52     77     76
     52     53     78     77
     53     54     79     78
     54     55     80     79
     55     56     81     80
     56     57     82     81
     57     58     83     82
     58     59     84     83
     59     60     85     84
     60     61     86     85
     61     62     87     86
     62     63     88     87
     63     64     89     88
     64     65     90     89
     65     66     91     90
     66     67     92     91
     67     68     93     92
     68     69     94     93
     69     70     95     94
     70     71     96     95
     71     72     97     96
     72     73     98     97
     73     74     99     98
     74     50     75     99
     75     76    101    100
     76     77    102    101
     77     78    103    102
     78     79    104    103
     79     80    105    104
     80     81    106    105
     81     82    107    106
     82     83    108    107
     83     84    109    108
     84     85    110    109
     85     86    111    110
     86     87    112    111
     87     88    113    112
     88     89    114    113
     89     90    115    114
     90     91    116    115
     91     92    117    116
     92     93    118    117
     93     94    119    118
     94     95    120    119
     95     96    121    120
     96     97    122    121
     97     98    123    122
     98     99    124    123
     99     75    100    124
    100    101    126    125
    101    102    127    126
    102    103    128    127
    103    104    129    128
    104    105    130    129
    105    106    131    130
    106    107    132    131
    107    108    133    132
    108    109    134    133
    109    110    135    134
    110    111    136    135
    111    112    137    136
    112    113    138    137
    113    114    139    138
    114    115    140    139
    115    116    141    140
    116    117    142    141
    117    118    143    142
    118    119    144    143
    119    120    145    144
    120    121    146    145
    121    122    147    146
    122    123    148    147
    123    124    149    148
    124    100    125    149
    125    126    151    150
    126    127    152    151
    127    128    153    152
    128    129    154    153
    129    130    155    154
    130    131    156    155
    131    132    157    156
    132    133    158    157
    133    134    159    158
    134    135    160    159
    135    136    161    160
    136    137    162    161
    137    138    163    162
    138    139    164    163
    139    140    165    164
    140    141    166    165
    141    142    167    166
    142    143    168    167
    143    144    169    168
    144    145    170    169
    145    146    171    170
    146    147    172    171
    147    148    173    172
    148    149    174    173
    149    125    150    174
    150    151    176    175
    151    152    177    176
    152    153    178    177
    153    154    179    178
    154    155    180    179
    155    156    181    180
    156    157    182    181
    157    158    183    182
    158    159    184    183
    159    160    185    184
    160    161    186    185
    161    162    187    186
    162    163    188    187
    163    164    189    188
    164    165    190    189
    165    166    191    190
    166    167    192    191
    167    168    193    192
    168    169    194    193
    169    170    195    194
    170    171    196    195
    171    172    197    196
    172    173    198    197
    173    174    199    198
    174    150    175    199
    175    176    201    200
    176    177    202    201
    177    178    203    202
    178    179    204    203
    179    180    205    204
    180    181    206    205
    181    182    207    206
    182    183    208    207
    183    184    209    208
    184    185    210    209
    185    186    211    210
    186    187    212    211
    187    188    213    212
    188    189    214    213
    189    190    215    214
    190    191    216    215
    191    192    217    216
    192    193    218    217
    193    194    219    218
    194    195    220    219
    195    196    221    220
    196    197    222    221
    197    198    223    222
    198    199    224    223
    199    175    200    224
    200    201    226    225
    201    202    227    226
    202    203    228    227
    203    204    229    228
    204    205    230    229
    205    206    231    230
    206    207    232    231
    207    208    233    232
    208    209    234    233
    209    210    235    234
    210    211    236    235
    211    212    237    236
    212    213    238    237
    213    214    239    238
    214    215    240    239
    215    216    241    240
    216    217    242    241
    217    218    243    242
    218    219    244    243
    219    220    245    244
    220    221    246    245
    221    222    247    246
    222    223    248    247
    223    224    249    248
    224    200    225    249
    225    226    251    250
    226    227    252    251
    227    228    253    252
    228    229    254    253
    229    230    255    254
    230    231    256    255
    231    232    257    256
    232    233    258    257
    233    234    259    258
    234    235    260    259
    235    236    261    260
    236    237    262    261
    237    238    263    262
    238    239    264    263
    239    240    265    264
    240    241    266    265
    241    242    267    266
    242    243    268    267
    243    244    269    268
    244    245    270    269
    245    246    271    270
    246    247    272    271
    247    248    273    272
    248    249    274    273
    249    225    250    274
    250    251    276    275
    251    252    277    276
    252    253    278    277
    253    254    279    278
    254    255    280    279
    255    256    281    280
    256    257    282    281
    257    258    283    282
    258    259    284    283
    259    260    285    284
    260    261    286    285
    261    262    287    286
    262    263    288    287
    263    264    289    288
    264    265    290    289
    265    266    291    290
    266    267    292    291
    267    268    293    292
    268    269    294    293
    269    270    295    294
    270    271    296    295
    271    272    297    296
    272    273    298    297
    273    274    299    298
    274    250    275    299
    275    276    301    300
    276    277    302    301
    277    278    303    302
    278    279    304    303
    279    280    305    304
    280    281    306    305
    281    282    307    306
    282    283    308    307
    283    284    309    308
    284    285    310    309
    285    286    311    310
    286    287    312    311
    287    288    313    312
    288    289    314    313
    289    290    315    314
    290    291    316    315
    291    292    317    316
    292    293    318    317
    293    294    319    318
    294    295    320    319
    295    296    321    320
    296    297    322    321
    297    298    323    322
    298    299    324    323
    299    275    300    324
    300    301    326    325
    301    302    327    326
    302    303    328    327
    303    304    329    328
    304    305    330    329
    305    306    331    330
    306    307    332    331
    307    308    333    332
    308    309    334    333
    309    310    335    334
    310    311    336    335
    311    312    337    336
    312    313    338    337
    313    314    339    338
    314    315    340    339
    315    316    341    340
    316    317    342    341
    317    318    343    342
    318    319    344    343
    319    320    345    344
    320    321    346    345
    321    322    347    346
    322    323    348    347
    323    324    349    348
    324    300    325    349
    325    326    351    350
    326    327    352    351
    327    328    353    352
    328    329    354    353
    329    330    355    354
    330    331    356    355
    331    332    357    356
    332    333    358    357
    333    334    359    358
    334    335    360    359
    335    336    361    360
    336    337    362    361
    337    338    363    362
    338    339    364    363
    339    340    365    364
    340    341    366    365
    341    342    367    366
    342    343    368    367
    343    344    369    368
    344    345    370    369
    345    346    371    370
    346    347    372    371
    347    348    373    372
    348    349    374    373
    349    325    350    374
    350    351    376    375
    351    352    377    376
    352    353    378    377
    353    354    379    378
    354    355    380    379
    355    356    381    380
    356    357    382    381
    357    358    383    382
    358    359    384    383
    359    360    385    384
    360    361    386    385
    361    362    387    386
    362    363    388    387
    363    364    389    388
    364    365    390    389
    365    366    391    390
    366    367    392    391
    367    368    393    392
    368    369    394    393
    369    370    395    394
    370    371    396    395
    371    372    397    396
    372    373    398    397
    373    374    399    398
    374    350    375    399
    375    376    401    400
    376    377    402    401
    377    378    403    402
    378    379    404    403
    379    380    405    404
    380    381    406    405
    381    382    407    406
    382    383    408    407
    383    384    409    408
    384    385    410    409
    385    386    411    410
    386    387    412    411
    387    388    413    412
    388    389    414    413
    389    390    415    414
    390    391    416    415
    391    392    417    416
    392    393    418    417
    393    394    419    418
    394    395    420    419
    395    396    421    420
    396    397    422    421
    397    398    423    422
    398    399    424    423
    399    375    400    424
    400    401    426    425
    401    402    427    426
    402    403    428    427
    403    404    429    428
    404    405    430    429
    405    406    431    430
    406    407    432    431
    407    408    433    432
    408    409    434    433
    409    410    435    434
    410    411    436    435
    411    412    437    436
    412    413    438    437
    413    414    439    438
    414    415    440    439
    415    416    441    440
    416    417    442    441
    417    418    443    442
    418    419    444    443
    419    420    445    444
    420    421    446    445
    421    422    447    446
    422    423    448    447
    423    424    449    448
    424    400    425    449
    425    426    451    450
    426    427    452    451
    427    428    453    452
    428    429    454    453
    429    430    455    454
    430    431    456    455
    431    432    457    456
    432    433    458    457
    433    434    459    458
    434    435    460    459
    435    436    461    460
    436    437    462    461
    437    438    463    462
    438    439    464    463
    439    440    465    464
    440    441    466    465
    441    442    467    466
    442    443    468    467
    443    444    469    468
    444    445    470    469
    445    446    471    470
    446    447    472    471
    447    448    473    472
    448    449    474    473
    449    425    450    474
    450    451    476    475
    451    452    477    476
    452    453    478    477
    453    454    479    478
    454    455    480    479
    455    456    481    480
    456    457    482    481
    457    458    483    482
    458    459    484    483
    459    460    485    484
    460    461    486    485
    461    462    487    486
    462    463    488    487
    463    464    489    488
    464    465    490    489
    465    466    491    490
    466    467    492    491
    467    468    493    492
    468    469    494    493
    469    470    495    494
    470    471    496    495
    471    472    497    496
    472    473    498    497
    473    474    499    498
    474    450    475    499
    475    476    501    500
    476    477    502    501
    477    478    503    502
    478    479    504    503
    479    480    505    504
    480    481    506    505
    481    482    507    506
    482    483    508    507
    483    484    509    508
    484    485    510    509
    485    486    511    510
    486    487    512    511
    487    488    513    512
    488    489    514    513
    489    490    515    514
    490    491    516    515
    491    492    517    516
    492    493    518    517
    493    494    519    518
    494    495    520    519
    495    496    521    520
    496    497    522    521
    497    498    523    522
    498    499    524    523
    499    475    500    524
    500    501    526    525
    501    502    527    526
    502    503    528    527
    503    504    529    528
    504    505    530    529
    505    506    531    530
    506    507    532    531
    507    508    533    532
    508    509    534    533
    509    510    535    534
    510    511    536    535
    511    512    537    536
    512    513    538    537
    513    514    539    538
    514    515    540    539
    515    516    541    540
    516    517    542    541
    517    518    543    542
    518    519    544    543
    519    520    545    544
    520    521    546    545
    521    522    547    546
    522    523    548    547
    523    524    549    548
    524    500    525    549
    525    526    551    550
    526    527    552    551
    527    528    553    552
    528    529    554    553
    529    530    555    554
    530    531    556    555
    531    532    557    556
    532    533    558    557
    533    534    559    558
    534    535    560    559
    535    536    561    560
    536    537    562    561
    537    538    563    562
    538    539    564    563
    539    540    565    564
    540    541    566    565
    541    542    567    566
    542    543    568    567
    543    544    569    568
    544    545    570    569
    545    546    571    570
    546    547    572    571
    547    548    573    572
    548    549    574    573
    549    525    550    574
    550    551    576    575
    551    552    577    576
    552    553    578    577
    553    554    579    578
    554    555    580    579
    555    556    581    580
    556    557    582    581
    557    558    583    582
    558    559    584    583
    559    560    585    584
    560    561    586    585
    561    562    587    586
    562    563    588    587
    563    564    589    588
    564    565    590    589
    565    566    591    590
    566    567    592    591
    567    568    593    592
    568    569    594    593
    569    570    595    594
    570    571    596    595
    571    572    597    596
    572    573    598    597
    573    574    599    598
    574    550    575    599
    575    576    601    600
    576    577    602    601
    577    578    603    602
    578    579    604    603
    579    580    605    604
    580    581    606    605
    581    582    607    606
    582    583    608    607
    583    584    609    608
    584    585    610    609
    585    586    611    610
    586    587    612    611
    587    588    613    612
    588    589    614    613
    589    590    615    614
    590    591    616    615
    591    592    617    616
    592    593    618    617
    593    594    619    618
    594    595    620    619
    595    596    621    620
    596    597    622    621
    597    598    623    622
    598    599    624    623
    599    575    600    624
        </DataArray>
        <DataArray type="Int32" Name="offsets" format="ascii">
      4
      8
     12
     16
     20
     24
     28
     32
     36
     40
     44
     48
     52
     56
     60
     64
     68
     72
     76
     80
     84
     88
     92
     96
    100
    104
    108
    112
    116
    120
    124
    128
    132
    136
    140
    144
    148
    152
    156
    160
    164
    168
    172
    176
    180
    184
    188
    192
    196
    200
    204
    208
    212
    216
    220
    224
    228
    232
    236
    240
    244
    248
    252
    256
    260
    264
    268
    272
    276
    280
    284
    288
    292
    296
    300
    304
    308
    312
    316
    320
    324
    328
    332
    336
    340
    344
    348
    352
    356
    360
    364
    368
    372
    376
    380
    384
    388
    392
    396
    400
    404
    408
    412
    416
    420
    424
    428
    432
    436
    440
    444
    448
    452
    456
    460
    464
    468
    472
    476
    480
    484
    488
    492
    496
    500
    504
    508
    512
    516
    520
    524
    528
    532
    536
    540
    544
    548
    552
    556
    560
    564
    568
    572
    576
    580
    584
    588
    592
    596
    600
    604
    608
    612
    616
    620
    624
    628
    632
    636
    640
    644
    648
    652
    656
    660
    664
    668
    672
    676
    680
    684
    688
    692
    696
    700
    704
    708
    712
    716
    720
    724
    728
    732
    736
    740
    744
    748
    752
    756
    760
    764
    768
    772
    776
    780
    784
    788
    792
    796
    800
    804
    808
    812
    816
    820
    824
    828
    832
    836
    840
    844
    848
    852
    856
    860
    864
    868
    872
    876
    880
    884
    888
    892
    896
    900
    904
    908
    912
    916
    920
    924
    928
    932
    936
    940
    944
    948
    952
    956
    960
    964
    968
    972
    976
    980
    984
    988
    992
    996
   1000
   1004
   1008
   1012
   1016
   1020
   1024
   1028
   1032
   1036
   1040
   1044
   1048
   1052
   1056
   1060
   1064
   1068
   1072
   1076
   1080
   1084
   1088
   1092
   1096
   1100
   1104
   1108
   1112
   1116
   1120
   1124
   1128
   1132
   1136
   1140
   1144
   1148
   1152
   1156
   1160
   1164
   1168
   1172
   1176
   1180
   1184
   1188
   1192
   1196
   1200
   1204
   1208
   1212
   1216
   1220
   1224
   1228
   1232
   1236
   1240
   1244
   1248
   1252
   1256
   1260
   1264
   1268
   1272
   1276
   1280
   1284
   1288
   1292
   1296
   1300
   1304
   1308
   1312
   1316
   1320
   1324
   1328
   1332
   1336
   1340
   1344
   1348
   1352
   1356
   1360
   1364
   1368
   1372
   1376
   1380
   1384
   1388
   1392
   1396
   1400
   1404
   1408
   1412
   1416
   1420
   1424
   1428
   1432
   1436
   1440
   1444
   1448
   1452
   1456
   1460
   1464
   1468
   1472
   1476
   1480
   1484
   1488
   1492
   1496
   1500
   1504
   1508
   1512
   1516
   1520
   1524
   1528
   1532
   1536
   1540
   1544
   1548
   1552
   1556
   1560
   1564
   1568
   1572
   1576
   1580
   1584
   1588
   1592
   1596
   1600
   1604
   1608
   1612
   1616
   1620
   1624
   1628
   1632
   1636
   1640
   1644
   1648
   1652
   1656
   1660
   1664
   1668
   1672
   1676
   1680
   1684
   1688
   1692
   1696
   1700
   1704
   1708
   1712
   1716
   1720
   1724
   1728
   1732
   1736
   1740
   1744
   1748
   1752
   1756
   1760
   1764
   1768
   1772
   1776
   1780
   1784
   1788
   1792
   1796
   1800
   1804
   1808
   1812
   1816
   1820
   1824
   1828
   1832
   1836
   1840
   1844
   1848
   1852
   1856
   1860
   1864
   1868
   1872
   1876
   1880
   1884
   1888
   1892
   1896
   1900
   1904
   1908
   1912
   1916
   1920
   1924
   1928
   1932
   1936
   1940
   1944
   1948
   1952
   1956
   1960
   1964
   1968
   1972
   1976
   1980
   1984
   1988
   1992
   1996
   2000
   2004
   2008
   2012
   2016
   2020
   2024
   2028
   2032
   2036
   2040
   2044
   2048
   2052
   2056
   2060
   2064
   2068
   2072
   2076
   2080
   2084
   2088
   2092
   2096
   2100
   2104
   2108
   2112
   2116
   2120
   2124
   2128
   2132
   2136
   2140
   2144
   2148
   2152
   2156
   2160
   2164
   2168
   2172
   2176
   2180
   2184
   2188
   2192
   2196
   2200
   2204
   2208
   2212
   2216
   2220
   2224
   2228
   2232
   2236
   2240
   2244
   2248
   2252
   2256
   2260
   2264
   2268
   2272
   2276
   2280
   2284
   2288
   2292
   2296
   2300
   2304
   2308
   2312
   2316
   2320
   2324
   2328
   2332
   2336
   2340
   2344
   2348
   2352
   2356
   2360
   2364
   2368
   2372
   2376
   2380
   2384
   2388
   2392
   2396
   2400
        </DataArray>
      </Polys>
    </Piece>
  </PolyData>
</VTKFile>
